<?xml version='1.0' encoding='UTF-8'?>
<!-- This file was generated by dvisvgm 3.2 -->
<svg version='1.1' xmlns='http://www.w3.org/2000/svg' xmlns:xlink='http://www.w3.org/1999/xlink' width='22.122009pt' height='10.864259pt' viewBox='-21.027173 15.480922 22.122009 10.864259'>
<defs>
<path id='g1-26' d='M.376588 1.12279C.348692 1.227397 .348692 1.262267 .348692 1.26924C.348692 1.422665 .474222 1.492403 .585803 1.492403C.836862 1.492403 .892653 1.283188 .941469 1.060025C1.039103 .697385 1.234371-.097634 1.30411-.36264C1.366874-.258032 1.590037 .069738 2.071233 .069738C2.963885 .069738 3.912329-.878705 3.912329-1.896887C3.912329-2.636115 3.417186-3.075467 2.803487-3.075467C2.12005-3.075467 1.276214-2.475716 1.03213-1.492403L.376588 1.12279ZM2.064259-.125529C1.548194-.125529 1.39477-.641594 1.39477-.732254C1.39477-.746202 1.436613-.899626 1.457534-.983313C1.66675-1.841096 1.708593-2.001494 1.910834-2.308344C2.161893-2.677958 2.510585-2.880199 2.789539-2.880199C3.075467-2.880199 3.347447-2.677958 3.347447-2.175841C3.347447-1.855044 3.166127-1.080946 2.949938-.732254C2.629141-.237111 2.280448-.125529 2.064259-.125529Z'/>
<path id='g1-27' d='M4.079701-2.531507C4.198257-2.531507 4.261021-2.531507 4.337733-2.587298C4.428394-2.66401 4.449315-2.761644 4.449315-2.810461C4.449315-3.005729 4.267995-3.005729 4.14944-3.005729H2.364134C1.248319-3.005729 .411457-1.903861 .411457-1.066999C.411457-.418431 .892653 .069738 1.603985 .069738C2.48269 .069738 3.486924-.72528 3.486924-1.792279C3.486924-1.903861 3.486924-2.217684 3.277709-2.531507H4.079701ZM1.610959-.125529C1.234371-.125529 .920548-.376588 .920548-.871731C.920548-1.080946 1.046077-2.531507 2.245579-2.531507C2.601245-2.531507 2.963885-2.399004 2.963885-1.868991C2.963885-1.743462 2.901121-1.115816 2.559402-.648568C2.266501-.265006 1.875965-.125529 1.610959-.125529Z'/>
<path id='g0-83' d='M6.425903-6.924035C6.425903-6.953923 6.405978-7.023661 6.316314-7.023661C6.266501-7.023661 6.256538-7.013699 6.136986-6.874222L5.65878-6.306351C5.399751-6.774595 4.881694-7.023661 4.234122-7.023661C2.968867-7.023661 1.77335-5.877958 1.77335-4.672478C1.77335-3.865504 2.30137-3.407223 2.809465-3.257783L3.875467-2.978829C4.244085-2.889166 4.79203-2.739726 4.79203-1.92279C4.79203-1.026152 3.975093-.089664 2.998755-.089664C2.361146-.089664 1.255293-.308842 1.255293-1.544209C1.255293-1.783313 1.305106-2.022416 1.315068-2.082192C1.325031-2.122042 1.334994-2.132005 1.334994-2.15193C1.334994-2.251557 1.265255-2.261519 1.215442-2.261519S1.145704-2.251557 1.115816-2.221669C1.075965-2.181818 .518057 .089664 .518057 .119552C.518057 .179328 .56787 .219178 .627646 .219178C.67746 .219178 .687422 .209215 .806974 .069738L1.295143-.498132C1.723537 .079701 2.400996 .219178 2.978829 .219178C4.333748 .219178 5.50934-1.105853 5.50934-2.34122C5.50934-3.028643 5.17061-3.367372 5.021171-3.506849C4.79203-3.73599 4.64259-3.775841 3.755915-4.004981C3.536737-4.064757 3.178082-4.164384 3.088418-4.184309C2.819427-4.273973 2.480697-4.562889 2.480697-5.090909C2.480697-5.897883 3.277709-6.744707 4.224159-6.744707C5.051059-6.744707 5.65878-6.316314 5.65878-5.200498C5.65878-4.881694 5.618929-4.702366 5.618929-4.64259C5.618929-4.632628 5.618929-4.542964 5.738481-4.542964C5.838107-4.542964 5.84807-4.572852 5.88792-4.742217L6.425903-6.924035Z'/>
</defs>
<g id='page1' transform='matrix(1.5 0 0 1.5 0 0)'>
<use x='-14.536172' y='17.344276' xlink:href='#g0-83'/>
<use x='-7.85291' y='13.728912' xlink:href='#g1-26'/>
<use x='-3.719424' y='13.728912' xlink:href='#g1-27'/>
</g>
</svg>