<?xml version='1.0' encoding='UTF-8'?>
<!-- This file was generated by dvisvgm 3.2 -->
<svg version='1.1' xmlns='http://www.w3.org/2000/svg' xmlns:xlink='http://www.w3.org/1999/xlink' width='149.636218pt' height='14.94396pt' viewBox='276.175576 32.741196 149.636218 14.94396'>
<defs>
<path id='g0-3' d='M2.252553-1.736488C2.824408-1.987547 3.082441-2.085181 3.256787-2.168867C3.38929-2.224658 3.452055-2.252553 3.452055-2.385056C3.452055-2.503611 3.361395-2.608219 3.235866-2.608219C3.187049-2.608219 3.173101-2.608219 3.089415-2.545455L2.140971-1.910834L2.245579-2.942964C2.259527-3.068493 2.245579-3.242839 2.036364-3.242839C1.952677-3.242839 1.820174-3.187049 1.820174-3.033624C1.820174-2.970859 1.84807-2.761644 1.855044-2.691905C1.868991-2.57335 1.917808-2.071233 1.931756-1.910834L.990286-2.545455C.920548-2.587298 .899626-2.608219 .836862-2.608219C.711333-2.608219 .620672-2.503611 .620672-2.385056C.620672-2.245579 .704359-2.21071 .767123-2.182814L1.820174-1.743462C1.248319-1.492403 .990286-1.39477 .81594-1.311083C.683437-1.255293 .620672-1.227397 .620672-1.094894C.620672-.976339 .711333-.871731 .836862-.871731C.885679-.871731 .899626-.871731 .983313-.934496L1.931756-1.569116L1.820174-.446326C1.820174-.292902 1.952677-.237111 2.036364-.237111S2.252553-.292902 2.252553-.446326C2.252553-.509091 2.224658-.718306 2.217684-.788045C2.203736-.9066 2.154919-1.408717 2.140971-1.569116L2.977833-1.011208C3.159153-.871731 3.173101-.871731 3.235866-.871731C3.361395-.871731 3.452055-.976339 3.452055-1.094894C3.452055-1.234371 3.368369-1.26924 3.305604-1.297136L2.252553-1.736488Z'/>
<path id='g1-17' d='M4.861768-2.759651C4.911582-2.938979 4.941469-3.068493 4.941469-3.337484C4.941469-3.985056 4.542964-4.403487 3.795766-4.403487C3.008717-4.403487 2.49066-3.88543 2.251557-3.536737C2.201743-4.104608 1.783313-4.403487 1.334994-4.403487C.876712-4.403487 .687422-4.014944 .597758-3.835616C.418431-3.496887 .288917-2.899128 .288917-2.86924C.288917-2.769614 .388543-2.769614 .408468-2.769614C.508095-2.769614 .518057-2.779577 .577833-2.998755C.747198-3.706102 .946451-4.184309 1.305106-4.184309C1.474471-4.184309 1.613948-4.104608 1.613948-3.726027C1.613948-3.516812 1.58406-3.407223 1.454545-2.889166L.876712-.587796C.846824-.438356 .787049-.209215 .787049-.159402C.787049 .019925 .926526 .109589 1.075965 .109589C1.195517 .109589 1.374844 .029888 1.444583-.169365C1.454545-.18929 1.574097-.657534 1.633873-.9066L1.853051-1.803238C1.912827-2.022416 1.972603-2.241594 2.022416-2.470735C2.042341-2.530511 2.122042-2.859278 2.132005-2.919054C2.161893-3.008717 2.470735-3.566625 2.809465-3.835616C3.028643-3.995019 3.337484-4.184309 3.765878-4.184309S4.303861-3.845579 4.303861-3.486924C4.303861-3.437111 4.303861-3.257783 4.204234-2.859278L3.068493 1.723537C3.038605 1.843088 3.038605 1.863014 3.038605 1.882939C3.038605 2.032379 3.148194 2.15193 3.317559 2.15193C3.626401 2.15193 3.696139 1.863014 3.726027 1.753425L4.861768-2.759651Z'/>
<path id='g1-30' d='M4.353674-6.674969C4.353674-6.694894 4.383562-6.804483 4.383562-6.814446S4.383562-6.914072 4.26401-6.914072C4.164384-6.914072 4.154421-6.884184 4.11457-6.714819L3.536737-4.41345C1.952677-4.363636 .488169-3.038605 .488169-1.683686C.488169-.737235 1.185554 .049813 2.400996 .119552C2.321295 .428394 2.251557 .747198 2.171856 1.05604C2.052304 1.524284 1.952677 1.902864 1.952677 1.932752C1.952677 2.032379 2.022416 2.042341 2.072229 2.042341S2.141968 2.032379 2.171856 2.002491C2.191781 1.982565 2.251557 1.743462 2.281445 1.603985L2.660025 .119552C4.26401 .069738 5.708593-1.275218 5.708593-2.610212C5.708593-3.39726 5.180573-4.313823 3.795766-4.41345L4.353674-6.674969ZM2.450809-.099626C1.853051-.129514 1.135741-.478207 1.135741-1.474471C1.135741-2.669988 1.992528-4.064757 3.476961-4.194271L2.450809-.099626ZM3.73599-4.194271C4.493151-4.154421 5.061021-3.696139 5.061021-2.819427C5.061021-1.643836 4.204234-.219178 2.709838-.099626L3.73599-4.194271Z'/>
<path id='g1-88' d='M4.83188-4.094645L3.995019-6.07721C3.965131-6.156912 3.945205-6.196762 3.945205-6.206725C3.945205-6.266501 4.11457-6.455791 4.533001-6.495641C4.632628-6.505604 4.732254-6.515567 4.732254-6.684932C4.732254-6.804483 4.612702-6.804483 4.582814-6.804483C4.174346-6.804483 3.745953-6.774595 3.327522-6.774595C3.078456-6.774595 2.460772-6.804483 2.211706-6.804483C2.15193-6.804483 2.032379-6.804483 2.032379-6.60523C2.032379-6.495641 2.132005-6.495641 2.261519-6.495641C2.859278-6.495641 2.919054-6.396015 3.008717-6.176837L4.184309-3.39726L2.082192-1.135741L1.952677-1.026152C1.464508-.498132 .996264-.33873 .488169-.308842C.358655-.298879 .268991-.298879 .268991-.109589C.268991-.099626 .268991 0 .398506 0C.697385 0 1.026152-.029888 1.334994-.029888C1.703611-.029888 2.092154 0 2.450809 0C2.510585 0 2.630137 0 2.630137-.199253C2.630137-.298879 2.530511-.308842 2.510585-.308842C2.420922-.318804 2.11208-.33873 2.11208-.617684C2.11208-.777086 2.261519-.936488 2.381071-1.066002L3.39726-2.141968L4.293898-3.118306L5.300125-.737235C5.339975-.627646 5.349938-.617684 5.349938-.597758C5.349938-.518057 5.160648-.348692 4.772105-.308842C4.662516-.298879 4.572852-.288917 4.572852-.119552C4.572852 0 4.682441 0 4.722291 0C5.001245 0 5.69863-.029888 5.977584-.029888C6.22665-.029888 6.834371 0 7.083437 0C7.153176 0 7.272727 0 7.272727-.18929C7.272727-.308842 7.173101-.308842 7.0934-.308842C6.425903-.318804 6.405978-.348692 6.236613-.747198C5.84807-1.673724 5.180573-3.227895 4.951432-3.825654C5.628892-4.523039 6.674969-5.708593 6.993773-5.987547C7.28269-6.22665 7.66127-6.465753 8.259029-6.495641C8.388543-6.505604 8.478207-6.505604 8.478207-6.694894C8.478207-6.704857 8.478207-6.804483 8.348692-6.804483C8.049813-6.804483 7.721046-6.774595 7.412204-6.774595C7.043587-6.774595 6.665006-6.804483 6.306351-6.804483C6.246575-6.804483 6.117061-6.804483 6.117061-6.60523C6.117061-6.535492 6.166874-6.505604 6.236613-6.495641C6.326276-6.485679 6.635118-6.465753 6.635118-6.1868C6.635118-6.047323 6.525529-5.917808 6.445828-5.828144L4.83188-4.094645Z'/>
<path id='g2-40' d='M3.297634 2.391034C3.297634 2.361146 3.297634 2.34122 3.128269 2.171856C1.882939 .916563 1.564134-.966376 1.564134-2.49066C1.564134-4.224159 1.942715-5.957659 3.16812-7.202989C3.297634-7.32254 3.297634-7.342466 3.297634-7.372354C3.297634-7.442092 3.257783-7.47198 3.198007-7.47198C3.098381-7.47198 2.201743-6.794521 1.613948-5.529265C1.105853-4.433375 .986301-3.327522 .986301-2.49066C.986301-1.713574 1.09589-.508095 1.643836 .617684C2.241594 1.843088 3.098381 2.49066 3.198007 2.49066C3.257783 2.49066 3.297634 2.460772 3.297634 2.391034Z'/>
<path id='g2-41' d='M2.879203-2.49066C2.879203-3.267746 2.769614-4.473225 2.221669-5.599004C1.62391-6.824408 .767123-7.47198 .667497-7.47198C.607721-7.47198 .56787-7.43213 .56787-7.372354C.56787-7.342466 .56787-7.32254 .757161-7.143213C1.733499-6.156912 2.30137-4.572852 2.30137-2.49066C2.30137-.787049 1.932752 .966376 .697385 2.221669C.56787 2.34122 .56787 2.361146 .56787 2.391034C.56787 2.450809 .607721 2.49066 .667497 2.49066C.767123 2.49066 1.663761 1.8132 2.251557 .547945C2.759651-.547945 2.879203-1.653798 2.879203-2.49066Z'/>
<path id='g2-61' d='M6.844334-3.257783C6.993773-3.257783 7.183064-3.257783 7.183064-3.457036S6.993773-3.656289 6.854296-3.656289H.886675C.747198-3.656289 .557908-3.656289 .557908-3.457036S.747198-3.257783 .896638-3.257783H6.844334ZM6.854296-1.325031C6.993773-1.325031 7.183064-1.325031 7.183064-1.524284S6.993773-1.723537 6.844334-1.723537H.896638C.747198-1.723537 .557908-1.723537 .557908-1.524284S.747198-1.325031 .886675-1.325031H6.854296Z'/>
</defs>
<g id='page1' transform='matrix(1.5 0 0 1.5 0 0)'>
<use x='183.130749' y='29.299444' xlink:href='#g2-40'/>
<use x='187.005123' y='29.299444' xlink:href='#g1-30'/>
<use x='192.94121' y='25.185948' xlink:href='#g0-3'/>
<use x='197.521264' y='29.299444' xlink:href='#g2-40'/>
<use x='201.395638' y='29.299444' xlink:href='#g1-17'/>
<use x='206.699842' y='29.299444' xlink:href='#g2-41'/>
<use x='210.574215' y='29.299444' xlink:href='#g2-41'/>
<use x='214.448589' y='29.299444' xlink:href='#g2-40'/>
<use x='218.322963' y='29.299444' xlink:href='#g1-88'/>
<use x='227.358519' y='29.299444' xlink:href='#g2-41'/>
<use x='234.000225' y='29.299444' xlink:href='#g2-61'/>
<use x='244.516305' y='29.299444' xlink:href='#g1-17'/>
<use x='249.820509' y='29.299444' xlink:href='#g2-40'/>
<use x='253.694883' y='29.299444' xlink:href='#g1-30'/>
<use x='259.63097' y='30.793825' xlink:href='#g0-3'/>
<use x='264.211023' y='29.299444' xlink:href='#g2-40'/>
<use x='268.085397' y='29.299444' xlink:href='#g1-88'/>
<use x='277.120953' y='29.299444' xlink:href='#g2-41'/>
<use x='280.995326' y='29.299444' xlink:href='#g2-41'/>
</g>
</svg>