<?xml version='1.0' encoding='UTF-8'?>
<!-- This file was generated by dvisvgm 3.2 -->
<svg version='1.1' xmlns='http://www.w3.org/2000/svg' xmlns:xlink='http://www.w3.org/1999/xlink' width='23.068136pt' height='14.94396pt' viewBox='-21.012229 14.808444 23.068136 14.94396'>
<defs>
<path id='g1-40' d='M3.297634 2.391034C3.297634 2.361146 3.297634 2.34122 3.128269 2.171856C1.882939 .916563 1.564134-.966376 1.564134-2.49066C1.564134-4.224159 1.942715-5.957659 3.16812-7.202989C3.297634-7.32254 3.297634-7.342466 3.297634-7.372354C3.297634-7.442092 3.257783-7.47198 3.198007-7.47198C3.098381-7.47198 2.201743-6.794521 1.613948-5.529265C1.105853-4.433375 .986301-3.327522 .986301-2.49066C.986301-1.713574 1.09589-.508095 1.643836 .617684C2.241594 1.843088 3.098381 2.49066 3.198007 2.49066C3.257783 2.49066 3.297634 2.460772 3.297634 2.391034Z'/>
<path id='g1-41' d='M2.879203-2.49066C2.879203-3.267746 2.769614-4.473225 2.221669-5.599004C1.62391-6.824408 .767123-7.47198 .667497-7.47198C.607721-7.47198 .56787-7.43213 .56787-7.372354C.56787-7.342466 .56787-7.32254 .757161-7.143213C1.733499-6.156912 2.30137-4.572852 2.30137-2.49066C2.30137-.787049 1.932752 .966376 .697385 2.221669C.56787 2.34122 .56787 2.361146 .56787 2.391034C.56787 2.450809 .607721 2.49066 .667497 2.49066C.767123 2.49066 1.663761 1.8132 2.251557 .547945C2.759651-.547945 2.879203-1.653798 2.879203-2.49066Z'/>
<path id='g0-23' d='M2.231631-4.293898C2.231631-4.303861 2.231631-4.403487 2.102117-4.403487C1.872976-4.403487 1.145704-4.323786 .886675-4.303861C.806974-4.293898 .697385-4.283935 .697385-4.104608C.697385-3.985056 .787049-3.985056 .936488-3.985056C1.414695-3.985056 1.43462-3.915318 1.43462-3.815691C1.43462-3.745953 1.315068-3.277709 1.24533-3.008717L.637609-.56787C.597758-.418431 .52802-.139477 .52802-.119552C.52802-.009963 .627646 0 .687422 0H.826899C1.524284-.119552 2.610212-.508095 3.636364-1.464508C4.951432-2.689913 5.220423-4.044832 5.220423-4.134496C5.220423-4.303861 5.100872-4.403487 4.931507-4.403487C4.851806-4.403487 4.622665-4.363636 4.542964-4.07472C3.905355-1.8132 2.391034-.697385 1.255293-.328767L2.231631-4.293898Z'/>
<path id='g0-116' d='M2.052304-3.985056H2.988792C3.188045-3.985056 3.287671-3.985056 3.287671-4.184309C3.287671-4.293898 3.188045-4.293898 3.008717-4.293898H2.132005C2.49066-5.708593 2.540473-5.907846 2.540473-5.967621C2.540473-6.136986 2.420922-6.236613 2.251557-6.236613C2.221669-6.236613 1.942715-6.22665 1.853051-5.877958L1.464508-4.293898H.52802C.328767-4.293898 .229141-4.293898 .229141-4.104608C.229141-3.985056 .308842-3.985056 .508095-3.985056H1.384807C.667497-1.155666 .627646-.986301 .627646-.806974C.627646-.268991 1.006227 .109589 1.544209 .109589C2.560399 .109589 3.128269-1.344956 3.128269-1.424658C3.128269-1.524284 3.048568-1.524284 3.008717-1.524284C2.919054-1.524284 2.909091-1.494396 2.859278-1.384807C2.430884-.348692 1.902864-.109589 1.564134-.109589C1.354919-.109589 1.255293-.239103 1.255293-.56787C1.255293-.806974 1.275218-.876712 1.315068-1.046077L2.052304-3.985056Z'/>
</defs>
<g id='page1' transform='matrix(1.5 0 0 1.5 0 0)'>
<use x='-14.536172' y='17.344276' xlink:href='#g0-23'/>
<use x='-8.980607' y='17.344276' xlink:href='#g1-40'/>
<use x='-5.106233' y='17.344276' xlink:href='#g0-116'/>
<use x='-1.508598' y='17.344276' xlink:href='#g1-41'/>
</g>
</svg>