<?xml version='1.0' encoding='UTF-8'?>
<!-- This file was generated by dvisvgm 3.2 -->
<svg version='1.1' xmlns='http://www.w3.org/2000/svg' xmlns:xlink='http://www.w3.org/1999/xlink' width='97.921728pt' height='14.94396pt' viewBox='-21.072004 14.808444 97.921728 14.94396'>
<defs>
<path id='g0-82' d='M2.669988-3.128269H3.028643L4.523039-.816936C4.622665-.657534 4.861768-.268991 4.971357-.119552C5.041096 0 5.070984 0 5.300125 0H6.674969C6.854296 0 7.003736 0 7.003736-.179328C7.003736-.259029 6.94396-.328767 6.854296-.348692C6.485679-.428394 5.997509-1.085928 5.758406-1.404732C5.688667-1.504359 5.190535-2.161893 4.523039-3.237858C5.409714-3.39726 6.266501-3.775841 6.266501-4.961395C6.266501-6.346202 4.801993-6.824408 3.626401-6.824408H.498132C.318804-6.824408 .159402-6.824408 .159402-6.645081C.159402-6.475716 .348692-6.475716 .428394-6.475716C.996264-6.475716 1.046077-6.405978 1.046077-5.907846V-.916563C1.046077-.418431 .996264-.348692 .428394-.348692C.348692-.348692 .159402-.348692 .159402-.179328C.159402 0 .318804 0 .498132 0H3.227895C3.407223 0 3.556663 0 3.556663-.179328C3.556663-.348692 3.387298-.348692 3.277709-.348692C2.709838-.348692 2.669988-.428394 2.669988-.916563V-3.128269ZM4.592777-3.616438C4.871731-3.985056 4.901619-4.513076 4.901619-4.951432C4.901619-5.429639 4.841843-5.957659 4.523039-6.366127C4.931507-6.276463 5.917808-5.967621 5.917808-4.961395C5.917808-4.313823 5.618929-3.805729 4.592777-3.616438ZM2.669988-5.937733C2.669988-6.146949 2.669988-6.475716 3.287671-6.475716C4.134496-6.475716 4.552927-6.127024 4.552927-4.951432C4.552927-3.666252 4.244085-3.476961 2.669988-3.476961V-5.937733ZM1.315068-.348692C1.39477-.52802 1.39477-.806974 1.39477-.896638V-5.927771C1.39477-6.027397 1.39477-6.296389 1.315068-6.475716H2.450809C2.321295-6.316314 2.321295-6.117061 2.321295-5.967621V-.896638C2.321295-.797011 2.321295-.52802 2.400996-.348692H1.315068ZM3.437111-3.128269C3.506849-3.138232 3.5467-3.148194 3.626401-3.148194C3.775841-3.148194 3.995019-3.16812 4.144458-3.188045C4.293898-2.948941 5.369863-1.175592 6.196762-.348692H5.230386L3.437111-3.128269Z'/>
<path id='g1-33' d='M8.308842-2.291407C7.760897-1.872976 7.491905-1.464508 7.412204-1.334994C6.963885-.647572 6.884184-.019925 6.884184-.009963C6.884184 .109589 7.003736 .109589 7.083437 .109589C7.252802 .109589 7.262765 .089664 7.302615-.089664C7.531756-1.066002 8.119552-1.902864 9.24533-2.361146C9.364882-2.400996 9.39477-2.420922 9.39477-2.49066S9.334994-2.590286 9.315068-2.600249C8.876712-2.769614 7.671233-3.267746 7.292653-4.941469C7.262765-5.061021 7.252802-5.090909 7.083437-5.090909C7.003736-5.090909 6.884184-5.090909 6.884184-4.971357C6.884184-4.951432 6.973848-4.323786 7.392279-3.656289C7.591532-3.35741 7.880448-3.008717 8.308842-2.689913H.9066C.727273-2.689913 .547945-2.689913 .547945-2.49066S.727273-2.291407 .9066-2.291407H8.308842Z'/>
<path id='g4-40' d='M3.297634 2.391034C3.297634 2.361146 3.297634 2.34122 3.128269 2.171856C1.882939 .916563 1.564134-.966376 1.564134-2.49066C1.564134-4.224159 1.942715-5.957659 3.16812-7.202989C3.297634-7.32254 3.297634-7.342466 3.297634-7.372354C3.297634-7.442092 3.257783-7.47198 3.198007-7.47198C3.098381-7.47198 2.201743-6.794521 1.613948-5.529265C1.105853-4.433375 .986301-3.327522 .986301-2.49066C.986301-1.713574 1.09589-.508095 1.643836 .617684C2.241594 1.843088 3.098381 2.49066 3.198007 2.49066C3.257783 2.49066 3.297634 2.460772 3.297634 2.391034Z'/>
<path id='g4-41' d='M2.879203-2.49066C2.879203-3.267746 2.769614-4.473225 2.221669-5.599004C1.62391-6.824408 .767123-7.47198 .667497-7.47198C.607721-7.47198 .56787-7.43213 .56787-7.372354C.56787-7.342466 .56787-7.32254 .757161-7.143213C1.733499-6.156912 2.30137-4.572852 2.30137-2.49066C2.30137-.787049 1.932752 .966376 .697385 2.221669C.56787 2.34122 .56787 2.361146 .56787 2.391034C.56787 2.450809 .607721 2.49066 .667497 2.49066C.767123 2.49066 1.663761 1.8132 2.251557 .547945C2.759651-.547945 2.879203-1.653798 2.879203-2.49066Z'/>
<path id='g4-58' d='M1.912827-3.765878C1.912827-4.054795 1.673724-4.293898 1.384807-4.293898S.856787-4.054795 .856787-3.765878S1.09589-3.237858 1.384807-3.237858S1.912827-3.476961 1.912827-3.765878ZM1.912827-.52802C1.912827-.816936 1.673724-1.05604 1.384807-1.05604S.856787-.816936 .856787-.52802S1.09589 0 1.384807 0S1.912827-.239103 1.912827-.52802Z'/>
<path id='g2-3' d='M2.252553-1.736488C2.824408-1.987547 3.082441-2.085181 3.256787-2.168867C3.38929-2.224658 3.452055-2.252553 3.452055-2.385056C3.452055-2.503611 3.361395-2.608219 3.235866-2.608219C3.187049-2.608219 3.173101-2.608219 3.089415-2.545455L2.140971-1.910834L2.245579-2.942964C2.259527-3.068493 2.245579-3.242839 2.036364-3.242839C1.952677-3.242839 1.820174-3.187049 1.820174-3.033624C1.820174-2.970859 1.84807-2.761644 1.855044-2.691905C1.868991-2.57335 1.917808-2.071233 1.931756-1.910834L.990286-2.545455C.920548-2.587298 .899626-2.608219 .836862-2.608219C.711333-2.608219 .620672-2.503611 .620672-2.385056C.620672-2.245579 .704359-2.21071 .767123-2.182814L1.820174-1.743462C1.248319-1.492403 .990286-1.39477 .81594-1.311083C.683437-1.255293 .620672-1.227397 .620672-1.094894C.620672-.976339 .711333-.871731 .836862-.871731C.885679-.871731 .899626-.871731 .983313-.934496L1.931756-1.569116L1.820174-.446326C1.820174-.292902 1.952677-.237111 2.036364-.237111S2.252553-.292902 2.252553-.446326C2.252553-.509091 2.224658-.718306 2.217684-.788045C2.203736-.9066 2.154919-1.408717 2.140971-1.569116L2.977833-1.011208C3.159153-.871731 3.173101-.871731 3.235866-.871731C3.361395-.871731 3.452055-.976339 3.452055-1.094894C3.452055-1.234371 3.368369-1.26924 3.305604-1.297136L2.252553-1.736488Z'/>
<path id='g3-30' d='M4.353674-6.674969C4.353674-6.694894 4.383562-6.804483 4.383562-6.814446S4.383562-6.914072 4.26401-6.914072C4.164384-6.914072 4.154421-6.884184 4.11457-6.714819L3.536737-4.41345C1.952677-4.363636 .488169-3.038605 .488169-1.683686C.488169-.737235 1.185554 .049813 2.400996 .119552C2.321295 .428394 2.251557 .747198 2.171856 1.05604C2.052304 1.524284 1.952677 1.902864 1.952677 1.932752C1.952677 2.032379 2.022416 2.042341 2.072229 2.042341S2.141968 2.032379 2.171856 2.002491C2.191781 1.982565 2.251557 1.743462 2.281445 1.603985L2.660025 .119552C4.26401 .069738 5.708593-1.275218 5.708593-2.610212C5.708593-3.39726 5.180573-4.313823 3.795766-4.41345L4.353674-6.674969ZM2.450809-.099626C1.853051-.129514 1.135741-.478207 1.135741-1.474471C1.135741-2.669988 1.992528-4.064757 3.476961-4.194271L2.450809-.099626ZM3.73599-4.194271C4.493151-4.154421 5.061021-3.696139 5.061021-2.819427C5.061021-1.643836 4.204234-.219178 2.709838-.099626L3.73599-4.194271Z'/>
<path id='g3-77' d='M9.225405-6.03736C9.315068-6.396015 9.334994-6.495641 10.082192-6.495641C10.311333-6.495641 10.400996-6.495641 10.400996-6.694894C10.400996-6.804483 10.30137-6.804483 10.132005-6.804483H8.816936C8.557908-6.804483 8.547945-6.804483 8.428394-6.615193L4.79203-.936488L4.014944-6.575342C3.985056-6.804483 3.965131-6.804483 3.706102-6.804483H2.34122C2.15193-6.804483 2.042341-6.804483 2.042341-6.615193C2.042341-6.495641 2.132005-6.495641 2.331258-6.495641C2.460772-6.495641 2.6401-6.485679 2.759651-6.475716C2.919054-6.455791 2.978829-6.425903 2.978829-6.316314C2.978829-6.276463 2.968867-6.246575 2.938979-6.127024L1.673724-1.05604C1.574097-.657534 1.404732-.33873 .597758-.308842C.547945-.308842 .418431-.298879 .418431-.119552C.418431-.029888 .478207 0 .557908 0C.876712 0 1.225405-.029888 1.554172-.029888C1.892902-.029888 2.251557 0 2.580324 0C2.630137 0 2.759651 0 2.759651-.199253C2.759651-.308842 2.650062-.308842 2.580324-.308842C2.012453-.318804 1.902864-.518057 1.902864-.747198C1.902864-.816936 1.912827-.86675 1.942715-.976339L3.297634-6.405978H3.307597L4.164384-.229141C4.184309-.109589 4.194271 0 4.313823 0C4.423412 0 4.483188-.109589 4.533001-.179328L8.557908-6.485679H8.56787L7.143213-.777086C7.043587-.388543 7.023661-.308842 6.236613-.308842C6.067248-.308842 5.957659-.308842 5.957659-.119552C5.957659 0 6.07721 0 6.107098 0C6.386052 0 7.063512-.029888 7.342466-.029888C7.750934-.029888 8.179328 0 8.587796 0C8.647572 0 8.777086 0 8.777086-.199253C8.777086-.308842 8.687422-.308842 8.498132-.308842C8.129514-.308842 7.85056-.308842 7.85056-.488169C7.85056-.52802 7.85056-.547945 7.900374-.727273L9.225405-6.03736Z'/>
<path id='g3-102' d='M3.656289-3.985056H4.513076C4.712329-3.985056 4.811955-3.985056 4.811955-4.184309C4.811955-4.293898 4.712329-4.293898 4.542964-4.293898H3.716065L3.92528-5.429639C3.965131-5.638854 4.104608-6.346202 4.164384-6.465753C4.254047-6.655044 4.423412-6.804483 4.632628-6.804483C4.672478-6.804483 4.931507-6.804483 5.120797-6.625156C4.682441-6.585305 4.582814-6.236613 4.582814-6.087173C4.582814-5.858032 4.762142-5.738481 4.951432-5.738481C5.210461-5.738481 5.499377-5.957659 5.499377-6.336239C5.499377-6.794521 5.041096-7.023661 4.632628-7.023661C4.293898-7.023661 3.666252-6.844334 3.367372-5.858032C3.307597-5.648817 3.277709-5.549191 3.038605-4.293898H2.351183C2.161893-4.293898 2.052304-4.293898 2.052304-4.104608C2.052304-3.985056 2.141968-3.985056 2.331258-3.985056H2.988792L2.241594-.049813C2.062267 .916563 1.892902 1.823163 1.374844 1.823163C1.334994 1.823163 1.085928 1.823163 .896638 1.643836C1.354919 1.613948 1.444583 1.255293 1.444583 1.105853C1.444583 .876712 1.265255 .757161 1.075965 .757161C.816936 .757161 .52802 .976339 .52802 1.354919C.52802 1.803238 .966376 2.042341 1.374844 2.042341C1.92279 2.042341 2.321295 1.454545 2.500623 1.075965C2.819427 .448319 3.048568-.757161 3.058531-.826899L3.656289-3.985056Z'/>
</defs>
<g id='page1' transform='matrix(1.5 0 0 1.5 0 0)'>
<use x='-14.536172' y='17.344276' xlink:href='#g3-30'/>
<use x='-8.600085' y='13.728912' xlink:href='#g2-3'/>
<use x='-4.020032' y='17.344276' xlink:href='#g4-40'/>
<use x='-.145658' y='17.344276' xlink:href='#g3-102'/>
<use x='5.804289' y='17.344276' xlink:href='#g4-41'/>
<use x='12.445996' y='17.344276' xlink:href='#g4-58'/>
<use x='17.980737' y='17.344276' xlink:href='#g3-77'/>
<use x='31.499412' y='17.344276' xlink:href='#g1-33'/>
<use x='44.229413' y='17.344276' xlink:href='#g0-82'/>
</g>
</svg>