<?xml version='1.0' encoding='UTF-8'?>
<!-- This file was generated by dvisvgm 3.2 -->
<svg version='1.1' xmlns='http://www.w3.org/2000/svg' xmlns:xlink='http://www.w3.org/1999/xlink' width='13.028544pt' height='11.085407pt' viewBox='-21.116836 19.411184 13.028544 11.085407'>
<defs>
<path id='g1-22' d='M.376588 1.12279C.348692 1.227397 .348692 1.262267 .348692 1.26924C.348692 1.422665 .474222 1.492403 .585803 1.492403C.836862 1.492403 .892653 1.262267 .920548 1.143711C.934496 1.108842 1.073973 .550934 1.241345-.132503C1.457534 .013948 1.736488 .069738 1.987547 .069738C2.587298 .069738 2.977833-.418431 2.991781-.432379C3.124284 .048817 3.605479 .069738 3.710087 .069738C3.961146 .069738 4.135492-.083686 4.261021-.299875C4.414446-.571856 4.505106-.969365 4.505106-.99726C4.505106-1.08792 4.414446-1.08792 4.393524-1.08792C4.29589-1.08792 4.288917-1.060025 4.2401-.871731C4.156413-.536986 4.02391-.125529 3.731009-.125529C3.549689-.125529 3.500872-.278954 3.500872-.467248C3.500872-.585803 3.556663-.836862 3.605479-1.018182C3.654296-1.206476 3.724035-1.492403 3.758904-1.645828L3.919303-2.266501C3.961146-2.440847 4.037858-2.747696 4.037858-2.782565C4.037858-2.922042 3.926276-3.005729 3.807721-3.005729C3.731009-3.005729 3.598506-2.970859 3.521793-2.838356C3.500872-2.796513 3.445081-2.57335 3.410212-2.433873L3.263761-1.855044L3.047572-.983313C2.998755-.808966 2.998755-.795019 2.93599-.704359C2.719801-.397509 2.412951-.125529 2.015442-.125529C1.443587-.125529 1.443587-.620672 1.443587-.746202C1.443587-.927522 1.464508-1.018182 1.562142-1.39477C1.63188-1.701619 1.645828-1.750436 1.715567-2.022416L1.8132-2.412951C1.84807-2.559402 1.917808-2.824408 1.917808-2.852304C1.917808-2.977833 1.820174-3.075467 1.680697-3.075467C1.429639-3.075467 1.366874-2.831382 1.345953-2.747696L.376588 1.12279Z'/>
<path id='g0-101' d='M1.863014-2.30137C2.15193-2.30137 2.889166-2.321295 3.387298-2.530511C4.084682-2.82939 4.134496-3.417186 4.134496-3.556663C4.134496-3.995019 3.755915-4.403487 3.068493-4.403487C1.96264-4.403487 .458281-3.437111 .458281-1.693649C.458281-.67746 1.046077 .109589 2.022416 .109589C3.447073 .109589 4.283935-.946451 4.283935-1.066002C4.283935-1.125778 4.224159-1.195517 4.164384-1.195517C4.11457-1.195517 4.094645-1.175592 4.034869-1.09589C3.247821-.109589 2.161893-.109589 2.042341-.109589C1.265255-.109589 1.175592-.946451 1.175592-1.265255C1.175592-1.384807 1.185554-1.693649 1.334994-2.30137H1.863014ZM1.39477-2.520548C1.783313-4.034869 2.809465-4.184309 3.068493-4.184309C3.536737-4.184309 3.805729-3.895392 3.805729-3.556663C3.805729-2.520548 2.211706-2.520548 1.803238-2.520548H1.39477Z'/>
</defs>
<g id='page1' transform='matrix(1.5 0 0 1.5 0 0)'>
<use x='-14.536172' y='17.344276' xlink:href='#g0-101'/>
<use x='-9.897301' y='18.838657' xlink:href='#g1-22'/>
</g>
</svg>