<?xml version='1.0' encoding='UTF-8'?>
<!-- This file was generated by dvisvgm 3.2 -->
<svg version='1.1' xmlns='http://www.w3.org/2000/svg' xmlns:xlink='http://www.w3.org/1999/xlink' width='172.874571pt' height='31.382499pt' viewBox='263.921961 29.752313 172.874571 31.382499'>
<defs>
<path id='g0-40' d='M3.158157-7.47198C3.01868-7.422167 2.839352-7.222914 2.719801-7.103362C1.494396-5.877958 .996264-4.184309 .996264-2.500623C.996264-.697385 1.58406 1.225405 3.048568 2.400996C3.098381 2.430884 3.158157 2.480697 3.217933 2.480697S3.307597 2.420922 3.307597 2.381071C3.307597 2.271482 3.038605 2.062267 2.929016 1.932752C1.902864 .707347 1.58406-.926526 1.58406-2.49066C1.58406-4.134496 1.912827-5.937733 3.148194-7.173101C3.20797-7.232877 3.307597-7.302615 3.307597-7.382316C3.307597-7.442092 3.257783-7.481943 3.198007-7.481943C3.188045-7.481943 3.16812-7.47198 3.158157-7.47198Z'/>
<path id='g0-41' d='M.617684-7.47198C.577833-7.452055 .557908-7.422167 .557908-7.392279C.557908-7.272727 .787049-7.103362 .896638-6.983811C1.96264-5.748443 2.281445-4.064757 2.281445-2.49066C2.281445-.886675 1.952677 .936488 .757161 2.132005C.687422 2.201743 .557908 2.30137 .557908 2.381071C.557908 2.430884 .607721 2.480697 .667497 2.480697H.67746C.797011 2.460772 .996264 2.251557 1.115816 2.132005C2.371108 .876712 2.86924-.816936 2.86924-2.510585C2.86924-4.343711 2.271482-6.166874 .816936-7.402242C.767123-7.43213 .71731-7.481943 .657534-7.481943C.647572-7.481943 .637609-7.481943 .617684-7.47198Z'/>
<path id='g0-109' d='M.318804-4.293898V-3.985056H.468244C.797011-3.985056 1.09589-3.955168 1.09589-3.486924V-.737235C1.09589-.328767 .816936-.318804 .37858-.318804H.318804V-.009963H2.570361V-.318804H2.311333C2.032379-.318804 1.793275-.358655 1.793275-.727273V-2.550436C1.793275-3.277709 2.191781-4.184309 3.148194-4.184309C3.785803-4.184309 3.855542-3.526775 3.855542-3.068493V-.697385C3.855542-.33873 3.556663-.318804 3.227895-.318804H3.078456V-.009963H5.330012V-.318804H5.070984C4.79203-.318804 4.552927-.358655 4.552927-.727273V-2.550436C4.552927-3.277709 4.951432-4.184309 5.907846-4.184309C6.545455-4.184309 6.615193-3.526775 6.615193-3.068493V-.697385C6.615193-.33873 6.316314-.318804 5.987547-.318804H5.838107V-.009963H8.089664V-.318804H7.880448C7.581569-.318804 7.312578-.348692 7.312578-.697385V-2.948941C7.312578-3.317559 7.292653-3.646326 7.053549-3.985056C6.794521-4.313823 6.366127-4.403487 5.967621-4.403487C5.32005-4.403487 4.79203-4.024907 4.523039-3.447073C4.333748-4.154421 3.88543-4.403487 3.198007-4.403487C2.560399-4.403487 1.952677-4.004981 1.743462-3.387298L1.733499-4.403487L.318804-4.293898Z'/>
<path id='g0-110' d='M.318804-4.293898V-3.985056H.468244C.797011-3.985056 1.09589-3.955168 1.09589-3.486924V-.737235C1.09589-.328767 .816936-.318804 .37858-.318804H.318804V-.009963H2.570361V-.318804H2.311333C2.032379-.318804 1.793275-.358655 1.793275-.727273V-2.550436C1.793275-3.267746 2.161893-4.184309 3.148194-4.184309C3.785803-4.184309 3.845579-3.496887 3.845579-3.068493V-.687422C3.845579-.348692 3.556663-.318804 3.247821-.318804H3.068493V-.009963H5.32005V-.318804H5.070984C4.801993-.318804 4.542964-.358655 4.542964-.697385V-2.879203C4.542964-3.20797 4.533001-3.5467 4.373599-3.845579C4.144458-4.283935 3.636364-4.403487 3.178082-4.403487C2.570361-4.403487 1.942715-3.985056 1.743462-3.387298L1.733499-4.403487L.318804-4.293898Z'/>
<path id='g0-111' d='M2.34122-4.463263C1.085928-4.333748 .278954-3.277709 .278954-2.122042C.278954-.996264 1.165629 .099626 2.49066 .099626C3.686177 .099626 4.692403-.876712 4.692403-2.132005C4.692403-3.317559 3.795766-4.473225 2.470735-4.473225C2.430884-4.473225 2.381071-4.463263 2.34122-4.463263ZM1.115816-1.892902V-2.331258C1.115816-3.088418 1.354919-4.244085 2.480697-4.244085C3.287671-4.244085 3.745953-3.566625 3.835616-2.809465C3.855542-2.590286 3.855542-2.381071 3.855542-2.161893C3.855542-1.514321 3.785803-.707347 3.148194-.33873C2.948941-.209215 2.729763-.14944 2.500623-.14944C1.77335-.14944 1.265255-.71731 1.155666-1.494396C1.135741-1.62391 1.135741-1.763387 1.115816-1.892902Z'/>
<path id='g0-115' d='M1.753425-4.463263C1.384807-4.423412 .996264-4.353674 .707347-4.104608C.468244-3.895392 .328767-3.556663 .328767-3.237858C.328767-1.534247 3.098381-2.500623 3.098381-1.006227C3.098381-.398506 2.550436-.119552 2.002491-.119552C1.24533-.119552 .737235-.657534 .597758-1.514321C.577833-1.603985 .56787-1.693649 .448319-1.693649C.368618-1.693649 .328767-1.633873 .328767-1.564134V.009963C.33873 .059776 .368618 .089664 .418431 .099626H.438356C.597758 .099626 .757161-.268991 .876712-.298879H.886675C.966376-.298879 1.235367-.049813 1.444583 .019925C1.613948 .079701 1.793275 .099626 1.972603 .099626C2.799502 .099626 3.58655-.33873 3.58655-1.255293C3.58655-1.912827 3.108344-2.450809 2.450809-2.620174C1.833126-2.789539 .816936-2.789539 .816936-3.516812C.816936-4.124533 1.484433-4.273973 1.92279-4.273973C2.410959-4.273973 3.088418-4.004981 3.088418-3.148194C3.088418-3.058531 3.098381-2.978829 3.20797-2.978829C3.307597-2.978829 3.347447-3.058531 3.347447-3.158157C3.347447-3.20797 3.337484-3.257783 3.337484-3.297634V-4.323786C3.337484-4.383562 3.307597-4.463263 3.227895-4.463263C3.068493-4.463263 2.968867-4.214197 2.859278-4.214197H2.849315C2.769614-4.214197 2.610212-4.343711 2.49066-4.383562C2.311333-4.443337 2.11208-4.473225 1.92279-4.473225C1.863014-4.473225 1.8132-4.463263 1.753425-4.463263Z'/>
<path id='g0-117' d='M.318804-4.293898V-3.985056H.458281C.737235-3.985056 1.026152-3.965131 1.085928-3.666252C1.09589-3.556663 1.09589-3.457036 1.09589-3.347447V-1.364882C1.09589-1.036115 1.105853-.727273 1.285181-.438356C1.554172-.009963 2.122042 .109589 2.590286 .109589C3.038605 .109589 3.447073-.089664 3.696139-.458281C3.765878-.557908 3.835616-.657534 3.865504-.777086L3.875467 .099626L5.32005-.009963V-.318804H5.17061C4.841843-.318804 4.542964-.348692 4.542964-.797011V-4.403487L3.068493-4.293898V-3.985056H3.217933C3.5467-3.985056 3.845579-3.955168 3.845579-3.486924V-1.683686C3.845579-.946451 3.466999-.129514 2.6401-.129514C2.082192-.129514 1.793275-.268991 1.793275-1.325031V-4.403487L.318804-4.293898Z'/>
<path id='g4-88' d='M12.612702 13.947696L13.818182 10.759651H13.569116C13.180573 11.795766 12.124533 12.473225 10.978829 12.772105C10.769614 12.821918 9.793275 13.080946 7.880448 13.080946H1.872976L6.94396 7.13325C7.013699 7.053549 7.033624 7.023661 7.033624 6.973848C7.033624 6.953923 7.033624 6.924035 6.963885 6.824408L2.321295 .478207H7.780822C9.115816 .478207 10.022416 .617684 10.11208 .637609C10.650062 .71731 11.516812 .886675 12.303861 1.384807C12.552927 1.544209 13.230386 1.992528 13.569116 2.799502H13.818182L12.612702 0H.836862C.607721 0 .597758 .009963 .56787 .069738C.557908 .099626 .557908 .288917 .557908 .398506L5.828144 7.611457L.667497 13.65878C.56787 13.778331 .56787 13.828144 .56787 13.838107C.56787 13.947696 .657534 13.947696 .836862 13.947696H12.612702Z'/>
<path id='g2-22' d='M.376588 1.12279C.348692 1.227397 .348692 1.262267 .348692 1.26924C.348692 1.422665 .474222 1.492403 .585803 1.492403C.836862 1.492403 .892653 1.262267 .920548 1.143711C.934496 1.108842 1.073973 .550934 1.241345-.132503C1.457534 .013948 1.736488 .069738 1.987547 .069738C2.587298 .069738 2.977833-.418431 2.991781-.432379C3.124284 .048817 3.605479 .069738 3.710087 .069738C3.961146 .069738 4.135492-.083686 4.261021-.299875C4.414446-.571856 4.505106-.969365 4.505106-.99726C4.505106-1.08792 4.414446-1.08792 4.393524-1.08792C4.29589-1.08792 4.288917-1.060025 4.2401-.871731C4.156413-.536986 4.02391-.125529 3.731009-.125529C3.549689-.125529 3.500872-.278954 3.500872-.467248C3.500872-.585803 3.556663-.836862 3.605479-1.018182C3.654296-1.206476 3.724035-1.492403 3.758904-1.645828L3.919303-2.266501C3.961146-2.440847 4.037858-2.747696 4.037858-2.782565C4.037858-2.922042 3.926276-3.005729 3.807721-3.005729C3.731009-3.005729 3.598506-2.970859 3.521793-2.838356C3.500872-2.796513 3.445081-2.57335 3.410212-2.433873L3.263761-1.855044L3.047572-.983313C2.998755-.808966 2.998755-.795019 2.93599-.704359C2.719801-.397509 2.412951-.125529 2.015442-.125529C1.443587-.125529 1.443587-.620672 1.443587-.746202C1.443587-.927522 1.464508-1.018182 1.562142-1.39477C1.63188-1.701619 1.645828-1.750436 1.715567-2.022416L1.8132-2.412951C1.84807-2.559402 1.917808-2.824408 1.917808-2.852304C1.917808-2.977833 1.820174-3.075467 1.680697-3.075467C1.429639-3.075467 1.366874-2.831382 1.345953-2.747696L.376588 1.12279Z'/>
<path id='g2-23' d='M1.750436-2.873225C1.75741-2.901121 1.764384-2.942964 1.764384-2.977833C1.764384-2.984807 1.764384-3.075467 1.652802-3.075467C1.645828-3.075467 1.248319-3.040598 1.199502-3.040598C1.066999-3.02665 .941469-3.019676 .808966-3.005729C.697385-2.998755 .613699-2.991781 .613699-2.84533C.613699-2.747696 .711333-2.747696 .795019-2.747696C1.129763-2.747696 1.129763-2.705853 1.129763-2.643088C1.129763-2.601245 1.094894-2.461768 1.066999-2.371108L.718306-.962391C.54396-.265006 .509091-.125529 .509091-.097634C.509091 0 .613699 0 .641594 0H.753176C1.373848-.097634 2.259527-.425405 3.005729-1.08792C3.954172-1.931756 4.093649-2.838356 4.093649-2.852304C4.093649-2.977833 3.996015-3.075467 3.856538-3.075467C3.612453-3.075467 3.563636-2.880199 3.500872-2.684932C3.221918-1.694645 2.287422-.627646 1.101868-.278954L1.750436-2.873225Z'/>
<path id='g3-1' d='M4.403487-6.953923C4.333748-7.083437 4.313823-7.13325 4.144458-7.13325S3.955168-7.083437 3.88543-6.953923L.518057-.199253C.468244-.109589 .468244-.089664 .468244-.079701C.468244 0 .52802 0 .687422 0H7.601494C7.760897 0 7.820672 0 7.820672-.079701C7.820672-.089664 7.820672-.109589 7.770859-.199253L4.403487-6.953923ZM3.825654-6.136986L6.505604-.757161H1.135741L3.825654-6.136986Z'/>
<path id='g3-61' d='M6.844334-3.257783C6.993773-3.257783 7.183064-3.257783 7.183064-3.457036S6.993773-3.656289 6.854296-3.656289H.886675C.747198-3.656289 .557908-3.656289 .557908-3.457036S.747198-3.257783 .896638-3.257783H6.844334ZM6.854296-1.325031C6.993773-1.325031 7.183064-1.325031 7.183064-1.524284S6.993773-1.723537 6.844334-1.723537H.896638C.747198-1.723537 .557908-1.723537 .557908-1.524284S.747198-1.325031 .886675-1.325031H6.854296Z'/>
<path id='g1-103' d='M4.692403-3.755915C4.702366-3.815691 4.722291-3.865504 4.722291-3.935243C4.722291-4.104608 4.60274-4.204234 4.433375-4.204234C4.333748-4.204234 4.064757-4.134496 4.024907-3.775841C3.845579-4.144458 3.496887-4.403487 3.098381-4.403487C1.96264-4.403487 .727273-3.008717 .727273-1.574097C.727273-.587796 1.334994 0 2.052304 0C2.6401 0 3.108344-.468244 3.20797-.577833L3.217933-.56787C3.008717 .318804 2.889166 .727273 2.889166 .747198C2.849315 .836862 2.510585 1.823163 1.454545 1.823163C1.265255 1.823163 .936488 1.8132 .657534 1.723537C.956413 1.633873 1.066002 1.374844 1.066002 1.205479C1.066002 1.046077 .956413 .856787 .687422 .856787C.468244 .856787 .14944 1.036115 .14944 1.43462C.14944 1.843088 .518057 2.042341 1.474471 2.042341C2.719801 2.042341 3.437111 1.265255 3.58655 .667497L4.692403-3.755915ZM3.39726-1.275218C3.337484-1.016189 3.108344-.767123 2.889166-.577833C2.67995-.398506 2.371108-.219178 2.082192-.219178C1.58406-.219178 1.43462-.737235 1.43462-1.135741C1.43462-1.613948 1.723537-2.789539 1.992528-3.297634C2.261519-3.785803 2.689913-4.184309 3.108344-4.184309C3.765878-4.184309 3.905355-3.377335 3.905355-3.327522S3.88543-3.217933 3.875467-3.178082L3.39726-1.275218Z'/>
</defs>
<g id='page1' transform='matrix(1.5 0 0 1.5 0 0)'>
<use x='175.798534' y='29.299444' xlink:href='#g1-103'/>
<use x='183.675175' y='29.299444' xlink:href='#g3-61'/>
<use x='194.191255' y='19.834875' xlink:href='#g4-88'/>
<use x='199.157008' y='40.756541' xlink:href='#g2-23'/>
<use x='210.242163' y='29.299444' xlink:href='#g1-103'/>
<use x='214.994031' y='30.793825' xlink:href='#g2-22'/>
<use x='219.838186' y='30.793825' xlink:href='#g2-23'/>
<use x='224.795319' y='29.299444' xlink:href='#g3-1'/>
<use x='233.097545' y='25.185948' xlink:href='#g2-22'/>
<use x='237.9417' y='25.185948' xlink:href='#g2-23'/>
<use x='252.859041' y='29.299444' xlink:href='#g0-40'/>
<use x='256.732455' y='29.299444' xlink:href='#g0-110'/>
<use x='262.265904' y='29.299444' xlink:href='#g0-111'/>
<use x='270.566077' y='29.299444' xlink:href='#g0-115'/>
<use x='274.494826' y='29.299444' xlink:href='#g0-117'/>
<use x='280.028275' y='29.299444' xlink:href='#g0-109'/>
<use x='288.328448' y='29.299444' xlink:href='#g0-41'/>
</g>
</svg>