<?xml version='1.0' encoding='UTF-8'?>
<!-- This file was generated by dvisvgm 3.2 -->
<svg version='1.1' xmlns='http://www.w3.org/2000/svg' xmlns:xlink='http://www.w3.org/1999/xlink' width='176.431597pt' height='16.716448pt' viewBox='262.558879 33.165722 176.431597 16.716448'>
<defs>
<path id='g0-0' d='M6.56538-2.291407C6.734745-2.291407 6.914072-2.291407 6.914072-2.49066S6.734745-2.689913 6.56538-2.689913H1.175592C1.006227-2.689913 .826899-2.689913 .826899-2.49066S1.006227-2.291407 1.175592-2.291407H6.56538Z'/>
<path id='g3-0' d='M5.519303-6.774595H.328767V-6.465753H.56787C1.334994-6.465753 1.354919-6.356164 1.354919-5.997509V-.777086C1.354919-.418431 1.334994-.308842 .56787-.308842H.328767V0C.67746-.029888 1.454545-.029888 1.843088-.029888C2.251557-.029888 3.158157-.029888 3.516812 0V-.308842H3.188045C2.241594-.308842 2.241594-.438356 2.241594-.787049V-6.067248C2.241594-6.396015 2.261519-6.465753 2.729763-6.465753H3.755915C5.180573-6.465753 5.389788-5.877958 5.549191-4.533001H5.798257L5.519303-6.774595Z'/>
<path id='g3-61' d='M6.844334-3.257783C6.993773-3.257783 7.183064-3.257783 7.183064-3.457036S6.993773-3.656289 6.854296-3.656289H.886675C.747198-3.656289 .557908-3.656289 .557908-3.457036S.747198-3.257783 .896638-3.257783H6.844334ZM6.854296-1.325031C6.993773-1.325031 7.183064-1.325031 7.183064-1.524284S6.993773-1.723537 6.844334-1.723537H.896638C.747198-1.723537 .557908-1.723537 .557908-1.524284S.747198-1.325031 .886675-1.325031H6.854296Z'/>
<path id='g2-22' d='M.376588 1.12279C.348692 1.227397 .348692 1.262267 .348692 1.26924C.348692 1.422665 .474222 1.492403 .585803 1.492403C.836862 1.492403 .892653 1.262267 .920548 1.143711C.934496 1.108842 1.073973 .550934 1.241345-.132503C1.457534 .013948 1.736488 .069738 1.987547 .069738C2.587298 .069738 2.977833-.418431 2.991781-.432379C3.124284 .048817 3.605479 .069738 3.710087 .069738C3.961146 .069738 4.135492-.083686 4.261021-.299875C4.414446-.571856 4.505106-.969365 4.505106-.99726C4.505106-1.08792 4.414446-1.08792 4.393524-1.08792C4.29589-1.08792 4.288917-1.060025 4.2401-.871731C4.156413-.536986 4.02391-.125529 3.731009-.125529C3.549689-.125529 3.500872-.278954 3.500872-.467248C3.500872-.585803 3.556663-.836862 3.605479-1.018182C3.654296-1.206476 3.724035-1.492403 3.758904-1.645828L3.919303-2.266501C3.961146-2.440847 4.037858-2.747696 4.037858-2.782565C4.037858-2.922042 3.926276-3.005729 3.807721-3.005729C3.731009-3.005729 3.598506-2.970859 3.521793-2.838356C3.500872-2.796513 3.445081-2.57335 3.410212-2.433873L3.263761-1.855044L3.047572-.983313C2.998755-.808966 2.998755-.795019 2.93599-.704359C2.719801-.397509 2.412951-.125529 2.015442-.125529C1.443587-.125529 1.443587-.620672 1.443587-.746202C1.443587-.927522 1.464508-1.018182 1.562142-1.39477C1.63188-1.701619 1.645828-1.750436 1.715567-2.022416L1.8132-2.412951C1.84807-2.559402 1.917808-2.824408 1.917808-2.852304C1.917808-2.977833 1.820174-3.075467 1.680697-3.075467C1.429639-3.075467 1.366874-2.831382 1.345953-2.747696L.376588 1.12279Z'/>
<path id='g2-23' d='M1.750436-2.873225C1.75741-2.901121 1.764384-2.942964 1.764384-2.977833C1.764384-2.984807 1.764384-3.075467 1.652802-3.075467C1.645828-3.075467 1.248319-3.040598 1.199502-3.040598C1.066999-3.02665 .941469-3.019676 .808966-3.005729C.697385-2.998755 .613699-2.991781 .613699-2.84533C.613699-2.747696 .711333-2.747696 .795019-2.747696C1.129763-2.747696 1.129763-2.705853 1.129763-2.643088C1.129763-2.601245 1.094894-2.461768 1.066999-2.371108L.718306-.962391C.54396-.265006 .509091-.125529 .509091-.097634C.509091 0 .613699 0 .641594 0H.753176C1.373848-.097634 2.259527-.425405 3.005729-1.08792C3.954172-1.931756 4.093649-2.838356 4.093649-2.852304C4.093649-2.977833 3.996015-3.075467 3.856538-3.075467C3.612453-3.075467 3.563636-2.880199 3.500872-2.684932C3.221918-1.694645 2.287422-.627646 1.101868-.278954L1.750436-2.873225Z'/>
<path id='g2-26' d='M.376588 1.12279C.348692 1.227397 .348692 1.262267 .348692 1.26924C.348692 1.422665 .474222 1.492403 .585803 1.492403C.836862 1.492403 .892653 1.283188 .941469 1.060025C1.039103 .697385 1.234371-.097634 1.30411-.36264C1.366874-.258032 1.590037 .069738 2.071233 .069738C2.963885 .069738 3.912329-.878705 3.912329-1.896887C3.912329-2.636115 3.417186-3.075467 2.803487-3.075467C2.12005-3.075467 1.276214-2.475716 1.03213-1.492403L.376588 1.12279ZM2.064259-.125529C1.548194-.125529 1.39477-.641594 1.39477-.732254C1.39477-.746202 1.436613-.899626 1.457534-.983313C1.66675-1.841096 1.708593-2.001494 1.910834-2.308344C2.161893-2.677958 2.510585-2.880199 2.789539-2.880199C3.075467-2.880199 3.347447-2.677958 3.347447-2.175841C3.347447-1.855044 3.166127-1.080946 2.949938-.732254C2.629141-.237111 2.280448-.125529 2.064259-.125529Z'/>
<path id='g2-27' d='M4.079701-2.531507C4.198257-2.531507 4.261021-2.531507 4.337733-2.587298C4.428394-2.66401 4.449315-2.761644 4.449315-2.810461C4.449315-3.005729 4.267995-3.005729 4.14944-3.005729H2.364134C1.248319-3.005729 .411457-1.903861 .411457-1.066999C.411457-.418431 .892653 .069738 1.603985 .069738C2.48269 .069738 3.486924-.72528 3.486924-1.792279C3.486924-1.903861 3.486924-2.217684 3.277709-2.531507H4.079701ZM1.610959-.125529C1.234371-.125529 .920548-.376588 .920548-.871731C.920548-1.080946 1.046077-2.531507 2.245579-2.531507C2.601245-2.531507 2.963885-2.399004 2.963885-1.868991C2.963885-1.743462 2.901121-1.115816 2.559402-.648568C2.266501-.265006 1.875965-.125529 1.610959-.125529Z'/>
<path id='g1-14' d='M2.630137-4.353674C1.384807-4.054795 .418431-2.759651 .418431-1.554172C.418431-.597758 1.05604 .119552 1.992528 .119552C3.158157 .119552 3.985056-1.444583 3.985056-2.819427C3.985056-3.726027 3.58655-4.224159 3.247821-4.672478C2.889166-5.120797 2.30137-5.867995 2.30137-6.306351C2.30137-6.525529 2.500623-6.764633 2.849315-6.764633C3.148194-6.764633 3.347447-6.635118 3.556663-6.495641C3.755915-6.37609 3.955168-6.246575 4.104608-6.246575C4.353674-6.246575 4.503113-6.485679 4.503113-6.645081C4.503113-6.864259 4.343711-6.894147 3.985056-6.973848C3.466999-7.083437 3.327522-7.083437 3.16812-7.083437C2.391034-7.083437 2.032379-6.655044 2.032379-6.057285C2.032379-5.519303 2.321295-4.961395 2.630137-4.353674ZM2.749689-4.134496C2.998755-3.676214 3.297634-3.138232 3.297634-2.420922C3.297634-1.763387 2.919054-.099626 1.992528-.099626C1.444583-.099626 1.036115-.518057 1.036115-1.275218C1.036115-1.902864 1.404732-3.775841 2.749689-4.134496Z'/>
<path id='g1-64' d='M4.612702-3.377335C4.513076-3.995019 4.104608-4.552927 3.327522-4.552927C2.719801-4.552927 2.072229-4.393524 1.295143-3.616438C.468244-2.789539 .398506-1.863014 .398506-1.554172C.398506-.936488 .836862 .219178 2.231631 .219178C4.60274 .219178 5.638854-3.128269 5.638854-4.552927C5.638854-6.136986 4.712329-7.13325 3.486924-7.13325C2.042341-7.13325 1.58406-5.838107 1.58406-5.559153C1.58406-5.419676 1.663761-5.210461 1.96264-5.210461C2.291407-5.210461 2.500623-5.50934 2.500623-5.738481C2.500623-6.087173 2.191781-6.087173 2.032379-6.087173C2.470735-6.824408 3.178082-6.884184 3.466999-6.884184C4.194271-6.884184 4.891656-6.366127 4.891656-5.080946C4.891656-4.692403 4.83188-4.184309 4.622665-3.377335H4.612702ZM2.261519-.059776C1.165629-.059776 1.165629-1.085928 1.165629-1.185554C1.165629-1.454545 1.414695-2.849315 1.823163-3.447073C2.221669-4.014944 2.709838-4.333748 3.327522-4.333748C4.41345-4.333748 4.433375-3.217933 4.433375-3.01868C4.433375-2.30137 3.795766-.059776 2.261519-.059776Z'/>
<path id='g1-82' d='M3.73599-6.117061C3.795766-6.356164 3.825654-6.455791 4.014944-6.485679C4.104608-6.495641 4.423412-6.495641 4.622665-6.495641C5.330012-6.495641 6.435866-6.495641 6.435866-5.50934C6.435866-5.17061 6.276463-4.483188 5.88792-4.094645C5.628892-3.835616 5.100872-3.516812 4.204234-3.516812H3.088418L3.73599-6.117061ZM5.17061-3.387298C6.176837-3.606476 7.362391-4.303861 7.362391-5.310087C7.362391-6.166874 6.465753-6.804483 5.160648-6.804483H2.321295C2.122042-6.804483 2.032379-6.804483 2.032379-6.60523C2.032379-6.495641 2.122042-6.495641 2.311333-6.495641C2.331258-6.495641 2.520548-6.495641 2.689913-6.475716C2.86924-6.455791 2.958904-6.445828 2.958904-6.316314C2.958904-6.276463 2.948941-6.246575 2.919054-6.127024L1.58406-.777086C1.484433-.388543 1.464508-.308842 .67746-.308842C.498132-.308842 .408468-.308842 .408468-.109589C.408468 0 .52802 0 .547945 0C.826899 0 1.524284-.029888 1.803238-.029888S2.789539 0 3.068493 0C3.148194 0 3.267746 0 3.267746-.199253C3.267746-.308842 3.178082-.308842 2.988792-.308842C2.620174-.308842 2.34122-.308842 2.34122-.488169C2.34122-.547945 2.361146-.597758 2.371108-.657534L3.028643-3.297634H4.214197C5.120797-3.297634 5.300125-2.739726 5.300125-2.391034C5.300125-2.241594 5.220423-1.932752 5.160648-1.703611C5.090909-1.424658 5.001245-1.05604 5.001245-.856787C5.001245 .219178 6.196762 .219178 6.326276 .219178C7.173101 .219178 7.521793-.787049 7.521793-.926526C7.521793-1.046077 7.412204-1.046077 7.402242-1.046077C7.312578-1.046077 7.292653-.976339 7.272727-.9066C7.023661-.169365 6.595268 0 6.366127 0C6.03736 0 5.967621-.219178 5.967621-.607721C5.967621-.916563 6.027397-1.424658 6.067248-1.743462C6.087173-1.882939 6.107098-2.072229 6.107098-2.211706C6.107098-2.978829 5.439601-3.287671 5.17061-3.387298Z'/>
</defs>
<g id='page1' transform='matrix(1.5 0 0 1.5 0 0)'>
<use x='174.620822' y='29.299444' xlink:href='#g1-14'/>
<use x='179.425714' y='29.299444' xlink:href='#g1-82'/>
<use x='187.067211' y='25.185948' xlink:href='#g2-22'/>
<use x='192.409495' y='30.793825' xlink:href='#g2-23'/>
<use x='196.868511' y='30.793825' xlink:href='#g2-26'/>
<use x='201.001997' y='30.793825' xlink:href='#g2-27'/>
<use x='209.134299' y='29.299444' xlink:href='#g3-61'/>
<use x='219.650379' y='29.299444' xlink:href='#g1-64'/>
<use x='224.939582' y='30.793825' xlink:href='#g2-26'/>
<use x='229.571201' y='29.299444' xlink:href='#g1-14'/>
<use x='234.376093' y='29.299444' xlink:href='#g3-0'/>
<use x='240.602762' y='25.185948' xlink:href='#g2-22'/>
<use x='240.602762' y='31.762376' xlink:href='#g2-23'/>
<use x='245.061777' y='31.762376' xlink:href='#g2-27'/>
<use x='252.640612' y='29.299444' xlink:href='#g0-0'/>
<use x='262.603226' y='29.299444' xlink:href='#g1-64'/>
<use x='267.892429' y='30.793825' xlink:href='#g2-27'/>
<use x='273.257412' y='29.299444' xlink:href='#g1-14'/>
<use x='278.062304' y='29.299444' xlink:href='#g3-0'/>
<use x='284.288973' y='25.185948' xlink:href='#g2-22'/>
<use x='284.288973' y='31.762376' xlink:href='#g2-23'/>
<use x='288.747988' y='31.762376' xlink:href='#g2-26'/>
</g>
</svg>