<?xml version='1.0' encoding='UTF-8'?>
<!-- This file was generated by dvisvgm 3.2 -->
<svg version='1.1' xmlns='http://www.w3.org/2000/svg' xmlns:xlink='http://www.w3.org/1999/xlink' width='274.851678pt' height='15.688147pt' viewBox='213.119557 32.741196 274.851678 15.688147'>
<defs>
<path id='g3-40' d='M3.297634 2.391034C3.297634 2.361146 3.297634 2.34122 3.128269 2.171856C1.882939 .916563 1.564134-.966376 1.564134-2.49066C1.564134-4.224159 1.942715-5.957659 3.16812-7.202989C3.297634-7.32254 3.297634-7.342466 3.297634-7.372354C3.297634-7.442092 3.257783-7.47198 3.198007-7.47198C3.098381-7.47198 2.201743-6.794521 1.613948-5.529265C1.105853-4.433375 .986301-3.327522 .986301-2.49066C.986301-1.713574 1.09589-.508095 1.643836 .617684C2.241594 1.843088 3.098381 2.49066 3.198007 2.49066C3.257783 2.49066 3.297634 2.460772 3.297634 2.391034Z'/>
<path id='g3-41' d='M2.879203-2.49066C2.879203-3.267746 2.769614-4.473225 2.221669-5.599004C1.62391-6.824408 .767123-7.47198 .667497-7.47198C.607721-7.47198 .56787-7.43213 .56787-7.372354C.56787-7.342466 .56787-7.32254 .757161-7.143213C1.733499-6.156912 2.30137-4.572852 2.30137-2.49066C2.30137-.787049 1.932752 .966376 .697385 2.221669C.56787 2.34122 .56787 2.361146 .56787 2.391034C.56787 2.450809 .607721 2.49066 .667497 2.49066C.767123 2.49066 1.663761 1.8132 2.251557 .547945C2.759651-.547945 2.879203-1.653798 2.879203-2.49066Z'/>
<path id='g3-43' d='M4.07472-2.291407H6.854296C6.993773-2.291407 7.183064-2.291407 7.183064-2.49066S6.993773-2.689913 6.854296-2.689913H4.07472V-5.479452C4.07472-5.618929 4.07472-5.808219 3.875467-5.808219S3.676214-5.618929 3.676214-5.479452V-2.689913H.886675C.747198-2.689913 .557908-2.689913 .557908-2.49066S.747198-2.291407 .886675-2.291407H3.676214V.498132C3.676214 .637609 3.676214 .826899 3.875467 .826899S4.07472 .637609 4.07472 .498132V-2.291407Z'/>
<path id='g0-0' d='M6.56538-2.291407C6.734745-2.291407 6.914072-2.291407 6.914072-2.49066S6.734745-2.689913 6.56538-2.689913H1.175592C1.006227-2.689913 .826899-2.689913 .826899-2.49066S1.006227-2.291407 1.175592-2.291407H6.56538Z'/>
<path id='g0-33' d='M8.308842-2.291407C7.760897-1.872976 7.491905-1.464508 7.412204-1.334994C6.963885-.647572 6.884184-.019925 6.884184-.009963C6.884184 .109589 7.003736 .109589 7.083437 .109589C7.252802 .109589 7.262765 .089664 7.302615-.089664C7.531756-1.066002 8.119552-1.902864 9.24533-2.361146C9.364882-2.400996 9.39477-2.420922 9.39477-2.49066S9.334994-2.590286 9.315068-2.600249C8.876712-2.769614 7.671233-3.267746 7.292653-4.941469C7.262765-5.061021 7.252802-5.090909 7.083437-5.090909C7.003736-5.090909 6.884184-5.090909 6.884184-4.971357C6.884184-4.951432 6.973848-4.323786 7.392279-3.656289C7.591532-3.35741 7.880448-3.008717 8.308842-2.689913H.9066C.727273-2.689913 .547945-2.689913 .547945-2.49066S.727273-2.291407 .9066-2.291407H8.308842Z'/>
<path id='g2-22' d='M.376588 1.12279C.348692 1.227397 .348692 1.262267 .348692 1.26924C.348692 1.422665 .474222 1.492403 .585803 1.492403C.836862 1.492403 .892653 1.262267 .920548 1.143711C.934496 1.108842 1.073973 .550934 1.241345-.132503C1.457534 .013948 1.736488 .069738 1.987547 .069738C2.587298 .069738 2.977833-.418431 2.991781-.432379C3.124284 .048817 3.605479 .069738 3.710087 .069738C3.961146 .069738 4.135492-.083686 4.261021-.299875C4.414446-.571856 4.505106-.969365 4.505106-.99726C4.505106-1.08792 4.414446-1.08792 4.393524-1.08792C4.29589-1.08792 4.288917-1.060025 4.2401-.871731C4.156413-.536986 4.02391-.125529 3.731009-.125529C3.549689-.125529 3.500872-.278954 3.500872-.467248C3.500872-.585803 3.556663-.836862 3.605479-1.018182C3.654296-1.206476 3.724035-1.492403 3.758904-1.645828L3.919303-2.266501C3.961146-2.440847 4.037858-2.747696 4.037858-2.782565C4.037858-2.922042 3.926276-3.005729 3.807721-3.005729C3.731009-3.005729 3.598506-2.970859 3.521793-2.838356C3.500872-2.796513 3.445081-2.57335 3.410212-2.433873L3.263761-1.855044L3.047572-.983313C2.998755-.808966 2.998755-.795019 2.93599-.704359C2.719801-.397509 2.412951-.125529 2.015442-.125529C1.443587-.125529 1.443587-.620672 1.443587-.746202C1.443587-.927522 1.464508-1.018182 1.562142-1.39477C1.63188-1.701619 1.645828-1.750436 1.715567-2.022416L1.8132-2.412951C1.84807-2.559402 1.917808-2.824408 1.917808-2.852304C1.917808-2.977833 1.820174-3.075467 1.680697-3.075467C1.429639-3.075467 1.366874-2.831382 1.345953-2.747696L.376588 1.12279Z'/>
<path id='g2-23' d='M1.750436-2.873225C1.75741-2.901121 1.764384-2.942964 1.764384-2.977833C1.764384-2.984807 1.764384-3.075467 1.652802-3.075467C1.645828-3.075467 1.248319-3.040598 1.199502-3.040598C1.066999-3.02665 .941469-3.019676 .808966-3.005729C.697385-2.998755 .613699-2.991781 .613699-2.84533C.613699-2.747696 .711333-2.747696 .795019-2.747696C1.129763-2.747696 1.129763-2.705853 1.129763-2.643088C1.129763-2.601245 1.094894-2.461768 1.066999-2.371108L.718306-.962391C.54396-.265006 .509091-.125529 .509091-.097634C.509091 0 .613699 0 .641594 0H.753176C1.373848-.097634 2.259527-.425405 3.005729-1.08792C3.954172-1.931756 4.093649-2.838356 4.093649-2.852304C4.093649-2.977833 3.996015-3.075467 3.856538-3.075467C3.612453-3.075467 3.563636-2.880199 3.500872-2.684932C3.221918-1.694645 2.287422-.627646 1.101868-.278954L1.750436-2.873225Z'/>
<path id='g2-26' d='M.376588 1.12279C.348692 1.227397 .348692 1.262267 .348692 1.26924C.348692 1.422665 .474222 1.492403 .585803 1.492403C.836862 1.492403 .892653 1.283188 .941469 1.060025C1.039103 .697385 1.234371-.097634 1.30411-.36264C1.366874-.258032 1.590037 .069738 2.071233 .069738C2.963885 .069738 3.912329-.878705 3.912329-1.896887C3.912329-2.636115 3.417186-3.075467 2.803487-3.075467C2.12005-3.075467 1.276214-2.475716 1.03213-1.492403L.376588 1.12279ZM2.064259-.125529C1.548194-.125529 1.39477-.641594 1.39477-.732254C1.39477-.746202 1.436613-.899626 1.457534-.983313C1.66675-1.841096 1.708593-2.001494 1.910834-2.308344C2.161893-2.677958 2.510585-2.880199 2.789539-2.880199C3.075467-2.880199 3.347447-2.677958 3.347447-2.175841C3.347447-1.855044 3.166127-1.080946 2.949938-.732254C2.629141-.237111 2.280448-.125529 2.064259-.125529Z'/>
<path id='g1-17' d='M4.861768-2.759651C4.911582-2.938979 4.941469-3.068493 4.941469-3.337484C4.941469-3.985056 4.542964-4.403487 3.795766-4.403487C3.008717-4.403487 2.49066-3.88543 2.251557-3.536737C2.201743-4.104608 1.783313-4.403487 1.334994-4.403487C.876712-4.403487 .687422-4.014944 .597758-3.835616C.418431-3.496887 .288917-2.899128 .288917-2.86924C.288917-2.769614 .388543-2.769614 .408468-2.769614C.508095-2.769614 .518057-2.779577 .577833-2.998755C.747198-3.706102 .946451-4.184309 1.305106-4.184309C1.474471-4.184309 1.613948-4.104608 1.613948-3.726027C1.613948-3.516812 1.58406-3.407223 1.454545-2.889166L.876712-.587796C.846824-.438356 .787049-.209215 .787049-.159402C.787049 .019925 .926526 .109589 1.075965 .109589C1.195517 .109589 1.374844 .029888 1.444583-.169365C1.454545-.18929 1.574097-.657534 1.633873-.9066L1.853051-1.803238C1.912827-2.022416 1.972603-2.241594 2.022416-2.470735C2.042341-2.530511 2.122042-2.859278 2.132005-2.919054C2.161893-3.008717 2.470735-3.566625 2.809465-3.835616C3.028643-3.995019 3.337484-4.184309 3.765878-4.184309S4.303861-3.845579 4.303861-3.486924C4.303861-3.437111 4.303861-3.257783 4.204234-2.859278L3.068493 1.723537C3.038605 1.843088 3.038605 1.863014 3.038605 1.882939C3.038605 2.032379 3.148194 2.15193 3.317559 2.15193C3.626401 2.15193 3.696139 1.863014 3.726027 1.753425L4.861768-2.759651Z'/>
<path id='g1-72' d='M7.601494-6.03736C7.691158-6.396015 7.711083-6.495641 8.438356-6.495641C8.697385-6.495641 8.777086-6.495641 8.777086-6.694894C8.777086-6.804483 8.667497-6.804483 8.637609-6.804483C8.358655-6.804483 7.641345-6.774595 7.362391-6.774595C7.073474-6.774595 6.366127-6.804483 6.07721-6.804483C5.997509-6.804483 5.88792-6.804483 5.88792-6.60523C5.88792-6.495641 5.977584-6.495641 6.166874-6.495641C6.1868-6.495641 6.37609-6.495641 6.545455-6.475716C6.724782-6.455791 6.814446-6.445828 6.814446-6.316314C6.814446-6.276463 6.804483-6.256538 6.774595-6.127024L6.176837-3.696139H3.138232L3.726027-6.03736C3.815691-6.396015 3.845579-6.495641 4.562889-6.495641C4.821918-6.495641 4.901619-6.495641 4.901619-6.694894C4.901619-6.804483 4.79203-6.804483 4.762142-6.804483C4.483188-6.804483 3.765878-6.774595 3.486924-6.774595C3.198007-6.774595 2.49066-6.804483 2.201743-6.804483C2.122042-6.804483 2.012453-6.804483 2.012453-6.60523C2.012453-6.495641 2.102117-6.495641 2.291407-6.495641C2.311333-6.495641 2.500623-6.495641 2.669988-6.475716C2.849315-6.455791 2.938979-6.445828 2.938979-6.316314C2.938979-6.276463 2.929016-6.246575 2.899128-6.127024L1.564134-.777086C1.464508-.388543 1.444583-.308842 .657534-.308842C.478207-.308842 .388543-.308842 .388543-.109589C.388543 0 .508095 0 .52802 0C.806974 0 1.514321-.029888 1.793275-.029888C2.002491-.029888 2.221669-.019925 2.430884-.019925C2.650062-.019925 2.86924 0 3.078456 0C3.158157 0 3.277709 0 3.277709-.199253C3.277709-.308842 3.188045-.308842 2.998755-.308842C2.630137-.308842 2.351183-.308842 2.351183-.488169C2.351183-.547945 2.371108-.597758 2.381071-.657534L3.058531-3.387298H6.097136C5.678705-1.733499 5.449564-.787049 5.409714-.637609C5.310087-.318804 5.120797-.308842 4.503113-.308842C4.353674-.308842 4.26401-.308842 4.26401-.109589C4.26401 0 4.383562 0 4.403487 0C4.682441 0 5.389788-.029888 5.668742-.029888C5.877958-.029888 6.097136-.019925 6.306351-.019925C6.525529-.019925 6.744707 0 6.953923 0C7.033624 0 7.153176 0 7.153176-.199253C7.153176-.308842 7.063512-.308842 6.874222-.308842C6.505604-.308842 6.22665-.308842 6.22665-.488169C6.22665-.547945 6.246575-.597758 6.256538-.657534L7.601494-6.03736Z'/>
<path id='g1-88' d='M4.83188-4.094645L3.995019-6.07721C3.965131-6.156912 3.945205-6.196762 3.945205-6.206725C3.945205-6.266501 4.11457-6.455791 4.533001-6.495641C4.632628-6.505604 4.732254-6.515567 4.732254-6.684932C4.732254-6.804483 4.612702-6.804483 4.582814-6.804483C4.174346-6.804483 3.745953-6.774595 3.327522-6.774595C3.078456-6.774595 2.460772-6.804483 2.211706-6.804483C2.15193-6.804483 2.032379-6.804483 2.032379-6.60523C2.032379-6.495641 2.132005-6.495641 2.261519-6.495641C2.859278-6.495641 2.919054-6.396015 3.008717-6.176837L4.184309-3.39726L2.082192-1.135741L1.952677-1.026152C1.464508-.498132 .996264-.33873 .488169-.308842C.358655-.298879 .268991-.298879 .268991-.109589C.268991-.099626 .268991 0 .398506 0C.697385 0 1.026152-.029888 1.334994-.029888C1.703611-.029888 2.092154 0 2.450809 0C2.510585 0 2.630137 0 2.630137-.199253C2.630137-.298879 2.530511-.308842 2.510585-.308842C2.420922-.318804 2.11208-.33873 2.11208-.617684C2.11208-.777086 2.261519-.936488 2.381071-1.066002L3.39726-2.141968L4.293898-3.118306L5.300125-.737235C5.339975-.627646 5.349938-.617684 5.349938-.597758C5.349938-.518057 5.160648-.348692 4.772105-.308842C4.662516-.298879 4.572852-.288917 4.572852-.119552C4.572852 0 4.682441 0 4.722291 0C5.001245 0 5.69863-.029888 5.977584-.029888C6.22665-.029888 6.834371 0 7.083437 0C7.153176 0 7.272727 0 7.272727-.18929C7.272727-.308842 7.173101-.308842 7.0934-.308842C6.425903-.318804 6.405978-.348692 6.236613-.747198C5.84807-1.673724 5.180573-3.227895 4.951432-3.825654C5.628892-4.523039 6.674969-5.708593 6.993773-5.987547C7.28269-6.22665 7.66127-6.465753 8.259029-6.495641C8.388543-6.505604 8.478207-6.505604 8.478207-6.694894C8.478207-6.704857 8.478207-6.804483 8.348692-6.804483C8.049813-6.804483 7.721046-6.774595 7.412204-6.774595C7.043587-6.774595 6.665006-6.804483 6.306351-6.804483C6.246575-6.804483 6.117061-6.804483 6.117061-6.60523C6.117061-6.535492 6.166874-6.505604 6.236613-6.495641C6.326276-6.485679 6.635118-6.465753 6.635118-6.1868C6.635118-6.047323 6.525529-5.917808 6.445828-5.828144L4.83188-4.094645Z'/>
<path id='g1-105' d='M2.82939-6.22665C2.82939-6.425903 2.689913-6.585305 2.460772-6.585305C2.191781-6.585305 1.92279-6.326276 1.92279-6.057285C1.92279-5.867995 2.062267-5.69863 2.30137-5.69863C2.530511-5.69863 2.82939-5.927771 2.82939-6.22665ZM2.072229-2.480697C2.191781-2.769614 2.191781-2.789539 2.291407-3.058531C2.371108-3.257783 2.420922-3.39726 2.420922-3.58655C2.420922-4.034869 2.102117-4.403487 1.603985-4.403487C.667497-4.403487 .288917-2.958904 .288917-2.86924C.288917-2.769614 .388543-2.769614 .408468-2.769614C.508095-2.769614 .518057-2.789539 .56787-2.948941C.836862-3.88543 1.235367-4.184309 1.574097-4.184309C1.653798-4.184309 1.823163-4.184309 1.823163-3.865504C1.823163-3.656289 1.753425-3.447073 1.713574-3.347447C1.633873-3.088418 1.185554-1.932752 1.026152-1.504359C.926526-1.24533 .797011-.916563 .797011-.707347C.797011-.239103 1.135741 .109589 1.613948 .109589C2.550436 .109589 2.919054-1.334994 2.919054-1.424658C2.919054-1.524284 2.82939-1.524284 2.799502-1.524284C2.699875-1.524284 2.699875-1.494396 2.650062-1.344956C2.470735-.71731 2.141968-.109589 1.633873-.109589C1.464508-.109589 1.39477-.209215 1.39477-.438356C1.39477-.687422 1.454545-.826899 1.683686-1.43462L2.072229-2.480697Z'/>
<path id='g1-107' d='M2.859278-6.804483C2.859278-6.814446 2.859278-6.914072 2.729763-6.914072C2.500623-6.914072 1.77335-6.834371 1.514321-6.814446C1.43462-6.804483 1.325031-6.794521 1.325031-6.615193C1.325031-6.495641 1.414695-6.495641 1.564134-6.495641C2.042341-6.495641 2.062267-6.425903 2.062267-6.326276L2.032379-6.127024L.587796-.388543C.547945-.249066 .547945-.229141 .547945-.169365C.547945 .059776 .747198 .109589 .836862 .109589C.966376 .109589 1.115816 .019925 1.175592-.099626C1.225405-.18929 1.673724-2.032379 1.733499-2.281445C2.072229-2.251557 2.889166-2.092154 2.889166-1.43462C2.889166-1.364882 2.889166-1.325031 2.859278-1.225405C2.839352-1.105853 2.819427-.986301 2.819427-.876712C2.819427-.288917 3.217933 .109589 3.73599 .109589C4.034869 .109589 4.303861-.049813 4.523039-.418431C4.772105-.856787 4.881694-1.404732 4.881694-1.424658C4.881694-1.524284 4.79203-1.524284 4.762142-1.524284C4.662516-1.524284 4.652553-1.484433 4.622665-1.344956C4.423412-.617684 4.194271-.109589 3.755915-.109589C3.566625-.109589 3.437111-.219178 3.437111-.577833C3.437111-.747198 3.476961-.976339 3.516812-1.135741C3.556663-1.305106 3.556663-1.344956 3.556663-1.444583C3.556663-2.092154 2.929016-2.381071 2.082192-2.49066C2.391034-2.669988 2.709838-2.988792 2.938979-3.227895C3.417186-3.755915 3.875467-4.184309 4.363636-4.184309C4.423412-4.184309 4.433375-4.184309 4.4533-4.174346C4.572852-4.154421 4.582814-4.154421 4.662516-4.094645C4.682441-4.084682 4.682441-4.07472 4.702366-4.054795C4.224159-4.024907 4.134496-3.636364 4.134496-3.516812C4.134496-3.35741 4.244085-3.16812 4.513076-3.16812C4.772105-3.16812 5.061021-3.387298 5.061021-3.775841C5.061021-4.07472 4.83188-4.403487 4.383562-4.403487C4.104608-4.403487 3.646326-4.323786 2.929016-3.526775C2.590286-3.148194 2.201743-2.749689 1.823163-2.600249L2.859278-6.804483Z'/>
</defs>
<g id='page1' transform='matrix(1.5 0 0 1.5 0 0)'>
<use x='141.691162' y='29.299444' xlink:href='#g1-72'/>
<use x='149.972618' y='30.793825' xlink:href='#g2-22'/>
<use x='154.816773' y='30.793825' xlink:href='#g2-23'/>
<use x='162.541239' y='29.299444' xlink:href='#g0-33'/>
<use x='175.27124' y='29.299444' xlink:href='#g1-72'/>
<use x='183.552696' y='30.793825' xlink:href='#g2-22'/>
<use x='188.396851' y='30.793825' xlink:href='#g2-23'/>
<use x='195.56785' y='29.299444' xlink:href='#g3-43'/>
<use x='205.530464' y='29.299444' xlink:href='#g1-105'/>
<use x='208.962722' y='29.299444' xlink:href='#g3-40'/>
<use x='212.837096' y='29.299444' xlink:href='#g1-107'/>
<use x='218.023687' y='30.793825' xlink:href='#g2-22'/>
<use x='223.365974' y='29.299444' xlink:href='#g1-88'/>
<use x='231.619762' y='30.793825' xlink:href='#g2-23'/>
<use x='238.790762' y='29.299444' xlink:href='#g3-43'/>
<use x='248.753376' y='29.299444' xlink:href='#g1-107'/>
<use x='253.939968' y='30.793825' xlink:href='#g2-23'/>
<use x='258.897102' y='29.299444' xlink:href='#g1-88'/>
<use x='267.15089' y='30.793825' xlink:href='#g2-22'/>
<use x='274.707043' y='29.299444' xlink:href='#g0-0'/>
<use x='284.669656' y='29.299444' xlink:href='#g1-17'/>
<use x='289.616421' y='30.793825' xlink:href='#g2-22'/>
<use x='294.460576' y='30.793825' xlink:href='#g2-23'/>
<use x='299.417709' y='29.299444' xlink:href='#g1-107'/>
<use x='304.917929' y='25.185948' xlink:href='#g2-26'/>
<use x='309.549547' y='29.299444' xlink:href='#g1-88'/>
<use x='317.803336' y='30.793825' xlink:href='#g2-26'/>
<use x='322.434954' y='29.299444' xlink:href='#g3-41'/>
</g>
</svg>