<?xml version='1.0' encoding='UTF-8'?>
<!-- This file was generated by dvisvgm 3.2 -->
<svg version='1.1' xmlns='http://www.w3.org/2000/svg' xmlns:xlink='http://www.w3.org/1999/xlink' width='55.779994pt' height='14.94396pt' viewBox='-21.370884 14.808444 55.779994 14.94396'>
<defs>
<path id='g2-40' d='M3.297634 2.391034C3.297634 2.361146 3.297634 2.34122 3.128269 2.171856C1.882939 .916563 1.564134-.966376 1.564134-2.49066C1.564134-4.224159 1.942715-5.957659 3.16812-7.202989C3.297634-7.32254 3.297634-7.342466 3.297634-7.372354C3.297634-7.442092 3.257783-7.47198 3.198007-7.47198C3.098381-7.47198 2.201743-6.794521 1.613948-5.529265C1.105853-4.433375 .986301-3.327522 .986301-2.49066C.986301-1.713574 1.09589-.508095 1.643836 .617684C2.241594 1.843088 3.098381 2.49066 3.198007 2.49066C3.257783 2.49066 3.297634 2.460772 3.297634 2.391034Z'/>
<path id='g2-41' d='M2.879203-2.49066C2.879203-3.267746 2.769614-4.473225 2.221669-5.599004C1.62391-6.824408 .767123-7.47198 .667497-7.47198C.607721-7.47198 .56787-7.43213 .56787-7.372354C.56787-7.342466 .56787-7.32254 .757161-7.143213C1.733499-6.156912 2.30137-4.572852 2.30137-2.49066C2.30137-.787049 1.932752 .966376 .697385 2.221669C.56787 2.34122 .56787 2.361146 .56787 2.391034C.56787 2.450809 .607721 2.49066 .667497 2.49066C.767123 2.49066 1.663761 1.8132 2.251557 .547945C2.759651-.547945 2.879203-1.653798 2.879203-2.49066Z'/>
<path id='g0-24' d='M7.193026-3.327522C7.193026-3.5467 7.13325-3.646326 7.053549-3.646326C7.003736-3.646326 6.924035-3.576588 6.914072-3.387298C6.874222-2.430884 6.216687-1.882939 5.519303-1.882939C4.891656-1.882939 4.41345-2.311333 3.92528-2.739726C3.417186-3.198007 2.899128-3.656289 2.221669-3.656289C1.135741-3.656289 .547945-2.560399 .547945-1.653798C.547945-1.334994 .67746-1.334994 .687422-1.334994C.797011-1.334994 .826899-1.534247 .826899-1.564134C.86675-2.660025 1.613948-3.098381 2.221669-3.098381C2.849315-3.098381 3.327522-2.669988 3.815691-2.241594C4.323786-1.783313 4.841843-1.325031 5.519303-1.325031C6.60523-1.325031 7.193026-2.420922 7.193026-3.327522Z'/>
<path id='g0-79' d='M7.740971-4.801993C7.740971-6.067248 7.183064-7.023661 5.967621-7.023661C4.931507-7.023661 4.054795-6.1868 3.985056-6.127024C3.188045-5.339975 2.889166-4.443337 2.889166-4.423412C2.889166-4.363636 2.938979-4.353674 2.988792-4.353674C3.178082-4.353674 3.337484-4.4533 3.486924-4.562889C3.666252-4.692403 3.676214-4.722291 3.785803-4.951432C3.875467-5.150685 4.104608-5.638854 4.473225-6.057285C4.712329-6.326276 4.911582-6.475716 5.310087-6.475716C6.276463-6.475716 6.894147-5.678705 6.894147-4.373599C6.894147-2.34122 5.449564-.328767 3.606476-.328767C2.191781-.328767 1.414695-1.454545 1.414695-2.879203C1.414695-4.234122 2.11208-5.728518 3.566625-6.585305C3.666252-6.645081 3.965131-6.824408 3.965131-6.953923C3.965131-7.023661 3.88543-7.023661 3.865504-7.023661C3.516812-7.023661 .56787-5.439601 .56787-2.450809C.56787-1.05604 1.295143 .219178 2.948941 .219178C4.891656 .219178 7.740971-1.733499 7.740971-4.801993Z'/>
<path id='g1-15' d='M2.968867-2.251557C3.128269-2.251557 3.307597-2.251557 3.307597-2.420922C3.307597-2.560399 3.188045-2.560399 3.01868-2.560399H1.404732C1.643836-3.407223 2.201743-3.985056 3.108344-3.985056H3.417186C3.58655-3.985056 3.745953-3.985056 3.745953-4.154421C3.745953-4.293898 3.616438-4.293898 3.447073-4.293898H3.098381C1.803238-4.293898 .468244-3.297634 .468244-1.77335C.468244-.67746 1.215442 .109589 2.271482 .109589C2.919054 .109589 3.566625-.288917 3.566625-.398506C3.566625-.428394 3.556663-.537983 3.466999-.537983C3.447073-.537983 3.427148-.537983 3.337484-.478207C3.028643-.278954 2.660025-.109589 2.291407-.109589C1.713574-.109589 1.215442-.52802 1.215442-1.404732C1.215442-1.753425 1.295143-2.132005 1.325031-2.251557H2.968867Z'/>
<path id='g1-118' d='M4.662516-3.706102C4.662516-4.244085 4.403487-4.403487 4.224159-4.403487C3.975093-4.403487 3.73599-4.144458 3.73599-3.92528C3.73599-3.795766 3.785803-3.73599 3.895392-3.626401C4.104608-3.427148 4.234122-3.16812 4.234122-2.809465C4.234122-2.391034 3.626401-.109589 2.460772-.109589C1.952677-.109589 1.723537-.458281 1.723537-.976339C1.723537-1.534247 1.992528-2.261519 2.30137-3.088418C2.371108-3.257783 2.420922-3.39726 2.420922-3.58655C2.420922-4.034869 2.102117-4.403487 1.603985-4.403487C.667497-4.403487 .288917-2.958904 .288917-2.86924C.288917-2.769614 .388543-2.769614 .408468-2.769614C.508095-2.769614 .518057-2.789539 .56787-2.948941C.856787-3.955168 1.285181-4.184309 1.574097-4.184309C1.653798-4.184309 1.823163-4.184309 1.823163-3.865504C1.823163-3.616438 1.723537-3.347447 1.653798-3.16812C1.215442-2.012453 1.085928-1.554172 1.085928-1.125778C1.085928-.049813 1.96264 .109589 2.420922 .109589C4.094645 .109589 4.662516-3.188045 4.662516-3.706102Z'/>
</defs>
<g id='page1' transform='matrix(1.5 0 0 1.5 0 0)'>
<use x='-14.536172' y='17.344276' xlink:href='#g1-118'/>
<use x='-6.582269' y='17.344276' xlink:href='#g0-24'/>
<use x='3.933811' y='17.344276' xlink:href='#g0-79'/>
<use x='12.141956' y='17.344276' xlink:href='#g2-40'/>
<use x='16.01633' y='17.344276' xlink:href='#g1-15'/>
<use x='20.060204' y='17.344276' xlink:href='#g2-41'/>
</g>
</svg>