<?xml version='1.0' encoding='UTF-8'?>
<!-- This file was generated by dvisvgm 3.2 -->
<svg version='1.1' xmlns='http://www.w3.org/2000/svg' xmlns:xlink='http://www.w3.org/1999/xlink' width='41.73902pt' height='21.359944pt' viewBox='-19.532777 12.663512 41.73902 21.359944'>
<defs>
<path id='g1-22' d='M.493151 .782067C.473225 .861768 .473225 .886675 .473225 .901619C.473225 1.016189 .562889 1.075965 .657534 1.075965C.762142 1.075965 .86675 1.016189 .911582 .851806C.996264 .52802 .946451 .712329 1.026152 .383562L1.145704-.094645C1.339975 .024907 1.574097 .054795 1.753425 .054795C2.072229 .054795 2.336239-.094645 2.555417-.313823C2.645081-.014944 2.978829 .054795 3.143213 .054795C3.342466 .054795 3.476961-.059776 3.581569-.224159C3.711083-.418431 3.780822-.682441 3.780822-.71731C3.780822-.787049 3.696139-.787049 3.676214-.787049C3.58655-.787049 3.581569-.757161 3.556663-.67746C3.466999-.308842 3.337484-.11457 3.163138-.11457C3.023661-.11457 2.963885-.224159 2.963885-.37858C2.963885-.483188 3.118306-1.085928 3.312578-1.853051C3.337484-1.937733 3.337484-1.947696 3.337484-1.972603C3.337484-2.082192 3.247821-2.146949 3.153176-2.146949C2.953923-2.146949 2.914072-1.977584 2.879203-1.833126C2.819427-1.618929 2.819427-1.608966 2.769614-1.404732C2.714819-1.190535 2.650062-.931507 2.610212-.757161C2.575342-.632628 2.575342-.622665 2.49066-.518057C2.331258-.318804 2.092154-.11457 1.778331-.11457C1.50934-.11457 1.295143-.219178 1.295143-.572852C1.295143-.687422 1.32005-.79203 1.3599-.936488C1.409714-1.155666 1.419676-1.190535 1.469489-1.384807L1.554172-1.718555C1.579078-1.823163 1.62391-2.002491 1.62391-2.027397C1.62391-2.11208 1.559153-2.201743 1.439601-2.201743C1.240349-2.201743 1.195517-2.017435 1.180573-1.957659L.493151 .782067Z'/>
<path id='g0-64' d='M3.66127-2.357161C3.563636-2.761644 3.249813-3.180075 2.594271-3.180075C1.617933-3.180075 .808966-2.447821 .557908-1.820174C.516065-1.701619 .418431-1.415691 .418431-1.136737C.418431-.655542 .795019 .139477 1.882939 .139477C3.689166 .139477 4.42142-2.113076 4.42142-3.103362C4.42142-4.29589 3.640349-4.979328 2.705853-4.979328C1.569116-4.979328 1.255293-4.072727 1.255293-3.856538C1.255293-3.800747 1.290162-3.605479 1.534247-3.605479S1.924782-3.821669 1.924782-3.989041C1.924782-4.177335 1.785305-4.2401 1.652802-4.254047C2.001494-4.777086 2.57335-4.777086 2.691905-4.777086C3.214944-4.777086 3.835616-4.449315 3.835616-3.459029C3.835616-3.159153 3.800747-2.915068 3.668244-2.357161H3.66127ZM1.896887-.083686C1.108842-.083686 1.018182-.676463 1.018182-.892653C1.018182-1.164633 1.206476-1.84807 1.276214-2.022416C1.401743-2.343213 1.834122-2.984807 2.622167-2.984807C3.29863-2.984807 3.521793-2.454795 3.521793-2.036364C3.521793-1.569116 3.068493-.083686 1.896887-.083686Z'/>
<path id='g0-112' d='M.523039 .850809C.474222 1.046077 .460274 1.101868 .18132 1.101868C.09066 1.101868-.006974 1.101868-.006974 1.248319C-.006974 1.325031 .055791 1.352927 .09066 1.352927C.27198 1.352927 .502117 1.325031 .690411 1.325031C.927522 1.325031 1.192528 1.352927 1.422665 1.352927C1.48543 1.352927 1.562142 1.332005 1.562142 1.199502C1.562142 1.101868 1.464508 1.101868 1.380822 1.101868C1.227397 1.101868 1.039103 1.101868 1.039103 1.018182C1.039103 .983313 1.08792 .801993 1.115816 .697385C1.199502 .327771 1.297136-.048817 1.373848-.341719C1.457534-.202242 1.673724 .069738 2.092154 .069738C2.942964 .069738 3.884433-.871731 3.884433-1.910834C3.884433-2.726775 3.319552-3.075467 2.838356-3.075467C2.405978-3.075467 2.036364-2.782565 1.84807-2.587298C1.729514-2.984807 1.338979-3.075467 1.129763-3.075467C.857783-3.075467 .690411-2.894147 .578829-2.705853C.439352-2.468742 .327771-2.050311 .327771-2.008468C.327771-1.917808 .425405-1.917808 .446326-1.917808C.54396-1.917808 .550934-1.93873 .599751-2.127024C.704359-2.531507 .836862-2.880199 1.108842-2.880199C1.290162-2.880199 1.338979-2.726775 1.338979-2.538481C1.338979-2.461768 1.325031-2.371108 1.318057-2.329265L.523039 .850809ZM1.841096-2.238605C2.245579-2.775592 2.594271-2.880199 2.817435-2.880199C3.089415-2.880199 3.326526-2.677958 3.326526-2.203736C3.326526-1.917808 3.173101-1.206476 2.963885-.801993C2.789539-.460274 2.447821-.125529 2.092154-.125529C1.597011-.125529 1.471482-.662516 1.471482-.732254C1.471482-.760149 1.48543-.808966 1.492403-.836862L1.841096-2.238605Z'/>
<path id='g0-120' d='M1.736488-.739228C1.66675-.502117 1.436613-.125529 1.080946-.125529C1.060025-.125529 .850809-.125529 .704359-.223163C.990286-.313823 1.011208-.564882 1.011208-.606725C1.011208-.760149 .892653-.864757 .732254-.864757C.536986-.864757 .334745-.697385 .334745-.439352C.334745-.09066 .72528 .069738 1.066999 .069738C1.387796 .069738 1.673724-.132503 1.84807-.425405C2.015442-.055791 2.399004 .069738 2.677958 .069738C3.47995 .069738 3.905355-.801993 3.905355-.99726C3.905355-1.08792 3.814695-1.08792 3.793773-1.08792C3.696139-1.08792 3.689166-1.053051 3.66127-.969365C3.514819-.488169 3.096389-.125529 2.705853-.125529C2.426899-.125529 2.280448-.313823 2.280448-.578829C2.280448-.760149 2.447821-1.39477 2.643088-2.168867C2.782565-2.705853 3.096389-2.880199 3.326526-2.880199C3.340473-2.880199 3.556663-2.880199 3.703113-2.782565C3.47995-2.719801 3.396264-2.524533 3.396264-2.399004C3.396264-2.245579 3.514819-2.140971 3.675218-2.140971S4.065753-2.273474 4.065753-2.566376C4.065753-2.956912 3.619427-3.075467 3.340473-3.075467C2.991781-3.075467 2.712827-2.84533 2.559402-2.580324C2.433873-2.866252 2.113076-3.075467 1.72254-3.075467C.941469-3.075467 .495143-2.217684 .495143-2.008468C.495143-1.917808 .592777-1.917808 .613699-1.917808C.704359-1.917808 .711333-1.945704 .746202-2.036364C.920548-2.580324 1.3599-2.880199 1.701619-2.880199C1.931756-2.880199 2.12005-2.75467 2.12005-2.419925C2.12005-2.280448 2.036364-1.931756 1.973599-1.694645L1.736488-.739228Z'/>
<path id='g2-0' d='M4.11457 11.447073C4.11457 11.407223 4.094645 11.387298 4.07472 11.35741C3.616438 10.86924 2.938979 10.062267 2.520548 8.438356C2.291407 7.531756 2.201743 6.505604 2.201743 5.579078C2.201743 2.958904 2.82939 1.125778 4.024907-.169365C4.11457-.259029 4.11457-.278954 4.11457-.298879C4.11457-.398506 4.034869-.398506 3.995019-.398506C3.845579-.398506 3.307597 .199253 3.178082 .348692C2.161893 1.554172 1.514321 3.347447 1.514321 5.569116C1.514321 6.983811 1.763387 8.986301 3.068493 10.669988C3.16812 10.789539 3.815691 11.5467 3.995019 11.5467C4.034869 11.5467 4.11457 11.5467 4.11457 11.447073Z'/>
<path id='g2-1' d='M3.038605 5.579078C3.038605 4.164384 2.789539 2.161893 1.484433 .478207C1.384807 .358655 .737235-.398506 .557908-.398506C.508095-.398506 .438356-.37858 .438356-.298879C.438356-.259029 .458281-.229141 .498132-.199253C.976339 .318804 1.62391 1.125778 2.032379 2.709838C2.261519 3.616438 2.351183 4.64259 2.351183 5.569116C2.351183 6.575342 2.261519 7.591532 2.002491 8.56787C1.62391 9.96264 1.036115 10.759651 .52802 11.317559C.438356 11.407223 .438356 11.427148 .438356 11.447073C.438356 11.526775 .508095 11.5467 .557908 11.5467C.707347 11.5467 1.255293 10.938979 1.374844 10.799502C2.391034 9.594022 3.038605 7.800747 3.038605 5.579078Z'/>
</defs>
<g id='page1' transform='matrix(1.5 0 0 1.5 0 0)'>
<use x='-14.536172' y='9.274471' xlink:href='#g2-0'/>
<use x='-4.14995' y='13.421669' xlink:href='#g0-64'/>
<rect x='-8.774423' y='14.654366' height='.398484' width='13.932403'/>
<use x='-8.774423' y='20.779788' xlink:href='#g0-64'/>
<use x='-4.090937' y='20.779788' xlink:href='#g0-120'/>
<use x='.426864' y='18.787275' xlink:href='#g1-22'/>
<use x='6.353494' y='9.274471' xlink:href='#g2-1'/>
<use x='10.919729' y='21.329378' xlink:href='#g0-112'/>
</g>
</svg>