<?xml version='1.0' encoding='UTF-8'?>
<!-- This file was generated by dvisvgm 3.2 -->
<svg version='1.1' xmlns='http://www.w3.org/2000/svg' xmlns:xlink='http://www.w3.org/1999/xlink' width='138.983125pt' height='32.908833pt' viewBox='281.685713 27.30624 138.983125 32.908833'>
<defs>
<path id='g0-25' d='M7.193026-4.503113C7.193026-4.712329 7.123288-4.801993 7.053549-4.801993C7.013699-4.801993 6.924035-4.762142 6.914072-4.533001C6.874222-3.845579 6.176837-3.437111 5.529265-3.437111C4.951432-3.437111 4.4533-3.745953 3.935243-4.094645C3.39726-4.4533 2.859278-4.811955 2.211706-4.811955C1.285181-4.811955 .547945-4.104608 .547945-3.188045C.547945-2.968867 .627646-2.889166 .687422-2.889166C.787049-2.889166 .826899-3.078456 .826899-3.118306C.876712-3.955168 1.693649-4.254047 2.211706-4.254047C2.789539-4.254047 3.287671-3.945205 3.805729-3.596513C4.343711-3.237858 4.881694-2.879203 5.529265-2.879203C6.455791-2.879203 7.193026-3.58655 7.193026-4.503113ZM7.193026-2.171856C7.193026-2.460772 7.073474-2.480697 7.053549-2.480697C7.013699-2.480697 6.924035-2.430884 6.914072-2.211706C6.874222-1.524284 6.176837-1.115816 5.529265-1.115816C4.951432-1.115816 4.4533-1.424658 3.935243-1.77335C3.39726-2.132005 2.859278-2.49066 2.211706-2.49066C1.285181-2.49066 .547945-1.783313 .547945-.86675C.547945-.647572 .627646-.56787 .687422-.56787C.787049-.56787 .826899-.757161 .826899-.797011C.876712-1.633873 1.693649-1.932752 2.211706-1.932752C2.789539-1.932752 3.287671-1.62391 3.805729-1.275218C4.343711-.916563 4.881694-.557908 5.529265-.557908C6.475716-.557908 7.193026-1.295143 7.193026-2.171856Z'/>
<path id='g2-11' d='M3.814695-.983313C4.456289-1.645828 4.714321-2.57335 4.714321-2.650062C4.714321-2.740722 4.630635-2.740722 4.595766-2.740722C4.498132-2.740722 4.498132-2.719801 4.449315-2.566376C4.323786-2.106102 4.093649-1.680697 3.800747-1.30411C3.793773-1.408717 3.779826-1.875965 3.765878-1.93873C3.66127-2.629141 3.138232-3.075467 2.440847-3.075467C1.415691-3.075467 .432379-2.12005 .432379-1.143711C.432379-.502117 .899626 .069738 1.708593 .069738C2.350187 .069738 2.929016-.223163 3.319552-.523039C3.47995-.013948 3.835616 .069738 4.044832 .069738C4.449315 .069738 4.700374-.27198 4.700374-.418431C4.700374-.502117 4.616687-.502117 4.581818-.502117C4.491158-.502117 4.47721-.474222 4.463263-.432379C4.365629-.167372 4.14944-.125529 4.065753-.125529C3.96812-.125529 3.849564-.125529 3.814695-.983313ZM3.270735-.746202C2.587298-.188294 1.994521-.125529 1.729514-.125529C1.26924-.125529 1.011208-.432379 1.011208-.899626C1.011208-1.101868 1.108842-1.862017 1.471482-2.343213C1.792279-2.761644 2.189788-2.880199 2.433873-2.880199C2.991781-2.880199 3.152179-2.343213 3.20797-1.910834C3.249813-1.610959 3.235866-1.115816 3.270735-.746202Z'/>
<path id='g2-12' d='M4.414446-3.947198C4.414446-4.560897 3.884433-4.916563 3.270735-4.916563C2.315318-4.916563 1.610959-3.828643 1.436613-3.124284L.341719 1.26924C.327771 1.318057 .397509 1.352927 .439352 1.352927C.502117 1.352927 .557908 1.345953 .571856 1.30411L1.039103-.557908C1.185554-.237111 1.520299 .062765 2.085181 .062765C3.061519 .062765 4.163387-.641594 4.163387-1.708593C4.163387-2.12005 3.975093-2.538481 3.619427-2.768618C3.961146-2.984807 4.414446-3.382316 4.414446-3.947198ZM3.033624-2.775592C2.929016-2.75467 2.880199-2.726775 2.677958-2.726775C2.566376-2.726775 2.399004-2.733748 2.350187-2.761644C2.419925-2.803487 2.615193-2.810461 2.677958-2.810461C2.782565-2.810461 2.93599-2.803487 3.033624-2.775592ZM3.954172-4.072727C3.954172-3.703113 3.772852-3.159153 3.340473-2.915068C3.20797-2.956912 3.075467-3.005729 2.684932-3.005729C2.440847-3.005729 2.092154-2.991781 2.092154-2.740722C2.092154-2.566376 2.308344-2.538481 2.66401-2.538481C2.901121-2.538481 3.110336-2.57335 3.326526-2.636115C3.535741-2.489664 3.647323-2.203736 3.647323-1.896887C3.647323-.885679 2.956912-.132503 2.106102-.132503C1.569116-.132503 1.185554-.460274 1.185554-1.011208C1.185554-1.080946 1.192528-1.150685 1.206476-1.21345L1.66675-3.068493C1.834122-3.731009 2.447821-4.721295 3.256787-4.721295C3.668244-4.721295 3.954172-4.498132 3.954172-4.072727Z'/>
<path id='g2-22' d='M.376588 1.12279C.348692 1.227397 .348692 1.262267 .348692 1.26924C.348692 1.422665 .474222 1.492403 .585803 1.492403C.836862 1.492403 .892653 1.262267 .920548 1.143711C.934496 1.108842 1.073973 .550934 1.241345-.132503C1.457534 .013948 1.736488 .069738 1.987547 .069738C2.587298 .069738 2.977833-.418431 2.991781-.432379C3.124284 .048817 3.605479 .069738 3.710087 .069738C3.961146 .069738 4.135492-.083686 4.261021-.299875C4.414446-.571856 4.505106-.969365 4.505106-.99726C4.505106-1.08792 4.414446-1.08792 4.393524-1.08792C4.29589-1.08792 4.288917-1.060025 4.2401-.871731C4.156413-.536986 4.02391-.125529 3.731009-.125529C3.549689-.125529 3.500872-.278954 3.500872-.467248C3.500872-.585803 3.556663-.836862 3.605479-1.018182C3.654296-1.206476 3.724035-1.492403 3.758904-1.645828L3.919303-2.266501C3.961146-2.440847 4.037858-2.747696 4.037858-2.782565C4.037858-2.922042 3.926276-3.005729 3.807721-3.005729C3.731009-3.005729 3.598506-2.970859 3.521793-2.838356C3.500872-2.796513 3.445081-2.57335 3.410212-2.433873L3.263761-1.855044L3.047572-.983313C2.998755-.808966 2.998755-.795019 2.93599-.704359C2.719801-.397509 2.412951-.125529 2.015442-.125529C1.443587-.125529 1.443587-.620672 1.443587-.746202C1.443587-.927522 1.464508-1.018182 1.562142-1.39477C1.63188-1.701619 1.645828-1.750436 1.715567-2.022416L1.8132-2.412951C1.84807-2.559402 1.917808-2.824408 1.917808-2.852304C1.917808-2.977833 1.820174-3.075467 1.680697-3.075467C1.429639-3.075467 1.366874-2.831382 1.345953-2.747696L.376588 1.12279Z'/>
<path id='g2-23' d='M1.750436-2.873225C1.75741-2.901121 1.764384-2.942964 1.764384-2.977833C1.764384-2.984807 1.764384-3.075467 1.652802-3.075467C1.645828-3.075467 1.248319-3.040598 1.199502-3.040598C1.066999-3.02665 .941469-3.019676 .808966-3.005729C.697385-2.998755 .613699-2.991781 .613699-2.84533C.613699-2.747696 .711333-2.747696 .795019-2.747696C1.129763-2.747696 1.129763-2.705853 1.129763-2.643088C1.129763-2.601245 1.094894-2.461768 1.066999-2.371108L.718306-.962391C.54396-.265006 .509091-.125529 .509091-.097634C.509091 0 .613699 0 .641594 0H.753176C1.373848-.097634 2.259527-.425405 3.005729-1.08792C3.954172-1.931756 4.093649-2.838356 4.093649-2.852304C4.093649-2.977833 3.996015-3.075467 3.856538-3.075467C3.612453-3.075467 3.563636-2.880199 3.500872-2.684932C3.221918-1.694645 2.287422-.627646 1.101868-.278954L1.750436-2.873225Z'/>
<path id='g3-48' d='M3.598506-2.224658C3.598506-2.991781 3.507846-3.542715 3.187049-4.030884C2.970859-4.351681 2.538481-4.630635 1.980573-4.630635C.36264-4.630635 .36264-2.726775 .36264-2.224658S.36264 .139477 1.980573 .139477S3.598506-1.72254 3.598506-2.224658ZM1.980573-.055791C1.659776-.055791 1.234371-.244085 1.094894-.81594C.99726-1.227397 .99726-1.799253 .99726-2.315318C.99726-2.824408 .99726-3.354421 1.101868-3.737983C1.248319-4.288917 1.694645-4.435367 1.980573-4.435367C2.357161-4.435367 2.719801-4.20523 2.84533-3.800747C2.956912-3.424159 2.963885-2.922042 2.963885-2.315318C2.963885-1.799253 2.963885-1.283188 2.873225-.843836C2.733748-.209215 2.259527-.055791 1.980573-.055791Z'/>
<path id='g3-50' d='M3.521793-1.26924H3.284682C3.263761-1.115816 3.194022-.704359 3.103362-.63462C3.047572-.592777 2.510585-.592777 2.412951-.592777H1.129763C1.862017-1.241345 2.106102-1.436613 2.524533-1.764384C3.040598-2.175841 3.521793-2.608219 3.521793-3.270735C3.521793-4.11457 2.782565-4.630635 1.889913-4.630635C1.025156-4.630635 .439352-4.02391 .439352-3.382316C.439352-3.02665 .739228-2.991781 .808966-2.991781C.976339-2.991781 1.17858-3.110336 1.17858-3.361395C1.17858-3.486924 1.129763-3.731009 .767123-3.731009C.983313-4.226152 1.457534-4.379577 1.785305-4.379577C2.48269-4.379577 2.84533-3.835616 2.84533-3.270735C2.84533-2.66401 2.412951-2.182814 2.189788-1.931756L.509091-.27198C.439352-.209215 .439352-.195268 .439352 0H3.312578L3.521793-1.26924Z'/>
<path id='g1-28' d='M2.929016-3.716065H4.60274C4.732254-3.716065 5.090909-3.716065 5.090909-4.054795C5.090909-4.293898 4.881694-4.293898 4.692403-4.293898H1.902864C1.703611-4.293898 1.315068-4.293898 .876712-3.825654C.547945-3.466999 .268991-2.988792 .268991-2.929016C.268991-2.919054 .268991-2.82939 .388543-2.82939C.468244-2.82939 .488169-2.86924 .547945-2.948941C1.036115-3.716065 1.603985-3.716065 1.8132-3.716065H2.6401L1.663761-.518057C1.62391-.398506 1.564134-.18929 1.564134-.14944C1.564134-.039851 1.633873 .119552 1.853051 .119552C2.181818 .119552 2.231631-.159402 2.261519-.308842L2.929016-3.716065Z'/>
<path id='g1-82' d='M3.73599-6.117061C3.795766-6.356164 3.825654-6.455791 4.014944-6.485679C4.104608-6.495641 4.423412-6.495641 4.622665-6.495641C5.330012-6.495641 6.435866-6.495641 6.435866-5.50934C6.435866-5.17061 6.276463-4.483188 5.88792-4.094645C5.628892-3.835616 5.100872-3.516812 4.204234-3.516812H3.088418L3.73599-6.117061ZM5.17061-3.387298C6.176837-3.606476 7.362391-4.303861 7.362391-5.310087C7.362391-6.166874 6.465753-6.804483 5.160648-6.804483H2.321295C2.122042-6.804483 2.032379-6.804483 2.032379-6.60523C2.032379-6.495641 2.122042-6.495641 2.311333-6.495641C2.331258-6.495641 2.520548-6.495641 2.689913-6.475716C2.86924-6.455791 2.958904-6.445828 2.958904-6.316314C2.958904-6.276463 2.948941-6.246575 2.919054-6.127024L1.58406-.777086C1.484433-.388543 1.464508-.308842 .67746-.308842C.498132-.308842 .408468-.308842 .408468-.109589C.408468 0 .52802 0 .547945 0C.826899 0 1.524284-.029888 1.803238-.029888S2.789539 0 3.068493 0C3.148194 0 3.267746 0 3.267746-.199253C3.267746-.308842 3.178082-.308842 2.988792-.308842C2.620174-.308842 2.34122-.308842 2.34122-.488169C2.34122-.547945 2.361146-.597758 2.371108-.657534L3.028643-3.297634H4.214197C5.120797-3.297634 5.300125-2.739726 5.300125-2.391034C5.300125-2.241594 5.220423-1.932752 5.160648-1.703611C5.090909-1.424658 5.001245-1.05604 5.001245-.856787C5.001245 .219178 6.196762 .219178 6.326276 .219178C7.173101 .219178 7.521793-.787049 7.521793-.926526C7.521793-1.046077 7.412204-1.046077 7.402242-1.046077C7.312578-1.046077 7.292653-.976339 7.272727-.9066C7.023661-.169365 6.595268 0 6.366127 0C6.03736 0 5.967621-.219178 5.967621-.607721C5.967621-.916563 6.027397-1.424658 6.067248-1.743462C6.087173-1.882939 6.107098-2.072229 6.107098-2.211706C6.107098-2.978829 5.439601-3.287671 5.17061-3.387298Z'/>
<path id='g1-83' d='M6.425903-6.924035C6.425903-6.953923 6.405978-7.023661 6.316314-7.023661C6.266501-7.023661 6.256538-7.013699 6.136986-6.874222L5.65878-6.306351C5.399751-6.774595 4.881694-7.023661 4.234122-7.023661C2.968867-7.023661 1.77335-5.877958 1.77335-4.672478C1.77335-3.865504 2.30137-3.407223 2.809465-3.257783L3.875467-2.978829C4.244085-2.889166 4.79203-2.739726 4.79203-1.92279C4.79203-1.026152 3.975093-.089664 2.998755-.089664C2.361146-.089664 1.255293-.308842 1.255293-1.544209C1.255293-1.783313 1.305106-2.022416 1.315068-2.082192C1.325031-2.122042 1.334994-2.132005 1.334994-2.15193C1.334994-2.251557 1.265255-2.261519 1.215442-2.261519S1.145704-2.251557 1.115816-2.221669C1.075965-2.181818 .518057 .089664 .518057 .119552C.518057 .179328 .56787 .219178 .627646 .219178C.67746 .219178 .687422 .209215 .806974 .069738L1.295143-.498132C1.723537 .079701 2.400996 .219178 2.978829 .219178C4.333748 .219178 5.50934-1.105853 5.50934-2.34122C5.50934-3.028643 5.17061-3.367372 5.021171-3.506849C4.79203-3.73599 4.64259-3.775841 3.755915-4.004981C3.536737-4.064757 3.178082-4.164384 3.088418-4.184309C2.819427-4.273973 2.480697-4.562889 2.480697-5.090909C2.480697-5.897883 3.277709-6.744707 4.224159-6.744707C5.051059-6.744707 5.65878-6.316314 5.65878-5.200498C5.65878-4.881694 5.618929-4.702366 5.618929-4.64259C5.618929-4.632628 5.618929-4.542964 5.738481-4.542964C5.838107-4.542964 5.84807-4.572852 5.88792-4.742217L6.425903-6.924035Z'/>
<path id='g1-100' d='M5.140722-6.804483C5.140722-6.814446 5.140722-6.914072 5.011208-6.914072C4.861768-6.914072 3.915318-6.824408 3.745953-6.804483C3.666252-6.794521 3.606476-6.744707 3.606476-6.615193C3.606476-6.495641 3.696139-6.495641 3.845579-6.495641C4.323786-6.495641 4.343711-6.425903 4.343711-6.326276L4.313823-6.127024L3.716065-3.765878C3.536737-4.134496 3.247821-4.403487 2.799502-4.403487C1.633873-4.403487 .398506-2.938979 .398506-1.484433C.398506-.547945 .946451 .109589 1.723537 .109589C1.92279 .109589 2.420922 .069738 3.01868-.637609C3.098381-.219178 3.447073 .109589 3.92528 .109589C4.273973 .109589 4.503113-.119552 4.662516-.438356C4.83188-.797011 4.961395-1.404732 4.961395-1.424658C4.961395-1.524284 4.871731-1.524284 4.841843-1.524284C4.742217-1.524284 4.732254-1.484433 4.702366-1.344956C4.533001-.697385 4.353674-.109589 3.945205-.109589C3.676214-.109589 3.646326-.368618 3.646326-.56787C3.646326-.806974 3.666252-.876712 3.706102-1.046077L5.140722-6.804483ZM3.068493-1.185554C3.01868-1.006227 3.01868-.986301 2.86924-.816936C2.430884-.268991 2.022416-.109589 1.743462-.109589C1.24533-.109589 1.105853-.657534 1.105853-1.046077C1.105853-1.544209 1.424658-2.769614 1.653798-3.227895C1.96264-3.815691 2.410959-4.184309 2.809465-4.184309C3.457036-4.184309 3.596513-3.367372 3.596513-3.307597S3.576588-3.188045 3.566625-3.138232L3.068493-1.185554Z'/>
<path id='g1-101' d='M1.863014-2.30137C2.15193-2.30137 2.889166-2.321295 3.387298-2.530511C4.084682-2.82939 4.134496-3.417186 4.134496-3.556663C4.134496-3.995019 3.755915-4.403487 3.068493-4.403487C1.96264-4.403487 .458281-3.437111 .458281-1.693649C.458281-.67746 1.046077 .109589 2.022416 .109589C3.447073 .109589 4.283935-.946451 4.283935-1.066002C4.283935-1.125778 4.224159-1.195517 4.164384-1.195517C4.11457-1.195517 4.094645-1.175592 4.034869-1.09589C3.247821-.109589 2.161893-.109589 2.042341-.109589C1.265255-.109589 1.175592-.946451 1.175592-1.265255C1.175592-1.384807 1.185554-1.693649 1.334994-2.30137H1.863014ZM1.39477-2.520548C1.783313-4.034869 2.809465-4.184309 3.068493-4.184309C3.536737-4.184309 3.805729-3.895392 3.805729-3.556663C3.805729-2.520548 2.211706-2.520548 1.803238-2.520548H1.39477Z'/>
</defs>
<g id='page1' transform='matrix(1.5 0 0 1.5 0 0)'>
<use x='187.790476' y='26.450159' xlink:href='#g1-100'/>
<use x='192.975908' y='22.834795' xlink:href='#g3-50'/>
<use x='197.445278' y='26.450159' xlink:href='#g1-83'/>
<use x='203.554323' y='27.94454' xlink:href='#g2-11'/>
<rect x='187.790476' y='30.50005' height='.398484' width='21.441293'/>
<use x='190.942276' y='40.02383' xlink:href='#g1-100'/>
<use x='196.127709' y='40.02383' xlink:href='#g1-28'/>
<use x='201.610638' y='37.145738' xlink:href='#g3-50'/>
<use x='213.194615' y='33.18996' xlink:href='#g0-25'/>
<use x='223.710695' y='33.18996' xlink:href='#g1-82'/>
<use x='231.275225' y='34.684341' xlink:href='#g2-22'/>
<use x='236.119381' y='34.684341' xlink:href='#g3-48'/>
<use x='240.090621' y='34.684341' xlink:href='#g3-48'/>
<use x='244.061862' y='34.684341' xlink:href='#g2-23'/>
<use x='249.018989' y='33.18996' xlink:href='#g1-101'/>
<use x='253.65786' y='29.076464' xlink:href='#g2-22'/>
<use x='253.65786' y='35.652892' xlink:href='#g2-11'/>
<use x='259.335331' y='33.18996' xlink:href='#g1-101'/>
<use x='263.974202' y='29.076464' xlink:href='#g2-23'/>
<use x='263.974202' y='35.652892' xlink:href='#g2-12'/>
<use x='269.348184' y='33.18996' xlink:href='#g1-83'/>
<use x='276.031447' y='29.076464' xlink:href='#g2-12'/>
</g>
</svg>