<?xml version='1.0' encoding='UTF-8'?>
<!-- This file was generated by dvisvgm 3.2 -->
<svg version='1.1' xmlns='http://www.w3.org/2000/svg' xmlns:xlink='http://www.w3.org/1999/xlink' width='18.312832pt' height='9.668742pt' viewBox='-21.580099 19.411184 18.312832 9.668742'>
<defs>
<path id='g1-97' d='M2.942964-2.66401C2.796513-2.894147 2.559402-3.075467 2.224658-3.075467C1.332005-3.075467 .425405-2.092154 .425405-1.08792C.425405-.411457 .878705 .069738 1.478456 .069738C1.855044 .069738 2.189788-.146451 2.468742-.418431C2.601245 0 3.005729 .069738 3.187049 .069738C3.438107 .069738 3.612453-.083686 3.737983-.299875C3.891407-.571856 3.982067-.969365 3.982067-.99726C3.982067-1.08792 3.891407-1.08792 3.870486-1.08792C3.772852-1.08792 3.765878-1.060025 3.717061-.871731C3.633375-.536986 3.500872-.125529 3.20797-.125529C3.02665-.125529 2.977833-.278954 2.977833-.467248C2.977833-.585803 3.033624-.836862 3.082441-1.018182C3.131258-1.206476 3.200996-1.492403 3.235866-1.645828L3.375342-2.175841C3.417186-2.357161 3.500872-2.684932 3.500872-2.719801C3.500872-2.873225 3.375342-2.942964 3.263761-2.942964C3.145205-2.942964 2.984807-2.859278 2.942964-2.66401ZM2.496638-.871731C2.447821-.676463 2.294396-.536986 2.140971-.404483C2.078207-.348692 1.799253-.125529 1.499377-.125529C1.241345-.125529 .990286-.306849 .990286-.801993C.990286-1.171606 1.192528-1.93873 1.352927-2.217684C1.673724-2.775592 2.02939-2.880199 2.224658-2.880199C2.712827-2.880199 2.84533-2.350187 2.84533-2.273474C2.84533-2.245579 2.831382-2.196762 2.824408-2.175841L2.496638-.871731Z'/>
<path id='g1-98' d='M1.841096-4.630635C1.84807-4.644583 1.868991-4.735243 1.868991-4.742217C1.868991-4.777086 1.841096-4.839851 1.75741-4.839851C1.617933-4.839851 1.039103-4.78406 .864757-4.770112C.808966-4.763138 .711333-4.756164 .711333-4.609714C.711333-4.51208 .808966-4.51208 .892653-4.51208C1.227397-4.51208 1.227397-4.463263 1.227397-4.407472C1.227397-4.358655 1.157659-4.079701 1.115816-3.919303L.955417-3.277709C.892653-3.040598 .509091-1.513325 .495143-1.422665C.460274-1.255293 .460274-1.164633 .460274-1.080946C.460274-.376588 .9066 .069738 1.48543 .069738C2.357161 .069738 3.284682-.878705 3.284682-1.910834C3.284682-2.726775 2.719801-3.075467 2.238605-3.075467C1.875965-3.075467 1.569116-2.873225 1.3599-2.691905L1.841096-4.630635ZM1.492403-.125529C1.150685-.125529 .955417-.425405 .955417-.836862C.955417-1.094894 1.018182-1.332005 1.21345-2.12005C1.255293-2.252553 1.255293-2.266501 1.387796-2.419925C1.652802-2.726775 1.966625-2.880199 2.217684-2.880199C2.489664-2.880199 2.726775-2.677958 2.726775-2.203736C2.726775-1.917808 2.57335-1.206476 2.364134-.801993C2.196762-.460274 1.84807-.125529 1.492403-.125529Z'/>
<path id='g0-103' d='M4.692403-3.755915C4.702366-3.815691 4.722291-3.865504 4.722291-3.935243C4.722291-4.104608 4.60274-4.204234 4.433375-4.204234C4.333748-4.204234 4.064757-4.134496 4.024907-3.775841C3.845579-4.144458 3.496887-4.403487 3.098381-4.403487C1.96264-4.403487 .727273-3.008717 .727273-1.574097C.727273-.587796 1.334994 0 2.052304 0C2.6401 0 3.108344-.468244 3.20797-.577833L3.217933-.56787C3.008717 .318804 2.889166 .727273 2.889166 .747198C2.849315 .836862 2.510585 1.823163 1.454545 1.823163C1.265255 1.823163 .936488 1.8132 .657534 1.723537C.956413 1.633873 1.066002 1.374844 1.066002 1.205479C1.066002 1.046077 .956413 .856787 .687422 .856787C.468244 .856787 .14944 1.036115 .14944 1.43462C.14944 1.843088 .518057 2.042341 1.474471 2.042341C2.719801 2.042341 3.437111 1.265255 3.58655 .667497L4.692403-3.755915ZM3.39726-1.275218C3.337484-1.016189 3.108344-.767123 2.889166-.577833C2.67995-.398506 2.371108-.219178 2.082192-.219178C1.58406-.219178 1.43462-.737235 1.43462-1.135741C1.43462-1.613948 1.723537-2.789539 1.992528-3.297634C2.261519-3.785803 2.689913-4.184309 3.108344-4.184309C3.765878-4.184309 3.905355-3.377335 3.905355-3.327522S3.88543-3.217933 3.875467-3.178082L3.39726-1.275218Z'/>
</defs>
<g id='page1' transform='matrix(1.5 0 0 1.5 0 0)'>
<use x='-14.536172' y='17.344276' xlink:href='#g0-103'/>
<use x='-9.784304' y='18.838657' xlink:href='#g1-97'/>
<use x='-5.46286' y='18.838657' xlink:href='#g1-98'/>
</g>
</svg>