<?xml version='1.0' encoding='UTF-8'?>
<!-- This file was generated by dvisvgm 3.2 -->
<svg version='1.1' xmlns='http://www.w3.org/2000/svg' xmlns:xlink='http://www.w3.org/1999/xlink' width='20.393478pt' height='11.085407pt' viewBox='-21.370884 19.411184 20.393478 11.085407'>
<defs>
<path id='g1-22' d='M.376588 1.12279C.348692 1.227397 .348692 1.262267 .348692 1.26924C.348692 1.422665 .474222 1.492403 .585803 1.492403C.836862 1.492403 .892653 1.262267 .920548 1.143711C.934496 1.108842 1.073973 .550934 1.241345-.132503C1.457534 .013948 1.736488 .069738 1.987547 .069738C2.587298 .069738 2.977833-.418431 2.991781-.432379C3.124284 .048817 3.605479 .069738 3.710087 .069738C3.961146 .069738 4.135492-.083686 4.261021-.299875C4.414446-.571856 4.505106-.969365 4.505106-.99726C4.505106-1.08792 4.414446-1.08792 4.393524-1.08792C4.29589-1.08792 4.288917-1.060025 4.2401-.871731C4.156413-.536986 4.02391-.125529 3.731009-.125529C3.549689-.125529 3.500872-.278954 3.500872-.467248C3.500872-.585803 3.556663-.836862 3.605479-1.018182C3.654296-1.206476 3.724035-1.492403 3.758904-1.645828L3.919303-2.266501C3.961146-2.440847 4.037858-2.747696 4.037858-2.782565C4.037858-2.922042 3.926276-3.005729 3.807721-3.005729C3.731009-3.005729 3.598506-2.970859 3.521793-2.838356C3.500872-2.796513 3.445081-2.57335 3.410212-2.433873L3.263761-1.855044L3.047572-.983313C2.998755-.808966 2.998755-.795019 2.93599-.704359C2.719801-.397509 2.412951-.125529 2.015442-.125529C1.443587-.125529 1.443587-.620672 1.443587-.746202C1.443587-.927522 1.464508-1.018182 1.562142-1.39477C1.63188-1.701619 1.645828-1.750436 1.715567-2.022416L1.8132-2.412951C1.84807-2.559402 1.917808-2.824408 1.917808-2.852304C1.917808-2.977833 1.820174-3.075467 1.680697-3.075467C1.429639-3.075467 1.366874-2.831382 1.345953-2.747696L.376588 1.12279Z'/>
<path id='g1-23' d='M1.750436-2.873225C1.75741-2.901121 1.764384-2.942964 1.764384-2.977833C1.764384-2.984807 1.764384-3.075467 1.652802-3.075467C1.645828-3.075467 1.248319-3.040598 1.199502-3.040598C1.066999-3.02665 .941469-3.019676 .808966-3.005729C.697385-2.998755 .613699-2.991781 .613699-2.84533C.613699-2.747696 .711333-2.747696 .795019-2.747696C1.129763-2.747696 1.129763-2.705853 1.129763-2.643088C1.129763-2.601245 1.094894-2.461768 1.066999-2.371108L.718306-.962391C.54396-.265006 .509091-.125529 .509091-.097634C.509091 0 .613699 0 .641594 0H.753176C1.373848-.097634 2.259527-.425405 3.005729-1.08792C3.954172-1.931756 4.093649-2.838356 4.093649-2.852304C4.093649-2.977833 3.996015-3.075467 3.856538-3.075467C3.612453-3.075467 3.563636-2.880199 3.500872-2.684932C3.221918-1.694645 2.287422-.627646 1.101868-.278954L1.750436-2.873225Z'/>
<path id='g0-17' d='M4.861768-2.759651C4.911582-2.938979 4.941469-3.068493 4.941469-3.337484C4.941469-3.985056 4.542964-4.403487 3.795766-4.403487C3.008717-4.403487 2.49066-3.88543 2.251557-3.536737C2.201743-4.104608 1.783313-4.403487 1.334994-4.403487C.876712-4.403487 .687422-4.014944 .597758-3.835616C.418431-3.496887 .288917-2.899128 .288917-2.86924C.288917-2.769614 .388543-2.769614 .408468-2.769614C.508095-2.769614 .518057-2.779577 .577833-2.998755C.747198-3.706102 .946451-4.184309 1.305106-4.184309C1.474471-4.184309 1.613948-4.104608 1.613948-3.726027C1.613948-3.516812 1.58406-3.407223 1.454545-2.889166L.876712-.587796C.846824-.438356 .787049-.209215 .787049-.159402C.787049 .019925 .926526 .109589 1.075965 .109589C1.195517 .109589 1.374844 .029888 1.444583-.169365C1.454545-.18929 1.574097-.657534 1.633873-.9066L1.853051-1.803238C1.912827-2.022416 1.972603-2.241594 2.022416-2.470735C2.042341-2.530511 2.122042-2.859278 2.132005-2.919054C2.161893-3.008717 2.470735-3.566625 2.809465-3.835616C3.028643-3.995019 3.337484-4.184309 3.765878-4.184309S4.303861-3.845579 4.303861-3.486924C4.303861-3.437111 4.303861-3.257783 4.204234-2.859278L3.068493 1.723537C3.038605 1.843088 3.038605 1.863014 3.038605 1.882939C3.038605 2.032379 3.148194 2.15193 3.317559 2.15193C3.626401 2.15193 3.696139 1.863014 3.726027 1.753425L4.861768-2.759651Z'/>
</defs>
<g id='page1' transform='matrix(1.5 0 0 1.5 0 0)'>
<use x='-14.536172' y='17.344276' xlink:href='#g0-17'/>
<use x='-9.589408' y='18.838657' xlink:href='#g1-22'/>
<use x='-4.745253' y='18.838657' xlink:href='#g1-23'/>
</g>
</svg>