<?xml version='1.0' encoding='UTF-8'?>
<!-- This file was generated by dvisvgm 3.2 -->
<svg version='1.1' xmlns='http://www.w3.org/2000/svg' xmlns:xlink='http://www.w3.org/1999/xlink' width='130.993409pt' height='17.240676pt' viewBox='285.154876 31.188667 130.993409 17.240676'>
<defs>
<path id='g0-0' d='M6.56538-2.291407C6.734745-2.291407 6.914072-2.291407 6.914072-2.49066S6.734745-2.689913 6.56538-2.689913H1.175592C1.006227-2.689913 .826899-2.689913 .826899-2.49066S1.006227-2.291407 1.175592-2.291407H6.56538Z'/>
<path id='g3-22' d='M4.283935-5.569116V-5.877958H.687422V-5.569116H4.283935Z'/>
<path id='g3-49' d='M2.929016-6.37609C2.929016-6.615193 2.929016-6.635118 2.699875-6.635118C2.082192-5.997509 1.205479-5.997509 .886675-5.997509V-5.688667C1.085928-5.688667 1.673724-5.688667 2.191781-5.947696V-.787049C2.191781-.428394 2.161893-.308842 1.265255-.308842H.946451V0C1.295143-.029888 2.161893-.029888 2.560399-.029888S3.825654-.029888 4.174346 0V-.308842H3.855542C2.958904-.308842 2.929016-.418431 2.929016-.787049V-6.37609Z'/>
<path id='g3-54' d='M1.315068-3.267746V-3.506849C1.315068-6.027397 2.550436-6.386052 3.058531-6.386052C3.297634-6.386052 3.716065-6.326276 3.935243-5.987547C3.785803-5.987547 3.387298-5.987547 3.387298-5.539228C3.387298-5.230386 3.626401-5.080946 3.845579-5.080946C4.004981-5.080946 4.303861-5.17061 4.303861-5.559153C4.303861-6.156912 3.865504-6.635118 3.038605-6.635118C1.763387-6.635118 .418431-5.349938 .418431-3.148194C.418431-.488169 1.574097 .219178 2.500623 .219178C3.606476 .219178 4.552927-.71731 4.552927-2.032379C4.552927-3.297634 3.666252-4.254047 2.560399-4.254047C1.882939-4.254047 1.514321-3.745953 1.315068-3.267746ZM2.500623-.059776C1.872976-.059776 1.574097-.657534 1.514321-.806974C1.334994-1.275218 1.334994-2.072229 1.334994-2.251557C1.334994-3.028643 1.653798-4.024907 2.550436-4.024907C2.709838-4.024907 3.16812-4.024907 3.476961-3.407223C3.656289-3.038605 3.656289-2.530511 3.656289-2.042341C3.656289-1.564134 3.656289-1.066002 3.486924-.707347C3.188045-.109589 2.729763-.059776 2.500623-.059776Z'/>
<path id='g3-61' d='M6.844334-3.257783C6.993773-3.257783 7.183064-3.257783 7.183064-3.457036S6.993773-3.656289 6.854296-3.656289H.886675C.747198-3.656289 .557908-3.656289 .557908-3.457036S.747198-3.257783 .896638-3.257783H6.844334ZM6.854296-1.325031C6.993773-1.325031 7.183064-1.325031 7.183064-1.524284S6.993773-1.723537 6.844334-1.723537H.896638C.747198-1.723537 .557908-1.723537 .557908-1.524284S.747198-1.325031 .886675-1.325031H6.854296Z'/>
<path id='g2-22' d='M.376588 1.12279C.348692 1.227397 .348692 1.262267 .348692 1.26924C.348692 1.422665 .474222 1.492403 .585803 1.492403C.836862 1.492403 .892653 1.262267 .920548 1.143711C.934496 1.108842 1.073973 .550934 1.241345-.132503C1.457534 .013948 1.736488 .069738 1.987547 .069738C2.587298 .069738 2.977833-.418431 2.991781-.432379C3.124284 .048817 3.605479 .069738 3.710087 .069738C3.961146 .069738 4.135492-.083686 4.261021-.299875C4.414446-.571856 4.505106-.969365 4.505106-.99726C4.505106-1.08792 4.414446-1.08792 4.393524-1.08792C4.29589-1.08792 4.288917-1.060025 4.2401-.871731C4.156413-.536986 4.02391-.125529 3.731009-.125529C3.549689-.125529 3.500872-.278954 3.500872-.467248C3.500872-.585803 3.556663-.836862 3.605479-1.018182C3.654296-1.206476 3.724035-1.492403 3.758904-1.645828L3.919303-2.266501C3.961146-2.440847 4.037858-2.747696 4.037858-2.782565C4.037858-2.922042 3.926276-3.005729 3.807721-3.005729C3.731009-3.005729 3.598506-2.970859 3.521793-2.838356C3.500872-2.796513 3.445081-2.57335 3.410212-2.433873L3.263761-1.855044L3.047572-.983313C2.998755-.808966 2.998755-.795019 2.93599-.704359C2.719801-.397509 2.412951-.125529 2.015442-.125529C1.443587-.125529 1.443587-.620672 1.443587-.746202C1.443587-.927522 1.464508-1.018182 1.562142-1.39477C1.63188-1.701619 1.645828-1.750436 1.715567-2.022416L1.8132-2.412951C1.84807-2.559402 1.917808-2.824408 1.917808-2.852304C1.917808-2.977833 1.820174-3.075467 1.680697-3.075467C1.429639-3.075467 1.366874-2.831382 1.345953-2.747696L.376588 1.12279Z'/>
<path id='g2-23' d='M1.750436-2.873225C1.75741-2.901121 1.764384-2.942964 1.764384-2.977833C1.764384-2.984807 1.764384-3.075467 1.652802-3.075467C1.645828-3.075467 1.248319-3.040598 1.199502-3.040598C1.066999-3.02665 .941469-3.019676 .808966-3.005729C.697385-2.998755 .613699-2.991781 .613699-2.84533C.613699-2.747696 .711333-2.747696 .795019-2.747696C1.129763-2.747696 1.129763-2.705853 1.129763-2.643088C1.129763-2.601245 1.094894-2.461768 1.066999-2.371108L.718306-.962391C.54396-.265006 .509091-.125529 .509091-.097634C.509091 0 .613699 0 .641594 0H.753176C1.373848-.097634 2.259527-.425405 3.005729-1.08792C3.954172-1.931756 4.093649-2.838356 4.093649-2.852304C4.093649-2.977833 3.996015-3.075467 3.856538-3.075467C3.612453-3.075467 3.563636-2.880199 3.500872-2.684932C3.221918-1.694645 2.287422-.627646 1.101868-.278954L1.750436-2.873225Z'/>
<path id='g2-26' d='M.376588 1.12279C.348692 1.227397 .348692 1.262267 .348692 1.26924C.348692 1.422665 .474222 1.492403 .585803 1.492403C.836862 1.492403 .892653 1.283188 .941469 1.060025C1.039103 .697385 1.234371-.097634 1.30411-.36264C1.366874-.258032 1.590037 .069738 2.071233 .069738C2.963885 .069738 3.912329-.878705 3.912329-1.896887C3.912329-2.636115 3.417186-3.075467 2.803487-3.075467C2.12005-3.075467 1.276214-2.475716 1.03213-1.492403L.376588 1.12279ZM2.064259-.125529C1.548194-.125529 1.39477-.641594 1.39477-.732254C1.39477-.746202 1.436613-.899626 1.457534-.983313C1.66675-1.841096 1.708593-2.001494 1.910834-2.308344C2.161893-2.677958 2.510585-2.880199 2.789539-2.880199C3.075467-2.880199 3.347447-2.677958 3.347447-2.175841C3.347447-1.855044 3.166127-1.080946 2.949938-.732254C2.629141-.237111 2.280448-.125529 2.064259-.125529Z'/>
<path id='g1-25' d='M2.6401-3.716065H3.765878C3.437111-2.241594 3.347447-1.8132 3.347447-1.145704C3.347447-.996264 3.347447-.727273 3.427148-.388543C3.526775 .049813 3.636364 .109589 3.785803 .109589C3.985056 .109589 4.194271-.069738 4.194271-.268991C4.194271-.328767 4.194271-.348692 4.134496-.488169C3.845579-1.205479 3.845579-1.853051 3.845579-2.132005C3.845579-2.660025 3.915318-3.198007 4.024907-3.716065H5.160648C5.290162-3.716065 5.648817-3.716065 5.648817-4.054795C5.648817-4.293898 5.439601-4.293898 5.250311-4.293898H1.912827C1.693649-4.293898 1.315068-4.293898 .876712-3.825654C.52802-3.437111 .268991-2.978829 .268991-2.929016C.268991-2.919054 .268991-2.82939 .388543-2.82939C.468244-2.82939 .488169-2.86924 .547945-2.948941C1.036115-3.716065 1.613948-3.716065 1.8132-3.716065H2.381071C2.062267-2.510585 1.524284-1.305106 1.105853-.398506C1.026152-.249066 1.026152-.229141 1.026152-.159402C1.026152 .029888 1.185554 .109589 1.315068 .109589C1.613948 .109589 1.693649-.169365 1.8132-.537983C1.952677-.996264 1.952677-1.016189 2.082192-1.514321L2.6401-3.716065Z'/>
<path id='g1-64' d='M4.612702-3.377335C4.513076-3.995019 4.104608-4.552927 3.327522-4.552927C2.719801-4.552927 2.072229-4.393524 1.295143-3.616438C.468244-2.789539 .398506-1.863014 .398506-1.554172C.398506-.936488 .836862 .219178 2.231631 .219178C4.60274 .219178 5.638854-3.128269 5.638854-4.552927C5.638854-6.136986 4.712329-7.13325 3.486924-7.13325C2.042341-7.13325 1.58406-5.838107 1.58406-5.559153C1.58406-5.419676 1.663761-5.210461 1.96264-5.210461C2.291407-5.210461 2.500623-5.50934 2.500623-5.738481C2.500623-6.087173 2.191781-6.087173 2.032379-6.087173C2.470735-6.824408 3.178082-6.884184 3.466999-6.884184C4.194271-6.884184 4.891656-6.366127 4.891656-5.080946C4.891656-4.692403 4.83188-4.184309 4.622665-3.377335H4.612702ZM2.261519-.059776C1.165629-.059776 1.165629-1.085928 1.165629-1.185554C1.165629-1.454545 1.414695-2.849315 1.823163-3.447073C2.221669-4.014944 2.709838-4.333748 3.327522-4.333748C4.41345-4.333748 4.433375-3.217933 4.433375-3.01868C4.433375-2.30137 3.795766-.059776 2.261519-.059776Z'/>
<path id='g1-84' d='M4.254047-6.047323C4.323786-6.326276 4.363636-6.386052 4.483188-6.41594C4.572852-6.435866 4.901619-6.435866 5.110834-6.435866C6.117061-6.435866 6.56538-6.396015 6.56538-5.618929C6.56538-5.469489 6.525529-5.080946 6.485679-4.821918C6.475716-4.782067 6.455791-4.662516 6.455791-4.632628C6.455791-4.572852 6.485679-4.503113 6.575342-4.503113C6.684932-4.503113 6.704857-4.582814 6.724782-4.732254L6.993773-6.465753C7.003736-6.505604 7.013699-6.60523 7.013699-6.635118C7.013699-6.744707 6.914072-6.744707 6.744707-6.744707H1.215442C.976339-6.744707 .966376-6.734745 .896638-6.545455L.298879-4.79203C.288917-4.772105 .239103-4.632628 .239103-4.612702C.239103-4.552927 .288917-4.503113 .358655-4.503113C.458281-4.503113 .468244-4.552927 .52802-4.712329C1.066002-6.256538 1.325031-6.435866 2.799502-6.435866H3.188045C3.466999-6.435866 3.466999-6.396015 3.466999-6.316314C3.466999-6.256538 3.437111-6.136986 3.427148-6.107098L2.092154-.787049C2.002491-.418431 1.972603-.308842 .9066-.308842C.547945-.308842 .488169-.308842 .488169-.119552C.488169 0 .597758 0 .657534 0C.926526 0 1.205479-.019925 1.474471-.019925C1.753425-.019925 2.042341-.029888 2.321295-.029888S2.879203-.019925 3.148194-.019925C3.437111-.019925 3.73599 0 4.014944 0C4.11457 0 4.234122 0 4.234122-.199253C4.234122-.308842 4.154421-.308842 3.895392-.308842C3.646326-.308842 3.516812-.308842 3.257783-.328767C2.968867-.358655 2.889166-.388543 2.889166-.547945C2.889166-.557908 2.889166-.607721 2.929016-.757161L4.254047-6.047323Z'/>
<path id='g1-104' d='M2.859278-6.804483C2.859278-6.814446 2.859278-6.914072 2.729763-6.914072C2.500623-6.914072 1.77335-6.834371 1.514321-6.814446C1.43462-6.804483 1.325031-6.794521 1.325031-6.615193C1.325031-6.495641 1.414695-6.495641 1.564134-6.495641C2.042341-6.495641 2.062267-6.425903 2.062267-6.326276L2.032379-6.127024L.587796-.388543C.547945-.249066 .547945-.229141 .547945-.169365C.547945 .059776 .747198 .109589 .836862 .109589C.996264 .109589 1.155666-.009963 1.205479-.14944L1.39477-.9066L1.613948-1.803238C1.673724-2.022416 1.733499-2.241594 1.783313-2.470735C1.803238-2.530511 1.882939-2.859278 1.892902-2.919054C1.92279-3.008717 2.231631-3.566625 2.570361-3.835616C2.789539-3.995019 3.098381-4.184309 3.526775-4.184309S4.064757-3.845579 4.064757-3.486924C4.064757-2.948941 3.686177-1.863014 3.447073-1.255293C3.367372-1.026152 3.317559-.9066 3.317559-.707347C3.317559-.239103 3.666252 .109589 4.134496 .109589C5.070984 .109589 5.439601-1.344956 5.439601-1.424658C5.439601-1.524284 5.349938-1.524284 5.32005-1.524284C5.220423-1.524284 5.220423-1.494396 5.17061-1.344956C5.021171-.816936 4.702366-.109589 4.154421-.109589C3.985056-.109589 3.915318-.209215 3.915318-.438356C3.915318-.687422 4.004981-.926526 4.094645-1.145704C4.254047-1.574097 4.702366-2.759651 4.702366-3.337484C4.702366-3.985056 4.303861-4.403487 3.556663-4.403487C2.929016-4.403487 2.450809-4.094645 2.082192-3.636364L2.859278-6.804483Z'/>
</defs>
<g id='page1' transform='matrix(1.5 0 0 1.5 0 0)'>
<use x='189.704745' y='29.299444' xlink:href='#g1-64'/>
<use x='195.547415' y='25.185948' xlink:href='#g2-26'/>
<use x='200.179033' y='29.299444' xlink:href='#g1-64'/>
<use x='205.468237' y='30.793825' xlink:href='#g2-26'/>
<use x='210.202467' y='26.670402' xlink:href='#g3-22'/>
<use x='210.099855' y='29.299444' xlink:href='#g1-104'/>
<use x='215.839925' y='30.793825' xlink:href='#g2-22'/>
<use x='220.68408' y='30.793825' xlink:href='#g2-23'/>
<use x='228.408532' y='29.299444' xlink:href='#g3-61'/>
<use x='238.924612' y='29.299444' xlink:href='#g0-0'/>
<use x='246.67336' y='29.299444' xlink:href='#g3-49'/>
<use x='251.654699' y='29.299444' xlink:href='#g3-54'/>
<use x='256.636038' y='29.299444' xlink:href='#g1-25'/>
<use x='262.672455' y='29.299444' xlink:href='#g1-84'/>
<use x='268.494386' y='30.793825' xlink:href='#g2-22'/>
<use x='273.338541' y='30.793825' xlink:href='#g2-23'/>
</g>
</svg>