<?xml version='1.0' encoding='UTF-8'?>
<!-- This file was generated by dvisvgm 3.2 -->
<svg version='1.1' xmlns='http://www.w3.org/2000/svg' xmlns:xlink='http://www.w3.org/1999/xlink' width='50.314213pt' height='14.911061pt' viewBox='-20.982341 15.480922 50.314213 14.911061'>
<defs>
<path id='g2-24' d='M1.889913 .481196C1.93873 .495143 2.113076 .557908 2.175841 .578829C2.517559 .697385 2.608219 .72528 2.608219 .899626C2.608219 .99726 2.531507 1.227397 2.294396 1.227397C2.189788 1.227397 1.917808 1.206476 1.617933 1.03213C1.569116 .990286 1.555168 .990286 1.527273 .990286C1.48543 .990286 1.429639 1.018182 1.429639 1.08792C1.429639 1.21345 1.917808 1.422665 2.294396 1.422665C2.775592 1.422665 3.054545 .983313 3.054545 .662516C3.054545 .397509 2.908095 .258032 2.761644 .18132C2.705853 .153425 1.834122-.146451 1.75741-.167372C1.080946-.404483 .704359-.530012 .704359-.934496C.704359-1.185554 .948443-1.729514 1.54122-2.043337C1.841096-1.945704 2.140971-1.945704 2.266501-1.945704C2.517559-1.945704 2.991781-1.945704 2.991781-2.203736C2.991781-2.419925 2.594271-2.419925 2.350187-2.419925C2.182814-2.419925 1.973599-2.419925 1.687671-2.322291C1.499377-2.475716 1.45056-2.698879 1.45056-2.866252C1.45056-3.263761 1.736488-3.75193 2.259527-3.996015C2.419925-3.821669 2.594271-3.821669 2.768618-3.821669C2.984807-3.821669 3.459029-3.821669 3.459029-4.079701C3.459029-4.29589 3.068493-4.29589 2.810461-4.29589C2.705853-4.29589 2.552428-4.29589 2.357161-4.267995C2.357161-4.274969 2.329265-4.38655 2.329265-4.47721C2.329265-4.553923 2.343213-4.637609 2.357161-4.714321C2.364134-4.721295 2.371108-4.749191 2.371108-4.763138C2.371108-4.818929 2.322291-4.87472 2.259527-4.87472C2.099128-4.87472 2.099128-4.609714 2.099128-4.491158C2.099128-4.463263 2.099128-4.309838 2.133998-4.219178C1.171606-3.961146 .836862-3.354421 .836862-2.901121C.836862-2.622167 .969365-2.350187 1.297136-2.154919C.509091-1.708593 .285928-1.011208 .285928-.718306C.285928-.083686 .955417 .153425 1.17858 .230137L1.889913 .481196ZM3.187049-4.05878C3.131258-4.044832 3.047572-4.016936 2.768618-4.016936C2.657036-4.016936 2.57335-4.016936 2.489664-4.065753C2.615193-4.100623 2.670984-4.100623 2.817435-4.100623C3.033624-4.100623 3.075467-4.093649 3.187049-4.065753V-4.05878ZM2.712827-2.182814C2.615193-2.154919 2.524533-2.140971 2.287422-2.140971C2.154919-2.140971 2.071233-2.140971 1.93873-2.182814C2.12005-2.224658 2.182814-2.224658 2.343213-2.224658C2.559402-2.224658 2.580324-2.217684 2.712827-2.189788V-2.182814Z'/>
<path id='g0-76' d='M1.793275-.926526C2.331258-1.763387 2.500623-2.400996 2.630137-2.929016C2.978829-4.303861 3.35741-5.499377 3.975093-6.1868C4.094645-6.316314 4.174346-6.405978 4.493151-6.405978C5.180573-6.405978 5.200498-5.718555 5.200498-5.579078C5.200498-5.399751 5.150685-5.260274 5.150685-5.210461C5.150685-5.140722 5.210461-5.140722 5.220423-5.140722C5.379826-5.140722 5.648817-5.250311 5.897883-5.429639C6.07721-5.569116 6.166874-5.668742 6.166874-6.07721C6.166874-6.615193 5.88792-7.023661 5.330012-7.023661C5.011208-7.023661 4.134496-6.94396 3.158157-5.957659C2.361146-5.140722 1.892902-3.347447 1.703611-2.600249C1.524284-1.912827 1.444583-1.603985 1.145704-1.006227C1.075965-.886675 .816936-.448319 .67746-.318804C.408468-.069738 .308842 .109589 .308842 .159402C.308842 .179328 .328767 .219178 .398506 .219178C.438356 .219178 .647572 .179328 .9066 .009963C1.075965-.089664 1.09589-.109589 1.325031-.348692C1.823163-.33873 2.171856-.249066 2.799502-.069738C3.307597 .069738 3.815691 .219178 4.323786 .219178C5.13076 .219178 5.947696-.388543 6.266501-.826899C6.465753-1.09589 6.525529-1.344956 6.525529-1.374844C6.525529-1.444583 6.465753-1.444583 6.455791-1.444583C6.296389-1.444583 6.057285-1.334994 5.88792-1.215442C5.618929-1.046077 5.599004-.986301 5.539228-.816936C5.489415-.657534 5.429639-.577833 5.389788-.518057C5.310087-.398506 5.300125-.398506 5.150685-.398506C4.672478-.398506 4.174346-.547945 3.516812-.727273C3.237858-.806974 2.689913-.966376 2.191781-.966376C2.062267-.966376 1.92279-.956413 1.793275-.926526Z'/>
<path id='g3-43' d='M4.07472-2.291407H6.854296C6.993773-2.291407 7.183064-2.291407 7.183064-2.49066S6.993773-2.689913 6.854296-2.689913H4.07472V-5.479452C4.07472-5.618929 4.07472-5.808219 3.875467-5.808219S3.676214-5.618929 3.676214-5.479452V-2.689913H.886675C.747198-2.689913 .557908-2.689913 .557908-2.49066S.747198-2.291407 .886675-2.291407H3.676214V.498132C3.676214 .637609 3.676214 .826899 3.875467 .826899S4.07472 .637609 4.07472 .498132V-2.291407Z'/>
<path id='g1-17' d='M4.861768-2.759651C4.911582-2.938979 4.941469-3.068493 4.941469-3.337484C4.941469-3.985056 4.542964-4.403487 3.795766-4.403487C3.008717-4.403487 2.49066-3.88543 2.251557-3.536737C2.201743-4.104608 1.783313-4.403487 1.334994-4.403487C.876712-4.403487 .687422-4.014944 .597758-3.835616C.418431-3.496887 .288917-2.899128 .288917-2.86924C.288917-2.769614 .388543-2.769614 .408468-2.769614C.508095-2.769614 .518057-2.779577 .577833-2.998755C.747198-3.706102 .946451-4.184309 1.305106-4.184309C1.474471-4.184309 1.613948-4.104608 1.613948-3.726027C1.613948-3.516812 1.58406-3.407223 1.454545-2.889166L.876712-.587796C.846824-.438356 .787049-.209215 .787049-.159402C.787049 .019925 .926526 .109589 1.075965 .109589C1.195517 .109589 1.374844 .029888 1.444583-.169365C1.454545-.18929 1.574097-.657534 1.633873-.9066L1.853051-1.803238C1.912827-2.022416 1.972603-2.241594 2.022416-2.470735C2.042341-2.530511 2.122042-2.859278 2.132005-2.919054C2.161893-3.008717 2.470735-3.566625 2.809465-3.835616C3.028643-3.995019 3.337484-4.184309 3.765878-4.184309S4.303861-3.845579 4.303861-3.486924C4.303861-3.437111 4.303861-3.257783 4.204234-2.859278L3.068493 1.723537C3.038605 1.843088 3.038605 1.863014 3.038605 1.882939C3.038605 2.032379 3.148194 2.15193 3.317559 2.15193C3.626401 2.15193 3.696139 1.863014 3.726027 1.753425L4.861768-2.759651Z'/>
<path id='g1-104' d='M2.859278-6.804483C2.859278-6.814446 2.859278-6.914072 2.729763-6.914072C2.500623-6.914072 1.77335-6.834371 1.514321-6.814446C1.43462-6.804483 1.325031-6.794521 1.325031-6.615193C1.325031-6.495641 1.414695-6.495641 1.564134-6.495641C2.042341-6.495641 2.062267-6.425903 2.062267-6.326276L2.032379-6.127024L.587796-.388543C.547945-.249066 .547945-.229141 .547945-.169365C.547945 .059776 .747198 .109589 .836862 .109589C.996264 .109589 1.155666-.009963 1.205479-.14944L1.39477-.9066L1.613948-1.803238C1.673724-2.022416 1.733499-2.241594 1.783313-2.470735C1.803238-2.530511 1.882939-2.859278 1.892902-2.919054C1.92279-3.008717 2.231631-3.566625 2.570361-3.835616C2.789539-3.995019 3.098381-4.184309 3.526775-4.184309S4.064757-3.845579 4.064757-3.486924C4.064757-2.948941 3.686177-1.863014 3.447073-1.255293C3.367372-1.026152 3.317559-.9066 3.317559-.707347C3.317559-.239103 3.666252 .109589 4.134496 .109589C5.070984 .109589 5.439601-1.344956 5.439601-1.424658C5.439601-1.524284 5.349938-1.524284 5.32005-1.524284C5.220423-1.524284 5.220423-1.494396 5.17061-1.344956C5.021171-.816936 4.702366-.109589 4.154421-.109589C3.985056-.109589 3.915318-.209215 3.915318-.438356C3.915318-.687422 4.004981-.926526 4.094645-1.145704C4.254047-1.574097 4.702366-2.759651 4.702366-3.337484C4.702366-3.985056 4.303861-4.403487 3.556663-4.403487C2.929016-4.403487 2.450809-4.094645 2.082192-3.636364L2.859278-6.804483Z'/>
</defs>
<g id='page1' transform='matrix(1.5 0 0 1.5 0 0)'>
<use x='-14.536172' y='17.344276' xlink:href='#g1-104'/>
<use x='-6.582237' y='17.344276' xlink:href='#g3-43'/>
<use x='3.380377' y='17.344276' xlink:href='#g0-76'/>
<use x='10.251858' y='18.838657' xlink:href='#g2-24'/>
<use x='14.613112' y='17.344276' xlink:href='#g1-17'/>
</g>
</svg>