<?xml version='1.0' encoding='UTF-8'?>
<!-- This file was generated by dvisvgm 3.2 -->
<svg version='1.1' xmlns='http://www.w3.org/2000/svg' xmlns:xlink='http://www.w3.org/1999/xlink' width='75.586664pt' height='16.104989pt' viewBox='-20.982341 13.647415 75.586664 16.104989'>
<defs>
<path id='g2-40' d='M3.297634 2.391034C3.297634 2.361146 3.297634 2.34122 3.128269 2.171856C1.882939 .916563 1.564134-.966376 1.564134-2.49066C1.564134-4.224159 1.942715-5.957659 3.16812-7.202989C3.297634-7.32254 3.297634-7.342466 3.297634-7.372354C3.297634-7.442092 3.257783-7.47198 3.198007-7.47198C3.098381-7.47198 2.201743-6.794521 1.613948-5.529265C1.105853-4.433375 .986301-3.327522 .986301-2.49066C.986301-1.713574 1.09589-.508095 1.643836 .617684C2.241594 1.843088 3.098381 2.49066 3.198007 2.49066C3.257783 2.49066 3.297634 2.460772 3.297634 2.391034Z'/>
<path id='g2-41' d='M2.879203-2.49066C2.879203-3.267746 2.769614-4.473225 2.221669-5.599004C1.62391-6.824408 .767123-7.47198 .667497-7.47198C.607721-7.47198 .56787-7.43213 .56787-7.372354C.56787-7.342466 .56787-7.32254 .757161-7.143213C1.733499-6.156912 2.30137-4.572852 2.30137-2.49066C2.30137-.787049 1.932752 .966376 .697385 2.221669C.56787 2.34122 .56787 2.361146 .56787 2.391034C.56787 2.450809 .607721 2.49066 .667497 2.49066C.767123 2.49066 1.663761 1.8132 2.251557 .547945C2.759651-.547945 2.879203-1.653798 2.879203-2.49066Z'/>
<path id='g0-24' d='M7.193026-3.327522C7.193026-3.5467 7.13325-3.646326 7.053549-3.646326C7.003736-3.646326 6.924035-3.576588 6.914072-3.387298C6.874222-2.430884 6.216687-1.882939 5.519303-1.882939C4.891656-1.882939 4.41345-2.311333 3.92528-2.739726C3.417186-3.198007 2.899128-3.656289 2.221669-3.656289C1.135741-3.656289 .547945-2.560399 .547945-1.653798C.547945-1.334994 .67746-1.334994 .687422-1.334994C.797011-1.334994 .826899-1.534247 .826899-1.564134C.86675-2.660025 1.613948-3.098381 2.221669-3.098381C2.849315-3.098381 3.327522-2.669988 3.815691-2.241594C4.323786-1.783313 4.841843-1.325031 5.519303-1.325031C6.60523-1.325031 7.193026-2.420922 7.193026-3.327522Z'/>
<path id='g0-79' d='M7.740971-4.801993C7.740971-6.067248 7.183064-7.023661 5.967621-7.023661C4.931507-7.023661 4.054795-6.1868 3.985056-6.127024C3.188045-5.339975 2.889166-4.443337 2.889166-4.423412C2.889166-4.363636 2.938979-4.353674 2.988792-4.353674C3.178082-4.353674 3.337484-4.4533 3.486924-4.562889C3.666252-4.692403 3.676214-4.722291 3.785803-4.951432C3.875467-5.150685 4.104608-5.638854 4.473225-6.057285C4.712329-6.326276 4.911582-6.475716 5.310087-6.475716C6.276463-6.475716 6.894147-5.678705 6.894147-4.373599C6.894147-2.34122 5.449564-.328767 3.606476-.328767C2.191781-.328767 1.414695-1.454545 1.414695-2.879203C1.414695-4.234122 2.11208-5.728518 3.566625-6.585305C3.666252-6.645081 3.965131-6.824408 3.965131-6.953923C3.965131-7.023661 3.88543-7.023661 3.865504-7.023661C3.516812-7.023661 .56787-5.439601 .56787-2.450809C.56787-1.05604 1.295143 .219178 2.948941 .219178C4.891656 .219178 7.740971-1.733499 7.740971-4.801993Z'/>
<path id='g3-48' d='M3.598506-2.224658C3.598506-2.991781 3.507846-3.542715 3.187049-4.030884C2.970859-4.351681 2.538481-4.630635 1.980573-4.630635C.36264-4.630635 .36264-2.726775 .36264-2.224658S.36264 .139477 1.980573 .139477S3.598506-1.72254 3.598506-2.224658ZM1.980573-.055791C1.659776-.055791 1.234371-.244085 1.094894-.81594C.99726-1.227397 .99726-1.799253 .99726-2.315318C.99726-2.824408 .99726-3.354421 1.101868-3.737983C1.248319-4.288917 1.694645-4.435367 1.980573-4.435367C2.357161-4.435367 2.719801-4.20523 2.84533-3.800747C2.956912-3.424159 2.963885-2.922042 2.963885-2.315318C2.963885-1.799253 2.963885-1.283188 2.873225-.843836C2.733748-.209215 2.259527-.055791 1.980573-.055791Z'/>
<path id='g3-50' d='M3.521793-1.26924H3.284682C3.263761-1.115816 3.194022-.704359 3.103362-.63462C3.047572-.592777 2.510585-.592777 2.412951-.592777H1.129763C1.862017-1.241345 2.106102-1.436613 2.524533-1.764384C3.040598-2.175841 3.521793-2.608219 3.521793-3.270735C3.521793-4.11457 2.782565-4.630635 1.889913-4.630635C1.025156-4.630635 .439352-4.02391 .439352-3.382316C.439352-3.02665 .739228-2.991781 .808966-2.991781C.976339-2.991781 1.17858-3.110336 1.17858-3.361395C1.17858-3.486924 1.129763-3.731009 .767123-3.731009C.983313-4.226152 1.457534-4.379577 1.785305-4.379577C2.48269-4.379577 2.84533-3.835616 2.84533-3.270735C2.84533-2.66401 2.412951-2.182814 2.189788-1.931756L.509091-.27198C.439352-.209215 .439352-.195268 .439352 0H3.312578L3.521793-1.26924Z'/>
<path id='g1-15' d='M2.968867-2.251557C3.128269-2.251557 3.307597-2.251557 3.307597-2.420922C3.307597-2.560399 3.188045-2.560399 3.01868-2.560399H1.404732C1.643836-3.407223 2.201743-3.985056 3.108344-3.985056H3.417186C3.58655-3.985056 3.745953-3.985056 3.745953-4.154421C3.745953-4.293898 3.616438-4.293898 3.447073-4.293898H3.098381C1.803238-4.293898 .468244-3.297634 .468244-1.77335C.468244-.67746 1.215442 .109589 2.271482 .109589C2.919054 .109589 3.566625-.288917 3.566625-.398506C3.566625-.428394 3.556663-.537983 3.466999-.537983C3.447073-.537983 3.427148-.537983 3.337484-.478207C3.028643-.278954 2.660025-.109589 2.291407-.109589C1.713574-.109589 1.215442-.52802 1.215442-1.404732C1.215442-1.753425 1.295143-2.132005 1.325031-2.251557H2.968867Z'/>
<path id='g1-104' d='M2.859278-6.804483C2.859278-6.814446 2.859278-6.914072 2.729763-6.914072C2.500623-6.914072 1.77335-6.834371 1.514321-6.814446C1.43462-6.804483 1.325031-6.794521 1.325031-6.615193C1.325031-6.495641 1.414695-6.495641 1.564134-6.495641C2.042341-6.495641 2.062267-6.425903 2.062267-6.326276L2.032379-6.127024L.587796-.388543C.547945-.249066 .547945-.229141 .547945-.169365C.547945 .059776 .747198 .109589 .836862 .109589C.996264 .109589 1.155666-.009963 1.205479-.14944L1.39477-.9066L1.613948-1.803238C1.673724-2.022416 1.733499-2.241594 1.783313-2.470735C1.803238-2.530511 1.882939-2.859278 1.892902-2.919054C1.92279-3.008717 2.231631-3.566625 2.570361-3.835616C2.789539-3.995019 3.098381-4.184309 3.526775-4.184309S4.064757-3.845579 4.064757-3.486924C4.064757-2.948941 3.686177-1.863014 3.447073-1.255293C3.367372-1.026152 3.317559-.9066 3.317559-.707347C3.317559-.239103 3.666252 .109589 4.134496 .109589C5.070984 .109589 5.439601-1.344956 5.439601-1.424658C5.439601-1.524284 5.349938-1.524284 5.32005-1.524284C5.220423-1.524284 5.220423-1.494396 5.17061-1.344956C5.021171-.816936 4.702366-.109589 4.154421-.109589C3.985056-.109589 3.915318-.209215 3.915318-.438356C3.915318-.687422 4.004981-.926526 4.094645-1.145704C4.254047-1.574097 4.702366-2.759651 4.702366-3.337484C4.702366-3.985056 4.303861-4.403487 3.556663-4.403487C2.929016-4.403487 2.450809-4.094645 2.082192-3.636364L2.859278-6.804483Z'/>
</defs>
<g id='page1' transform='matrix(1.5 0 0 1.5 0 0)'>
<use x='-14.536172' y='17.344276' xlink:href='#g1-104'/>
<use x='-8.796103' y='18.838657' xlink:href='#g3-48'/>
<use x='-4.824862' y='18.838657' xlink:href='#g3-48'/>
<use x='2.411837' y='17.344276' xlink:href='#g0-24'/>
<use x='12.927917' y='17.344276' xlink:href='#g0-79'/>
<use x='21.136062' y='17.344276' xlink:href='#g2-40'/>
<use x='25.010436' y='17.344276' xlink:href='#g1-15'/>
<use x='29.05431' y='13.728912' xlink:href='#g3-50'/>
<use x='33.523679' y='17.344276' xlink:href='#g2-41'/>
</g>
</svg>