<?xml version='1.0' encoding='UTF-8'?>
<!-- This file was generated by dvisvgm 3.2 -->
<svg version='1.1' xmlns='http://www.w3.org/2000/svg' xmlns:xlink='http://www.w3.org/1999/xlink' width='43.645322pt' height='10.371108pt' viewBox='-21.296164 15.809689 43.645322 10.371108'>
<defs>
<path id='g0-33' d='M8.308842-2.291407C7.760897-1.872976 7.491905-1.464508 7.412204-1.334994C6.963885-.647572 6.884184-.019925 6.884184-.009963C6.884184 .109589 7.003736 .109589 7.083437 .109589C7.252802 .109589 7.262765 .089664 7.302615-.089664C7.531756-1.066002 8.119552-1.902864 9.24533-2.361146C9.364882-2.400996 9.39477-2.420922 9.39477-2.49066S9.334994-2.590286 9.315068-2.600249C8.876712-2.769614 7.671233-3.267746 7.292653-4.941469C7.262765-5.061021 7.252802-5.090909 7.083437-5.090909C7.003736-5.090909 6.884184-5.090909 6.884184-4.971357C6.884184-4.951432 6.973848-4.323786 7.392279-3.656289C7.591532-3.35741 7.880448-3.008717 8.308842-2.689913H.9066C.727273-2.689913 .547945-2.689913 .547945-2.49066S.727273-2.291407 .9066-2.291407H8.308842Z'/>
<path id='g1-73' d='M3.726027-6.03736C3.815691-6.396015 3.845579-6.495641 4.632628-6.495641C4.871731-6.495641 4.951432-6.495641 4.951432-6.684932C4.951432-6.804483 4.841843-6.804483 4.801993-6.804483C4.513076-6.804483 3.775841-6.774595 3.486924-6.774595C3.188045-6.774595 2.460772-6.804483 2.161893-6.804483C2.092154-6.804483 1.96264-6.804483 1.96264-6.60523C1.96264-6.495641 2.052304-6.495641 2.241594-6.495641C2.660025-6.495641 2.929016-6.495641 2.929016-6.306351C2.929016-6.256538 2.929016-6.236613 2.909091-6.146949L1.564134-.777086C1.474471-.408468 1.444583-.308842 .657534-.308842C.428394-.308842 .33873-.308842 .33873-.109589C.33873 0 .458281 0 .488169 0C.777086 0 1.504359-.029888 1.793275-.029888C2.092154-.029888 2.82939 0 3.128269 0C3.20797 0 3.327522 0 3.327522-.18929C3.327522-.308842 3.247821-.308842 3.028643-.308842C2.849315-.308842 2.799502-.308842 2.600249-.328767C2.391034-.348692 2.351183-.388543 2.351183-.498132C2.351183-.577833 2.371108-.657534 2.391034-.727273L3.726027-6.03736Z'/>
<path id='g1-78' d='M7.531756-5.758406C7.631382-6.156912 7.81071-6.465753 8.607721-6.495641C8.657534-6.495641 8.777086-6.505604 8.777086-6.694894C8.777086-6.704857 8.777086-6.804483 8.647572-6.804483C8.318804-6.804483 7.970112-6.774595 7.641345-6.774595C7.302615-6.774595 6.953923-6.804483 6.625156-6.804483C6.56538-6.804483 6.445828-6.804483 6.445828-6.60523C6.445828-6.495641 6.545455-6.495641 6.625156-6.495641C7.193026-6.485679 7.302615-6.276463 7.302615-6.057285C7.302615-6.027397 7.28269-5.877958 7.272727-5.84807L6.156912-1.414695L3.955168-6.615193C3.875467-6.794521 3.865504-6.804483 3.636364-6.804483H2.30137C2.102117-6.804483 2.012453-6.804483 2.012453-6.60523C2.012453-6.495641 2.102117-6.495641 2.291407-6.495641C2.34122-6.495641 2.968867-6.495641 2.968867-6.405978L1.633873-1.05604C1.534247-.657534 1.364882-.33873 .557908-.308842C.498132-.308842 .388543-.298879 .388543-.109589C.388543-.039851 .438356 0 .518057 0C.836862 0 1.185554-.029888 1.514321-.029888C1.853051-.029888 2.211706 0 2.540473 0C2.590286 0 2.719801 0 2.719801-.199253C2.719801-.298879 2.630137-.308842 2.520548-.308842C1.942715-.328767 1.863014-.547945 1.863014-.747198C1.863014-.816936 1.872976-.86675 1.902864-.976339L3.217933-6.236613C3.257783-6.176837 3.257783-6.156912 3.307597-6.057285L5.788294-.18929C5.858032-.019925 5.88792 0 5.977584 0C6.087173 0 6.087173-.029888 6.136986-.209215L7.531756-5.758406Z'/>
</defs>
<g id='page1' transform='matrix(1.5 0 0 1.5 0 0)'>
<use x='-14.536172' y='17.344276' xlink:href='#g1-73'/>
<use x='-6.607649' y='17.344276' xlink:href='#g0-33'/>
<use x='6.122353' y='17.344276' xlink:href='#g1-78'/>
</g>
</svg>