<?xml version='1.0' encoding='UTF-8'?>
<!-- This file was generated by dvisvgm 3.2 -->
<svg version='1.1' xmlns='http://www.w3.org/2000/svg' xmlns:xlink='http://www.w3.org/1999/xlink' width='10.266501pt' height='10.236613pt' viewBox='-21.565155 15.779801 10.266501 10.236613'>
<defs>
<path id='g0-82' d='M2.669988-3.128269H3.028643L4.523039-.816936C4.622665-.657534 4.861768-.268991 4.971357-.119552C5.041096 0 5.070984 0 5.300125 0H6.674969C6.854296 0 7.003736 0 7.003736-.179328C7.003736-.259029 6.94396-.328767 6.854296-.348692C6.485679-.428394 5.997509-1.085928 5.758406-1.404732C5.688667-1.504359 5.190535-2.161893 4.523039-3.237858C5.409714-3.39726 6.266501-3.775841 6.266501-4.961395C6.266501-6.346202 4.801993-6.824408 3.626401-6.824408H.498132C.318804-6.824408 .159402-6.824408 .159402-6.645081C.159402-6.475716 .348692-6.475716 .428394-6.475716C.996264-6.475716 1.046077-6.405978 1.046077-5.907846V-.916563C1.046077-.418431 .996264-.348692 .428394-.348692C.348692-.348692 .159402-.348692 .159402-.179328C.159402 0 .318804 0 .498132 0H3.227895C3.407223 0 3.556663 0 3.556663-.179328C3.556663-.348692 3.387298-.348692 3.277709-.348692C2.709838-.348692 2.669988-.428394 2.669988-.916563V-3.128269ZM4.592777-3.616438C4.871731-3.985056 4.901619-4.513076 4.901619-4.951432C4.901619-5.429639 4.841843-5.957659 4.523039-6.366127C4.931507-6.276463 5.917808-5.967621 5.917808-4.961395C5.917808-4.313823 5.618929-3.805729 4.592777-3.616438ZM2.669988-5.937733C2.669988-6.146949 2.669988-6.475716 3.287671-6.475716C4.134496-6.475716 4.552927-6.127024 4.552927-4.951432C4.552927-3.666252 4.244085-3.476961 2.669988-3.476961V-5.937733ZM1.315068-.348692C1.39477-.52802 1.39477-.806974 1.39477-.896638V-5.927771C1.39477-6.027397 1.39477-6.296389 1.315068-6.475716H2.450809C2.321295-6.316314 2.321295-6.117061 2.321295-5.967621V-.896638C2.321295-.797011 2.321295-.52802 2.400996-.348692H1.315068ZM3.437111-3.128269C3.506849-3.138232 3.5467-3.148194 3.626401-3.148194C3.775841-3.148194 3.995019-3.16812 4.144458-3.188045C4.293898-2.948941 5.369863-1.175592 6.196762-.348692H5.230386L3.437111-3.128269Z'/>
</defs>
<g id='page1' transform='matrix(1.5 0 0 1.5 0 0)'>
<use x='-14.536172' y='17.344276' xlink:href='#g0-82'/>
</g>
</svg>