<?xml version='1.0' encoding='UTF-8'?>
<!-- This file was generated by dvisvgm 3.2 -->
<svg version='1.1' xmlns='http://www.w3.org/2000/svg' xmlns:xlink='http://www.w3.org/1999/xlink' width='105.705033pt' height='105.750178pt' viewBox='297.916377 48.109682 105.705033 105.750178'>
<defs>
<path id='g2-48' d='M4.582814-3.188045C4.582814-3.985056 4.533001-4.782067 4.184309-5.519303C3.726027-6.475716 2.909091-6.635118 2.49066-6.635118C1.892902-6.635118 1.165629-6.37609 .757161-5.449564C.438356-4.762142 .388543-3.985056 .388543-3.188045C.388543-2.440847 .428394-1.544209 .836862-.787049C1.265255 .019925 1.992528 .219178 2.480697 .219178C3.01868 .219178 3.775841 .009963 4.214197-.936488C4.533001-1.62391 4.582814-2.400996 4.582814-3.188045ZM2.480697 0C2.092154 0 1.504359-.249066 1.325031-1.205479C1.215442-1.803238 1.215442-2.719801 1.215442-3.307597C1.215442-3.945205 1.215442-4.60274 1.295143-5.140722C1.484433-6.326276 2.231631-6.41594 2.480697-6.41594C2.809465-6.41594 3.466999-6.236613 3.656289-5.250311C3.755915-4.692403 3.755915-3.935243 3.755915-3.307597C3.755915-2.560399 3.755915-1.882939 3.646326-1.24533C3.496887-.298879 2.929016 0 2.480697 0Z'/>
<path id='g2-61' d='M6.844334-3.257783C6.993773-3.257783 7.183064-3.257783 7.183064-3.457036S6.993773-3.656289 6.854296-3.656289H.886675C.747198-3.656289 .557908-3.656289 .557908-3.457036S.747198-3.257783 .896638-3.257783H6.844334ZM6.854296-1.325031C6.993773-1.325031 7.183064-1.325031 7.183064-1.524284S6.993773-1.723537 6.844334-1.723537H.896638C.747198-1.723537 .557908-1.723537 .557908-1.524284S.747198-1.325031 .886675-1.325031H6.854296Z'/>
<path id='g3-40' d='M2.475716-5.230386C1.150685-4.29589 .801993-2.817435 .801993-1.750436C.801993-.767123 1.094894 .760149 2.475716 1.736488C2.531507 1.736488 2.615193 1.736488 2.615193 1.652802C2.615193 1.610959 2.594271 1.597011 2.545455 1.548194C1.617933 .711333 1.276214-.474222 1.276214-1.743462C1.276214-3.626401 1.994521-4.546949 2.566376-5.063014C2.594271-5.090909 2.615193-5.111831 2.615193-5.1467C2.615193-5.230386 2.531507-5.230386 2.475716-5.230386Z'/>
<path id='g3-41' d='M.627646-5.230386C.578829-5.230386 .495143-5.230386 .495143-5.1467C.495143-5.111831 .516065-5.090909 .557908-5.042092C1.157659-4.491158 1.827148-3.549689 1.827148-1.750436C1.827148-.292902 1.373848 .808966 .620672 1.492403C.502117 1.610959 .495143 1.617933 .495143 1.652802S.516065 1.736488 .585803 1.736488C.669489 1.736488 1.332005 1.276214 1.792279 .404483C2.099128-.174346 2.30137-.927522 2.30137-1.743462C2.30137-2.726775 2.008468-4.254047 .627646-5.230386Z'/>
<path id='g3-59' d='M1.527273-2.601245C1.527273-2.84533 1.332005-3.005729 1.129763-3.005729C.885679-3.005729 .72528-2.810461 .72528-2.608219C.72528-2.364134 .920548-2.203736 1.12279-2.203736C1.366874-2.203736 1.527273-2.399004 1.527273-2.601245ZM1.352927-.062765C1.345953 .432379 1.17858 .822914 .871731 1.164633C.829888 1.206476 .822914 1.220423 .822914 1.248319C.822914 1.290162 .871731 1.352927 .920548 1.352927C1.011208 1.352927 1.548194 .788045 1.548194-.055791C1.548194-.292902 1.513325-.801993 1.12279-.801993C.857783-.801993 .72528-.592777 .72528-.404483C.72528-.209215 .850809 0 1.129763 0C1.248319 0 1.325031-.048817 1.352927-.062765Z'/>
<path id='g3-91' d='M2.022416 1.743462V1.401743H1.290162V-4.888667H2.022416V-5.230386H.948443V1.743462H2.022416Z'/>
<path id='g3-93' d='M1.297136-5.230386H.223163V-4.888667H.955417V1.401743H.223163V1.743462H1.297136V-5.230386Z'/>
<path id='g1-97' d='M2.942964-2.66401C2.796513-2.894147 2.559402-3.075467 2.224658-3.075467C1.332005-3.075467 .425405-2.092154 .425405-1.08792C.425405-.411457 .878705 .069738 1.478456 .069738C1.855044 .069738 2.189788-.146451 2.468742-.418431C2.601245 0 3.005729 .069738 3.187049 .069738C3.438107 .069738 3.612453-.083686 3.737983-.299875C3.891407-.571856 3.982067-.969365 3.982067-.99726C3.982067-1.08792 3.891407-1.08792 3.870486-1.08792C3.772852-1.08792 3.765878-1.060025 3.717061-.871731C3.633375-.536986 3.500872-.125529 3.20797-.125529C3.02665-.125529 2.977833-.278954 2.977833-.467248C2.977833-.585803 3.033624-.836862 3.082441-1.018182C3.131258-1.206476 3.200996-1.492403 3.235866-1.645828L3.375342-2.175841C3.417186-2.357161 3.500872-2.684932 3.500872-2.719801C3.500872-2.873225 3.375342-2.942964 3.263761-2.942964C3.145205-2.942964 2.984807-2.859278 2.942964-2.66401ZM2.496638-.871731C2.447821-.676463 2.294396-.536986 2.140971-.404483C2.078207-.348692 1.799253-.125529 1.499377-.125529C1.241345-.125529 .990286-.306849 .990286-.801993C.990286-1.171606 1.192528-1.93873 1.352927-2.217684C1.673724-2.775592 2.02939-2.880199 2.224658-2.880199C2.712827-2.880199 2.84533-2.350187 2.84533-2.273474C2.84533-2.245579 2.831382-2.196762 2.824408-2.175841L2.496638-.871731Z'/>
<path id='g1-98' d='M1.841096-4.630635C1.84807-4.644583 1.868991-4.735243 1.868991-4.742217C1.868991-4.777086 1.841096-4.839851 1.75741-4.839851C1.617933-4.839851 1.039103-4.78406 .864757-4.770112C.808966-4.763138 .711333-4.756164 .711333-4.609714C.711333-4.51208 .808966-4.51208 .892653-4.51208C1.227397-4.51208 1.227397-4.463263 1.227397-4.407472C1.227397-4.358655 1.157659-4.079701 1.115816-3.919303L.955417-3.277709C.892653-3.040598 .509091-1.513325 .495143-1.422665C.460274-1.255293 .460274-1.164633 .460274-1.080946C.460274-.376588 .9066 .069738 1.48543 .069738C2.357161 .069738 3.284682-.878705 3.284682-1.910834C3.284682-2.726775 2.719801-3.075467 2.238605-3.075467C1.875965-3.075467 1.569116-2.873225 1.3599-2.691905L1.841096-4.630635ZM1.492403-.125529C1.150685-.125529 .955417-.425405 .955417-.836862C.955417-1.094894 1.018182-1.332005 1.21345-2.12005C1.255293-2.252553 1.255293-2.266501 1.387796-2.419925C1.652802-2.726775 1.966625-2.880199 2.217684-2.880199C2.489664-2.880199 2.726775-2.677958 2.726775-2.203736C2.726775-1.917808 2.57335-1.206476 2.364134-.801993C2.196762-.460274 1.84807-.125529 1.492403-.125529Z'/>
<path id='g1-99' d='M3.054545-2.670984C2.803487-2.629141 2.698879-2.433873 2.698879-2.280448C2.698879-2.092154 2.84533-2.022416 2.970859-2.022416C3.124284-2.022416 3.368369-2.133998 3.368369-2.468742C3.368369-2.942964 2.824408-3.075467 2.447821-3.075467C1.401743-3.075467 .432379-2.113076 .432379-1.143711C.432379-.54396 .850809 .069738 1.72254 .069738C2.901121 .069738 3.452055-.620672 3.452055-.718306C3.452055-.760149 3.38929-.836862 3.333499-.836862C3.291656-.836862 3.277709-.822914 3.221918-.767123C2.677958-.125529 1.862017-.125529 1.736488-.125529C1.234371-.125529 1.011208-.467248 1.011208-.899626C1.011208-1.101868 1.108842-1.862017 1.471482-2.343213C1.736488-2.684932 2.099128-2.880199 2.447821-2.880199C2.545455-2.880199 2.880199-2.866252 3.054545-2.670984Z'/>
<path id='g1-100' d='M3.982067-4.630635C3.989041-4.644583 4.009963-4.735243 4.009963-4.742217C4.009963-4.777086 3.982067-4.839851 3.898381-4.839851C3.758904-4.839851 3.180075-4.78406 3.005729-4.770112C2.949938-4.763138 2.852304-4.756164 2.852304-4.609714C2.852304-4.51208 2.949938-4.51208 3.033624-4.51208C3.368369-4.51208 3.368369-4.463263 3.368369-4.407472C3.368369-4.358655 3.354421-4.316812 3.340473-4.254047L2.942964-2.66401C2.796513-2.894147 2.559402-3.075467 2.224658-3.075467C1.332005-3.075467 .425405-2.092154 .425405-1.08792C.425405-.411457 .878705 .069738 1.478456 .069738C1.855044 .069738 2.189788-.146451 2.468742-.418431C2.601245 0 3.005729 .069738 3.187049 .069738C3.438107 .069738 3.612453-.083686 3.737983-.299875C3.891407-.571856 3.982067-.969365 3.982067-.99726C3.982067-1.08792 3.891407-1.08792 3.870486-1.08792C3.772852-1.08792 3.765878-1.060025 3.717061-.871731C3.633375-.536986 3.500872-.125529 3.20797-.125529C3.02665-.125529 2.977833-.278954 2.977833-.467248C2.977833-.599751 2.991781-.662516 3.012702-.753176L3.982067-4.630635ZM2.496638-.871731C2.447821-.676463 2.294396-.536986 2.140971-.404483C2.078207-.348692 1.799253-.125529 1.499377-.125529C1.241345-.125529 .990286-.306849 .990286-.801993C.990286-1.171606 1.192528-1.93873 1.352927-2.217684C1.673724-2.775592 2.02939-2.880199 2.224658-2.880199C2.712827-2.880199 2.84533-2.350187 2.84533-2.273474C2.84533-2.245579 2.831382-2.196762 2.824408-2.175841L2.496638-.871731Z'/>
<path id='g1-101' d='M1.562142-1.590037C1.75741-1.590037 2.308344-1.603985 2.684932-1.736488C3.200996-1.917808 3.29863-2.252553 3.29863-2.461768C3.29863-2.84533 2.915068-3.075467 2.433873-3.075467C1.597011-3.075467 .467248-2.433873 .467248-1.241345C.467248-.536986 .9066 .069738 1.72254 .069738C2.901121 .069738 3.452055-.620672 3.452055-.718306C3.452055-.760149 3.38929-.836862 3.333499-.836862C3.291656-.836862 3.277709-.822914 3.221918-.767123C2.677958-.125529 1.862017-.125529 1.736488-.125529C1.318057-.125529 1.039103-.404483 1.039103-.969365C1.039103-1.066999 1.039103-1.206476 1.12279-1.590037H1.562142ZM1.17858-1.785305C1.464508-2.796513 2.238605-2.880199 2.433873-2.880199C2.740722-2.880199 2.998755-2.726775 2.998755-2.461768C2.998755-1.785305 1.820174-1.785305 1.520299-1.785305H1.17858Z'/>
<path id='g0-82' d='M3.73599-6.117061C3.795766-6.356164 3.825654-6.455791 4.014944-6.485679C4.104608-6.495641 4.423412-6.495641 4.622665-6.495641C5.330012-6.495641 6.435866-6.495641 6.435866-5.50934C6.435866-5.17061 6.276463-4.483188 5.88792-4.094645C5.628892-3.835616 5.100872-3.516812 4.204234-3.516812H3.088418L3.73599-6.117061ZM5.17061-3.387298C6.176837-3.606476 7.362391-4.303861 7.362391-5.310087C7.362391-6.166874 6.465753-6.804483 5.160648-6.804483H2.321295C2.122042-6.804483 2.032379-6.804483 2.032379-6.60523C2.032379-6.495641 2.122042-6.495641 2.311333-6.495641C2.331258-6.495641 2.520548-6.495641 2.689913-6.475716C2.86924-6.455791 2.958904-6.445828 2.958904-6.316314C2.958904-6.276463 2.948941-6.246575 2.919054-6.127024L1.58406-.777086C1.484433-.388543 1.464508-.308842 .67746-.308842C.498132-.308842 .408468-.308842 .408468-.109589C.408468 0 .52802 0 .547945 0C.826899 0 1.524284-.029888 1.803238-.029888S2.789539 0 3.068493 0C3.148194 0 3.267746 0 3.267746-.199253C3.267746-.308842 3.178082-.308842 2.988792-.308842C2.620174-.308842 2.34122-.308842 2.34122-.488169C2.34122-.547945 2.361146-.597758 2.371108-.657534L3.028643-3.297634H4.214197C5.120797-3.297634 5.300125-2.739726 5.300125-2.391034C5.300125-2.241594 5.220423-1.932752 5.160648-1.703611C5.090909-1.424658 5.001245-1.05604 5.001245-.856787C5.001245 .219178 6.196762 .219178 6.326276 .219178C7.173101 .219178 7.521793-.787049 7.521793-.926526C7.521793-1.046077 7.412204-1.046077 7.402242-1.046077C7.312578-1.046077 7.292653-.976339 7.272727-.9066C7.023661-.169365 6.595268 0 6.366127 0C6.03736 0 5.967621-.219178 5.967621-.607721C5.967621-.916563 6.027397-1.424658 6.067248-1.743462C6.087173-1.882939 6.107098-2.072229 6.107098-2.211706C6.107098-2.978829 5.439601-3.287671 5.17061-3.387298Z'/>
</defs>
<g id='page1' transform='matrix(1.5 0 0 1.5 0 0)'>
<use x='202.522037' y='39.262084' xlink:href='#g0-82'/>
<use x='210.163534' y='35.148588' xlink:href='#g1-97'/>
<use x='214.983105' y='41.060911' xlink:href='#g1-98'/>
<use x='218.486642' y='41.060911' xlink:href='#g3-40'/>
<use x='221.599986' y='41.060911' xlink:href='#g1-99'/>
<use x='225.160381' y='41.060911' xlink:href='#g1-100'/>
<use x='229.307701' y='41.060911' xlink:href='#g3-41'/>
<use x='235.686488' y='39.262084' xlink:href='#g2-61'/>
<use x='246.202568' y='39.262084' xlink:href='#g2-48'/>
<use x='204.237831' y='54.206044' xlink:href='#g0-82'/>
<use x='211.879328' y='50.092548' xlink:href='#g1-97'/>
<use x='216.6989' y='56.004871' xlink:href='#g3-91'/>
<use x='218.954345' y='56.004871' xlink:href='#g1-98'/>
<use x='222.457883' y='56.004871' xlink:href='#g1-99'/>
<use x='226.018278' y='56.004871' xlink:href='#g1-100'/>
<use x='230.165598' y='56.004871' xlink:href='#g3-93'/>
<use x='235.686488' y='54.206044' xlink:href='#g2-61'/>
<use x='246.202568' y='54.206044' xlink:href='#g2-48'/>
<use x='198.20245' y='69.150004' xlink:href='#g0-82'/>
<use x='205.843947' y='65.036509' xlink:href='#g1-97'/>
<use x='210.663518' y='70.948831' xlink:href='#g1-98'/>
<use x='214.167056' y='70.948831' xlink:href='#g3-91'/>
<use x='216.422502' y='70.948831' xlink:href='#g1-99'/>
<use x='219.982897' y='70.948831' xlink:href='#g1-100'/>
<use x='224.130217' y='70.948831' xlink:href='#g3-59'/>
<use x='226.385662' y='70.948831' xlink:href='#g1-101'/>
<use x='230.165613' y='70.948831' xlink:href='#g3-93'/>
<use x='235.686488' y='69.150004' xlink:href='#g2-61'/>
<use x='246.202568' y='69.150004' xlink:href='#g2-48'/>
<use x='209.323816' y='84.093965' xlink:href='#g0-82'/>
<use x='216.888346' y='85.588345' xlink:href='#g1-97'/>
<use x='221.20979' y='85.588345' xlink:href='#g1-98'/>
<use x='224.713328' y='85.588345' xlink:href='#g1-99'/>
<use x='228.273723' y='85.588345' xlink:href='#g1-100'/>
<use x='235.686488' y='84.093965' xlink:href='#g2-61'/>
<use x='246.202568' y='84.093965' xlink:href='#g0-82'/>
<use x='253.767099' y='85.588345' xlink:href='#g1-99'/>
<use x='257.327494' y='85.588345' xlink:href='#g1-100'/>
<use x='261.474814' y='85.588345' xlink:href='#g1-97'/>
<use x='265.796258' y='85.588345' xlink:href='#g1-98'/>
<use x='203.097135' y='99.037925' xlink:href='#g0-82'/>
<use x='210.661666' y='100.836752' xlink:href='#g3-40'/>
<use x='213.775009' y='100.836752' xlink:href='#g1-97'/>
<use x='218.096453' y='100.836752' xlink:href='#g1-98'/>
<use x='221.59999' y='100.836752' xlink:href='#g3-41'/>
<use x='224.713333' y='100.836752' xlink:href='#g1-99'/>
<use x='228.273729' y='100.836752' xlink:href='#g1-100'/>
<use x='235.686488' y='99.037925' xlink:href='#g2-61'/>
<use x='246.202568' y='99.037925' xlink:href='#g2-48'/>
</g>
</svg>