<?xml version='1.0' encoding='UTF-8'?>
<!-- This file was generated by dvisvgm 3.2 -->
<svg version='1.1' xmlns='http://www.w3.org/2000/svg' xmlns:xlink='http://www.w3.org/1999/xlink' width='81.820764pt' height='30.477568pt' viewBox='310.099053 27.188682 81.820764 30.477568'>
<defs>
<path id='g1-48' d='M2.022416-3.291656C2.078207-3.410212 2.085181-3.466002 2.085181-3.514819C2.085181-3.731009 1.889913-3.898381 1.673724-3.898381C1.408717-3.898381 1.325031-3.682192 1.290162-3.57061L.369614-.550934C.36264-.536986 .334745-.446326 .334745-.439352C.334745-.355666 .550934-.285928 .606725-.285928C.655542-.285928 .662516-.299875 .711333-.404483L2.022416-3.291656Z'/>
<path id='g2-25' d='M2.6401-3.716065H3.765878C3.437111-2.241594 3.347447-1.8132 3.347447-1.145704C3.347447-.996264 3.347447-.727273 3.427148-.388543C3.526775 .049813 3.636364 .109589 3.785803 .109589C3.985056 .109589 4.194271-.069738 4.194271-.268991C4.194271-.328767 4.194271-.348692 4.134496-.488169C3.845579-1.205479 3.845579-1.853051 3.845579-2.132005C3.845579-2.660025 3.915318-3.198007 4.024907-3.716065H5.160648C5.290162-3.716065 5.648817-3.716065 5.648817-4.054795C5.648817-4.293898 5.439601-4.293898 5.250311-4.293898H1.912827C1.693649-4.293898 1.315068-4.293898 .876712-3.825654C.52802-3.437111 .268991-2.978829 .268991-2.929016C.268991-2.919054 .268991-2.82939 .388543-2.82939C.468244-2.82939 .488169-2.86924 .547945-2.948941C1.036115-3.716065 1.613948-3.716065 1.8132-3.716065H2.381071C2.062267-2.510585 1.524284-1.305106 1.105853-.398506C1.026152-.249066 1.026152-.229141 1.026152-.159402C1.026152 .029888 1.185554 .109589 1.315068 .109589C1.613948 .109589 1.693649-.169365 1.8132-.537983C1.952677-.996264 1.952677-1.016189 2.082192-1.514321L2.6401-3.716065Z'/>
<path id='g2-120' d='M3.327522-3.008717C3.387298-3.267746 3.616438-4.184309 4.313823-4.184309C4.363636-4.184309 4.60274-4.184309 4.811955-4.054795C4.533001-4.004981 4.333748-3.755915 4.333748-3.516812C4.333748-3.35741 4.443337-3.16812 4.712329-3.16812C4.931507-3.16812 5.250311-3.347447 5.250311-3.745953C5.250311-4.26401 4.662516-4.403487 4.323786-4.403487C3.745953-4.403487 3.39726-3.875467 3.277709-3.646326C3.028643-4.303861 2.49066-4.403487 2.201743-4.403487C1.165629-4.403487 .597758-3.118306 .597758-2.86924C.597758-2.769614 .697385-2.769614 .71731-2.769614C.797011-2.769614 .826899-2.789539 .846824-2.879203C1.185554-3.935243 1.843088-4.184309 2.181818-4.184309C2.371108-4.184309 2.719801-4.094645 2.719801-3.516812C2.719801-3.20797 2.550436-2.540473 2.181818-1.145704C2.022416-.52802 1.673724-.109589 1.235367-.109589C1.175592-.109589 .946451-.109589 .737235-.239103C.986301-.288917 1.205479-.498132 1.205479-.777086C1.205479-1.046077 .986301-1.125778 .836862-1.125778C.537983-1.125778 .288917-.86675 .288917-.547945C.288917-.089664 .787049 .109589 1.225405 .109589C1.882939 .109589 2.241594-.587796 2.271482-.647572C2.391034-.278954 2.749689 .109589 3.347447 .109589C4.373599 .109589 4.941469-1.175592 4.941469-1.424658C4.941469-1.524284 4.851806-1.524284 4.821918-1.524284C4.732254-1.524284 4.712329-1.484433 4.692403-1.414695C4.363636-.348692 3.686177-.109589 3.367372-.109589C2.978829-.109589 2.819427-.428394 2.819427-.767123C2.819427-.986301 2.879203-1.205479 2.988792-1.643836L3.327522-3.008717Z'/>
<path id='g0-0' d='M6.56538-2.291407C6.734745-2.291407 6.914072-2.291407 6.914072-2.49066S6.734745-2.689913 6.56538-2.689913H1.175592C1.006227-2.689913 .826899-2.689913 .826899-2.49066S1.006227-2.291407 1.175592-2.291407H6.56538Z'/>
<path id='g0-106' d='M1.58406-7.113325C1.58406-7.292653 1.58406-7.47198 1.384807-7.47198S1.185554-7.292653 1.185554-7.113325V2.132005C1.185554 2.311333 1.185554 2.49066 1.384807 2.49066S1.58406 2.311333 1.58406 2.132005V-7.113325Z'/>
<path id='g3-49' d='M2.929016-6.37609C2.929016-6.615193 2.929016-6.635118 2.699875-6.635118C2.082192-5.997509 1.205479-5.997509 .886675-5.997509V-5.688667C1.085928-5.688667 1.673724-5.688667 2.191781-5.947696V-.787049C2.191781-.428394 2.161893-.308842 1.265255-.308842H.946451V0C1.295143-.029888 2.161893-.029888 2.560399-.029888S3.825654-.029888 4.174346 0V-.308842H3.855542C2.958904-.308842 2.929016-.418431 2.929016-.787049V-6.37609Z'/>
<path id='g3-50' d='M1.265255-.767123L2.321295-1.793275C3.875467-3.16812 4.473225-3.706102 4.473225-4.702366C4.473225-5.838107 3.576588-6.635118 2.361146-6.635118C1.235367-6.635118 .498132-5.718555 .498132-4.83188C.498132-4.273973 .996264-4.273973 1.026152-4.273973C1.195517-4.273973 1.544209-4.393524 1.544209-4.801993C1.544209-5.061021 1.364882-5.32005 1.016189-5.32005C.936488-5.32005 .916563-5.32005 .886675-5.310087C1.115816-5.957659 1.653798-6.326276 2.231631-6.326276C3.138232-6.326276 3.566625-5.519303 3.566625-4.702366C3.566625-3.905355 3.068493-3.118306 2.520548-2.500623L.607721-.368618C.498132-.259029 .498132-.239103 .498132 0H4.194271L4.473225-1.733499H4.224159C4.174346-1.43462 4.104608-.996264 4.004981-.846824C3.935243-.767123 3.277709-.767123 3.058531-.767123H1.265255Z'/>
<path id='g3-108' d='M1.763387-6.914072L.328767-6.804483V-6.495641C1.026152-6.495641 1.105853-6.425903 1.105853-5.937733V-.757161C1.105853-.308842 .996264-.308842 .328767-.308842V0C.657534-.009963 1.185554-.029888 1.43462-.029888S2.171856-.009963 2.540473 0V-.308842C1.872976-.308842 1.763387-.308842 1.763387-.757161V-6.914072Z'/>
<path id='g3-110' d='M1.09589-3.427148V-.757161C1.09589-.308842 .986301-.308842 .318804-.308842V0C.667497-.009963 1.175592-.029888 1.444583-.029888C1.703611-.029888 2.221669-.009963 2.560399 0V-.308842C1.892902-.308842 1.783313-.308842 1.783313-.757161V-2.590286C1.783313-3.626401 2.49066-4.184309 3.128269-4.184309C3.755915-4.184309 3.865504-3.646326 3.865504-3.078456V-.757161C3.865504-.308842 3.755915-.308842 3.088418-.308842V0C3.437111-.009963 3.945205-.029888 4.214197-.029888C4.473225-.029888 4.991283-.009963 5.330012 0V-.308842C4.811955-.308842 4.562889-.308842 4.552927-.607721V-2.510585C4.552927-3.367372 4.552927-3.676214 4.244085-4.034869C4.104608-4.204234 3.775841-4.403487 3.198007-4.403487C2.470735-4.403487 2.002491-3.975093 1.723537-3.35741V-4.403487L.318804-4.293898V-3.985056C1.016189-3.985056 1.09589-3.915318 1.09589-3.427148Z'/>
</defs>
<g id='page1' transform='matrix(1.5 0 0 1.5 0 0)'>
<use x='209.75091' y='24.760906' xlink:href='#g3-49'/>
<rect x='206.732702' y='28.810798' height='.398484' width='11.01775'/>
<use x='206.732702' y='38.334578' xlink:href='#g3-50'/>
<use x='211.714041' y='38.334578' xlink:href='#g2-25'/>
<use x='220.606366' y='31.500708' xlink:href='#g3-108'/>
<use x='223.373774' y='31.500708' xlink:href='#g3-110'/>
<use x='230.568991' y='31.500708' xlink:href='#g0-106'/>
<use x='233.336399' y='31.500708' xlink:href='#g2-120'/>
<use x='241.244197' y='31.500708' xlink:href='#g0-0'/>
<use x='251.206811' y='31.500708' xlink:href='#g2-120'/>
<use x='256.900743' y='27.387212' xlink:href='#g1-48'/>
<use x='259.695818' y='31.500708' xlink:href='#g0-106'/>
</g>
</svg>