<?xml version='1.0' encoding='UTF-8'?>
<!-- This file was generated by dvisvgm 3.2 -->
<svg version='1.1' xmlns='http://www.w3.org/2000/svg' xmlns:xlink='http://www.w3.org/1999/xlink' width='11.632588pt' height='8.787026pt' viewBox='-21.236388 19.575567 11.632588 8.787026'>
<defs>
<path id='g1-105' d='M2.259527-4.358655C2.259527-4.470237 2.175841-4.623661 1.980573-4.623661C1.792279-4.623661 1.590037-4.442341 1.590037-4.2401C1.590037-4.121544 1.680697-3.975093 1.868991-3.975093C2.071233-3.975093 2.259527-4.170361 2.259527-4.358655ZM.836862-.81594C.808966-.72528 .774097-.641594 .774097-.523039C.774097-.195268 1.053051 .069738 1.436613 .069738C2.133998 .069738 2.440847-.892653 2.440847-.99726C2.440847-1.08792 2.350187-1.08792 2.329265-1.08792C2.231631-1.08792 2.224658-1.046077 2.196762-.969365C2.036364-.411457 1.729514-.125529 1.457534-.125529C1.318057-.125529 1.283188-.216189 1.283188-.369614C1.283188-.530012 1.332005-.662516 1.39477-.81594C1.464508-1.004234 1.54122-1.192528 1.617933-1.373848C1.680697-1.54122 1.931756-2.175841 1.959651-2.259527C1.980573-2.329265 2.001494-2.412951 2.001494-2.48269C2.001494-2.810461 1.72254-3.075467 1.338979-3.075467C.648568-3.075467 .327771-2.127024 .327771-2.008468C.327771-1.917808 .425405-1.917808 .446326-1.917808C.54396-1.917808 .550934-1.952677 .571856-2.02939C.753176-2.629141 1.060025-2.880199 1.318057-2.880199C1.429639-2.880199 1.492403-2.824408 1.492403-2.636115C1.492403-2.475716 1.45056-2.371108 1.276214-1.93873L.836862-.81594Z'/>
<path id='g0-27' d='M5.160648-3.716065C5.290162-3.716065 5.648817-3.716065 5.648817-4.054795C5.648817-4.293898 5.439601-4.293898 5.260274-4.293898H2.988792C1.484433-4.293898 .37858-2.650062 .37858-1.464508C.37858-.587796 .966376 .109589 1.872976 .109589C3.048568 .109589 4.373599-1.09589 4.373599-2.630137C4.373599-2.799502 4.373599-3.277709 4.064757-3.716065H5.160648ZM1.882939-.109589C1.39477-.109589 .996264-.468244 .996264-1.185554C.996264-1.484433 1.115816-2.30137 1.464508-2.889166C1.882939-3.576588 2.480697-3.716065 2.819427-3.716065C3.656289-3.716065 3.73599-3.058531 3.73599-2.749689C3.73599-2.281445 3.536737-1.464508 3.198007-.956413C2.809465-.368618 2.271482-.109589 1.882939-.109589Z'/>
</defs>
<g id='page1' transform='matrix(1.5 0 0 1.5 0 0)'>
<use x='-14.536172' y='17.344276' xlink:href='#g0-27'/>
<use x='-8.84338' y='18.838657' xlink:href='#g1-105'/>
</g>
</svg>