<?xml version='1.0' encoding='UTF-8'?>
<!-- This file was generated by dvisvgm 3.2 -->
<svg version='1.1' xmlns='http://www.w3.org/2000/svg' xmlns:xlink='http://www.w3.org/1999/xlink' width='24.52422pt' height='10.161893pt' viewBox='-21.236388 15.854521 24.52422 10.161893'>
<defs>
<path id='g1-22' d='M.376588 1.12279C.348692 1.227397 .348692 1.262267 .348692 1.26924C.348692 1.422665 .474222 1.492403 .585803 1.492403C.836862 1.492403 .892653 1.262267 .920548 1.143711C.934496 1.108842 1.073973 .550934 1.241345-.132503C1.457534 .013948 1.736488 .069738 1.987547 .069738C2.587298 .069738 2.977833-.418431 2.991781-.432379C3.124284 .048817 3.605479 .069738 3.710087 .069738C3.961146 .069738 4.135492-.083686 4.261021-.299875C4.414446-.571856 4.505106-.969365 4.505106-.99726C4.505106-1.08792 4.414446-1.08792 4.393524-1.08792C4.29589-1.08792 4.288917-1.060025 4.2401-.871731C4.156413-.536986 4.02391-.125529 3.731009-.125529C3.549689-.125529 3.500872-.278954 3.500872-.467248C3.500872-.585803 3.556663-.836862 3.605479-1.018182C3.654296-1.206476 3.724035-1.492403 3.758904-1.645828L3.919303-2.266501C3.961146-2.440847 4.037858-2.747696 4.037858-2.782565C4.037858-2.922042 3.926276-3.005729 3.807721-3.005729C3.731009-3.005729 3.598506-2.970859 3.521793-2.838356C3.500872-2.796513 3.445081-2.57335 3.410212-2.433873L3.263761-1.855044L3.047572-.983313C2.998755-.808966 2.998755-.795019 2.93599-.704359C2.719801-.397509 2.412951-.125529 2.015442-.125529C1.443587-.125529 1.443587-.620672 1.443587-.746202C1.443587-.927522 1.464508-1.018182 1.562142-1.39477C1.63188-1.701619 1.645828-1.750436 1.715567-2.022416L1.8132-2.412951C1.84807-2.559402 1.917808-2.824408 1.917808-2.852304C1.917808-2.977833 1.820174-3.075467 1.680697-3.075467C1.429639-3.075467 1.366874-2.831382 1.345953-2.747696L.376588 1.12279Z'/>
<path id='g1-23' d='M1.750436-2.873225C1.75741-2.901121 1.764384-2.942964 1.764384-2.977833C1.764384-2.984807 1.764384-3.075467 1.652802-3.075467C1.645828-3.075467 1.248319-3.040598 1.199502-3.040598C1.066999-3.02665 .941469-3.019676 .808966-3.005729C.697385-2.998755 .613699-2.991781 .613699-2.84533C.613699-2.747696 .711333-2.747696 .795019-2.747696C1.129763-2.747696 1.129763-2.705853 1.129763-2.643088C1.129763-2.601245 1.094894-2.461768 1.066999-2.371108L.718306-.962391C.54396-.265006 .509091-.125529 .509091-.097634C.509091 0 .613699 0 .641594 0H.753176C1.373848-.097634 2.259527-.425405 3.005729-1.08792C3.954172-1.931756 4.093649-2.838356 4.093649-2.852304C4.093649-2.977833 3.996015-3.075467 3.856538-3.075467C3.612453-3.075467 3.563636-2.880199 3.500872-2.684932C3.221918-1.694645 2.287422-.627646 1.101868-.278954L1.750436-2.873225Z'/>
<path id='g0-70' d='M3.01868-3.237858H3.985056C4.732254-3.237858 4.811955-3.078456 4.811955-2.789539C4.811955-2.719801 4.811955-2.600249 4.742217-2.30137C4.722291-2.251557 4.712329-2.211706 4.712329-2.191781C4.712329-2.11208 4.772105-2.072229 4.83188-2.072229C4.931507-2.072229 4.931507-2.102117 4.98132-2.281445L5.529265-4.443337C5.559153-4.552927 5.559153-4.572852 5.559153-4.60274C5.559153-4.622665 5.539228-4.712329 5.439601-4.712329S5.330012-4.662516 5.290162-4.503113C5.080946-3.726027 4.851806-3.5467 4.004981-3.5467H3.098381L3.73599-6.07721C3.825654-6.425903 3.835616-6.465753 4.273973-6.465753H5.589041C6.814446-6.465753 7.043587-6.136986 7.043587-5.369863C7.043587-5.140722 7.043587-5.100872 7.013699-4.83188C6.993773-4.702366 6.993773-4.682441 6.993773-4.652553C6.993773-4.60274 7.023661-4.533001 7.113325-4.533001C7.222914-4.533001 7.232877-4.592777 7.252802-4.782067L7.452055-6.505604C7.481943-6.774595 7.43213-6.774595 7.183064-6.774595H2.30137C2.102117-6.774595 2.002491-6.774595 2.002491-6.575342C2.002491-6.465753 2.092154-6.465753 2.281445-6.465753C2.650062-6.465753 2.929016-6.465753 2.929016-6.286426C2.929016-6.246575 2.929016-6.22665 2.879203-6.047323L1.564134-.777086C1.464508-.388543 1.444583-.308842 .657534-.308842C.488169-.308842 .37858-.308842 .37858-.119552C.37858 0 .498132 0 .52802 0C.816936 0 1.554172-.029888 1.843088-.029888C2.171856-.029888 2.998755 0 3.327522 0C3.417186 0 3.536737 0 3.536737-.18929C3.536737-.268991 3.476961-.288917 3.476961-.298879C3.447073-.308842 3.427148-.308842 3.198007-.308842C2.978829-.308842 2.929016-.308842 2.67995-.328767C2.391034-.358655 2.361146-.398506 2.361146-.52802C2.361146-.547945 2.361146-.607721 2.400996-.757161L3.01868-3.237858Z'/>
</defs>
<g id='page1' transform='matrix(1.5 0 0 1.5 0 0)'>
<use x='-14.536172' y='17.344276' xlink:href='#g0-70'/>
<use x='-6.745916' y='13.728912' xlink:href='#g1-22'/>
<use x='-1.901761' y='13.728912' xlink:href='#g1-23'/>
</g>
</svg>