<?xml version='1.0' encoding='UTF-8'?>
<!-- This file was generated by dvisvgm 3.2 -->
<svg version='1.1' xmlns='http://www.w3.org/2000/svg' xmlns:xlink='http://www.w3.org/1999/xlink' width='74.516371pt' height='15.43251pt' viewBox='-21.400772 13.647415 74.516371 15.43251'>
<defs>
<path id='g2-48' d='M3.598506-2.224658C3.598506-2.991781 3.507846-3.542715 3.187049-4.030884C2.970859-4.351681 2.538481-4.630635 1.980573-4.630635C.36264-4.630635 .36264-2.726775 .36264-2.224658S.36264 .139477 1.980573 .139477S3.598506-1.72254 3.598506-2.224658ZM1.980573-.055791C1.659776-.055791 1.234371-.244085 1.094894-.81594C.99726-1.227397 .99726-1.799253 .99726-2.315318C.99726-2.824408 .99726-3.354421 1.101868-3.737983C1.248319-4.288917 1.694645-4.435367 1.980573-4.435367C2.357161-4.435367 2.719801-4.20523 2.84533-3.800747C2.956912-3.424159 2.963885-2.922042 2.963885-2.315318C2.963885-1.799253 2.963885-1.283188 2.873225-.843836C2.733748-.209215 2.259527-.055791 1.980573-.055791Z'/>
<path id='g0-0' d='M6.56538-2.291407C6.734745-2.291407 6.914072-2.291407 6.914072-2.49066S6.734745-2.689913 6.56538-2.689913H1.175592C1.006227-2.689913 .826899-2.689913 .826899-2.49066S1.006227-2.291407 1.175592-2.291407H6.56538Z'/>
<path id='g0-17' d='M6.834371-4.224159C7.003736-4.224159 7.193026-4.224159 7.193026-4.423412S7.013699-4.622665 6.844334-4.622665H.896638C.727273-4.622665 .547945-4.622665 .547945-4.423412S.747198-4.224159 .9066-4.224159H6.834371ZM6.844334-.358655C7.013699-.358655 7.193026-.358655 7.193026-.557908S7.003736-.757161 6.834371-.757161H.9066C.747198-.757161 .547945-.757161 .547945-.557908S.727273-.358655 .896638-.358655H6.844334ZM6.844334-2.291407C7.013699-2.291407 7.193026-2.291407 7.193026-2.49066S7.013699-2.689913 6.844334-2.689913H.896638C.727273-2.689913 .547945-2.689913 .547945-2.49066S.727273-2.291407 .896638-2.291407H6.844334Z'/>
<path id='g1-28' d='M2.929016-3.716065H4.60274C4.732254-3.716065 5.090909-3.716065 5.090909-4.054795C5.090909-4.293898 4.881694-4.293898 4.692403-4.293898H1.902864C1.703611-4.293898 1.315068-4.293898 .876712-3.825654C.547945-3.466999 .268991-2.988792 .268991-2.929016C.268991-2.919054 .268991-2.82939 .388543-2.82939C.468244-2.82939 .488169-2.86924 .547945-2.948941C1.036115-3.716065 1.603985-3.716065 1.8132-3.716065H2.6401L1.663761-.518057C1.62391-.398506 1.564134-.18929 1.564134-.14944C1.564134-.039851 1.633873 .119552 1.853051 .119552C2.181818 .119552 2.231631-.159402 2.261519-.308842L2.929016-3.716065Z'/>
<path id='g1-120' d='M3.327522-3.008717C3.387298-3.267746 3.616438-4.184309 4.313823-4.184309C4.363636-4.184309 4.60274-4.184309 4.811955-4.054795C4.533001-4.004981 4.333748-3.755915 4.333748-3.516812C4.333748-3.35741 4.443337-3.16812 4.712329-3.16812C4.931507-3.16812 5.250311-3.347447 5.250311-3.745953C5.250311-4.26401 4.662516-4.403487 4.323786-4.403487C3.745953-4.403487 3.39726-3.875467 3.277709-3.646326C3.028643-4.303861 2.49066-4.403487 2.201743-4.403487C1.165629-4.403487 .597758-3.118306 .597758-2.86924C.597758-2.769614 .697385-2.769614 .71731-2.769614C.797011-2.769614 .826899-2.789539 .846824-2.879203C1.185554-3.935243 1.843088-4.184309 2.181818-4.184309C2.371108-4.184309 2.719801-4.094645 2.719801-3.516812C2.719801-3.20797 2.550436-2.540473 2.181818-1.145704C2.022416-.52802 1.673724-.109589 1.235367-.109589C1.175592-.109589 .946451-.109589 .737235-.239103C.986301-.288917 1.205479-.498132 1.205479-.777086C1.205479-1.046077 .986301-1.125778 .836862-1.125778C.537983-1.125778 .288917-.86675 .288917-.547945C.288917-.089664 .787049 .109589 1.225405 .109589C1.882939 .109589 2.241594-.587796 2.271482-.647572C2.391034-.278954 2.749689 .109589 3.347447 .109589C4.373599 .109589 4.941469-1.175592 4.941469-1.424658C4.941469-1.524284 4.851806-1.524284 4.821918-1.524284C4.732254-1.524284 4.712329-1.484433 4.692403-1.414695C4.363636-.348692 3.686177-.109589 3.367372-.109589C2.978829-.109589 2.819427-.428394 2.819427-.767123C2.819427-.986301 2.879203-1.205479 2.988792-1.643836L3.327522-3.008717Z'/>
<path id='g1-121' d='M4.841843-3.795766C4.881694-3.935243 4.881694-3.955168 4.881694-4.024907C4.881694-4.204234 4.742217-4.293898 4.592777-4.293898C4.493151-4.293898 4.333748-4.234122 4.244085-4.084682C4.224159-4.034869 4.144458-3.726027 4.104608-3.5467C4.034869-3.287671 3.965131-3.01868 3.905355-2.749689L3.457036-.956413C3.417186-.806974 2.988792-.109589 2.331258-.109589C1.823163-.109589 1.713574-.547945 1.713574-.916563C1.713574-1.374844 1.882939-1.992528 2.221669-2.86924C2.381071-3.277709 2.420922-3.387298 2.420922-3.58655C2.420922-4.034869 2.102117-4.403487 1.603985-4.403487C.657534-4.403487 .288917-2.958904 .288917-2.86924C.288917-2.769614 .388543-2.769614 .408468-2.769614C.508095-2.769614 .518057-2.789539 .56787-2.948941C.836862-3.88543 1.235367-4.184309 1.574097-4.184309C1.653798-4.184309 1.823163-4.184309 1.823163-3.865504C1.823163-3.616438 1.723537-3.35741 1.653798-3.16812C1.255293-2.11208 1.075965-1.544209 1.075965-1.075965C1.075965-.18929 1.703611 .109589 2.291407 .109589C2.67995 .109589 3.01868-.059776 3.297634-.33873C3.16812 .179328 3.048568 .667497 2.650062 1.195517C2.391034 1.534247 2.012453 1.823163 1.554172 1.823163C1.414695 1.823163 .966376 1.793275 .797011 1.404732C.956413 1.404732 1.085928 1.404732 1.225405 1.285181C1.325031 1.195517 1.424658 1.066002 1.424658 .876712C1.424658 .56787 1.155666 .52802 1.05604 .52802C.826899 .52802 .498132 .687422 .498132 1.175592C.498132 1.673724 .936488 2.042341 1.554172 2.042341C2.580324 2.042341 3.606476 1.135741 3.88543 .009963L4.841843-3.795766Z'/>
</defs>
<g id='page1' transform='matrix(1.5 0 0 1.5 0 0)'>
<use x='-14.536172' y='17.344276' xlink:href='#g1-28'/>
<use x='-6.28591' y='17.344276' xlink:href='#g0-17'/>
<use x='4.23017' y='17.344276' xlink:href='#g1-120'/>
<use x='9.924102' y='13.728912' xlink:href='#g2-48'/>
<use x='16.607337' y='17.344276' xlink:href='#g0-0'/>
<use x='26.569951' y='17.344276' xlink:href='#g1-121'/>
<use x='31.811894' y='13.728912' xlink:href='#g2-48'/>
</g>
</svg>