<?xml version='1.0' encoding='UTF-8'?>
<!-- This file was generated by dvisvgm 3.2 -->
<svg version='1.1' xmlns='http://www.w3.org/2000/svg' xmlns:xlink='http://www.w3.org/1999/xlink' width='314.052107pt' height='130.055542pt' viewBox='192.997063 42.454738 314.052107 130.055542'>
<defs>
<path id='g0-0' d='M6.56538-2.291407C6.734745-2.291407 6.914072-2.291407 6.914072-2.49066S6.734745-2.689913 6.56538-2.689913H1.175592C1.006227-2.689913 .826899-2.689913 .826899-2.49066S1.006227-2.291407 1.175592-2.291407H6.56538Z'/>
<path id='g5-8' d='M10.042341-4.801993C10.11208-4.83188 10.161893-4.901619 10.161893-4.98132C10.161893-5.090909 10.072229-5.180573 9.96264-5.180573C9.92279-5.180573 9.892902-5.17061 9.872976-5.150685L-.079701-.169365C-.14944-.139477-.199253-.069738-.199253 0C-.199253 .109589-.109589 .199253 0 .199253C.029888 .199253 .059776 .18929 .079701 .169365L10.042341-4.801993Z'/>
<path id='g5-24' d='M10.002491-2.291407C10.092154-2.311333 10.161893-2.391034 10.161893-2.49066C10.161893-2.600249 10.072229-2.689913 9.96264-2.689913C9.942715-2.689913 9.92279-2.67995 9.912827-2.67995L-.039851-.18929C-.129514-.169365-.18929-.089664-.18929 0C-.18929 .109589-.109589 .18929 0 .18929H.039851L10.002491-2.291407Z'/>
<path id='g5-42' d='M7.063512-1.853051C7.880448-3.028643 8.846824-4.07472 9.942715-4.971357C8.56787-4.632628 7.153176-4.483188 5.728518-4.533001L7.063512-1.853051Z'/>
<path id='g5-58' d='M9.942715-2.49066C8.52802-2.450809 7.113325-2.610212 5.728518-2.968867L6.455791-.069738C7.511831-1.036115 8.67746-1.843088 9.942715-2.480697V-2.49066Z'/>
<path id='g4-50' d='M3.521793-1.26924H3.284682C3.263761-1.115816 3.194022-.704359 3.103362-.63462C3.047572-.592777 2.510585-.592777 2.412951-.592777H1.129763C1.862017-1.241345 2.106102-1.436613 2.524533-1.764384C3.040598-2.175841 3.521793-2.608219 3.521793-3.270735C3.521793-4.11457 2.782565-4.630635 1.889913-4.630635C1.025156-4.630635 .439352-4.02391 .439352-3.382316C.439352-3.02665 .739228-2.991781 .808966-2.991781C.976339-2.991781 1.17858-3.110336 1.17858-3.361395C1.17858-3.486924 1.129763-3.731009 .767123-3.731009C.983313-4.226152 1.457534-4.379577 1.785305-4.379577C2.48269-4.379577 2.84533-3.835616 2.84533-3.270735C2.84533-2.66401 2.412951-2.182814 2.189788-1.931756L.509091-.27198C.439352-.209215 .439352-.195268 .439352 0H3.312578L3.521793-1.26924Z'/>
<path id='g4-51' d='M1.903861-2.329265C2.447821-2.329265 2.838356-1.952677 2.838356-1.206476C2.838356-.341719 2.336239-.083686 1.931756-.083686C1.652802-.083686 1.039103-.160399 .746202-.571856C1.073973-.585803 1.150685-.81594 1.150685-.962391C1.150685-1.185554 .983313-1.345953 .767123-1.345953C.571856-1.345953 .376588-1.227397 .376588-.941469C.376588-.285928 1.101868 .139477 1.945704 .139477C2.915068 .139477 3.584558-.509091 3.584558-1.206476C3.584558-1.750436 3.138232-2.294396 2.371108-2.454795C3.103362-2.719801 3.368369-3.242839 3.368369-3.668244C3.368369-4.219178 2.733748-4.630635 1.959651-4.630635S.592777-4.254047 .592777-3.696139C.592777-3.459029 .746202-3.326526 .955417-3.326526C1.171606-3.326526 1.311083-3.486924 1.311083-3.682192C1.311083-3.884433 1.171606-4.030884 .955417-4.044832C1.199502-4.351681 1.680697-4.428394 1.93873-4.428394C2.252553-4.428394 2.691905-4.274969 2.691905-3.668244C2.691905-3.375342 2.594271-3.054545 2.412951-2.838356C2.182814-2.57335 1.987547-2.559402 1.638854-2.538481C1.464508-2.524533 1.45056-2.524533 1.415691-2.517559C1.401743-2.517559 1.345953-2.503611 1.345953-2.426899C1.345953-2.329265 1.408717-2.329265 1.527273-2.329265H1.903861Z'/>
<path id='g6-20' d='M2.49066 23.501868H5.110834V22.953923H3.038605V.14944H5.110834V-.398506H2.49066V23.501868Z'/>
<path id='g6-21' d='M2.211706 22.953923H.139477V23.501868H2.759651V-.398506H.139477V.14944H2.211706V22.953923Z'/>
<path id='g6-34' d='M2.739726 29.479452H5.688667V28.861768H3.35741V.219178H5.688667V-.398506H2.739726V29.479452Z'/>
<path id='g6-35' d='M2.440847 28.861768H.109589V29.479452H3.058531V-.398506H.109589V.219178H2.440847V28.861768Z'/>
<path id='g6-90' d='M1.036115 21.688667C1.354919 21.668742 1.524284 21.449564 1.524284 21.200498C1.524284 20.871731 1.275218 20.712329 1.046077 20.712329C.806974 20.712329 .557908 20.861768 .557908 21.210461C.557908 21.718555 1.05604 22.136986 1.663761 22.136986C3.178082 22.136986 3.745953 19.805729 4.4533 16.916563C5.220423 13.768369 5.867995 10.590286 6.405978 7.392279C6.774595 5.270237 7.143213 3.277709 7.481943 1.992528C7.601494 1.504359 7.940224 .219178 8.328767 .219178C8.637609 .219178 8.886675 .408468 8.926526 .448319C8.597758 .468244 8.428394 .687422 8.428394 .936488C8.428394 1.265255 8.67746 1.424658 8.9066 1.424658C9.145704 1.424658 9.39477 1.275218 9.39477 .926526C9.39477 .388543 8.856787 0 8.308842 0C7.551681 0 6.993773 1.085928 6.445828 3.118306C6.41594 3.227895 5.061021 8.229141 3.965131 14.744707C3.706102 16.268991 3.417186 17.932752 3.088418 19.317559C2.909091 20.044832 2.450809 21.917808 1.643836 21.917808C1.285181 21.917808 1.046077 21.688667 1.036115 21.688667Z'/>
<path id='g3-40' d='M3.297634 2.391034C3.297634 2.361146 3.297634 2.34122 3.128269 2.171856C1.882939 .916563 1.564134-.966376 1.564134-2.49066C1.564134-4.224159 1.942715-5.957659 3.16812-7.202989C3.297634-7.32254 3.297634-7.342466 3.297634-7.372354C3.297634-7.442092 3.257783-7.47198 3.198007-7.47198C3.098381-7.47198 2.201743-6.794521 1.613948-5.529265C1.105853-4.433375 .986301-3.327522 .986301-2.49066C.986301-1.713574 1.09589-.508095 1.643836 .617684C2.241594 1.843088 3.098381 2.49066 3.198007 2.49066C3.257783 2.49066 3.297634 2.460772 3.297634 2.391034Z'/>
<path id='g3-41' d='M2.879203-2.49066C2.879203-3.267746 2.769614-4.473225 2.221669-5.599004C1.62391-6.824408 .767123-7.47198 .667497-7.47198C.607721-7.47198 .56787-7.43213 .56787-7.372354C.56787-7.342466 .56787-7.32254 .757161-7.143213C1.733499-6.156912 2.30137-4.572852 2.30137-2.49066C2.30137-.787049 1.932752 .966376 .697385 2.221669C.56787 2.34122 .56787 2.361146 .56787 2.391034C.56787 2.450809 .607721 2.49066 .667497 2.49066C.767123 2.49066 1.663761 1.8132 2.251557 .547945C2.759651-.547945 2.879203-1.653798 2.879203-2.49066Z'/>
<path id='g3-43' d='M4.07472-2.291407H6.854296C6.993773-2.291407 7.183064-2.291407 7.183064-2.49066S6.993773-2.689913 6.854296-2.689913H4.07472V-5.479452C4.07472-5.618929 4.07472-5.808219 3.875467-5.808219S3.676214-5.618929 3.676214-5.479452V-2.689913H.886675C.747198-2.689913 .557908-2.689913 .557908-2.49066S.747198-2.291407 .886675-2.291407H3.676214V.498132C3.676214 .637609 3.676214 .826899 3.875467 .826899S4.07472 .637609 4.07472 .498132V-2.291407Z'/>
<path id='g3-48' d='M4.582814-3.188045C4.582814-3.985056 4.533001-4.782067 4.184309-5.519303C3.726027-6.475716 2.909091-6.635118 2.49066-6.635118C1.892902-6.635118 1.165629-6.37609 .757161-5.449564C.438356-4.762142 .388543-3.985056 .388543-3.188045C.388543-2.440847 .428394-1.544209 .836862-.787049C1.265255 .019925 1.992528 .219178 2.480697 .219178C3.01868 .219178 3.775841 .009963 4.214197-.936488C4.533001-1.62391 4.582814-2.400996 4.582814-3.188045ZM2.480697 0C2.092154 0 1.504359-.249066 1.325031-1.205479C1.215442-1.803238 1.215442-2.719801 1.215442-3.307597C1.215442-3.945205 1.215442-4.60274 1.295143-5.140722C1.484433-6.326276 2.231631-6.41594 2.480697-6.41594C2.809465-6.41594 3.466999-6.236613 3.656289-5.250311C3.755915-4.692403 3.755915-3.935243 3.755915-3.307597C3.755915-2.560399 3.755915-1.882939 3.646326-1.24533C3.496887-.298879 2.929016 0 2.480697 0Z'/>
<path id='g3-61' d='M6.844334-3.257783C6.993773-3.257783 7.183064-3.257783 7.183064-3.457036S6.993773-3.656289 6.854296-3.656289H.886675C.747198-3.656289 .557908-3.656289 .557908-3.457036S.747198-3.257783 .896638-3.257783H6.844334ZM6.854296-1.325031C6.993773-1.325031 7.183064-1.325031 7.183064-1.524284S6.993773-1.723537 6.844334-1.723537H.896638C.747198-1.723537 .557908-1.723537 .557908-1.524284S.747198-1.325031 .886675-1.325031H6.854296Z'/>
<path id='g3-95' d='M1.912827-6.136986C1.912827-6.405978 1.683686-6.665006 1.384807-6.665006C1.046077-6.665006 .846824-6.386052 .846824-6.136986C.846824-5.867995 1.075965-5.608966 1.374844-5.608966C1.713574-5.608966 1.912827-5.88792 1.912827-6.136986Z'/>
<path id='g3-127' d='M2.022416-6.166874C2.022416-6.405978 1.823163-6.665006 1.524284-6.665006C1.24533-6.665006 1.026152-6.445828 1.026152-6.166874S1.24533-5.668742 1.524284-5.668742C1.823163-5.668742 2.022416-5.927771 2.022416-6.166874ZM3.945205-6.166874C3.945205-6.445828 3.726027-6.665006 3.447073-6.665006C3.148194-6.665006 2.948941-6.405978 2.948941-6.166874S3.148194-5.668742 3.447073-5.668742C3.726027-5.668742 3.945205-5.88792 3.945205-6.166874Z'/>
<path id='g2-97' d='M2.942964-2.66401C2.796513-2.894147 2.559402-3.075467 2.224658-3.075467C1.332005-3.075467 .425405-2.092154 .425405-1.08792C.425405-.411457 .878705 .069738 1.478456 .069738C1.855044 .069738 2.189788-.146451 2.468742-.418431C2.601245 0 3.005729 .069738 3.187049 .069738C3.438107 .069738 3.612453-.083686 3.737983-.299875C3.891407-.571856 3.982067-.969365 3.982067-.99726C3.982067-1.08792 3.891407-1.08792 3.870486-1.08792C3.772852-1.08792 3.765878-1.060025 3.717061-.871731C3.633375-.536986 3.500872-.125529 3.20797-.125529C3.02665-.125529 2.977833-.278954 2.977833-.467248C2.977833-.585803 3.033624-.836862 3.082441-1.018182C3.131258-1.206476 3.200996-1.492403 3.235866-1.645828L3.375342-2.175841C3.417186-2.357161 3.500872-2.684932 3.500872-2.719801C3.500872-2.873225 3.375342-2.942964 3.263761-2.942964C3.145205-2.942964 2.984807-2.859278 2.942964-2.66401ZM2.496638-.871731C2.447821-.676463 2.294396-.536986 2.140971-.404483C2.078207-.348692 1.799253-.125529 1.499377-.125529C1.241345-.125529 .990286-.306849 .990286-.801993C.990286-1.171606 1.192528-1.93873 1.352927-2.217684C1.673724-2.775592 2.02939-2.880199 2.224658-2.880199C2.712827-2.880199 2.84533-2.350187 2.84533-2.273474C2.84533-2.245579 2.831382-2.196762 2.824408-2.175841L2.496638-.871731Z'/>
<path id='g2-98' d='M1.841096-4.630635C1.84807-4.644583 1.868991-4.735243 1.868991-4.742217C1.868991-4.777086 1.841096-4.839851 1.75741-4.839851C1.617933-4.839851 1.039103-4.78406 .864757-4.770112C.808966-4.763138 .711333-4.756164 .711333-4.609714C.711333-4.51208 .808966-4.51208 .892653-4.51208C1.227397-4.51208 1.227397-4.463263 1.227397-4.407472C1.227397-4.358655 1.157659-4.079701 1.115816-3.919303L.955417-3.277709C.892653-3.040598 .509091-1.513325 .495143-1.422665C.460274-1.255293 .460274-1.164633 .460274-1.080946C.460274-.376588 .9066 .069738 1.48543 .069738C2.357161 .069738 3.284682-.878705 3.284682-1.910834C3.284682-2.726775 2.719801-3.075467 2.238605-3.075467C1.875965-3.075467 1.569116-2.873225 1.3599-2.691905L1.841096-4.630635ZM1.492403-.125529C1.150685-.125529 .955417-.425405 .955417-.836862C.955417-1.094894 1.018182-1.332005 1.21345-2.12005C1.255293-2.252553 1.255293-2.266501 1.387796-2.419925C1.652802-2.726775 1.966625-2.880199 2.217684-2.880199C2.489664-2.880199 2.726775-2.677958 2.726775-2.203736C2.726775-1.917808 2.57335-1.206476 2.364134-.801993C2.196762-.460274 1.84807-.125529 1.492403-.125529Z'/>
<path id='g2-99' d='M3.054545-2.670984C2.803487-2.629141 2.698879-2.433873 2.698879-2.280448C2.698879-2.092154 2.84533-2.022416 2.970859-2.022416C3.124284-2.022416 3.368369-2.133998 3.368369-2.468742C3.368369-2.942964 2.824408-3.075467 2.447821-3.075467C1.401743-3.075467 .432379-2.113076 .432379-1.143711C.432379-.54396 .850809 .069738 1.72254 .069738C2.901121 .069738 3.452055-.620672 3.452055-.718306C3.452055-.760149 3.38929-.836862 3.333499-.836862C3.291656-.836862 3.277709-.822914 3.221918-.767123C2.677958-.125529 1.862017-.125529 1.736488-.125529C1.234371-.125529 1.011208-.467248 1.011208-.899626C1.011208-1.101868 1.108842-1.862017 1.471482-2.343213C1.736488-2.684932 2.099128-2.880199 2.447821-2.880199C2.545455-2.880199 2.880199-2.866252 3.054545-2.670984Z'/>
<path id='g2-105' d='M2.259527-4.358655C2.259527-4.470237 2.175841-4.623661 1.980573-4.623661C1.792279-4.623661 1.590037-4.442341 1.590037-4.2401C1.590037-4.121544 1.680697-3.975093 1.868991-3.975093C2.071233-3.975093 2.259527-4.170361 2.259527-4.358655ZM.836862-.81594C.808966-.72528 .774097-.641594 .774097-.523039C.774097-.195268 1.053051 .069738 1.436613 .069738C2.133998 .069738 2.440847-.892653 2.440847-.99726C2.440847-1.08792 2.350187-1.08792 2.329265-1.08792C2.231631-1.08792 2.224658-1.046077 2.196762-.969365C2.036364-.411457 1.729514-.125529 1.457534-.125529C1.318057-.125529 1.283188-.216189 1.283188-.369614C1.283188-.530012 1.332005-.662516 1.39477-.81594C1.464508-1.004234 1.54122-1.192528 1.617933-1.373848C1.680697-1.54122 1.931756-2.175841 1.959651-2.259527C1.980573-2.329265 2.001494-2.412951 2.001494-2.48269C2.001494-2.810461 1.72254-3.075467 1.338979-3.075467C.648568-3.075467 .327771-2.127024 .327771-2.008468C.327771-1.917808 .425405-1.917808 .446326-1.917808C.54396-1.917808 .550934-1.952677 .571856-2.02939C.753176-2.629141 1.060025-2.880199 1.318057-2.880199C1.429639-2.880199 1.492403-2.824408 1.492403-2.636115C1.492403-2.475716 1.45056-2.371108 1.276214-1.93873L.836862-.81594Z'/>
<path id='g1-15' d='M2.968867-2.251557C3.128269-2.251557 3.307597-2.251557 3.307597-2.420922C3.307597-2.560399 3.188045-2.560399 3.01868-2.560399H1.404732C1.643836-3.407223 2.201743-3.985056 3.108344-3.985056H3.417186C3.58655-3.985056 3.745953-3.985056 3.745953-4.154421C3.745953-4.293898 3.616438-4.293898 3.447073-4.293898H3.098381C1.803238-4.293898 .468244-3.297634 .468244-1.77335C.468244-.67746 1.215442 .109589 2.271482 .109589C2.919054 .109589 3.566625-.288917 3.566625-.398506C3.566625-.428394 3.556663-.537983 3.466999-.537983C3.447073-.537983 3.427148-.537983 3.337484-.478207C3.028643-.278954 2.660025-.109589 2.291407-.109589C1.713574-.109589 1.215442-.52802 1.215442-1.404732C1.215442-1.753425 1.295143-2.132005 1.325031-2.251557H2.968867Z'/>
<path id='g1-30' d='M4.353674-6.674969C4.353674-6.694894 4.383562-6.804483 4.383562-6.814446S4.383562-6.914072 4.26401-6.914072C4.164384-6.914072 4.154421-6.884184 4.11457-6.714819L3.536737-4.41345C1.952677-4.363636 .488169-3.038605 .488169-1.683686C.488169-.737235 1.185554 .049813 2.400996 .119552C2.321295 .428394 2.251557 .747198 2.171856 1.05604C2.052304 1.524284 1.952677 1.902864 1.952677 1.932752C1.952677 2.032379 2.022416 2.042341 2.072229 2.042341S2.141968 2.032379 2.171856 2.002491C2.191781 1.982565 2.251557 1.743462 2.281445 1.603985L2.660025 .119552C4.26401 .069738 5.708593-1.275218 5.708593-2.610212C5.708593-3.39726 5.180573-4.313823 3.795766-4.41345L4.353674-6.674969ZM2.450809-.099626C1.853051-.129514 1.135741-.478207 1.135741-1.474471C1.135741-2.669988 1.992528-4.064757 3.476961-4.194271L2.450809-.099626ZM3.73599-4.194271C4.493151-4.154421 5.061021-3.696139 5.061021-2.819427C5.061021-1.643836 4.204234-.219178 2.709838-.099626L3.73599-4.194271Z'/>
<path id='g1-64' d='M4.612702-3.377335C4.513076-3.995019 4.104608-4.552927 3.327522-4.552927C2.719801-4.552927 2.072229-4.393524 1.295143-3.616438C.468244-2.789539 .398506-1.863014 .398506-1.554172C.398506-.936488 .836862 .219178 2.231631 .219178C4.60274 .219178 5.638854-3.128269 5.638854-4.552927C5.638854-6.136986 4.712329-7.13325 3.486924-7.13325C2.042341-7.13325 1.58406-5.838107 1.58406-5.559153C1.58406-5.419676 1.663761-5.210461 1.96264-5.210461C2.291407-5.210461 2.500623-5.50934 2.500623-5.738481C2.500623-6.087173 2.191781-6.087173 2.032379-6.087173C2.470735-6.824408 3.178082-6.884184 3.466999-6.884184C4.194271-6.884184 4.891656-6.366127 4.891656-5.080946C4.891656-4.692403 4.83188-4.184309 4.622665-3.377335H4.612702ZM2.261519-.059776C1.165629-.059776 1.165629-1.085928 1.165629-1.185554C1.165629-1.454545 1.414695-2.849315 1.823163-3.447073C2.221669-4.014944 2.709838-4.333748 3.327522-4.333748C4.41345-4.333748 4.433375-3.217933 4.433375-3.01868C4.433375-2.30137 3.795766-.059776 2.261519-.059776Z'/>
<path id='g1-81' d='M4.363636-.059776C5.907846-.647572 7.372354-2.420922 7.372354-4.343711C7.372354-5.947696 6.316314-7.023661 4.83188-7.023661C2.67995-7.023661 .488169-4.762142 .488169-2.440847C.488169-.787049 1.603985 .219178 3.038605 .219178C3.287671 .219178 3.626401 .179328 4.014944 .069738C3.975093 .687422 3.975093 .707347 3.975093 .836862C3.975093 1.155666 3.975093 1.932752 4.801993 1.932752C5.987547 1.932752 6.465753 .109589 6.465753 0C6.465753-.069738 6.396015-.099626 6.356164-.099626C6.276463-.099626 6.256538-.049813 6.236613 .009963C5.997509 .71731 5.419676 .966376 5.070984 .966376C4.612702 .966376 4.463263 .697385 4.363636-.059776ZM2.480697-.139477C1.703611-.448319 1.364882-1.225405 1.364882-2.122042C1.364882-2.809465 1.62391-4.224159 2.381071-5.300125C3.108344-6.316314 4.044832-6.774595 4.772105-6.774595C5.768369-6.774595 6.495641-5.997509 6.495641-4.662516C6.495641-3.666252 5.987547-1.334994 4.313823-.398506C4.26401-.747198 4.164384-1.474471 3.437111-1.474471C2.909091-1.474471 2.420922-.976339 2.420922-.458281C2.420922-.259029 2.480697-.14944 2.480697-.139477ZM3.098381-.029888C2.958904-.029888 2.6401-.029888 2.6401-.458281C2.6401-.856787 3.01868-1.255293 3.437111-1.255293S4.044832-1.016189 4.044832-.408468C4.044832-.259029 4.034869-.249066 3.935243-.209215C3.676214-.099626 3.377335-.029888 3.098381-.029888Z'/>
<path id='g1-100' d='M5.140722-6.804483C5.140722-6.814446 5.140722-6.914072 5.011208-6.914072C4.861768-6.914072 3.915318-6.824408 3.745953-6.804483C3.666252-6.794521 3.606476-6.744707 3.606476-6.615193C3.606476-6.495641 3.696139-6.495641 3.845579-6.495641C4.323786-6.495641 4.343711-6.425903 4.343711-6.326276L4.313823-6.127024L3.716065-3.765878C3.536737-4.134496 3.247821-4.403487 2.799502-4.403487C1.633873-4.403487 .398506-2.938979 .398506-1.484433C.398506-.547945 .946451 .109589 1.723537 .109589C1.92279 .109589 2.420922 .069738 3.01868-.637609C3.098381-.219178 3.447073 .109589 3.92528 .109589C4.273973 .109589 4.503113-.119552 4.662516-.438356C4.83188-.797011 4.961395-1.404732 4.961395-1.424658C4.961395-1.524284 4.871731-1.524284 4.841843-1.524284C4.742217-1.524284 4.732254-1.484433 4.702366-1.344956C4.533001-.697385 4.353674-.109589 3.945205-.109589C3.676214-.109589 3.646326-.368618 3.646326-.56787C3.646326-.806974 3.666252-.876712 3.706102-1.046077L5.140722-6.804483ZM3.068493-1.185554C3.01868-1.006227 3.01868-.986301 2.86924-.816936C2.430884-.268991 2.022416-.109589 1.743462-.109589C1.24533-.109589 1.105853-.657534 1.105853-1.046077C1.105853-1.544209 1.424658-2.769614 1.653798-3.227895C1.96264-3.815691 2.410959-4.184309 2.809465-4.184309C3.457036-4.184309 3.596513-3.367372 3.596513-3.307597S3.576588-3.188045 3.566625-3.138232L3.068493-1.185554Z'/>
<path id='g1-109' d='M.876712-.587796C.846824-.438356 .787049-.209215 .787049-.159402C.787049 .019925 .926526 .109589 1.075965 .109589C1.195517 .109589 1.374844 .029888 1.444583-.169365C1.454545-.18929 1.574097-.657534 1.633873-.9066L1.853051-1.803238C1.912827-2.022416 1.972603-2.241594 2.022416-2.470735C2.062267-2.6401 2.141968-2.929016 2.15193-2.968867C2.30137-3.277709 2.82939-4.184309 3.775841-4.184309C4.224159-4.184309 4.313823-3.815691 4.313823-3.486924C4.313823-3.237858 4.244085-2.958904 4.164384-2.660025L3.88543-1.504359L3.686177-.747198C3.646326-.547945 3.556663-.209215 3.556663-.159402C3.556663 .019925 3.696139 .109589 3.845579 .109589C4.154421 .109589 4.214197-.139477 4.293898-.458281C4.433375-1.016189 4.801993-2.470735 4.891656-2.859278C4.921544-2.988792 5.449564-4.184309 6.535492-4.184309C6.963885-4.184309 7.073474-3.845579 7.073474-3.486924C7.073474-2.919054 6.655044-1.783313 6.455791-1.255293C6.366127-1.016189 6.326276-.9066 6.326276-.707347C6.326276-.239103 6.674969 .109589 7.143213 .109589C8.079701 .109589 8.448319-1.344956 8.448319-1.424658C8.448319-1.524284 8.358655-1.524284 8.328767-1.524284C8.229141-1.524284 8.229141-1.494396 8.179328-1.344956C8.029888-.816936 7.711083-.109589 7.163138-.109589C6.993773-.109589 6.924035-.209215 6.924035-.438356C6.924035-.687422 7.013699-.926526 7.103362-1.145704C7.292653-1.663761 7.711083-2.769614 7.711083-3.337484C7.711083-3.985056 7.312578-4.403487 6.56538-4.403487S5.310087-3.965131 4.941469-3.437111C4.931507-3.566625 4.901619-3.905355 4.622665-4.144458C4.373599-4.353674 4.054795-4.403487 3.805729-4.403487C2.909091-4.403487 2.420922-3.765878 2.251557-3.536737C2.201743-4.104608 1.783313-4.403487 1.334994-4.403487C.876712-4.403487 .687422-4.014944 .597758-3.835616C.418431-3.486924 .288917-2.899128 .288917-2.86924C.288917-2.769614 .388543-2.769614 .408468-2.769614C.508095-2.769614 .518057-2.779577 .577833-2.998755C.747198-3.706102 .946451-4.184309 1.305106-4.184309C1.464508-4.184309 1.613948-4.104608 1.613948-3.726027C1.613948-3.516812 1.58406-3.407223 1.454545-2.889166L.876712-.587796Z'/>
<path id='g1-116' d='M2.052304-3.985056H2.988792C3.188045-3.985056 3.287671-3.985056 3.287671-4.184309C3.287671-4.293898 3.188045-4.293898 3.008717-4.293898H2.132005C2.49066-5.708593 2.540473-5.907846 2.540473-5.967621C2.540473-6.136986 2.420922-6.236613 2.251557-6.236613C2.221669-6.236613 1.942715-6.22665 1.853051-5.877958L1.464508-4.293898H.52802C.328767-4.293898 .229141-4.293898 .229141-4.104608C.229141-3.985056 .308842-3.985056 .508095-3.985056H1.384807C.667497-1.155666 .627646-.986301 .627646-.806974C.627646-.268991 1.006227 .109589 1.544209 .109589C2.560399 .109589 3.128269-1.344956 3.128269-1.424658C3.128269-1.524284 3.048568-1.524284 3.008717-1.524284C2.919054-1.524284 2.909091-1.494396 2.859278-1.384807C2.430884-.348692 1.902864-.109589 1.564134-.109589C1.354919-.109589 1.255293-.239103 1.255293-.56787C1.255293-.806974 1.275218-.876712 1.315068-1.046077L2.052304-3.985056Z'/>
<path id='g1-120' d='M3.327522-3.008717C3.387298-3.267746 3.616438-4.184309 4.313823-4.184309C4.363636-4.184309 4.60274-4.184309 4.811955-4.054795C4.533001-4.004981 4.333748-3.755915 4.333748-3.516812C4.333748-3.35741 4.443337-3.16812 4.712329-3.16812C4.931507-3.16812 5.250311-3.347447 5.250311-3.745953C5.250311-4.26401 4.662516-4.403487 4.323786-4.403487C3.745953-4.403487 3.39726-3.875467 3.277709-3.646326C3.028643-4.303861 2.49066-4.403487 2.201743-4.403487C1.165629-4.403487 .597758-3.118306 .597758-2.86924C.597758-2.769614 .697385-2.769614 .71731-2.769614C.797011-2.769614 .826899-2.789539 .846824-2.879203C1.185554-3.935243 1.843088-4.184309 2.181818-4.184309C2.371108-4.184309 2.719801-4.094645 2.719801-3.516812C2.719801-3.20797 2.550436-2.540473 2.181818-1.145704C2.022416-.52802 1.673724-.109589 1.235367-.109589C1.175592-.109589 .946451-.109589 .737235-.239103C.986301-.288917 1.205479-.498132 1.205479-.777086C1.205479-1.046077 .986301-1.125778 .836862-1.125778C.537983-1.125778 .288917-.86675 .288917-.547945C.288917-.089664 .787049 .109589 1.225405 .109589C1.882939 .109589 2.241594-.587796 2.271482-.647572C2.391034-.278954 2.749689 .109589 3.347447 .109589C4.373599 .109589 4.941469-1.175592 4.941469-1.424658C4.941469-1.524284 4.851806-1.524284 4.821918-1.524284C4.732254-1.524284 4.712329-1.484433 4.692403-1.414695C4.363636-.348692 3.686177-.109589 3.367372-.109589C2.978829-.109589 2.819427-.428394 2.819427-.767123C2.819427-.986301 2.879203-1.205479 2.988792-1.643836L3.327522-3.008717Z'/>
</defs>
<g id='page1' transform='matrix(1.5 0 0 1.5 0 0)'>
<use x='130.463521' y='38.998136' xlink:href='#g1-100'/>
<rect x='128.664709' y='43.048027' height='.398484' width='8.783043'/>
<use x='128.664709' y='52.571807' xlink:href='#g1-100'/>
<use x='133.850141' y='52.571807' xlink:href='#g1-116'/>
<use x='138.643265' y='45.737937' xlink:href='#g1-81'/>
<use x='146.51928' y='47.232318' xlink:href='#g2-97'/>
<use x='154.106184' y='45.737937' xlink:href='#g3-61'/>
<use x='164.622264' y='32.177567' xlink:href='#g6-90'/>
<use x='176.245319' y='45.737937' xlink:href='#g1-100'/>
<use x='181.430751' y='41.624441' xlink:href='#g4-51'/>
<use x='185.900121' y='45.737937' xlink:href='#g1-120'/>
<use x='194.914122' y='45.737937' xlink:href='#g1-15'/>
<use x='198.957996' y='47.232318' xlink:href='#g2-97'/>
<use x='203.27944' y='47.232318' xlink:href='#g2-98'/>
<use x='206.782977' y='47.232318' xlink:href='#g2-99'/>
<use x='212.501887' y='28.701664' xlink:href='#g6-34'/>
<use x='220.791662' y='43.108895' xlink:href='#g3-127'/>
<use x='218.313452' y='45.737937' xlink:href='#g1-30'/>
<use x='224.249539' y='47.232318' xlink:href='#g2-98'/>
<use x='228.251192' y='45.737937' xlink:href='#g1-30'/>
<use x='234.187279' y='47.232318' xlink:href='#g2-99'/>
<use x='240.459671' y='45.737937' xlink:href='#g3-43'/>
<use x='250.422285' y='47.544639' xlink:href='#g5-8'/>
<use x='260.384925' y='42.563318' xlink:href='#g5-8'/>
<use x='265.373314' y='40.072658' xlink:href='#g5-8'/>
<use x='265.373314' y='40.072658' xlink:href='#g5-42'/>
<use x='276.6311' y='35.561773' xlink:href='#g3-48'/>
<use x='255.003722' y='43.108895' xlink:href='#g3-95'/>
<use x='251.418549' y='45.737937' xlink:href='#g1-30'/>
<use x='257.354636' y='47.232318' xlink:href='#g2-98'/>
<use x='264.969889' y='43.108895' xlink:href='#g3-95'/>
<use x='261.356288' y='45.737937' xlink:href='#g1-30'/>
<use x='267.292375' y='47.232318' xlink:href='#g2-99'/>
<use x='281.612435' y='28.701664' xlink:href='#g6-35'/>
<use x='154.106184' y='76.827786' xlink:href='#g3-61'/>
<use x='164.622264' y='63.267416' xlink:href='#g6-90'/>
<use x='176.245319' y='76.827786' xlink:href='#g1-100'/>
<use x='181.430751' y='72.71429' xlink:href='#g4-51'/>
<use x='185.900121' y='76.827786' xlink:href='#g1-120'/>
<use x='194.914122' y='76.827786' xlink:href='#g1-15'/>
<use x='198.957996' y='78.322167' xlink:href='#g2-97'/>
<use x='203.27944' y='78.322167' xlink:href='#g2-98'/>
<use x='206.782977' y='78.322167' xlink:href='#g2-99'/>
<use x='212.501887' y='62.780336' xlink:href='#g6-20'/>
<use x='217.759971' y='76.827786' xlink:href='#g1-30'/>
<use x='223.696058' y='78.322167' xlink:href='#g2-99'/>
<use x='227.754584' y='76.827786' xlink:href='#g1-64'/>
<use x='233.043788' y='78.322167' xlink:href='#g2-105'/>
<use x='236.360634' y='76.827786' xlink:href='#g1-64'/>
<use x='241.649838' y='78.322167' xlink:href='#g2-105'/>
<use x='244.966684' y='76.827786' xlink:href='#g1-30'/>
<use x='250.902771' y='78.322167' xlink:href='#g2-97'/>
<use x='257.93621' y='76.827786' xlink:href='#g0-0'/>
<use x='267.898824' y='78.111425' xlink:href='#g5-24'/>
<use x='277.861464' y='75.620765' xlink:href='#g5-24'/>
<use x='287.824104' y='73.130105' xlink:href='#g5-24'/>
<use x='297.786744' y='70.639445' xlink:href='#g5-24'/>
<use x='297.880737' y='70.617037' xlink:href='#g5-24'/>
<use x='297.880737' y='70.617037' xlink:href='#g5-58'/>
<use x='309.138523' y='68.596812' xlink:href='#g3-48'/>
<use x='269.39322' y='76.827786' xlink:href='#g1-109'/>
<use x='278.140553' y='72.71429' xlink:href='#g4-50'/>
<use x='282.609923' y='76.827786' xlink:href='#g1-30'/>
<use x='288.54601' y='78.322167' xlink:href='#g2-97'/>
<use x='293.365583' y='76.827786' xlink:href='#g1-30'/>
<use x='299.30167' y='78.322167' xlink:href='#g2-99'/>
<use x='314.119858' y='62.780336' xlink:href='#g6-21'/>
<use x='154.106184' y='105.552436' xlink:href='#g3-61'/>
<use x='164.622264' y='91.992066' xlink:href='#g6-90'/>
<use x='176.245319' y='105.552436' xlink:href='#g1-100'/>
<use x='181.430751' y='101.43894' xlink:href='#g4-51'/>
<use x='185.900121' y='105.552436' xlink:href='#g1-120'/>
<use x='194.914122' y='105.552436' xlink:href='#g1-15'/>
<use x='198.957996' y='107.046817' xlink:href='#g2-97'/>
<use x='203.27944' y='107.046817' xlink:href='#g2-98'/>
<use x='206.782977' y='107.046817' xlink:href='#g2-99'/>
<use x='212.501887' y='91.504986' xlink:href='#g6-20'/>
<use x='217.759971' y='109.148934' xlink:href='#g5-24'/>
<use x='227.722611' y='106.658274' xlink:href='#g5-24'/>
<use x='237.685251' y='104.167614' xlink:href='#g5-24'/>
<use x='247.647891' y='101.676954' xlink:href='#g5-24'/>
<use x='257.610531' y='99.186294' xlink:href='#g5-24'/>
<use x='259.486021' y='98.718064' xlink:href='#g5-24'/>
<use x='259.486021' y='98.718064' xlink:href='#g5-58'/>
<use x='270.743807' y='96.697838' xlink:href='#g3-48'/>
<use x='219.254367' y='105.552436' xlink:href='#g0-0'/>
<use x='227.003114' y='105.552436' xlink:href='#g1-64'/>
<use x='232.292318' y='107.046817' xlink:href='#g2-105'/>
<use x='235.609164' y='105.552436' xlink:href='#g1-30'/>
<use x='241.545251' y='107.046817' xlink:href='#g2-99'/>
<use x='245.603778' y='105.552436' xlink:href='#g1-64'/>
<use x='250.892981' y='107.046817' xlink:href='#g2-105'/>
<use x='254.209828' y='105.552436' xlink:href='#g1-30'/>
<use x='260.145915' y='107.046817' xlink:href='#g2-97'/>
<use x='277.939008' y='105.552436' xlink:href='#g3-43'/>
<use x='287.901622' y='105.552436' xlink:href='#g1-64'/>
<use x='293.190825' y='107.046817' xlink:href='#g2-105'/>
<use x='298.168071' y='105.552436' xlink:href='#g3-40'/>
<use x='302.042443' y='105.552436' xlink:href='#g1-30'/>
<use x='307.97853' y='107.046817' xlink:href='#g2-99'/>
<use x='312.037056' y='105.552436' xlink:href='#g1-64'/>
<use x='317.32626' y='107.046817' xlink:href='#g2-105'/>
<use x='320.643106' y='105.552436' xlink:href='#g1-30'/>
<use x='326.579193' y='107.046817' xlink:href='#g2-97'/>
<use x='331.398767' y='105.552436' xlink:href='#g3-41'/>
<use x='335.273129' y='91.504986' xlink:href='#g6-21'/>
</g>
</svg>