<?xml version='1.0' encoding='UTF-8'?>
<!-- This file was generated by dvisvgm 3.2 -->
<svg version='1.1' xmlns='http://www.w3.org/2000/svg' xmlns:xlink='http://www.w3.org/1999/xlink' width='29.638259pt' height='10.042341pt' viewBox='-20.56391 16.138456 29.638259 10.042341'>
<defs>
<path id='g1-105' d='M2.82939-6.22665C2.82939-6.425903 2.689913-6.585305 2.460772-6.585305C2.191781-6.585305 1.92279-6.326276 1.92279-6.057285C1.92279-5.867995 2.062267-5.69863 2.30137-5.69863C2.530511-5.69863 2.82939-5.927771 2.82939-6.22665ZM2.072229-2.480697C2.191781-2.769614 2.191781-2.789539 2.291407-3.058531C2.371108-3.257783 2.420922-3.39726 2.420922-3.58655C2.420922-4.034869 2.102117-4.403487 1.603985-4.403487C.667497-4.403487 .288917-2.958904 .288917-2.86924C.288917-2.769614 .388543-2.769614 .408468-2.769614C.508095-2.769614 .518057-2.789539 .56787-2.948941C.836862-3.88543 1.235367-4.184309 1.574097-4.184309C1.653798-4.184309 1.823163-4.184309 1.823163-3.865504C1.823163-3.656289 1.753425-3.447073 1.713574-3.347447C1.633873-3.088418 1.185554-1.932752 1.026152-1.504359C.926526-1.24533 .797011-.916563 .797011-.707347C.797011-.239103 1.135741 .109589 1.613948 .109589C2.550436 .109589 2.919054-1.334994 2.919054-1.424658C2.919054-1.524284 2.82939-1.524284 2.799502-1.524284C2.699875-1.524284 2.699875-1.494396 2.650062-1.344956C2.470735-.71731 2.141968-.109589 1.633873-.109589C1.464508-.109589 1.39477-.209215 1.39477-.438356C1.39477-.687422 1.454545-.826899 1.683686-1.43462L2.072229-2.480697Z'/>
<path id='g0-0' d='M6.56538-2.291407C6.734745-2.291407 6.914072-2.291407 6.914072-2.49066S6.734745-2.689913 6.56538-2.689913H1.175592C1.006227-2.689913 .826899-2.689913 .826899-2.49066S1.006227-2.291407 1.175592-2.291407H6.56538Z'/>
<path id='g0-49' d='M5.061021-2.699875C4.523039-3.377335 4.403487-3.526775 4.094645-3.775841C3.536737-4.224159 2.978829-4.403487 2.470735-4.403487C1.305106-4.403487 .547945-3.307597 .547945-2.141968C.547945-.996264 1.285181 .109589 2.430884 .109589S4.403487-.797011 4.891656-1.594022C5.429639-.916563 5.549191-.767123 5.858032-.518057C6.41594-.069738 6.973848 .109589 7.481943 .109589C8.647572 .109589 9.404732-.986301 9.404732-2.15193C9.404732-3.297634 8.667497-4.403487 7.521793-4.403487S5.549191-3.496887 5.061021-2.699875ZM5.32005-2.361146C5.728518-3.078456 6.465753-4.084682 7.591532-4.084682C8.647572-4.084682 9.185554-3.048568 9.185554-2.15193C9.185554-1.175592 8.518057-.368618 7.641345-.368618C7.063512-.368618 6.615193-.787049 6.405978-.996264C6.156912-1.265255 5.927771-1.574097 5.32005-2.361146ZM4.632628-1.932752C4.224159-1.215442 3.486924-.209215 2.361146-.209215C1.305106-.209215 .767123-1.24533 .767123-2.141968C.767123-3.118306 1.43462-3.92528 2.311333-3.92528C2.889166-3.92528 3.337484-3.506849 3.5467-3.297634C3.795766-3.028643 4.024907-2.719801 4.632628-1.932752Z'/>
</defs>
<g id='page1' transform='matrix(1.5 0 0 1.5 0 0)'>
<use x='-14.536172' y='17.344276' xlink:href='#g0-0'/>
<use x='-6.787425' y='17.344276' xlink:href='#g1-105'/>
<use x='-3.355166' y='17.344276' xlink:href='#g0-49'/>
</g>
</svg>