<?xml version='1.0' encoding='UTF-8'?>
<!-- This file was generated by dvisvgm 3.2 -->
<svg version='1.1' xmlns='http://www.w3.org/2000/svg' xmlns:xlink='http://www.w3.org/1999/xlink' width='180.735295pt' height='66.331824pt' viewBox='261.073457 45.358499 180.735295 66.331824'>
<defs>
<path id='g2-121' d='M1.910834-2.915068C2.015442-2.901121 2.085181-2.894147 2.294396-2.838356C2.517559-2.775592 2.684932-2.733748 2.817435-2.733748C3.089415-2.733748 3.11731-2.942964 3.11731-3.005729C3.11731-3.061519 3.089415-3.277709 2.817435-3.277709C2.684932-3.277709 2.517559-3.235866 2.294396-3.173101C2.085181-3.11731 2.015442-3.110336 1.910834-3.096389C1.924782-3.340473 1.973599-3.633375 2.008468-3.849564C2.036364-3.989041 2.099128-4.344707 2.099128-4.588792C2.099128-4.798007 2.001494-4.909589 1.827148-4.909589C1.680697-4.909589 1.555168-4.832877 1.555168-4.588792C1.555168-4.358655 1.610959-4.009963 1.652802-3.772852C1.66675-3.696139 1.729514-3.354421 1.743462-3.096389C1.638854-3.110336 1.569116-3.11731 1.3599-3.173101C1.136737-3.235866 .969365-3.277709 .836862-3.277709C.564882-3.277709 .536986-3.068493 .536986-3.005729C.536986-2.949938 .564882-2.733748 .836862-2.733748C.969365-2.733748 1.136737-2.775592 1.3599-2.838356C1.569116-2.894147 1.638854-2.901121 1.743462-2.915068C1.729514-2.740722 1.680697-2.517559 1.645828-2.371108C1.555168-1.93873 1.555168-1.889913 1.555168-1.527273C1.555168-.18132 1.687671 1.248319 1.708593 1.387796C1.715567 1.45056 1.729514 1.492403 1.827148 1.492403C1.931756 1.492403 1.93873 1.45056 1.952677 1.352927C1.952677 1.345953 2.008468 .739228 2.036364 .313823C2.071233-.299875 2.099128-.913574 2.099128-1.527273C2.099128-1.889913 2.099128-1.93873 2.001494-2.385056C1.987547-2.461768 1.924782-2.740722 1.910834-2.915068Z'/>
<path id='g1-0' d='M6.56538-2.291407C6.734745-2.291407 6.914072-2.291407 6.914072-2.49066S6.734745-2.689913 6.56538-2.689913H1.175592C1.006227-2.689913 .826899-2.689913 .826899-2.49066S1.006227-2.291407 1.175592-2.291407H6.56538Z'/>
<path id='g3-30' d='M4.353674-6.674969C4.353674-6.694894 4.383562-6.804483 4.383562-6.814446S4.383562-6.914072 4.26401-6.914072C4.164384-6.914072 4.154421-6.884184 4.11457-6.714819L3.536737-4.41345C1.952677-4.363636 .488169-3.038605 .488169-1.683686C.488169-.737235 1.185554 .049813 2.400996 .119552C2.321295 .428394 2.251557 .747198 2.171856 1.05604C2.052304 1.524284 1.952677 1.902864 1.952677 1.932752C1.952677 2.032379 2.022416 2.042341 2.072229 2.042341S2.141968 2.032379 2.171856 2.002491C2.191781 1.982565 2.251557 1.743462 2.281445 1.603985L2.660025 .119552C4.26401 .069738 5.708593-1.275218 5.708593-2.610212C5.708593-3.39726 5.180573-4.313823 3.795766-4.41345L4.353674-6.674969ZM2.450809-.099626C1.853051-.129514 1.135741-.478207 1.135741-1.474471C1.135741-2.669988 1.992528-4.064757 3.476961-4.194271L2.450809-.099626ZM3.73599-4.194271C4.493151-4.154421 5.061021-3.696139 5.061021-2.819427C5.061021-1.643836 4.204234-.219178 2.709838-.099626L3.73599-4.194271Z'/>
<path id='g3-32' d='M4.801993-6.655044C4.811955-6.694894 4.83188-6.75467 4.83188-6.804483C4.83188-6.90411 4.762142-6.914072 4.712329-6.914072C4.612702-6.914072 4.60274-6.894147 4.562889-6.714819L2.909091-.129514C2.15193-.219178 1.77335-.587796 1.77335-1.24533C1.77335-1.444583 1.77335-1.703611 2.311333-3.098381C2.351183-3.217933 2.420922-3.387298 2.420922-3.58655C2.420922-4.034869 2.102117-4.403487 1.603985-4.403487C.657534-4.403487 .288917-2.958904 .288917-2.86924C.288917-2.769614 .388543-2.769614 .408468-2.769614C.508095-2.769614 .518057-2.789539 .56787-2.948941C.836862-3.895392 1.235367-4.184309 1.574097-4.184309C1.653798-4.184309 1.823163-4.184309 1.823163-3.865504C1.823163-3.606476 1.723537-3.35741 1.594022-3.008717C1.115816-1.753425 1.115816-1.494396 1.115816-1.325031C1.115816-.37858 1.892902 .029888 2.849315 .089664C2.769614 .448319 2.769614 .468244 2.630137 .996264C2.600249 1.105853 2.400996 1.912827 2.400996 1.942715C2.400996 1.952677 2.400996 2.042341 2.520548 2.042341C2.540473 2.042341 2.590286 2.042341 2.610212 2.002491C2.6401 1.982565 2.699875 1.733499 2.729763 1.594022L3.108344 .109589C3.476961 .109589 4.353674 .109589 5.290162-.956413C5.69863-1.414695 5.907846-1.853051 6.017435-2.15193C6.107098-2.400996 6.326276-3.267746 6.326276-3.706102C6.326276-4.26401 6.057285-4.403487 5.88792-4.403487C5.638854-4.403487 5.389788-4.144458 5.389788-3.92528C5.389788-3.795766 5.449564-3.73599 5.539228-3.656289C5.648817-3.5467 5.897883-3.287671 5.897883-2.809465C5.897883-2.171856 5.379826-1.354919 5.031133-.996264C4.154421-.109589 3.516812-.109589 3.158157-.109589L4.801993-6.655044Z'/>
<path id='g3-77' d='M9.225405-6.03736C9.315068-6.396015 9.334994-6.495641 10.082192-6.495641C10.311333-6.495641 10.400996-6.495641 10.400996-6.694894C10.400996-6.804483 10.30137-6.804483 10.132005-6.804483H8.816936C8.557908-6.804483 8.547945-6.804483 8.428394-6.615193L4.79203-.936488L4.014944-6.575342C3.985056-6.804483 3.965131-6.804483 3.706102-6.804483H2.34122C2.15193-6.804483 2.042341-6.804483 2.042341-6.615193C2.042341-6.495641 2.132005-6.495641 2.331258-6.495641C2.460772-6.495641 2.6401-6.485679 2.759651-6.475716C2.919054-6.455791 2.978829-6.425903 2.978829-6.316314C2.978829-6.276463 2.968867-6.246575 2.938979-6.127024L1.673724-1.05604C1.574097-.657534 1.404732-.33873 .597758-.308842C.547945-.308842 .418431-.298879 .418431-.119552C.418431-.029888 .478207 0 .557908 0C.876712 0 1.225405-.029888 1.554172-.029888C1.892902-.029888 2.251557 0 2.580324 0C2.630137 0 2.759651 0 2.759651-.199253C2.759651-.308842 2.650062-.308842 2.580324-.308842C2.012453-.318804 1.902864-.518057 1.902864-.747198C1.902864-.816936 1.912827-.86675 1.942715-.976339L3.297634-6.405978H3.307597L4.164384-.229141C4.184309-.109589 4.194271 0 4.313823 0C4.423412 0 4.483188-.109589 4.533001-.179328L8.557908-6.485679H8.56787L7.143213-.777086C7.043587-.388543 7.023661-.308842 6.236613-.308842C6.067248-.308842 5.957659-.308842 5.957659-.119552C5.957659 0 6.07721 0 6.107098 0C6.386052 0 7.063512-.029888 7.342466-.029888C7.750934-.029888 8.179328 0 8.587796 0C8.647572 0 8.777086 0 8.777086-.199253C8.777086-.308842 8.687422-.308842 8.498132-.308842C8.129514-.308842 7.85056-.308842 7.85056-.488169C7.85056-.52802 7.85056-.547945 7.900374-.727273L9.225405-6.03736Z'/>
<path id='g3-103' d='M4.692403-3.755915C4.702366-3.815691 4.722291-3.865504 4.722291-3.935243C4.722291-4.104608 4.60274-4.204234 4.433375-4.204234C4.333748-4.204234 4.064757-4.134496 4.024907-3.775841C3.845579-4.144458 3.496887-4.403487 3.098381-4.403487C1.96264-4.403487 .727273-3.008717 .727273-1.574097C.727273-.587796 1.334994 0 2.052304 0C2.6401 0 3.108344-.468244 3.20797-.577833L3.217933-.56787C3.008717 .318804 2.889166 .727273 2.889166 .747198C2.849315 .836862 2.510585 1.823163 1.454545 1.823163C1.265255 1.823163 .936488 1.8132 .657534 1.723537C.956413 1.633873 1.066002 1.374844 1.066002 1.205479C1.066002 1.046077 .956413 .856787 .687422 .856787C.468244 .856787 .14944 1.036115 .14944 1.43462C.14944 1.843088 .518057 2.042341 1.474471 2.042341C2.719801 2.042341 3.437111 1.265255 3.58655 .667497L4.692403-3.755915ZM3.39726-1.275218C3.337484-1.016189 3.108344-.767123 2.889166-.577833C2.67995-.398506 2.371108-.219178 2.082192-.219178C1.58406-.219178 1.43462-.737235 1.43462-1.135741C1.43462-1.613948 1.723537-2.789539 1.992528-3.297634C2.261519-3.785803 2.689913-4.184309 3.108344-4.184309C3.765878-4.184309 3.905355-3.377335 3.905355-3.327522S3.88543-3.217933 3.875467-3.178082L3.39726-1.275218Z'/>
<path id='g3-109' d='M.876712-.587796C.846824-.438356 .787049-.209215 .787049-.159402C.787049 .019925 .926526 .109589 1.075965 .109589C1.195517 .109589 1.374844 .029888 1.444583-.169365C1.454545-.18929 1.574097-.657534 1.633873-.9066L1.853051-1.803238C1.912827-2.022416 1.972603-2.241594 2.022416-2.470735C2.062267-2.6401 2.141968-2.929016 2.15193-2.968867C2.30137-3.277709 2.82939-4.184309 3.775841-4.184309C4.224159-4.184309 4.313823-3.815691 4.313823-3.486924C4.313823-3.237858 4.244085-2.958904 4.164384-2.660025L3.88543-1.504359L3.686177-.747198C3.646326-.547945 3.556663-.209215 3.556663-.159402C3.556663 .019925 3.696139 .109589 3.845579 .109589C4.154421 .109589 4.214197-.139477 4.293898-.458281C4.433375-1.016189 4.801993-2.470735 4.891656-2.859278C4.921544-2.988792 5.449564-4.184309 6.535492-4.184309C6.963885-4.184309 7.073474-3.845579 7.073474-3.486924C7.073474-2.919054 6.655044-1.783313 6.455791-1.255293C6.366127-1.016189 6.326276-.9066 6.326276-.707347C6.326276-.239103 6.674969 .109589 7.143213 .109589C8.079701 .109589 8.448319-1.344956 8.448319-1.424658C8.448319-1.524284 8.358655-1.524284 8.328767-1.524284C8.229141-1.524284 8.229141-1.494396 8.179328-1.344956C8.029888-.816936 7.711083-.109589 7.163138-.109589C6.993773-.109589 6.924035-.209215 6.924035-.438356C6.924035-.687422 7.013699-.926526 7.103362-1.145704C7.292653-1.663761 7.711083-2.769614 7.711083-3.337484C7.711083-3.985056 7.312578-4.403487 6.56538-4.403487S5.310087-3.965131 4.941469-3.437111C4.931507-3.566625 4.901619-3.905355 4.622665-4.144458C4.373599-4.353674 4.054795-4.403487 3.805729-4.403487C2.909091-4.403487 2.420922-3.765878 2.251557-3.536737C2.201743-4.104608 1.783313-4.403487 1.334994-4.403487C.876712-4.403487 .687422-4.014944 .597758-3.835616C.418431-3.486924 .288917-2.899128 .288917-2.86924C.288917-2.769614 .388543-2.769614 .408468-2.769614C.508095-2.769614 .518057-2.779577 .577833-2.998755C.747198-3.706102 .946451-4.184309 1.305106-4.184309C1.464508-4.184309 1.613948-4.104608 1.613948-3.726027C1.613948-3.516812 1.58406-3.407223 1.454545-2.889166L.876712-.587796Z'/>
<path id='g0-3' d='M7.183064-6.495641C7.183064-6.804483 7.153176-6.844334 6.834371-6.844334H.9066C.597758-6.844334 .557908-6.814446 .557908-6.495641V-.358655C.557908-.039851 .587796 0 .916563 0H6.824408C7.153176 0 7.183064-.029888 7.183064-.348692V-6.495641ZM.956413-6.445828H6.784558V-.398506H.956413V-6.445828Z'/>
<path id='g5-50' d='M3.521793-1.26924H3.284682C3.263761-1.115816 3.194022-.704359 3.103362-.63462C3.047572-.592777 2.510585-.592777 2.412951-.592777H1.129763C1.862017-1.241345 2.106102-1.436613 2.524533-1.764384C3.040598-2.175841 3.521793-2.608219 3.521793-3.270735C3.521793-4.11457 2.782565-4.630635 1.889913-4.630635C1.025156-4.630635 .439352-4.02391 .439352-3.382316C.439352-3.02665 .739228-2.991781 .808966-2.991781C.976339-2.991781 1.17858-3.110336 1.17858-3.361395C1.17858-3.486924 1.129763-3.731009 .767123-3.731009C.983313-4.226152 1.457534-4.379577 1.785305-4.379577C2.48269-4.379577 2.84533-3.835616 2.84533-3.270735C2.84533-2.66401 2.412951-2.182814 2.189788-1.931756L.509091-.27198C.439352-.209215 .439352-.195268 .439352 0H3.312578L3.521793-1.26924Z'/>
<path id='g4-40' d='M3.297634 2.391034C3.297634 2.361146 3.297634 2.34122 3.128269 2.171856C1.882939 .916563 1.564134-.966376 1.564134-2.49066C1.564134-4.224159 1.942715-5.957659 3.16812-7.202989C3.297634-7.32254 3.297634-7.342466 3.297634-7.372354C3.297634-7.442092 3.257783-7.47198 3.198007-7.47198C3.098381-7.47198 2.201743-6.794521 1.613948-5.529265C1.105853-4.433375 .986301-3.327522 .986301-2.49066C.986301-1.713574 1.09589-.508095 1.643836 .617684C2.241594 1.843088 3.098381 2.49066 3.198007 2.49066C3.257783 2.49066 3.297634 2.460772 3.297634 2.391034Z'/>
<path id='g4-41' d='M2.879203-2.49066C2.879203-3.267746 2.769614-4.473225 2.221669-5.599004C1.62391-6.824408 .767123-7.47198 .667497-7.47198C.607721-7.47198 .56787-7.43213 .56787-7.372354C.56787-7.342466 .56787-7.32254 .757161-7.143213C1.733499-6.156912 2.30137-4.572852 2.30137-2.49066C2.30137-.787049 1.932752 .966376 .697385 2.221669C.56787 2.34122 .56787 2.361146 .56787 2.391034C.56787 2.450809 .607721 2.49066 .667497 2.49066C.767123 2.49066 1.663761 1.8132 2.251557 .547945C2.759651-.547945 2.879203-1.653798 2.879203-2.49066Z'/>
<path id='g4-43' d='M4.07472-2.291407H6.854296C6.993773-2.291407 7.183064-2.291407 7.183064-2.49066S6.993773-2.689913 6.854296-2.689913H4.07472V-5.479452C4.07472-5.618929 4.07472-5.808219 3.875467-5.808219S3.676214-5.618929 3.676214-5.479452V-2.689913H.886675C.747198-2.689913 .557908-2.689913 .557908-2.49066S.747198-2.291407 .886675-2.291407H3.676214V.498132C3.676214 .637609 3.676214 .826899 3.875467 .826899S4.07472 .637609 4.07472 .498132V-2.291407Z'/>
<path id='g4-48' d='M4.582814-3.188045C4.582814-3.985056 4.533001-4.782067 4.184309-5.519303C3.726027-6.475716 2.909091-6.635118 2.49066-6.635118C1.892902-6.635118 1.165629-6.37609 .757161-5.449564C.438356-4.762142 .388543-3.985056 .388543-3.188045C.388543-2.440847 .428394-1.544209 .836862-.787049C1.265255 .019925 1.992528 .219178 2.480697 .219178C3.01868 .219178 3.775841 .009963 4.214197-.936488C4.533001-1.62391 4.582814-2.400996 4.582814-3.188045ZM2.480697 0C2.092154 0 1.504359-.249066 1.325031-1.205479C1.215442-1.803238 1.215442-2.719801 1.215442-3.307597C1.215442-3.945205 1.215442-4.60274 1.295143-5.140722C1.484433-6.326276 2.231631-6.41594 2.480697-6.41594C2.809465-6.41594 3.466999-6.236613 3.656289-5.250311C3.755915-4.692403 3.755915-3.935243 3.755915-3.307597C3.755915-2.560399 3.755915-1.882939 3.646326-1.24533C3.496887-.298879 2.929016 0 2.480697 0Z'/>
<path id='g4-61' d='M6.844334-3.257783C6.993773-3.257783 7.183064-3.257783 7.183064-3.457036S6.993773-3.656289 6.854296-3.656289H.886675C.747198-3.656289 .557908-3.656289 .557908-3.457036S.747198-3.257783 .896638-3.257783H6.844334ZM6.854296-1.325031C6.993773-1.325031 7.183064-1.325031 7.183064-1.524284S6.993773-1.723537 6.844334-1.723537H.896638C.747198-1.723537 .557908-1.723537 .557908-1.524284S.747198-1.325031 .886675-1.325031H6.854296Z'/>
</defs>
<g id='page1' transform='matrix(1.5 0 0 1.5 0 0)'>
<use x='179.21778' y='39.262084' xlink:href='#g4-40'/>
<use x='183.092154' y='39.262084' xlink:href='#g0-3'/>
<use x='193.054767' y='39.262084' xlink:href='#g4-43'/>
<use x='203.017381' y='39.262084' xlink:href='#g3-109'/>
<use x='211.764714' y='35.148588' xlink:href='#g5-50'/>
<use x='216.234084' y='39.262084' xlink:href='#g4-41'/>
<use x='220.108458' y='39.262084' xlink:href='#g3-30'/>
<use x='228.258411' y='39.262084' xlink:href='#g1-0'/>
<use x='238.221024' y='39.262084' xlink:href='#g4-40'/>
<use x='242.095398' y='39.262084' xlink:href='#g1-0'/>
<use x='249.844146' y='39.262084' xlink:href='#g3-103'/>
<use x='254.953453' y='39.262084' xlink:href='#g3-32'/>
<use x='261.800477' y='35.148588' xlink:href='#g2-121'/>
<use x='265.951582' y='39.262084' xlink:href='#g3-32'/>
<use x='272.798605' y='39.262084' xlink:href='#g4-41'/>
<use x='279.440273' y='39.262084' xlink:href='#g4-61'/>
<use x='289.956353' y='39.262084' xlink:href='#g4-48'/>
<use x='181.36488' y='55.441478' xlink:href='#g4-40'/>
<use x='185.239254' y='55.441478' xlink:href='#g0-3'/>
<use x='195.201867' y='55.441478' xlink:href='#g4-43'/>
<use x='205.164481' y='55.441478' xlink:href='#g3-77'/>
<use x='215.915823' y='51.327982' xlink:href='#g5-50'/>
<use x='220.385193' y='55.441478' xlink:href='#g4-41'/>
<use x='224.259567' y='55.441478' xlink:href='#g3-32'/>
<use x='233.320456' y='55.441478' xlink:href='#g1-0'/>
<use x='243.28307' y='55.441478' xlink:href='#g4-40'/>
<use x='247.157443' y='55.441478' xlink:href='#g1-0'/>
<use x='254.906191' y='55.441478' xlink:href='#g3-103'/>
<use x='260.015499' y='55.441478' xlink:href='#g3-32'/>
<use x='266.862522' y='55.441478' xlink:href='#g3-30'/>
<use x='272.798609' y='55.441478' xlink:href='#g4-41'/>
<use x='279.440273' y='55.441478' xlink:href='#g4-61'/>
<use x='289.956353' y='55.441478' xlink:href='#g4-48'/>
<use x='173.06267' y='71.969555' xlink:href='#g4-40'/>
<use x='176.937043' y='71.969555' xlink:href='#g0-3'/>
<use x='186.899657' y='71.969555' xlink:href='#g4-43'/>
<use x='196.86227' y='71.969555' xlink:href='#g3-77'/>
<use x='207.613613' y='67.856059' xlink:href='#g5-50'/>
<use x='212.082983' y='71.969555' xlink:href='#g4-41'/>
<use x='215.957357' y='71.969555' xlink:href='#g3-32'/>
<use x='222.80438' y='67.856059' xlink:href='#g2-121'/>
<use x='229.169351' y='71.969555' xlink:href='#g1-0'/>
<use x='239.131965' y='71.969555' xlink:href='#g4-40'/>
<use x='243.006338' y='71.969555' xlink:href='#g1-0'/>
<use x='250.755086' y='71.969555' xlink:href='#g3-103'/>
<use x='255.864393' y='71.969555' xlink:href='#g3-32'/>
<use x='262.711417' y='67.856059' xlink:href='#g2-121'/>
<use x='266.862522' y='71.969555' xlink:href='#g3-30'/>
<use x='272.798609' y='71.969555' xlink:href='#g4-41'/>
<use x='279.440273' y='71.969555' xlink:href='#g4-61'/>
<use x='289.956353' y='71.969555' xlink:href='#g4-48'/>
</g>
</svg>