<?xml version='1.0' encoding='UTF-8'?>
<!-- This file was generated by dvisvgm 3.2 -->
<svg version='1.1' xmlns='http://www.w3.org/2000/svg' xmlns:xlink='http://www.w3.org/1999/xlink' width='82.448982pt' height='14.94396pt' viewBox='309.104981 32.741196 82.448982 14.94396'>
<defs>
<path id='g2-61' d='M6.844334-3.257783C6.993773-3.257783 7.183064-3.257783 7.183064-3.457036S6.993773-3.656289 6.854296-3.656289H.886675C.747198-3.656289 .557908-3.656289 .557908-3.457036S.747198-3.257783 .896638-3.257783H6.844334ZM6.854296-1.325031C6.993773-1.325031 7.183064-1.325031 7.183064-1.524284S6.993773-1.723537 6.844334-1.723537H.896638C.747198-1.723537 .557908-1.723537 .557908-1.524284S.747198-1.325031 .886675-1.325031H6.854296Z'/>
<path id='g2-91' d='M2.540473 2.49066V2.092154H1.574097V-7.073474H2.540473V-7.47198H1.175592V2.49066H2.540473Z'/>
<path id='g2-93' d='M1.58406-7.47198H.219178V-7.073474H1.185554V2.092154H.219178V2.49066H1.58406V-7.47198Z'/>
<path id='g1-116' d='M1.715567-2.75467H2.426899C2.559402-2.75467 2.650062-2.75467 2.650062-2.908095C2.650062-3.005729 2.559402-3.005729 2.440847-3.005729H1.778331L2.036364-4.037858C2.043337-4.072727 2.057285-4.107597 2.057285-4.135492C2.057285-4.261021 1.959651-4.358655 1.820174-4.358655C1.645828-4.358655 1.54122-4.2401 1.492403-4.05878C1.443587-3.884433 1.534247-4.219178 1.227397-3.005729H.516065C.383562-3.005729 .292902-3.005729 .292902-2.852304C.292902-2.75467 .376588-2.75467 .502117-2.75467H1.164633L.753176-1.108842C.711333-.934496 .648568-.683437 .648568-.592777C.648568-.18132 .99726 .069738 1.39477 .069738C2.168867 .069738 2.608219-.9066 2.608219-.99726S2.517559-1.08792 2.496638-1.08792C2.412951-1.08792 2.405978-1.073973 2.350187-.955417C2.154919-.516065 1.799253-.125529 1.415691-.125529C1.26924-.125529 1.171606-.216189 1.171606-.467248C1.171606-.536986 1.199502-.683437 1.21345-.753176L1.715567-2.75467Z'/>
<path id='g0-30' d='M4.353674-6.674969C4.353674-6.694894 4.383562-6.804483 4.383562-6.814446S4.383562-6.914072 4.26401-6.914072C4.164384-6.914072 4.154421-6.884184 4.11457-6.714819L3.536737-4.41345C1.952677-4.363636 .488169-3.038605 .488169-1.683686C.488169-.737235 1.185554 .049813 2.400996 .119552C2.321295 .428394 2.251557 .747198 2.171856 1.05604C2.052304 1.524284 1.952677 1.902864 1.952677 1.932752C1.952677 2.032379 2.022416 2.042341 2.072229 2.042341S2.141968 2.032379 2.171856 2.002491C2.191781 1.982565 2.251557 1.743462 2.281445 1.603985L2.660025 .119552C4.26401 .069738 5.708593-1.275218 5.708593-2.610212C5.708593-3.39726 5.180573-4.313823 3.795766-4.41345L4.353674-6.674969ZM2.450809-.099626C1.853051-.129514 1.135741-.478207 1.135741-1.474471C1.135741-2.669988 1.992528-4.064757 3.476961-4.194271L2.450809-.099626ZM3.73599-4.194271C4.493151-4.154421 5.061021-3.696139 5.061021-2.819427C5.061021-1.643836 4.204234-.219178 2.709838-.099626L3.73599-4.194271Z'/>
<path id='g0-59' d='M2.022416-.009963C2.022416-.667497 1.77335-1.05604 1.384807-1.05604C1.05604-1.05604 .856787-.806974 .856787-.52802C.856787-.259029 1.05604 0 1.384807 0C1.504359 0 1.633873-.039851 1.733499-.129514C1.763387-.14944 1.77335-.159402 1.783313-.159402S1.803238-.14944 1.803238-.009963C1.803238 .727273 1.454545 1.325031 1.125778 1.653798C1.016189 1.763387 1.016189 1.783313 1.016189 1.8132C1.016189 1.882939 1.066002 1.92279 1.115816 1.92279C1.225405 1.92279 2.022416 1.155666 2.022416-.009963Z'/>
<path id='g0-64' d='M4.612702-3.377335C4.513076-3.995019 4.104608-4.552927 3.327522-4.552927C2.719801-4.552927 2.072229-4.393524 1.295143-3.616438C.468244-2.789539 .398506-1.863014 .398506-1.554172C.398506-.936488 .836862 .219178 2.231631 .219178C4.60274 .219178 5.638854-3.128269 5.638854-4.552927C5.638854-6.136986 4.712329-7.13325 3.486924-7.13325C2.042341-7.13325 1.58406-5.838107 1.58406-5.559153C1.58406-5.419676 1.663761-5.210461 1.96264-5.210461C2.291407-5.210461 2.500623-5.50934 2.500623-5.738481C2.500623-6.087173 2.191781-6.087173 2.032379-6.087173C2.470735-6.824408 3.178082-6.884184 3.466999-6.884184C4.194271-6.884184 4.891656-6.366127 4.891656-5.080946C4.891656-4.692403 4.83188-4.184309 4.622665-3.377335H4.612702ZM2.261519-.059776C1.165629-.059776 1.165629-1.085928 1.165629-1.185554C1.165629-1.454545 1.414695-2.849315 1.823163-3.447073C2.221669-4.014944 2.709838-4.333748 3.327522-4.333748C4.41345-4.333748 4.433375-3.217933 4.433375-3.01868C4.433375-2.30137 3.795766-.059776 2.261519-.059776Z'/>
<path id='g0-72' d='M7.601494-6.03736C7.691158-6.396015 7.711083-6.495641 8.438356-6.495641C8.697385-6.495641 8.777086-6.495641 8.777086-6.694894C8.777086-6.804483 8.667497-6.804483 8.637609-6.804483C8.358655-6.804483 7.641345-6.774595 7.362391-6.774595C7.073474-6.774595 6.366127-6.804483 6.07721-6.804483C5.997509-6.804483 5.88792-6.804483 5.88792-6.60523C5.88792-6.495641 5.977584-6.495641 6.166874-6.495641C6.1868-6.495641 6.37609-6.495641 6.545455-6.475716C6.724782-6.455791 6.814446-6.445828 6.814446-6.316314C6.814446-6.276463 6.804483-6.256538 6.774595-6.127024L6.176837-3.696139H3.138232L3.726027-6.03736C3.815691-6.396015 3.845579-6.495641 4.562889-6.495641C4.821918-6.495641 4.901619-6.495641 4.901619-6.694894C4.901619-6.804483 4.79203-6.804483 4.762142-6.804483C4.483188-6.804483 3.765878-6.774595 3.486924-6.774595C3.198007-6.774595 2.49066-6.804483 2.201743-6.804483C2.122042-6.804483 2.012453-6.804483 2.012453-6.60523C2.012453-6.495641 2.102117-6.495641 2.291407-6.495641C2.311333-6.495641 2.500623-6.495641 2.669988-6.475716C2.849315-6.455791 2.938979-6.445828 2.938979-6.316314C2.938979-6.276463 2.929016-6.246575 2.899128-6.127024L1.564134-.777086C1.464508-.388543 1.444583-.308842 .657534-.308842C.478207-.308842 .388543-.308842 .388543-.109589C.388543 0 .508095 0 .52802 0C.806974 0 1.514321-.029888 1.793275-.029888C2.002491-.029888 2.221669-.019925 2.430884-.019925C2.650062-.019925 2.86924 0 3.078456 0C3.158157 0 3.277709 0 3.277709-.199253C3.277709-.308842 3.188045-.308842 2.998755-.308842C2.630137-.308842 2.351183-.308842 2.351183-.488169C2.351183-.547945 2.371108-.597758 2.381071-.657534L3.058531-3.387298H6.097136C5.678705-1.733499 5.449564-.787049 5.409714-.637609C5.310087-.318804 5.120797-.308842 4.503113-.308842C4.353674-.308842 4.26401-.308842 4.26401-.109589C4.26401 0 4.383562 0 4.403487 0C4.682441 0 5.389788-.029888 5.668742-.029888C5.877958-.029888 6.097136-.019925 6.306351-.019925C6.525529-.019925 6.744707 0 6.953923 0C7.033624 0 7.153176 0 7.153176-.199253C7.153176-.308842 7.063512-.308842 6.874222-.308842C6.505604-.308842 6.22665-.308842 6.22665-.488169C6.22665-.547945 6.246575-.597758 6.256538-.657534L7.601494-6.03736Z'/>
<path id='g0-105' d='M2.82939-6.22665C2.82939-6.425903 2.689913-6.585305 2.460772-6.585305C2.191781-6.585305 1.92279-6.326276 1.92279-6.057285C1.92279-5.867995 2.062267-5.69863 2.30137-5.69863C2.530511-5.69863 2.82939-5.927771 2.82939-6.22665ZM2.072229-2.480697C2.191781-2.769614 2.191781-2.789539 2.291407-3.058531C2.371108-3.257783 2.420922-3.39726 2.420922-3.58655C2.420922-4.034869 2.102117-4.403487 1.603985-4.403487C.667497-4.403487 .288917-2.958904 .288917-2.86924C.288917-2.769614 .388543-2.769614 .408468-2.769614C.508095-2.769614 .518057-2.789539 .56787-2.948941C.836862-3.88543 1.235367-4.184309 1.574097-4.184309C1.653798-4.184309 1.823163-4.184309 1.823163-3.865504C1.823163-3.656289 1.753425-3.447073 1.713574-3.347447C1.633873-3.088418 1.185554-1.932752 1.026152-1.504359C.926526-1.24533 .797011-.916563 .797011-.707347C.797011-.239103 1.135741 .109589 1.613948 .109589C2.550436 .109589 2.919054-1.334994 2.919054-1.424658C2.919054-1.524284 2.82939-1.524284 2.799502-1.524284C2.699875-1.524284 2.699875-1.494396 2.650062-1.344956C2.470735-.71731 2.141968-.109589 1.633873-.109589C1.464508-.109589 1.39477-.209215 1.39477-.438356C1.39477-.687422 1.454545-.826899 1.683686-1.43462L2.072229-2.480697Z'/>
</defs>
<g id='page1' transform='matrix(1.5 0 0 1.5 0 0)'>
<use x='205.781071' y='29.299444' xlink:href='#g0-105'/>
<use x='209.213329' y='29.299444' xlink:href='#g0-64'/>
<use x='214.502533' y='30.793825' xlink:href='#g1-116'/>
<use x='218.010222' y='29.299444' xlink:href='#g0-30'/>
<use x='226.713642' y='29.299444' xlink:href='#g2-61'/>
<use x='237.229722' y='29.299444' xlink:href='#g2-91'/>
<use x='239.99713' y='29.299444' xlink:href='#g0-30'/>
<use x='245.933217' y='29.299444' xlink:href='#g0-59'/>
<use x='250.361025' y='29.299444' xlink:href='#g0-72'/>
<use x='259.451915' y='29.299444' xlink:href='#g2-93'/>
</g>
</svg>