<?xml version='1.0' encoding='UTF-8'?>
<!-- This file was generated by dvisvgm 3.2 -->
<svg version='1.1' xmlns='http://www.w3.org/2000/svg' xmlns:xlink='http://www.w3.org/1999/xlink' width='74.777167pt' height='16.933477pt' viewBox='-21.221444 13.647415 74.777167 16.933477'>
<defs>
<path id='g0-76' d='M1.793275-.926526C2.331258-1.763387 2.500623-2.400996 2.630137-2.929016C2.978829-4.303861 3.35741-5.499377 3.975093-6.1868C4.094645-6.316314 4.174346-6.405978 4.493151-6.405978C5.180573-6.405978 5.200498-5.718555 5.200498-5.579078C5.200498-5.399751 5.150685-5.260274 5.150685-5.210461C5.150685-5.140722 5.210461-5.140722 5.220423-5.140722C5.379826-5.140722 5.648817-5.250311 5.897883-5.429639C6.07721-5.569116 6.166874-5.668742 6.166874-6.07721C6.166874-6.615193 5.88792-7.023661 5.330012-7.023661C5.011208-7.023661 4.134496-6.94396 3.158157-5.957659C2.361146-5.140722 1.892902-3.347447 1.703611-2.600249C1.524284-1.912827 1.444583-1.603985 1.145704-1.006227C1.075965-.886675 .816936-.448319 .67746-.318804C.408468-.069738 .308842 .109589 .308842 .159402C.308842 .179328 .328767 .219178 .398506 .219178C.438356 .219178 .647572 .179328 .9066 .009963C1.075965-.089664 1.09589-.109589 1.325031-.348692C1.823163-.33873 2.171856-.249066 2.799502-.069738C3.307597 .069738 3.815691 .219178 4.323786 .219178C5.13076 .219178 5.947696-.388543 6.266501-.826899C6.465753-1.09589 6.525529-1.344956 6.525529-1.374844C6.525529-1.444583 6.465753-1.444583 6.455791-1.444583C6.296389-1.444583 6.057285-1.334994 5.88792-1.215442C5.618929-1.046077 5.599004-.986301 5.539228-.816936C5.489415-.657534 5.429639-.577833 5.389788-.518057C5.310087-.398506 5.300125-.398506 5.150685-.398506C4.672478-.398506 4.174346-.547945 3.516812-.727273C3.237858-.806974 2.689913-.966376 2.191781-.966376C2.062267-.966376 1.92279-.956413 1.793275-.926526Z'/>
<path id='g3-51' d='M1.903861-2.329265C2.447821-2.329265 2.838356-1.952677 2.838356-1.206476C2.838356-.341719 2.336239-.083686 1.931756-.083686C1.652802-.083686 1.039103-.160399 .746202-.571856C1.073973-.585803 1.150685-.81594 1.150685-.962391C1.150685-1.185554 .983313-1.345953 .767123-1.345953C.571856-1.345953 .376588-1.227397 .376588-.941469C.376588-.285928 1.101868 .139477 1.945704 .139477C2.915068 .139477 3.584558-.509091 3.584558-1.206476C3.584558-1.750436 3.138232-2.294396 2.371108-2.454795C3.103362-2.719801 3.368369-3.242839 3.368369-3.668244C3.368369-4.219178 2.733748-4.630635 1.959651-4.630635S.592777-4.254047 .592777-3.696139C.592777-3.459029 .746202-3.326526 .955417-3.326526C1.171606-3.326526 1.311083-3.486924 1.311083-3.682192C1.311083-3.884433 1.171606-4.030884 .955417-4.044832C1.199502-4.351681 1.680697-4.428394 1.93873-4.428394C2.252553-4.428394 2.691905-4.274969 2.691905-3.668244C2.691905-3.375342 2.594271-3.054545 2.412951-2.838356C2.182814-2.57335 1.987547-2.559402 1.638854-2.538481C1.464508-2.524533 1.45056-2.524533 1.415691-2.517559C1.401743-2.517559 1.345953-2.503611 1.345953-2.426899C1.345953-2.329265 1.408717-2.329265 1.527273-2.329265H1.903861Z'/>
<path id='g4-82' d='M2.709838 8.767123C2.580324 10.400996 2.221669 10.849315 1.653798 10.849315C1.524284 10.849315 1.225405 10.819427 1.016189 10.6401C1.305106 10.600249 1.384807 10.371108 1.384807 10.231631C1.384807 9.942715 1.165629 9.8132 .976339 9.8132C.777086 9.8132 .557908 9.942715 .557908 10.241594C.557908 10.719801 1.05604 11.068493 1.653798 11.068493C2.600249 11.068493 3.078456 10.201743 3.297634 9.305106C3.427148 8.787049 3.785803 5.88792 3.865504 4.782067L4.054795 2.30137C4.194271 .468244 4.533001 .219178 4.98132 .219178C5.080946 .219178 5.389788 .239103 5.608966 .428394C5.32005 .468244 5.240349 .697385 5.240349 .836862C5.240349 1.125778 5.459527 1.255293 5.648817 1.255293C5.84807 1.255293 6.067248 1.125778 6.067248 .826899C6.067248 .348692 5.569116 0 4.971357 0C4.024907 0 3.636364 .966376 3.466999 1.723537C3.347447 2.271482 2.988792 5.080946 2.899128 6.286426L2.709838 8.767123Z'/>
<path id='g2-61' d='M6.844334-3.257783C6.993773-3.257783 7.183064-3.257783 7.183064-3.457036S6.993773-3.656289 6.854296-3.656289H.886675C.747198-3.656289 .557908-3.656289 .557908-3.457036S.747198-3.257783 .896638-3.257783H6.844334ZM6.854296-1.325031C6.993773-1.325031 7.183064-1.325031 7.183064-1.524284S6.993773-1.723537 6.844334-1.723537H.896638C.747198-1.723537 .557908-1.723537 .557908-1.524284S.747198-1.325031 .886675-1.325031H6.854296Z'/>
<path id='g1-76' d='M3.726027-6.027397C3.815691-6.386052 3.845579-6.495641 4.782067-6.495641C5.080946-6.495641 5.160648-6.495641 5.160648-6.684932C5.160648-6.804483 5.051059-6.804483 5.001245-6.804483C4.672478-6.804483 3.855542-6.774595 3.526775-6.774595C3.227895-6.774595 2.500623-6.804483 2.201743-6.804483C2.132005-6.804483 2.012453-6.804483 2.012453-6.60523C2.012453-6.495641 2.102117-6.495641 2.291407-6.495641C2.311333-6.495641 2.500623-6.495641 2.669988-6.475716C2.849315-6.455791 2.938979-6.445828 2.938979-6.316314C2.938979-6.276463 2.929016-6.246575 2.899128-6.127024L1.564134-.777086C1.464508-.388543 1.444583-.308842 .657534-.308842C.488169-.308842 .388543-.308842 .388543-.109589C.388543 0 .478207 0 .657534 0H5.270237C5.50934 0 5.519303 0 5.579078-.169365L6.366127-2.321295C6.405978-2.430884 6.405978-2.450809 6.405978-2.460772C6.405978-2.500623 6.37609-2.570361 6.286426-2.570361S6.1868-2.520548 6.117061-2.361146C5.778331-1.444583 5.339975-.308842 3.616438-.308842H2.67995C2.540473-.308842 2.520548-.308842 2.460772-.318804C2.361146-.328767 2.331258-.33873 2.331258-.418431C2.331258-.448319 2.331258-.468244 2.381071-.647572L3.726027-6.027397Z'/>
<path id='g1-100' d='M5.140722-6.804483C5.140722-6.814446 5.140722-6.914072 5.011208-6.914072C4.861768-6.914072 3.915318-6.824408 3.745953-6.804483C3.666252-6.794521 3.606476-6.744707 3.606476-6.615193C3.606476-6.495641 3.696139-6.495641 3.845579-6.495641C4.323786-6.495641 4.343711-6.425903 4.343711-6.326276L4.313823-6.127024L3.716065-3.765878C3.536737-4.134496 3.247821-4.403487 2.799502-4.403487C1.633873-4.403487 .398506-2.938979 .398506-1.484433C.398506-.547945 .946451 .109589 1.723537 .109589C1.92279 .109589 2.420922 .069738 3.01868-.637609C3.098381-.219178 3.447073 .109589 3.92528 .109589C4.273973 .109589 4.503113-.119552 4.662516-.438356C4.83188-.797011 4.961395-1.404732 4.961395-1.424658C4.961395-1.524284 4.871731-1.524284 4.841843-1.524284C4.742217-1.524284 4.732254-1.484433 4.702366-1.344956C4.533001-.697385 4.353674-.109589 3.945205-.109589C3.676214-.109589 3.646326-.368618 3.646326-.56787C3.646326-.806974 3.666252-.876712 3.706102-1.046077L5.140722-6.804483ZM3.068493-1.185554C3.01868-1.006227 3.01868-.986301 2.86924-.816936C2.430884-.268991 2.022416-.109589 1.743462-.109589C1.24533-.109589 1.105853-.657534 1.105853-1.046077C1.105853-1.544209 1.424658-2.769614 1.653798-3.227895C1.96264-3.815691 2.410959-4.184309 2.809465-4.184309C3.457036-4.184309 3.596513-3.367372 3.596513-3.307597S3.576588-3.188045 3.566625-3.138232L3.068493-1.185554Z'/>
<path id='g1-120' d='M3.327522-3.008717C3.387298-3.267746 3.616438-4.184309 4.313823-4.184309C4.363636-4.184309 4.60274-4.184309 4.811955-4.054795C4.533001-4.004981 4.333748-3.755915 4.333748-3.516812C4.333748-3.35741 4.443337-3.16812 4.712329-3.16812C4.931507-3.16812 5.250311-3.347447 5.250311-3.745953C5.250311-4.26401 4.662516-4.403487 4.323786-4.403487C3.745953-4.403487 3.39726-3.875467 3.277709-3.646326C3.028643-4.303861 2.49066-4.403487 2.201743-4.403487C1.165629-4.403487 .597758-3.118306 .597758-2.86924C.597758-2.769614 .697385-2.769614 .71731-2.769614C.797011-2.769614 .826899-2.789539 .846824-2.879203C1.185554-3.935243 1.843088-4.184309 2.181818-4.184309C2.371108-4.184309 2.719801-4.094645 2.719801-3.516812C2.719801-3.20797 2.550436-2.540473 2.181818-1.145704C2.022416-.52802 1.673724-.109589 1.235367-.109589C1.175592-.109589 .946451-.109589 .737235-.239103C.986301-.288917 1.205479-.498132 1.205479-.777086C1.205479-1.046077 .986301-1.125778 .836862-1.125778C.537983-1.125778 .288917-.86675 .288917-.547945C.288917-.089664 .787049 .109589 1.225405 .109589C1.882939 .109589 2.241594-.587796 2.271482-.647572C2.391034-.278954 2.749689 .109589 3.347447 .109589C4.373599 .109589 4.941469-1.175592 4.941469-1.424658C4.941469-1.524284 4.851806-1.524284 4.821918-1.524284C4.732254-1.524284 4.712329-1.484433 4.692403-1.414695C4.363636-.348692 3.686177-.109589 3.367372-.109589C2.978829-.109589 2.819427-.428394 2.819427-.767123C2.819427-.986301 2.879203-1.205479 2.988792-1.643836L3.327522-3.008717Z'/>
</defs>
<g id='page1' transform='matrix(1.5 0 0 1.5 0 0)'>
<use x='-14.536172' y='17.344276' xlink:href='#g1-76'/>
<use x='-4.988693' y='17.344276' xlink:href='#g2-61'/>
<use x='5.527387' y='9.318769' xlink:href='#g4-82'/>
<use x='13.829552' y='17.344276' xlink:href='#g1-100'/>
<use x='19.014984' y='13.728912' xlink:href='#g3-51'/>
<use x='23.484354' y='17.344276' xlink:href='#g1-120'/>
<use x='29.178286' y='17.344276' xlink:href='#g0-76'/>
</g>
</svg>