<?xml version='1.0' encoding='UTF-8'?>
<!-- This file was generated by dvisvgm 3.2 -->
<svg version='1.1' xmlns='http://www.w3.org/2000/svg' xmlns:xlink='http://www.w3.org/1999/xlink' width='117.386284pt' height='36.465496pt' viewBox='292.058103 27.30624 117.386284 36.465496'>
<defs>
<path id='g1-121' d='M1.910834-2.915068C2.015442-2.901121 2.085181-2.894147 2.294396-2.838356C2.517559-2.775592 2.684932-2.733748 2.817435-2.733748C3.089415-2.733748 3.11731-2.942964 3.11731-3.005729C3.11731-3.061519 3.089415-3.277709 2.817435-3.277709C2.684932-3.277709 2.517559-3.235866 2.294396-3.173101C2.085181-3.11731 2.015442-3.110336 1.910834-3.096389C1.924782-3.340473 1.973599-3.633375 2.008468-3.849564C2.036364-3.989041 2.099128-4.344707 2.099128-4.588792C2.099128-4.798007 2.001494-4.909589 1.827148-4.909589C1.680697-4.909589 1.555168-4.832877 1.555168-4.588792C1.555168-4.358655 1.610959-4.009963 1.652802-3.772852C1.66675-3.696139 1.729514-3.354421 1.743462-3.096389C1.638854-3.110336 1.569116-3.11731 1.3599-3.173101C1.136737-3.235866 .969365-3.277709 .836862-3.277709C.564882-3.277709 .536986-3.068493 .536986-3.005729C.536986-2.949938 .564882-2.733748 .836862-2.733748C.969365-2.733748 1.136737-2.775592 1.3599-2.838356C1.569116-2.894147 1.638854-2.901121 1.743462-2.915068C1.729514-2.740722 1.680697-2.517559 1.645828-2.371108C1.555168-1.93873 1.555168-1.889913 1.555168-1.527273C1.555168-.18132 1.687671 1.248319 1.708593 1.387796C1.715567 1.45056 1.729514 1.492403 1.827148 1.492403C1.931756 1.492403 1.93873 1.45056 1.952677 1.352927C1.952677 1.345953 2.008468 .739228 2.036364 .313823C2.071233-.299875 2.099128-.913574 2.099128-1.527273C2.099128-1.889913 2.099128-1.93873 2.001494-2.385056C1.987547-2.461768 1.924782-2.740722 1.910834-2.915068Z'/>
<path id='g4-40' d='M3.297634 2.391034C3.297634 2.361146 3.297634 2.34122 3.128269 2.171856C1.882939 .916563 1.564134-.966376 1.564134-2.49066C1.564134-4.224159 1.942715-5.957659 3.16812-7.202989C3.297634-7.32254 3.297634-7.342466 3.297634-7.372354C3.297634-7.442092 3.257783-7.47198 3.198007-7.47198C3.098381-7.47198 2.201743-6.794521 1.613948-5.529265C1.105853-4.433375 .986301-3.327522 .986301-2.49066C.986301-1.713574 1.09589-.508095 1.643836 .617684C2.241594 1.843088 3.098381 2.49066 3.198007 2.49066C3.257783 2.49066 3.297634 2.460772 3.297634 2.391034Z'/>
<path id='g4-41' d='M2.879203-2.49066C2.879203-3.267746 2.769614-4.473225 2.221669-5.599004C1.62391-6.824408 .767123-7.47198 .667497-7.47198C.607721-7.47198 .56787-7.43213 .56787-7.372354C.56787-7.342466 .56787-7.32254 .757161-7.143213C1.733499-6.156912 2.30137-4.572852 2.30137-2.49066C2.30137-.787049 1.932752 .966376 .697385 2.221669C.56787 2.34122 .56787 2.361146 .56787 2.391034C.56787 2.450809 .607721 2.49066 .667497 2.49066C.767123 2.49066 1.663761 1.8132 2.251557 .547945C2.759651-.547945 2.879203-1.653798 2.879203-2.49066Z'/>
<path id='g4-50' d='M1.265255-.767123L2.321295-1.793275C3.875467-3.16812 4.473225-3.706102 4.473225-4.702366C4.473225-5.838107 3.576588-6.635118 2.361146-6.635118C1.235367-6.635118 .498132-5.718555 .498132-4.83188C.498132-4.273973 .996264-4.273973 1.026152-4.273973C1.195517-4.273973 1.544209-4.393524 1.544209-4.801993C1.544209-5.061021 1.364882-5.32005 1.016189-5.32005C.936488-5.32005 .916563-5.32005 .886675-5.310087C1.115816-5.957659 1.653798-6.326276 2.231631-6.326276C3.138232-6.326276 3.566625-5.519303 3.566625-4.702366C3.566625-3.905355 3.068493-3.118306 2.520548-2.500623L.607721-.368618C.498132-.259029 .498132-.239103 .498132 0H4.194271L4.473225-1.733499H4.224159C4.174346-1.43462 4.104608-.996264 4.004981-.846824C3.935243-.767123 3.277709-.767123 3.058531-.767123H1.265255Z'/>
<path id='g5-51' d='M1.903861-2.329265C2.447821-2.329265 2.838356-1.952677 2.838356-1.206476C2.838356-.341719 2.336239-.083686 1.931756-.083686C1.652802-.083686 1.039103-.160399 .746202-.571856C1.073973-.585803 1.150685-.81594 1.150685-.962391C1.150685-1.185554 .983313-1.345953 .767123-1.345953C.571856-1.345953 .376588-1.227397 .376588-.941469C.376588-.285928 1.101868 .139477 1.945704 .139477C2.915068 .139477 3.584558-.509091 3.584558-1.206476C3.584558-1.750436 3.138232-2.294396 2.371108-2.454795C3.103362-2.719801 3.368369-3.242839 3.368369-3.668244C3.368369-4.219178 2.733748-4.630635 1.959651-4.630635S.592777-4.254047 .592777-3.696139C.592777-3.459029 .746202-3.326526 .955417-3.326526C1.171606-3.326526 1.311083-3.486924 1.311083-3.682192C1.311083-3.884433 1.171606-4.030884 .955417-4.044832C1.199502-4.351681 1.680697-4.428394 1.93873-4.428394C2.252553-4.428394 2.691905-4.274969 2.691905-3.668244C2.691905-3.375342 2.594271-3.054545 2.412951-2.838356C2.182814-2.57335 1.987547-2.559402 1.638854-2.538481C1.464508-2.524533 1.45056-2.524533 1.415691-2.517559C1.401743-2.517559 1.345953-2.503611 1.345953-2.426899C1.345953-2.329265 1.408717-2.329265 1.527273-2.329265H1.903861Z'/>
<path id='g6-90' d='M1.036115 21.688667C1.354919 21.668742 1.524284 21.449564 1.524284 21.200498C1.524284 20.871731 1.275218 20.712329 1.046077 20.712329C.806974 20.712329 .557908 20.861768 .557908 21.210461C.557908 21.718555 1.05604 22.136986 1.663761 22.136986C3.178082 22.136986 3.745953 19.805729 4.4533 16.916563C5.220423 13.768369 5.867995 10.590286 6.405978 7.392279C6.774595 5.270237 7.143213 3.277709 7.481943 1.992528C7.601494 1.504359 7.940224 .219178 8.328767 .219178C8.637609 .219178 8.886675 .408468 8.926526 .448319C8.597758 .468244 8.428394 .687422 8.428394 .936488C8.428394 1.265255 8.67746 1.424658 8.9066 1.424658C9.145704 1.424658 9.39477 1.275218 9.39477 .926526C9.39477 .388543 8.856787 0 8.308842 0C7.551681 0 6.993773 1.085928 6.445828 3.118306C6.41594 3.227895 5.061021 8.229141 3.965131 14.744707C3.706102 16.268991 3.417186 17.932752 3.088418 19.317559C2.909091 20.044832 2.450809 21.917808 1.643836 21.917808C1.285181 21.917808 1.046077 21.688667 1.036115 21.688667Z'/>
<path id='g3-112' d='M.523039 .850809C.474222 1.046077 .460274 1.101868 .18132 1.101868C.09066 1.101868-.006974 1.101868-.006974 1.248319C-.006974 1.325031 .055791 1.352927 .09066 1.352927C.27198 1.352927 .502117 1.325031 .690411 1.325031C.927522 1.325031 1.192528 1.352927 1.422665 1.352927C1.48543 1.352927 1.562142 1.332005 1.562142 1.199502C1.562142 1.101868 1.464508 1.101868 1.380822 1.101868C1.227397 1.101868 1.039103 1.101868 1.039103 1.018182C1.039103 .983313 1.08792 .801993 1.115816 .697385C1.199502 .327771 1.297136-.048817 1.373848-.341719C1.457534-.202242 1.673724 .069738 2.092154 .069738C2.942964 .069738 3.884433-.871731 3.884433-1.910834C3.884433-2.726775 3.319552-3.075467 2.838356-3.075467C2.405978-3.075467 2.036364-2.782565 1.84807-2.587298C1.729514-2.984807 1.338979-3.075467 1.129763-3.075467C.857783-3.075467 .690411-2.894147 .578829-2.705853C.439352-2.468742 .327771-2.050311 .327771-2.008468C.327771-1.917808 .425405-1.917808 .446326-1.917808C.54396-1.917808 .550934-1.93873 .599751-2.127024C.704359-2.531507 .836862-2.880199 1.108842-2.880199C1.290162-2.880199 1.338979-2.726775 1.338979-2.538481C1.338979-2.461768 1.325031-2.371108 1.318057-2.329265L.523039 .850809ZM1.841096-2.238605C2.245579-2.775592 2.594271-2.880199 2.817435-2.880199C3.089415-2.880199 3.326526-2.677958 3.326526-2.203736C3.326526-1.917808 3.173101-1.206476 2.963885-.801993C2.789539-.460274 2.447821-.125529 2.092154-.125529C1.597011-.125529 1.471482-.662516 1.471482-.732254C1.471482-.760149 1.48543-.808966 1.492403-.836862L1.841096-2.238605Z'/>
<path id='g0-17' d='M6.834371-4.224159C7.003736-4.224159 7.193026-4.224159 7.193026-4.423412S7.013699-4.622665 6.844334-4.622665H.896638C.727273-4.622665 .547945-4.622665 .547945-4.423412S.747198-4.224159 .9066-4.224159H6.834371ZM6.844334-.358655C7.013699-.358655 7.193026-.358655 7.193026-.557908S7.003736-.757161 6.834371-.757161H.9066C.747198-.757161 .547945-.757161 .547945-.557908S.727273-.358655 .896638-.358655H6.844334ZM6.844334-2.291407C7.013699-2.291407 7.193026-2.291407 7.193026-2.49066S7.013699-2.689913 6.844334-2.689913H.896638C.727273-2.689913 .547945-2.689913 .547945-2.49066S.727273-2.291407 .896638-2.291407H6.844334Z'/>
<path id='g2-25' d='M2.6401-3.716065H3.765878C3.437111-2.241594 3.347447-1.8132 3.347447-1.145704C3.347447-.996264 3.347447-.727273 3.427148-.388543C3.526775 .049813 3.636364 .109589 3.785803 .109589C3.985056 .109589 4.194271-.069738 4.194271-.268991C4.194271-.328767 4.194271-.348692 4.134496-.488169C3.845579-1.205479 3.845579-1.853051 3.845579-2.132005C3.845579-2.660025 3.915318-3.198007 4.024907-3.716065H5.160648C5.290162-3.716065 5.648817-3.716065 5.648817-4.054795C5.648817-4.293898 5.439601-4.293898 5.250311-4.293898H1.912827C1.693649-4.293898 1.315068-4.293898 .876712-3.825654C.52802-3.437111 .268991-2.978829 .268991-2.929016C.268991-2.919054 .268991-2.82939 .388543-2.82939C.468244-2.82939 .488169-2.86924 .547945-2.948941C1.036115-3.716065 1.613948-3.716065 1.8132-3.716065H2.381071C2.062267-2.510585 1.524284-1.305106 1.105853-.398506C1.026152-.249066 1.026152-.229141 1.026152-.159402C1.026152 .029888 1.185554 .109589 1.315068 .109589C1.613948 .109589 1.693649-.169365 1.8132-.537983C1.952677-.996264 1.952677-1.016189 2.082192-1.514321L2.6401-3.716065Z'/>
<path id='g2-78' d='M7.531756-5.758406C7.631382-6.156912 7.81071-6.465753 8.607721-6.495641C8.657534-6.495641 8.777086-6.505604 8.777086-6.694894C8.777086-6.704857 8.777086-6.804483 8.647572-6.804483C8.318804-6.804483 7.970112-6.774595 7.641345-6.774595C7.302615-6.774595 6.953923-6.804483 6.625156-6.804483C6.56538-6.804483 6.445828-6.804483 6.445828-6.60523C6.445828-6.495641 6.545455-6.495641 6.625156-6.495641C7.193026-6.485679 7.302615-6.276463 7.302615-6.057285C7.302615-6.027397 7.28269-5.877958 7.272727-5.84807L6.156912-1.414695L3.955168-6.615193C3.875467-6.794521 3.865504-6.804483 3.636364-6.804483H2.30137C2.102117-6.804483 2.012453-6.804483 2.012453-6.60523C2.012453-6.495641 2.102117-6.495641 2.291407-6.495641C2.34122-6.495641 2.968867-6.495641 2.968867-6.405978L1.633873-1.05604C1.534247-.657534 1.364882-.33873 .557908-.308842C.498132-.308842 .388543-.298879 .388543-.109589C.388543-.039851 .438356 0 .518057 0C.836862 0 1.185554-.029888 1.514321-.029888C1.853051-.029888 2.211706 0 2.540473 0C2.590286 0 2.719801 0 2.719801-.199253C2.719801-.298879 2.630137-.308842 2.520548-.308842C1.942715-.328767 1.863014-.547945 1.863014-.747198C1.863014-.816936 1.872976-.86675 1.902864-.976339L3.217933-6.236613C3.257783-6.176837 3.257783-6.156912 3.307597-6.057285L5.788294-.18929C5.858032-.019925 5.88792 0 5.977584 0C6.087173 0 6.087173-.029888 6.136986-.209215L7.531756-5.758406Z'/>
<path id='g2-97' d='M3.716065-3.765878C3.536737-4.134496 3.247821-4.403487 2.799502-4.403487C1.633873-4.403487 .398506-2.938979 .398506-1.484433C.398506-.547945 .946451 .109589 1.723537 .109589C1.92279 .109589 2.420922 .069738 3.01868-.637609C3.098381-.219178 3.447073 .109589 3.92528 .109589C4.273973 .109589 4.503113-.119552 4.662516-.438356C4.83188-.797011 4.961395-1.404732 4.961395-1.424658C4.961395-1.524284 4.871731-1.524284 4.841843-1.524284C4.742217-1.524284 4.732254-1.484433 4.702366-1.344956C4.533001-.697385 4.353674-.109589 3.945205-.109589C3.676214-.109589 3.646326-.368618 3.646326-.56787C3.646326-.787049 3.666252-.86675 3.775841-1.305106C3.88543-1.723537 3.905355-1.823163 3.995019-2.201743L4.353674-3.596513C4.423412-3.875467 4.423412-3.895392 4.423412-3.935243C4.423412-4.104608 4.303861-4.204234 4.134496-4.204234C3.895392-4.204234 3.745953-3.985056 3.716065-3.765878ZM3.068493-1.185554C3.01868-1.006227 3.01868-.986301 2.86924-.816936C2.430884-.268991 2.022416-.109589 1.743462-.109589C1.24533-.109589 1.105853-.657534 1.105853-1.046077C1.105853-1.544209 1.424658-2.769614 1.653798-3.227895C1.96264-3.815691 2.410959-4.184309 2.809465-4.184309C3.457036-4.184309 3.596513-3.367372 3.596513-3.307597S3.576588-3.188045 3.566625-3.138232L3.068493-1.185554Z'/>
<path id='g2-100' d='M5.140722-6.804483C5.140722-6.814446 5.140722-6.914072 5.011208-6.914072C4.861768-6.914072 3.915318-6.824408 3.745953-6.804483C3.666252-6.794521 3.606476-6.744707 3.606476-6.615193C3.606476-6.495641 3.696139-6.495641 3.845579-6.495641C4.323786-6.495641 4.343711-6.425903 4.343711-6.326276L4.313823-6.127024L3.716065-3.765878C3.536737-4.134496 3.247821-4.403487 2.799502-4.403487C1.633873-4.403487 .398506-2.938979 .398506-1.484433C.398506-.547945 .946451 .109589 1.723537 .109589C1.92279 .109589 2.420922 .069738 3.01868-.637609C3.098381-.219178 3.447073 .109589 3.92528 .109589C4.273973 .109589 4.503113-.119552 4.662516-.438356C4.83188-.797011 4.961395-1.404732 4.961395-1.424658C4.961395-1.524284 4.871731-1.524284 4.841843-1.524284C4.742217-1.524284 4.732254-1.484433 4.702366-1.344956C4.533001-.697385 4.353674-.109589 3.945205-.109589C3.676214-.109589 3.646326-.368618 3.646326-.56787C3.646326-.806974 3.666252-.876712 3.706102-1.046077L5.140722-6.804483ZM3.068493-1.185554C3.01868-1.006227 3.01868-.986301 2.86924-.816936C2.430884-.268991 2.022416-.109589 1.743462-.109589C1.24533-.109589 1.105853-.657534 1.105853-1.046077C1.105853-1.544209 1.424658-2.769614 1.653798-3.227895C1.96264-3.815691 2.410959-4.184309 2.809465-4.184309C3.457036-4.184309 3.596513-3.367372 3.596513-3.307597S3.576588-3.188045 3.566625-3.138232L3.068493-1.185554Z'/>
<path id='g2-112' d='M.448319 1.215442C.368618 1.554172 .348692 1.62391-.089664 1.62391C-.209215 1.62391-.318804 1.62391-.318804 1.8132C-.318804 1.892902-.268991 1.932752-.18929 1.932752C.079701 1.932752 .368618 1.902864 .647572 1.902864C.976339 1.902864 1.315068 1.932752 1.633873 1.932752C1.683686 1.932752 1.8132 1.932752 1.8132 1.733499C1.8132 1.62391 1.713574 1.62391 1.574097 1.62391C1.075965 1.62391 1.075965 1.554172 1.075965 1.464508C1.075965 1.344956 1.494396-.278954 1.564134-.52802C1.693649-.239103 1.972603 .109589 2.480697 .109589C3.636364 .109589 4.881694-1.344956 4.881694-2.809465C4.881694-3.745953 4.313823-4.403487 3.556663-4.403487C3.058531-4.403487 2.580324-4.044832 2.251557-3.656289C2.15193-4.194271 1.723537-4.403487 1.354919-4.403487C.896638-4.403487 .707347-4.014944 .617684-3.835616C.438356-3.496887 .308842-2.899128 .308842-2.86924C.308842-2.769614 .408468-2.769614 .428394-2.769614C.52802-2.769614 .537983-2.779577 .597758-2.998755C.767123-3.706102 .966376-4.184309 1.325031-4.184309C1.494396-4.184309 1.633873-4.104608 1.633873-3.726027C1.633873-3.496887 1.603985-3.387298 1.564134-3.217933L.448319 1.215442ZM2.201743-3.108344C2.271482-3.377335 2.540473-3.656289 2.719801-3.805729C3.068493-4.11457 3.35741-4.184309 3.526775-4.184309C3.92528-4.184309 4.164384-3.835616 4.164384-3.247821S3.835616-1.514321 3.656289-1.135741C3.317559-.438356 2.839352-.109589 2.470735-.109589C1.8132-.109589 1.683686-.936488 1.683686-.996264C1.683686-1.016189 1.683686-1.036115 1.713574-1.155666L2.201743-3.108344Z'/>
</defs>
<g id='page1' transform='matrix(1.5 0 0 1.5 0 0)'>
<use x='194.316859' y='33.18996' xlink:href='#g2-78'/>
<use x='206.175082' y='33.18996' xlink:href='#g0-17'/>
<use x='216.691162' y='19.62959' xlink:href='#g6-90'/>
<use x='233.794049' y='26.450159' xlink:href='#g2-100'/>
<use x='238.979481' y='22.834795' xlink:href='#g5-51'/>
<use x='243.448851' y='26.450159' xlink:href='#g2-112'/>
<rect x='229.50973' y='30.50005' height='.398484' width='23.235864'/>
<use x='229.50973' y='40.02383' xlink:href='#g4-40'/>
<use x='233.384104' y='40.02383' xlink:href='#g4-50'/>
<use x='238.365443' y='40.02383' xlink:href='#g2-25'/>
<use x='244.40186' y='40.02383' xlink:href='#g4-41'/>
<use x='248.276234' y='37.145738' xlink:href='#g5-51'/>
<use x='253.941108' y='33.18996' xlink:href='#g2-97'/>
<use x='259.207262' y='29.076464' xlink:href='#g1-121'/>
<use x='259.207262' y='35.652892' xlink:href='#g3-112'/>
<use x='263.812338' y='33.18996' xlink:href='#g2-97'/>
<use x='269.078492' y='34.684341' xlink:href='#g3-112'/>
</g>
</svg>