<?xml version='1.0' encoding='UTF-8'?>
<!-- This file was generated by dvisvgm 3.2 -->
<svg version='1.1' xmlns='http://www.w3.org/2000/svg' xmlns:xlink='http://www.w3.org/1999/xlink' width='365.549637pt' height='15.583539pt' viewBox='168.218871 32.741196 365.549637 15.583539'>
<defs>
<path id='g1-49' d='M4.030884-1.910834C3.66127-2.343213 3.549689-2.461768 3.284682-2.650062C2.859278-2.956912 2.412951-3.075467 2.02939-3.075467C1.164633-3.075467 .536986-2.336239 .536986-1.499377C.536986-.683437 1.136737 .069738 2.008468 .069738C2.977833 .069738 3.654296-.72528 3.905355-1.094894C4.274969-.662516 4.38655-.54396 4.651557-.355666C5.076961-.048817 5.523288 .069738 5.906849 .069738C6.771606 .069738 7.399253-.669489 7.399253-1.506351C7.399253-2.322291 6.799502-3.075467 5.927771-3.075467C4.958406-3.075467 4.281943-2.280448 4.030884-1.910834ZM4.254047-1.652802C4.533001-2.106102 5.139726-2.810461 5.990535-2.810461C6.708842-2.810461 7.203985-2.175841 7.203985-1.506351S6.660025-.313823 6.018431-.313823C5.369863-.313823 4.923537-.843836 4.254047-1.652802ZM3.682192-1.352927C3.403238-.899626 2.796513-.195268 1.945704-.195268C1.227397-.195268 .732254-.829888 .732254-1.499377S1.276214-2.691905 1.917808-2.691905C2.566376-2.691905 3.012702-2.161893 3.682192-1.352927Z'/>
<path id='g6-48' d='M2.993773-1.594022C2.993773-1.952677 2.993773-3.317559 1.693649-3.317559S.393524-1.952677 .393524-1.594022C.393524-1.230386 .393524 .109589 1.693649 .109589S2.993773-1.230386 2.993773-1.594022ZM1.693649-.054795C1.50934-.054795 1.090909-.119552 .966376-.622665C.896638-.891656 .891656-1.24533 .891656-1.653798C.891656-2.022416 .891656-2.366127 .971357-2.650062C1.09589-3.068493 1.479452-3.153176 1.693649-3.153176C2.062267-3.153176 2.326276-2.963885 2.425903-2.615193C2.495641-2.361146 2.495641-1.947696 2.495641-1.653798C2.495641-1.315068 2.495641-.911582 2.420922-.612702C2.291407-.129514 1.892902-.054795 1.693649-.054795Z'/>
<path id='g6-49' d='M1.982565-3.16812C1.982565-3.317559 1.967621-3.317559 1.803238-3.317559C1.449564-2.998755 .896638-2.998755 .797011-2.998755H.712329V-2.779577H.797011C.911582-2.779577 1.235367-2.794521 1.524284-2.919054V-.428394C1.524284-.273973 1.524284-.219178 .996264-.219178H.747198V0C1.021171-.019925 1.464508-.019925 1.753425-.019925S2.485679-.019925 2.759651 0V-.219178H2.510585C1.982565-.219178 1.982565-.273973 1.982565-.428394V-3.16812Z'/>
<path id='g5-48' d='M3.598506-2.224658C3.598506-2.991781 3.507846-3.542715 3.187049-4.030884C2.970859-4.351681 2.538481-4.630635 1.980573-4.630635C.36264-4.630635 .36264-2.726775 .36264-2.224658S.36264 .139477 1.980573 .139477S3.598506-1.72254 3.598506-2.224658ZM1.980573-.055791C1.659776-.055791 1.234371-.244085 1.094894-.81594C.99726-1.227397 .99726-1.799253 .99726-2.315318C.99726-2.824408 .99726-3.354421 1.101868-3.737983C1.248319-4.288917 1.694645-4.435367 1.980573-4.435367C2.357161-4.435367 2.719801-4.20523 2.84533-3.800747C2.956912-3.424159 2.963885-2.922042 2.963885-2.315318C2.963885-1.799253 2.963885-1.283188 2.873225-.843836C2.733748-.209215 2.259527-.055791 1.980573-.055791Z'/>
<path id='g5-49' d='M2.336239-4.435367C2.336239-4.623661 2.322291-4.630635 2.127024-4.630635C1.680697-4.191283 1.046077-4.184309 .760149-4.184309V-3.93325C.927522-3.93325 1.387796-3.93325 1.771357-4.128518V-.571856C1.771357-.341719 1.771357-.251059 1.073973-.251059H.808966V0C.934496-.006974 1.792279-.027895 2.050311-.027895C2.266501-.027895 3.145205-.006974 3.29863 0V-.251059H3.033624C2.336239-.251059 2.336239-.341719 2.336239-.571856V-4.435367Z'/>
<path id='g2-30' d='M4.353674-6.674969C4.353674-6.694894 4.383562-6.804483 4.383562-6.814446S4.383562-6.914072 4.26401-6.914072C4.164384-6.914072 4.154421-6.884184 4.11457-6.714819L3.536737-4.41345C1.952677-4.363636 .488169-3.038605 .488169-1.683686C.488169-.737235 1.185554 .049813 2.400996 .119552C2.321295 .428394 2.251557 .747198 2.171856 1.05604C2.052304 1.524284 1.952677 1.902864 1.952677 1.932752C1.952677 2.032379 2.022416 2.042341 2.072229 2.042341S2.141968 2.032379 2.171856 2.002491C2.191781 1.982565 2.251557 1.743462 2.281445 1.603985L2.660025 .119552C4.26401 .069738 5.708593-1.275218 5.708593-2.610212C5.708593-3.39726 5.180573-4.313823 3.795766-4.41345L4.353674-6.674969ZM2.450809-.099626C1.853051-.129514 1.135741-.478207 1.135741-1.474471C1.135741-2.669988 1.992528-4.064757 3.476961-4.194271L2.450809-.099626ZM3.73599-4.194271C4.493151-4.154421 5.061021-3.696139 5.061021-2.819427C5.061021-1.643836 4.204234-.219178 2.709838-.099626L3.73599-4.194271Z'/>
<path id='g2-58' d='M1.912827-.52802C1.912827-.816936 1.673724-1.05604 1.384807-1.05604S.856787-.816936 .856787-.52802S1.09589 0 1.384807 0S1.912827-.239103 1.912827-.52802Z'/>
<path id='g2-78' d='M7.531756-5.758406C7.631382-6.156912 7.81071-6.465753 8.607721-6.495641C8.657534-6.495641 8.777086-6.505604 8.777086-6.694894C8.777086-6.704857 8.777086-6.804483 8.647572-6.804483C8.318804-6.804483 7.970112-6.774595 7.641345-6.774595C7.302615-6.774595 6.953923-6.804483 6.625156-6.804483C6.56538-6.804483 6.445828-6.804483 6.445828-6.60523C6.445828-6.495641 6.545455-6.495641 6.625156-6.495641C7.193026-6.485679 7.302615-6.276463 7.302615-6.057285C7.302615-6.027397 7.28269-5.877958 7.272727-5.84807L6.156912-1.414695L3.955168-6.615193C3.875467-6.794521 3.865504-6.804483 3.636364-6.804483H2.30137C2.102117-6.804483 2.012453-6.804483 2.012453-6.60523C2.012453-6.495641 2.102117-6.495641 2.291407-6.495641C2.34122-6.495641 2.968867-6.495641 2.968867-6.405978L1.633873-1.05604C1.534247-.657534 1.364882-.33873 .557908-.308842C.498132-.308842 .388543-.298879 .388543-.109589C.388543-.039851 .438356 0 .518057 0C.836862 0 1.185554-.029888 1.514321-.029888C1.853051-.029888 2.211706 0 2.540473 0C2.590286 0 2.719801 0 2.719801-.199253C2.719801-.298879 2.630137-.308842 2.520548-.308842C1.942715-.328767 1.863014-.547945 1.863014-.747198C1.863014-.816936 1.872976-.86675 1.902864-.976339L3.217933-6.236613C3.257783-6.176837 3.257783-6.156912 3.307597-6.057285L5.788294-.18929C5.858032-.019925 5.88792 0 5.977584 0C6.087173 0 6.087173-.029888 6.136986-.209215L7.531756-5.758406Z'/>
<path id='g2-84' d='M4.254047-6.047323C4.323786-6.326276 4.363636-6.386052 4.483188-6.41594C4.572852-6.435866 4.901619-6.435866 5.110834-6.435866C6.117061-6.435866 6.56538-6.396015 6.56538-5.618929C6.56538-5.469489 6.525529-5.080946 6.485679-4.821918C6.475716-4.782067 6.455791-4.662516 6.455791-4.632628C6.455791-4.572852 6.485679-4.503113 6.575342-4.503113C6.684932-4.503113 6.704857-4.582814 6.724782-4.732254L6.993773-6.465753C7.003736-6.505604 7.013699-6.60523 7.013699-6.635118C7.013699-6.744707 6.914072-6.744707 6.744707-6.744707H1.215442C.976339-6.744707 .966376-6.734745 .896638-6.545455L.298879-4.79203C.288917-4.772105 .239103-4.632628 .239103-4.612702C.239103-4.552927 .288917-4.503113 .358655-4.503113C.458281-4.503113 .468244-4.552927 .52802-4.712329C1.066002-6.256538 1.325031-6.435866 2.799502-6.435866H3.188045C3.466999-6.435866 3.466999-6.396015 3.466999-6.316314C3.466999-6.256538 3.437111-6.136986 3.427148-6.107098L2.092154-.787049C2.002491-.418431 1.972603-.308842 .9066-.308842C.547945-.308842 .488169-.308842 .488169-.119552C.488169 0 .597758 0 .657534 0C.926526 0 1.205479-.019925 1.474471-.019925C1.753425-.019925 2.042341-.029888 2.321295-.029888S2.879203-.019925 3.148194-.019925C3.437111-.019925 3.73599 0 4.014944 0C4.11457 0 4.234122 0 4.234122-.199253C4.234122-.308842 4.154421-.308842 3.895392-.308842C3.646326-.308842 3.516812-.308842 3.257783-.328767C2.968867-.358655 2.889166-.388543 2.889166-.547945C2.889166-.557908 2.889166-.607721 2.929016-.757161L4.254047-6.047323Z'/>
<path id='g2-85' d='M6.326276-5.758406C6.425903-6.166874 6.60523-6.465753 7.402242-6.495641C7.452055-6.495641 7.571606-6.505604 7.571606-6.694894C7.571606-6.704857 7.571606-6.804483 7.442092-6.804483C7.113325-6.804483 6.764633-6.774595 6.425903-6.774595S5.718555-6.804483 5.389788-6.804483C5.330012-6.804483 5.210461-6.804483 5.210461-6.60523C5.210461-6.495641 5.310087-6.495641 5.389788-6.495641C5.957659-6.485679 6.067248-6.276463 6.067248-6.057285C6.067248-6.027397 6.047323-5.877958 6.03736-5.84807L5.140722-2.291407C4.801993-.956413 3.656289-.089664 2.660025-.089664C1.982565-.089664 1.444583-.52802 1.444583-1.384807C1.444583-1.404732 1.444583-1.723537 1.554172-2.161893L2.520548-6.03736C2.610212-6.396015 2.630137-6.495641 3.35741-6.495641C3.616438-6.495641 3.696139-6.495641 3.696139-6.694894C3.696139-6.804483 3.58655-6.804483 3.556663-6.804483C3.277709-6.804483 2.560399-6.774595 2.281445-6.774595C1.992528-6.774595 1.285181-6.804483 .996264-6.804483C.916563-6.804483 .806974-6.804483 .806974-6.60523C.806974-6.495641 .896638-6.495641 1.085928-6.495641C1.105853-6.495641 1.295143-6.495641 1.464508-6.475716C1.643836-6.455791 1.733499-6.445828 1.733499-6.316314C1.733499-6.256538 1.62391-5.838107 1.564134-5.608966L1.344956-4.732254C1.255293-4.343711 .777086-2.460772 .737235-2.271482C.667497-1.992528 .667497-1.843088 .667497-1.693649C.667497-.478207 1.574097 .219178 2.620174 .219178C3.875467 .219178 5.110834-.9066 5.439601-2.221669L6.326276-5.758406Z'/>
<path id='g2-120' d='M3.327522-3.008717C3.387298-3.267746 3.616438-4.184309 4.313823-4.184309C4.363636-4.184309 4.60274-4.184309 4.811955-4.054795C4.533001-4.004981 4.333748-3.755915 4.333748-3.516812C4.333748-3.35741 4.443337-3.16812 4.712329-3.16812C4.931507-3.16812 5.250311-3.347447 5.250311-3.745953C5.250311-4.26401 4.662516-4.403487 4.323786-4.403487C3.745953-4.403487 3.39726-3.875467 3.277709-3.646326C3.028643-4.303861 2.49066-4.403487 2.201743-4.403487C1.165629-4.403487 .597758-3.118306 .597758-2.86924C.597758-2.769614 .697385-2.769614 .71731-2.769614C.797011-2.769614 .826899-2.789539 .846824-2.879203C1.185554-3.935243 1.843088-4.184309 2.181818-4.184309C2.371108-4.184309 2.719801-4.094645 2.719801-3.516812C2.719801-3.20797 2.550436-2.540473 2.181818-1.145704C2.022416-.52802 1.673724-.109589 1.235367-.109589C1.175592-.109589 .946451-.109589 .737235-.239103C.986301-.288917 1.205479-.498132 1.205479-.777086C1.205479-1.046077 .986301-1.125778 .836862-1.125778C.537983-1.125778 .288917-.86675 .288917-.547945C.288917-.089664 .787049 .109589 1.225405 .109589C1.882939 .109589 2.241594-.587796 2.271482-.647572C2.391034-.278954 2.749689 .109589 3.347447 .109589C4.373599 .109589 4.941469-1.175592 4.941469-1.424658C4.941469-1.524284 4.851806-1.524284 4.821918-1.524284C4.732254-1.524284 4.712329-1.484433 4.692403-1.414695C4.363636-.348692 3.686177-.109589 3.367372-.109589C2.978829-.109589 2.819427-.428394 2.819427-.767123C2.819427-.986301 2.879203-1.205479 2.988792-1.643836L3.327522-3.008717Z'/>
<path id='g4-10' d='M6.744707-1.613948H6.495641C6.445828-1.354919 6.405978-1.125778 6.316314-.886675C6.266501-.727273 6.236613-.647572 5.65878-.647572H4.861768C4.991283-1.205479 5.300125-1.683686 5.748443-2.34122C6.216687-3.048568 6.625156-3.73599 6.625156-4.523039C6.625156-5.907846 5.280199-7.023661 3.596513-7.023661C1.882939-7.023661 .557908-5.88792 .557908-4.523039C.557908-3.73599 .966376-3.048568 1.43462-2.34122C1.872976-1.683686 2.191781-1.205479 2.321295-.647572H1.524284C.946451-.647572 .916563-.727273 .86675-.876712C.787049-1.105853 .737235-1.364882 .687422-1.613948H.438356L.767123 0H2.361146C2.580324 0 2.610212 0 2.610212-.209215C2.610212-.9066 2.30137-1.783313 2.072229-2.420922C1.863014-2.998755 1.58406-3.785803 1.58406-4.533001C1.58406-6.127024 2.67995-6.804483 3.58655-6.804483C4.542964-6.804483 5.599004-6.087173 5.599004-4.533001C5.599004-3.785803 5.330012-3.028643 5.041096-2.211706C4.891656-1.793275 4.572852-.896638 4.572852-.209215C4.572852 0 4.60274 0 4.83188 0H6.41594L6.744707-1.613948Z'/>
<path id='g4-40' d='M3.297634 2.391034C3.297634 2.361146 3.297634 2.34122 3.128269 2.171856C1.882939 .916563 1.564134-.966376 1.564134-2.49066C1.564134-4.224159 1.942715-5.957659 3.16812-7.202989C3.297634-7.32254 3.297634-7.342466 3.297634-7.372354C3.297634-7.442092 3.257783-7.47198 3.198007-7.47198C3.098381-7.47198 2.201743-6.794521 1.613948-5.529265C1.105853-4.433375 .986301-3.327522 .986301-2.49066C.986301-1.713574 1.09589-.508095 1.643836 .617684C2.241594 1.843088 3.098381 2.49066 3.198007 2.49066C3.257783 2.49066 3.297634 2.460772 3.297634 2.391034Z'/>
<path id='g4-41' d='M2.879203-2.49066C2.879203-3.267746 2.769614-4.473225 2.221669-5.599004C1.62391-6.824408 .767123-7.47198 .667497-7.47198C.607721-7.47198 .56787-7.43213 .56787-7.372354C.56787-7.342466 .56787-7.32254 .757161-7.143213C1.733499-6.156912 2.30137-4.572852 2.30137-2.49066C2.30137-.787049 1.932752 .966376 .697385 2.221669C.56787 2.34122 .56787 2.361146 .56787 2.391034C.56787 2.450809 .607721 2.49066 .667497 2.49066C.767123 2.49066 1.663761 1.8132 2.251557 .547945C2.759651-.547945 2.879203-1.653798 2.879203-2.49066Z'/>
<path id='g4-48' d='M4.582814-3.188045C4.582814-3.985056 4.533001-4.782067 4.184309-5.519303C3.726027-6.475716 2.909091-6.635118 2.49066-6.635118C1.892902-6.635118 1.165629-6.37609 .757161-5.449564C.438356-4.762142 .388543-3.985056 .388543-3.188045C.388543-2.440847 .428394-1.544209 .836862-.787049C1.265255 .019925 1.992528 .219178 2.480697 .219178C3.01868 .219178 3.775841 .009963 4.214197-.936488C4.533001-1.62391 4.582814-2.400996 4.582814-3.188045ZM2.480697 0C2.092154 0 1.504359-.249066 1.325031-1.205479C1.215442-1.803238 1.215442-2.719801 1.215442-3.307597C1.215442-3.945205 1.215442-4.60274 1.295143-5.140722C1.484433-6.326276 2.231631-6.41594 2.480697-6.41594C2.809465-6.41594 3.466999-6.236613 3.656289-5.250311C3.755915-4.692403 3.755915-3.935243 3.755915-3.307597C3.755915-2.560399 3.755915-1.882939 3.646326-1.24533C3.496887-.298879 2.929016 0 2.480697 0Z'/>
<path id='g4-61' d='M6.844334-3.257783C6.993773-3.257783 7.183064-3.257783 7.183064-3.457036S6.993773-3.656289 6.854296-3.656289H.886675C.747198-3.656289 .557908-3.656289 .557908-3.457036S.747198-3.257783 .896638-3.257783H6.844334ZM6.854296-1.325031C6.993773-1.325031 7.183064-1.325031 7.183064-1.524284S6.993773-1.723537 6.844334-1.723537H.896638C.747198-1.723537 .557908-1.723537 .557908-1.524284S.747198-1.325031 .886675-1.325031H6.854296Z'/>
<path id='g3-59' d='M1.471482-.111582C1.471482 .27198 1.401743 .718306 .927522 1.164633C.899626 1.192528 .878705 1.21345 .878705 1.248319C.878705 1.297136 .934496 1.345953 .976339 1.345953C1.073973 1.345953 1.66675 .788045 1.66675-.041843C1.66675-.474222 1.499377-.801993 1.17858-.801993C.948443-.801993 .781071-.620672 .781071-.404483C.781071-.18132 .941469 0 1.185554 0C1.352927 0 1.464508-.111582 1.471482-.111582Z'/>
<path id='g3-102' d='M2.838356-2.75467H3.521793C3.66127-2.75467 3.75193-2.75467 3.75193-2.908095C3.75193-3.005729 3.66127-3.005729 3.535741-3.005729H2.887173C3.047572-3.891407 3.103362-4.212204 3.159153-4.414446C3.194022-4.56787 3.347447-4.714321 3.514819-4.714321C3.521793-4.714321 3.710087-4.714321 3.84259-4.630635C3.556663-4.539975 3.535741-4.288917 3.535741-4.247073C3.535741-4.093649 3.654296-3.989041 3.814695-3.989041C4.002989-3.989041 4.212204-4.14944 4.212204-4.414446C4.212204-4.735243 3.870486-4.909589 3.514819-4.909589C3.20797-4.909589 2.866252-4.735243 2.677958-4.38655C2.538481-4.128518 2.48269-3.814695 2.336239-3.005729H1.785305C1.645828-3.005729 1.555168-3.005729 1.555168-2.852304C1.555168-2.75467 1.645828-2.75467 1.771357-2.75467H2.287422C2.280448-2.712827 1.841096-.202242 1.673724 .54396C1.638854 .697385 1.520299 1.227397 1.185554 1.227397C1.17858 1.227397 1.011208 1.227397 .878705 1.143711C1.164633 1.053051 1.185554 .801993 1.185554 .760149C1.185554 .606725 1.066999 .502117 .9066 .502117C.718306 .502117 .509091 .662516 .509091 .927522C.509091 1.241345 .836862 1.422665 1.185554 1.422665C1.63188 1.422665 1.93873 .962391 2.022416 .808966C2.273474 .341719 2.433873-.516065 2.447821-.599751L2.838356-2.75467Z'/>
<path id='g3-105' d='M2.259527-4.358655C2.259527-4.470237 2.175841-4.623661 1.980573-4.623661C1.792279-4.623661 1.590037-4.442341 1.590037-4.2401C1.590037-4.121544 1.680697-3.975093 1.868991-3.975093C2.071233-3.975093 2.259527-4.170361 2.259527-4.358655ZM.836862-.81594C.808966-.72528 .774097-.641594 .774097-.523039C.774097-.195268 1.053051 .069738 1.436613 .069738C2.133998 .069738 2.440847-.892653 2.440847-.99726C2.440847-1.08792 2.350187-1.08792 2.329265-1.08792C2.231631-1.08792 2.224658-1.046077 2.196762-.969365C2.036364-.411457 1.729514-.125529 1.457534-.125529C1.318057-.125529 1.283188-.216189 1.283188-.369614C1.283188-.530012 1.332005-.662516 1.39477-.81594C1.464508-1.004234 1.54122-1.192528 1.617933-1.373848C1.680697-1.54122 1.931756-2.175841 1.959651-2.259527C1.980573-2.329265 2.001494-2.412951 2.001494-2.48269C2.001494-2.810461 1.72254-3.075467 1.338979-3.075467C.648568-3.075467 .327771-2.127024 .327771-2.008468C.327771-1.917808 .425405-1.917808 .446326-1.917808C.54396-1.917808 .550934-1.952677 .571856-2.02939C.753176-2.629141 1.060025-2.880199 1.318057-2.880199C1.429639-2.880199 1.492403-2.824408 1.492403-2.636115C1.492403-2.475716 1.45056-2.371108 1.276214-1.93873L.836862-.81594Z'/>
<path id='g3-110' d='M.850809-.439352C.822914-.348692 .781071-.174346 .781071-.153425C.781071 0 .9066 .069738 1.018182 .069738C1.143711 .069738 1.255293-.020922 1.290162-.083686S1.380822-.369614 1.415691-.516065C1.45056-.648568 1.527273-.969365 1.569116-1.143711C1.610959-1.297136 1.652802-1.45056 1.687671-1.610959C1.764384-1.896887 1.778331-1.952677 1.980573-2.238605C2.175841-2.517559 2.503611-2.880199 3.02665-2.880199C3.431133-2.880199 3.438107-2.524533 3.438107-2.39203C3.438107-1.973599 3.138232-1.199502 3.02665-.9066C2.949938-.711333 2.922042-.648568 2.922042-.530012C2.922042-.160399 3.228892 .069738 3.584558 .069738C4.281943 .069738 4.588792-.892653 4.588792-.99726C4.588792-1.08792 4.498132-1.08792 4.47721-1.08792C4.379577-1.08792 4.372603-1.046077 4.344707-.969365C4.184309-.411457 3.884433-.125529 3.605479-.125529C3.459029-.125529 3.431133-.223163 3.431133-.369614C3.431133-.530012 3.466002-.620672 3.591532-.934496C3.675218-1.150685 3.961146-1.889913 3.961146-2.280448C3.961146-2.956912 3.424159-3.075467 3.054545-3.075467C2.475716-3.075467 2.085181-2.719801 1.875965-2.440847C1.827148-2.922042 1.415691-3.075467 1.129763-3.075467C.829888-3.075467 .669489-2.859278 .578829-2.698879C.425405-2.440847 .327771-2.043337 .327771-2.008468C.327771-1.917808 .425405-1.917808 .446326-1.917808C.54396-1.917808 .550934-1.93873 .599751-2.127024C.704359-2.538481 .836862-2.880199 1.108842-2.880199C1.290162-2.880199 1.338979-2.726775 1.338979-2.538481C1.338979-2.405978 1.276214-2.147945 1.227397-1.959651S1.108842-1.48543 1.073973-1.332005L.850809-.439352Z'/>
<path id='g3-116' d='M1.715567-2.75467H2.426899C2.559402-2.75467 2.650062-2.75467 2.650062-2.908095C2.650062-3.005729 2.559402-3.005729 2.440847-3.005729H1.778331L2.036364-4.037858C2.043337-4.072727 2.057285-4.107597 2.057285-4.135492C2.057285-4.261021 1.959651-4.358655 1.820174-4.358655C1.645828-4.358655 1.54122-4.2401 1.492403-4.05878C1.443587-3.884433 1.534247-4.219178 1.227397-3.005729H.516065C.383562-3.005729 .292902-3.005729 .292902-2.852304C.292902-2.75467 .376588-2.75467 .502117-2.75467H1.164633L.753176-1.108842C.711333-.934496 .648568-.683437 .648568-.592777C.648568-.18132 .99726 .069738 1.39477 .069738C2.168867 .069738 2.608219-.9066 2.608219-.99726S2.517559-1.08792 2.496638-1.08792C2.412951-1.08792 2.405978-1.073973 2.350187-.955417C2.154919-.516065 1.799253-.125529 1.415691-.125529C1.26924-.125529 1.171606-.216189 1.171606-.467248C1.171606-.536986 1.199502-.683437 1.21345-.753176L1.715567-2.75467Z'/>
<path id='g0-104' d='M3.267746-7.0934C3.317559-7.202989 3.317559-7.222914 3.317559-7.272727C3.317559-7.382316 3.227895-7.47198 3.118306-7.47198C3.028643-7.47198 2.958904-7.422167 2.889166-7.242839L1.145704-2.669988C1.125778-2.610212 1.09589-2.550436 1.09589-2.49066C1.09589-2.460772 1.09589-2.440847 1.145704-2.321295L2.889166 2.251557C2.929016 2.361146 2.978829 2.49066 3.118306 2.49066C3.227895 2.49066 3.317559 2.400996 3.317559 2.291407C3.317559 2.261519 3.317559 2.241594 3.267746 2.132005L1.504359-2.49066L3.267746-7.0934Z'/>
<path id='g0-105' d='M2.719801-2.321295C2.769614-2.440847 2.769614-2.460772 2.769614-2.49066S2.769614-2.540473 2.719801-2.660025L.976339-7.242839C.916563-7.412204 .856787-7.47198 .747198-7.47198S.547945-7.382316 .547945-7.272727C.547945-7.242839 .547945-7.222914 .597758-7.113325L2.361146-2.49066L.597758 2.11208C.547945 2.221669 .547945 2.241594 .547945 2.291407C.547945 2.400996 .637609 2.49066 .747198 2.49066C.876712 2.49066 .916563 2.391034 .956413 2.291407L2.719801-2.321295Z'/>
<path id='g0-106' d='M1.58406-7.113325C1.58406-7.292653 1.58406-7.47198 1.384807-7.47198S1.185554-7.292653 1.185554-7.113325V2.132005C1.185554 2.311333 1.185554 2.49066 1.384807 2.49066S1.58406 2.311333 1.58406 2.132005V-7.113325Z'/>
</defs>
<g id='page1' transform='matrix(1.5 0 0 1.5 0 0)'>
<use x='111.050024' y='29.299444' xlink:href='#g0-104'/>
<use x='114.924395' y='29.299444' xlink:href='#g4-10'/>
<use x='122.119656' y='29.299444' xlink:href='#g0-106'/>
<use x='124.887064' y='29.299444' xlink:href='#g2-84'/>
<use x='132.092707' y='29.299444' xlink:href='#g4-40'/>
<use x='135.967081' y='29.299444' xlink:href='#g2-30'/>
<use x='141.903168' y='30.793825' xlink:href='#g5-49'/>
<use x='146.372537' y='29.299444' xlink:href='#g2-58'/>
<use x='149.139946' y='29.299444' xlink:href='#g2-58'/>
<use x='151.907354' y='29.299444' xlink:href='#g2-58'/>
<use x='154.674763' y='29.299444' xlink:href='#g2-30'/>
<use x='160.61085' y='30.793825' xlink:href='#g3-110'/>
<use x='166.033842' y='29.299444' xlink:href='#g4-41'/>
<use x='169.908216' y='29.299444' xlink:href='#g0-106'/>
<use x='172.675625' y='29.299444' xlink:href='#g4-10'/>
<use x='179.870885' y='29.299444' xlink:href='#g0-105'/>
<use x='186.512538' y='29.299444' xlink:href='#g4-61'/>
<use x='197.028618' y='29.299444' xlink:href='#g2-78'/>
<use x='205.033325' y='30.793825' xlink:href='#g3-105'/>
<use x='208.350172' y='29.299444' xlink:href='#g2-78'/>
<use x='216.354879' y='30.793825' xlink:href='#g3-102'/>
<use x='223.179993' y='29.299444' xlink:href='#g0-104'/>
<use x='227.054365' y='29.299444' xlink:href='#g4-48'/>
<use x='232.035704' y='29.299444' xlink:href='#g0-106'/>
<use x='234.803113' y='29.299444' xlink:href='#g2-84'/>
<use x='242.008756' y='29.299444' xlink:href='#g2-85'/>
<use x='248.811021' y='30.793825' xlink:href='#g1-49'/>
<use x='256.753495' y='30.793825' xlink:href='#g3-59'/>
<use x='259.119637' y='30.793825' xlink:href='#g3-116'/>
<use x='262.129208' y='31.790089' xlink:href='#g6-48'/>
<use x='266.515549' y='29.299444' xlink:href='#g2-85'/>
<use x='273.317814' y='30.793825' xlink:href='#g3-116'/>
<use x='276.327385' y='31.790089' xlink:href='#g6-48'/>
<use x='280.215637' y='30.793825' xlink:href='#g3-116'/>
<use x='283.225207' y='31.790089' xlink:href='#g6-49'/>
<use x='287.611564' y='29.299444' xlink:href='#g2-30'/>
<use x='293.547651' y='30.793825' xlink:href='#g5-48'/>
<use x='298.017021' y='29.299444' xlink:href='#g4-40'/>
<use x='301.891394' y='29.299444' xlink:href='#g2-120'/>
<use x='307.585326' y='30.793825' xlink:href='#g5-49'/>
<use x='312.054696' y='29.299444' xlink:href='#g4-41'/>
<use x='315.92907' y='29.299444' xlink:href='#g2-85'/>
<use x='322.731335' y='30.793825' xlink:href='#g3-116'/>
<use x='325.740906' y='31.790089' xlink:href='#g6-49'/>
<use x='329.629157' y='30.793825' xlink:href='#g3-116'/>
<use x='332.638728' y='31.790089' xlink:href='#g6-48'/>
<use x='337.025085' y='29.299444' xlink:href='#g2-58'/>
<use x='339.792493' y='29.299444' xlink:href='#g2-58'/>
<use x='342.559902' y='29.299444' xlink:href='#g2-58'/>
<use x='345.32731' y='29.299444' xlink:href='#g0-106'/>
<use x='348.094719' y='29.299444' xlink:href='#g4-48'/>
<use x='353.076058' y='29.299444' xlink:href='#g0-105'/>
</g>
</svg>