<?xml version='1.0' encoding='UTF-8'?>
<!-- This file was generated by dvisvgm 3.2 -->
<svg version='1.1' xmlns='http://www.w3.org/2000/svg' xmlns:xlink='http://www.w3.org/1999/xlink' width='77.75855pt' height='12.542443pt' viewBox='311.771493 33.742441 77.75855 12.542443'>
<defs>
<path id='g2-58' d='M1.912827-3.765878C1.912827-4.054795 1.673724-4.293898 1.384807-4.293898S.856787-4.054795 .856787-3.765878S1.09589-3.237858 1.384807-3.237858S1.912827-3.476961 1.912827-3.765878ZM1.912827-.52802C1.912827-.816936 1.673724-1.05604 1.384807-1.05604S.856787-.816936 .856787-.52802S1.09589 0 1.384807 0S1.912827-.239103 1.912827-.52802Z'/>
<path id='g2-61' d='M6.844334-3.257783C6.993773-3.257783 7.183064-3.257783 7.183064-3.457036S6.993773-3.656289 6.854296-3.656289H.886675C.747198-3.656289 .557908-3.656289 .557908-3.457036S.747198-3.257783 .896638-3.257783H6.844334ZM6.854296-1.325031C6.993773-1.325031 7.183064-1.325031 7.183064-1.524284S6.993773-1.723537 6.844334-1.723537H.896638C.747198-1.723537 .557908-1.723537 .557908-1.524284S.747198-1.325031 .886675-1.325031H6.854296Z'/>
<path id='g0-101' d='M.9066-1.597011H3.110336C3.228892-1.597011 3.263761-1.638854 3.263761-1.743462C3.263761-2.496638 2.782565-3.110336 1.903861-3.110336C1.060025-3.110336 .27198-2.48269 .27198-1.527273C.27198-.578829 1.115816 .062765 1.973599 .062765C2.48269 .062765 3.103362-.223163 3.242839-.767123C3.249813-.788045 3.256787-.81594 3.256787-.836862V-.857783C3.249813-.913574 3.200996-.941469 3.145205-.941469C3.005729-.941469 2.977833-.697385 2.887173-.585803C2.684932-.313823 2.350187-.160399 2.008468-.160399H1.987547C1.708593-.160399 1.401743-.313823 1.234371-.502117C.955417-.795019 .9066-1.206476 .9066-1.597011ZM.913574-1.778331C.990286-2.308344 1.220423-2.908095 1.896887-2.908095C2.147945-2.908095 2.350187-2.817435 2.545455-2.594271C2.712827-2.371108 2.775592-2.057285 2.775592-1.778331H.913574Z'/>
<path id='g0-110' d='M.369614-2.998755V-2.747696H.467248C.683437-2.747696 .892653-2.726775 .892653-2.399004V-.54396C.892653-.265006 .72528-.258032 .369614-.258032V-.006974H1.973599V-.258032H1.827148C1.624907-.258032 1.45056-.278954 1.45056-.509091V-1.806227C1.45056-2.294396 1.771357-2.880199 2.510585-2.880199C2.915068-2.880199 3.040598-2.552428 3.040598-2.127024V-.516065C3.040598-.27198 2.838356-.258032 2.615193-.258032H2.517559V-.006974H4.121544V-.258032H3.975093C3.7868-.258032 3.598506-.278954 3.598506-.523039V-2.043337C3.598506-2.252553 3.591532-2.468742 3.47995-2.657036C3.305604-2.984807 2.915068-3.075467 2.57335-3.075467C2.127024-3.075467 1.569116-2.838356 1.408717-2.385056L1.401743-3.075467L1.046077-3.047572L.369614-2.998755Z'/>
<path id='g0-119' d='M.209215-3.005729V-2.75467H.306849C.676463-2.75467 .676463-2.608219 .892653-2.092154C1.164633-1.45056 1.387796-.781071 1.66675-.132503C1.701619-.034869 1.736488 .062765 1.875965 .062765C2.02939 .062765 2.064259-.09066 2.099128-.195268C2.315318-.697385 2.496638-1.206476 2.698879-1.708593C2.747696-1.820174 2.796513-1.931756 2.831382-2.050311H2.84533C2.880199-1.931756 2.929016-1.820174 2.977833-1.708593C3.180075-1.206476 3.368369-.697385 3.577584-.195268C3.612453-.09066 3.647323 .062765 3.793773 .062765C3.947198 .062765 3.96812-.027895 4.009963-.125529L4.219178-.648568C4.414446-1.157659 4.616687-1.659776 4.818929-2.168867C4.923537-2.433873 5.042092-2.75467 5.467497-2.75467V-3.005729L4.958406-2.977833L4.281943-3.005729V-2.75467C4.442341-2.75467 4.623661-2.66401 4.644583-2.48269C4.644583-2.273474 4.498132-2.008468 4.414446-1.799253C4.302864-1.534247 4.198257-1.262267 4.093649-.99726C4.037858-.850809 3.975093-.711333 3.926276-.564882C3.710087-1.060025 3.535741-1.555168 3.333499-2.050311L3.187049-2.426899C3.166127-2.475716 3.145205-2.531507 3.145205-2.587298V-2.615193C3.187049-2.75467 3.38929-2.75467 3.514819-2.75467V-3.005729H2.140971V-2.75467H2.259527C2.419925-2.75467 2.57335-2.733748 2.66401-2.503611C2.677958-2.468742 2.698879-2.426899 2.698879-2.385056V-2.371108C2.698879-2.322291 2.670984-2.266501 2.650062-2.231631C2.601245-2.113076 2.559402-2.001494 2.510585-1.882939L2.196762-1.08792C2.140971-.948443 2.092154-.801993 2.02939-.669489C1.799253-1.255293 1.57609-1.841096 1.332005-2.426899C1.311083-2.475716 1.290162-2.524533 1.290162-2.580324V-2.608219C1.325031-2.747696 1.506351-2.75467 1.624907-2.75467H1.659776V-3.005729H.209215Z'/>
<path id='g1-72' d='M7.601494-6.03736C7.691158-6.396015 7.711083-6.495641 8.438356-6.495641C8.697385-6.495641 8.777086-6.495641 8.777086-6.694894C8.777086-6.804483 8.667497-6.804483 8.637609-6.804483C8.358655-6.804483 7.641345-6.774595 7.362391-6.774595C7.073474-6.774595 6.366127-6.804483 6.07721-6.804483C5.997509-6.804483 5.88792-6.804483 5.88792-6.60523C5.88792-6.495641 5.977584-6.495641 6.166874-6.495641C6.1868-6.495641 6.37609-6.495641 6.545455-6.475716C6.724782-6.455791 6.814446-6.445828 6.814446-6.316314C6.814446-6.276463 6.804483-6.256538 6.774595-6.127024L6.176837-3.696139H3.138232L3.726027-6.03736C3.815691-6.396015 3.845579-6.495641 4.562889-6.495641C4.821918-6.495641 4.901619-6.495641 4.901619-6.694894C4.901619-6.804483 4.79203-6.804483 4.762142-6.804483C4.483188-6.804483 3.765878-6.774595 3.486924-6.774595C3.198007-6.774595 2.49066-6.804483 2.201743-6.804483C2.122042-6.804483 2.012453-6.804483 2.012453-6.60523C2.012453-6.495641 2.102117-6.495641 2.291407-6.495641C2.311333-6.495641 2.500623-6.495641 2.669988-6.475716C2.849315-6.455791 2.938979-6.445828 2.938979-6.316314C2.938979-6.276463 2.929016-6.246575 2.899128-6.127024L1.564134-.777086C1.464508-.388543 1.444583-.308842 .657534-.308842C.478207-.308842 .388543-.308842 .388543-.109589C.388543 0 .508095 0 .52802 0C.806974 0 1.514321-.029888 1.793275-.029888C2.002491-.029888 2.221669-.019925 2.430884-.019925C2.650062-.019925 2.86924 0 3.078456 0C3.158157 0 3.277709 0 3.277709-.199253C3.277709-.308842 3.188045-.308842 2.998755-.308842C2.630137-.308842 2.351183-.308842 2.351183-.488169C2.351183-.547945 2.371108-.597758 2.381071-.657534L3.058531-3.387298H6.097136C5.678705-1.733499 5.449564-.787049 5.409714-.637609C5.310087-.318804 5.120797-.308842 4.503113-.308842C4.353674-.308842 4.26401-.308842 4.26401-.109589C4.26401 0 4.383562 0 4.403487 0C4.682441 0 5.389788-.029888 5.668742-.029888C5.877958-.029888 6.097136-.019925 6.306351-.019925C6.525529-.019925 6.744707 0 6.953923 0C7.033624 0 7.153176 0 7.153176-.199253C7.153176-.308842 7.063512-.308842 6.874222-.308842C6.505604-.308842 6.22665-.308842 6.22665-.488169C6.22665-.547945 6.246575-.597758 6.256538-.657534L7.601494-6.03736Z'/>
</defs>
<g id='page1' transform='matrix(1.5 0 0 1.5 0 0)'>
<use x='207.459119' y='29.299444' xlink:href='#g1-72'/>
<use x='215.740575' y='30.793825' xlink:href='#g0-110'/>
<use x='220.139667' y='30.793825' xlink:href='#g0-101'/>
<use x='223.681088' y='30.793825' xlink:href='#g0-119'/>
<use x='232.632157' y='29.299444' xlink:href='#g2-61'/>
<use x='240.380905' y='29.299444' xlink:href='#g2-58'/>
<use x='245.915646' y='29.299444' xlink:href='#g1-72'/>
<use x='257.773868' y='29.299444' xlink:href='#g2-58'/>
</g>
</svg>