<?xml version='1.0' encoding='UTF-8'?>
<!-- This file was generated by dvisvgm 3.2 -->
<svg version='1.1' xmlns='http://www.w3.org/2000/svg' xmlns:xlink='http://www.w3.org/1999/xlink' width='522.969677pt' height='43.059065pt' viewBox='89.42665 28.895944 522.969677 43.059065'>
<defs>
<path id='g0-105' d='M.411457-2.998755V-2.747696H.439352C.683437-2.747696 .9066-2.740722 .9066-2.399004V-.54396C.9066-.265006 .739228-.258032 .383562-.258032V-.006974H1.910834V-.258032H1.764384C1.597011-.258032 1.436613-.278954 1.436613-.495143V-3.075467L1.17858-3.054545L.411457-2.998755ZM1.004234-4.6934C.801993-4.672478 .662516-4.484184 .662516-4.29589C.662516-4.086675 .829888-3.898381 1.060025-3.898381S1.464508-4.086675 1.464508-4.302864C1.464508-4.51208 1.297136-4.700374 1.066999-4.700374C1.046077-4.700374 1.025156-4.700374 1.004234-4.6934Z'/>
<path id='g0-110' d='M.369614-2.998755V-2.747696H.467248C.683437-2.747696 .892653-2.726775 .892653-2.399004V-.54396C.892653-.265006 .72528-.258032 .369614-.258032V-.006974H1.973599V-.258032H1.827148C1.624907-.258032 1.45056-.278954 1.45056-.509091V-1.806227C1.45056-2.294396 1.771357-2.880199 2.510585-2.880199C2.915068-2.880199 3.040598-2.552428 3.040598-2.127024V-.516065C3.040598-.27198 2.838356-.258032 2.615193-.258032H2.517559V-.006974H4.121544V-.258032H3.975093C3.7868-.258032 3.598506-.278954 3.598506-.523039V-2.043337C3.598506-2.252553 3.591532-2.468742 3.47995-2.657036C3.305604-2.984807 2.915068-3.075467 2.57335-3.075467C2.127024-3.075467 1.569116-2.838356 1.408717-2.385056L1.401743-3.075467L1.046077-3.047572L.369614-2.998755Z'/>
<path id='g0-116' d='M1.164633-4.29589C1.164633-3.744956 .899626-2.949938 .195268-2.949938V-2.75467H.843836V-.969365C.843836-.746202 .857783-.523039 .976339-.334745C1.157659-.048817 1.506351 .062765 1.827148 .062765C2.078207 .062765 2.30137-.048817 2.447821-.258032C2.601245-.481196 2.622167-.739228 2.622167-1.004234V-1.26924H2.385056C2.385056-1.171606 2.39203-1.073973 2.39203-.976339C2.39203-.690411 2.322291-.160399 1.896887-.160399C1.506351-.160399 1.401743-.557908 1.401743-.920548V-2.75467H2.489664V-3.005729H1.401743V-4.29589H1.164633Z'/>
<path id='g2-0' d='M6.56538-2.291407C6.734745-2.291407 6.914072-2.291407 6.914072-2.49066S6.734745-2.689913 6.56538-2.689913H1.175592C1.006227-2.689913 .826899-2.689913 .826899-2.49066S1.006227-2.291407 1.175592-2.291407H6.56538Z'/>
<path id='g2-76' d='M1.793275-.926526C2.331258-1.763387 2.500623-2.400996 2.630137-2.929016C2.978829-4.303861 3.35741-5.499377 3.975093-6.1868C4.094645-6.316314 4.174346-6.405978 4.493151-6.405978C5.180573-6.405978 5.200498-5.718555 5.200498-5.579078C5.200498-5.399751 5.150685-5.260274 5.150685-5.210461C5.150685-5.140722 5.210461-5.140722 5.220423-5.140722C5.379826-5.140722 5.648817-5.250311 5.897883-5.429639C6.07721-5.569116 6.166874-5.668742 6.166874-6.07721C6.166874-6.615193 5.88792-7.023661 5.330012-7.023661C5.011208-7.023661 4.134496-6.94396 3.158157-5.957659C2.361146-5.140722 1.892902-3.347447 1.703611-2.600249C1.524284-1.912827 1.444583-1.603985 1.145704-1.006227C1.075965-.886675 .816936-.448319 .67746-.318804C.408468-.069738 .308842 .109589 .308842 .159402C.308842 .179328 .328767 .219178 .398506 .219178C.438356 .219178 .647572 .179328 .9066 .009963C1.075965-.089664 1.09589-.109589 1.325031-.348692C1.823163-.33873 2.171856-.249066 2.799502-.069738C3.307597 .069738 3.815691 .219178 4.323786 .219178C5.13076 .219178 5.947696-.388543 6.266501-.826899C6.465753-1.09589 6.525529-1.344956 6.525529-1.374844C6.525529-1.444583 6.465753-1.444583 6.455791-1.444583C6.296389-1.444583 6.057285-1.334994 5.88792-1.215442C5.618929-1.046077 5.599004-.986301 5.539228-.816936C5.489415-.657534 5.429639-.577833 5.389788-.518057C5.310087-.398506 5.300125-.398506 5.150685-.398506C4.672478-.398506 4.174346-.547945 3.516812-.727273C3.237858-.806974 2.689913-.966376 2.191781-.966376C2.062267-.966376 1.92279-.956413 1.793275-.926526Z'/>
<path id='g2-104' d='M3.267746-7.0934C3.317559-7.202989 3.317559-7.222914 3.317559-7.272727C3.317559-7.382316 3.227895-7.47198 3.118306-7.47198C3.028643-7.47198 2.958904-7.422167 2.889166-7.242839L1.145704-2.669988C1.125778-2.610212 1.09589-2.550436 1.09589-2.49066C1.09589-2.460772 1.09589-2.440847 1.145704-2.321295L2.889166 2.251557C2.929016 2.361146 2.978829 2.49066 3.118306 2.49066C3.227895 2.49066 3.317559 2.400996 3.317559 2.291407C3.317559 2.261519 3.317559 2.241594 3.267746 2.132005L1.504359-2.49066L3.267746-7.0934Z'/>
<path id='g2-105' d='M2.719801-2.321295C2.769614-2.440847 2.769614-2.460772 2.769614-2.49066S2.769614-2.540473 2.719801-2.660025L.976339-7.242839C.916563-7.412204 .856787-7.47198 .747198-7.47198S.547945-7.382316 .547945-7.272727C.547945-7.242839 .547945-7.222914 .597758-7.113325L2.361146-2.49066L.597758 2.11208C.547945 2.221669 .547945 2.241594 .547945 2.291407C.547945 2.400996 .637609 2.49066 .747198 2.49066C.876712 2.49066 .916563 2.391034 .956413 2.291407L2.719801-2.321295Z'/>
<path id='g4-14' d='M2.630137-4.353674C1.384807-4.054795 .418431-2.759651 .418431-1.554172C.418431-.597758 1.05604 .119552 1.992528 .119552C3.158157 .119552 3.985056-1.444583 3.985056-2.819427C3.985056-3.726027 3.58655-4.224159 3.247821-4.672478C2.889166-5.120797 2.30137-5.867995 2.30137-6.306351C2.30137-6.525529 2.500623-6.764633 2.849315-6.764633C3.148194-6.764633 3.347447-6.635118 3.556663-6.495641C3.755915-6.37609 3.955168-6.246575 4.104608-6.246575C4.353674-6.246575 4.503113-6.485679 4.503113-6.645081C4.503113-6.864259 4.343711-6.894147 3.985056-6.973848C3.466999-7.083437 3.327522-7.083437 3.16812-7.083437C2.391034-7.083437 2.032379-6.655044 2.032379-6.057285C2.032379-5.519303 2.321295-4.961395 2.630137-4.353674ZM2.749689-4.134496C2.998755-3.676214 3.297634-3.138232 3.297634-2.420922C3.297634-1.763387 2.919054-.099626 1.992528-.099626C1.444583-.099626 1.036115-.518057 1.036115-1.275218C1.036115-1.902864 1.404732-3.775841 2.749689-4.134496Z'/>
<path id='g4-30' d='M4.353674-6.674969C4.353674-6.694894 4.383562-6.804483 4.383562-6.814446S4.383562-6.914072 4.26401-6.914072C4.164384-6.914072 4.154421-6.884184 4.11457-6.714819L3.536737-4.41345C1.952677-4.363636 .488169-3.038605 .488169-1.683686C.488169-.737235 1.185554 .049813 2.400996 .119552C2.321295 .428394 2.251557 .747198 2.171856 1.05604C2.052304 1.524284 1.952677 1.902864 1.952677 1.932752C1.952677 2.032379 2.022416 2.042341 2.072229 2.042341S2.141968 2.032379 2.171856 2.002491C2.191781 1.982565 2.251557 1.743462 2.281445 1.603985L2.660025 .119552C4.26401 .069738 5.708593-1.275218 5.708593-2.610212C5.708593-3.39726 5.180573-4.313823 3.795766-4.41345L4.353674-6.674969ZM2.450809-.099626C1.853051-.129514 1.135741-.478207 1.135741-1.474471C1.135741-2.669988 1.992528-4.064757 3.476961-4.194271L2.450809-.099626ZM3.73599-4.194271C4.493151-4.154421 5.061021-3.696139 5.061021-2.819427C5.061021-1.643836 4.204234-.219178 2.709838-.099626L3.73599-4.194271Z'/>
<path id='g4-58' d='M1.912827-.52802C1.912827-.816936 1.673724-1.05604 1.384807-1.05604S.856787-.816936 .856787-.52802S1.09589 0 1.384807 0S1.912827-.239103 1.912827-.52802Z'/>
<path id='g4-105' d='M2.82939-6.22665C2.82939-6.425903 2.689913-6.585305 2.460772-6.585305C2.191781-6.585305 1.92279-6.326276 1.92279-6.057285C1.92279-5.867995 2.062267-5.69863 2.30137-5.69863C2.530511-5.69863 2.82939-5.927771 2.82939-6.22665ZM2.072229-2.480697C2.191781-2.769614 2.191781-2.789539 2.291407-3.058531C2.371108-3.257783 2.420922-3.39726 2.420922-3.58655C2.420922-4.034869 2.102117-4.403487 1.603985-4.403487C.667497-4.403487 .288917-2.958904 .288917-2.86924C.288917-2.769614 .388543-2.769614 .408468-2.769614C.508095-2.769614 .518057-2.789539 .56787-2.948941C.836862-3.88543 1.235367-4.184309 1.574097-4.184309C1.653798-4.184309 1.823163-4.184309 1.823163-3.865504C1.823163-3.656289 1.753425-3.447073 1.713574-3.347447C1.633873-3.088418 1.185554-1.932752 1.026152-1.504359C.926526-1.24533 .797011-.916563 .797011-.707347C.797011-.239103 1.135741 .109589 1.613948 .109589C2.550436 .109589 2.919054-1.334994 2.919054-1.424658C2.919054-1.524284 2.82939-1.524284 2.799502-1.524284C2.699875-1.524284 2.699875-1.494396 2.650062-1.344956C2.470735-.71731 2.141968-.109589 1.633873-.109589C1.464508-.109589 1.39477-.209215 1.39477-.438356C1.39477-.687422 1.454545-.826899 1.683686-1.43462L2.072229-2.480697Z'/>
<path id='g4-109' d='M.876712-.587796C.846824-.438356 .787049-.209215 .787049-.159402C.787049 .019925 .926526 .109589 1.075965 .109589C1.195517 .109589 1.374844 .029888 1.444583-.169365C1.454545-.18929 1.574097-.657534 1.633873-.9066L1.853051-1.803238C1.912827-2.022416 1.972603-2.241594 2.022416-2.470735C2.062267-2.6401 2.141968-2.929016 2.15193-2.968867C2.30137-3.277709 2.82939-4.184309 3.775841-4.184309C4.224159-4.184309 4.313823-3.815691 4.313823-3.486924C4.313823-3.237858 4.244085-2.958904 4.164384-2.660025L3.88543-1.504359L3.686177-.747198C3.646326-.547945 3.556663-.209215 3.556663-.159402C3.556663 .019925 3.696139 .109589 3.845579 .109589C4.154421 .109589 4.214197-.139477 4.293898-.458281C4.433375-1.016189 4.801993-2.470735 4.891656-2.859278C4.921544-2.988792 5.449564-4.184309 6.535492-4.184309C6.963885-4.184309 7.073474-3.845579 7.073474-3.486924C7.073474-2.919054 6.655044-1.783313 6.455791-1.255293C6.366127-1.016189 6.326276-.9066 6.326276-.707347C6.326276-.239103 6.674969 .109589 7.143213 .109589C8.079701 .109589 8.448319-1.344956 8.448319-1.424658C8.448319-1.524284 8.358655-1.524284 8.328767-1.524284C8.229141-1.524284 8.229141-1.494396 8.179328-1.344956C8.029888-.816936 7.711083-.109589 7.163138-.109589C6.993773-.109589 6.924035-.209215 6.924035-.438356C6.924035-.687422 7.013699-.926526 7.103362-1.145704C7.292653-1.663761 7.711083-2.769614 7.711083-3.337484C7.711083-3.985056 7.312578-4.403487 6.56538-4.403487S5.310087-3.965131 4.941469-3.437111C4.931507-3.566625 4.901619-3.905355 4.622665-4.144458C4.373599-4.353674 4.054795-4.403487 3.805729-4.403487C2.909091-4.403487 2.420922-3.765878 2.251557-3.536737C2.201743-4.104608 1.783313-4.403487 1.334994-4.403487C.876712-4.403487 .687422-4.014944 .597758-3.835616C.418431-3.486924 .288917-2.899128 .288917-2.86924C.288917-2.769614 .388543-2.769614 .408468-2.769614C.508095-2.769614 .518057-2.779577 .577833-2.998755C.747198-3.706102 .946451-4.184309 1.305106-4.184309C1.464508-4.184309 1.613948-4.104608 1.613948-3.726027C1.613948-3.516812 1.58406-3.407223 1.454545-2.889166L.876712-.587796Z'/>
<path id='g4-120' d='M3.327522-3.008717C3.387298-3.267746 3.616438-4.184309 4.313823-4.184309C4.363636-4.184309 4.60274-4.184309 4.811955-4.054795C4.533001-4.004981 4.333748-3.755915 4.333748-3.516812C4.333748-3.35741 4.443337-3.16812 4.712329-3.16812C4.931507-3.16812 5.250311-3.347447 5.250311-3.745953C5.250311-4.26401 4.662516-4.403487 4.323786-4.403487C3.745953-4.403487 3.39726-3.875467 3.277709-3.646326C3.028643-4.303861 2.49066-4.403487 2.201743-4.403487C1.165629-4.403487 .597758-3.118306 .597758-2.86924C.597758-2.769614 .697385-2.769614 .71731-2.769614C.797011-2.769614 .826899-2.789539 .846824-2.879203C1.185554-3.935243 1.843088-4.184309 2.181818-4.184309C2.371108-4.184309 2.719801-4.094645 2.719801-3.516812C2.719801-3.20797 2.550436-2.540473 2.181818-1.145704C2.022416-.52802 1.673724-.109589 1.235367-.109589C1.175592-.109589 .946451-.109589 .737235-.239103C.986301-.288917 1.205479-.498132 1.205479-.777086C1.205479-1.046077 .986301-1.125778 .836862-1.125778C.537983-1.125778 .288917-.86675 .288917-.547945C.288917-.089664 .787049 .109589 1.225405 .109589C1.882939 .109589 2.241594-.587796 2.271482-.647572C2.391034-.278954 2.749689 .109589 3.347447 .109589C4.373599 .109589 4.941469-1.175592 4.941469-1.424658C4.941469-1.524284 4.851806-1.524284 4.821918-1.524284C4.732254-1.524284 4.712329-1.484433 4.692403-1.414695C4.363636-.348692 3.686177-.109589 3.367372-.109589C2.978829-.109589 2.819427-.428394 2.819427-.767123C2.819427-.986301 2.879203-1.205479 2.988792-1.643836L3.327522-3.008717Z'/>
<path id='g7-40' d='M2.475716-5.230386C1.150685-4.29589 .801993-2.817435 .801993-1.750436C.801993-.767123 1.094894 .760149 2.475716 1.736488C2.531507 1.736488 2.615193 1.736488 2.615193 1.652802C2.615193 1.610959 2.594271 1.597011 2.545455 1.548194C1.617933 .711333 1.276214-.474222 1.276214-1.743462C1.276214-3.626401 1.994521-4.546949 2.566376-5.063014C2.594271-5.090909 2.615193-5.111831 2.615193-5.1467C2.615193-5.230386 2.531507-5.230386 2.475716-5.230386Z'/>
<path id='g7-41' d='M.627646-5.230386C.578829-5.230386 .495143-5.230386 .495143-5.1467C.495143-5.111831 .516065-5.090909 .557908-5.042092C1.157659-4.491158 1.827148-3.549689 1.827148-1.750436C1.827148-.292902 1.373848 .808966 .620672 1.492403C.502117 1.610959 .495143 1.617933 .495143 1.652802S.516065 1.736488 .585803 1.736488C.669489 1.736488 1.332005 1.276214 1.792279 .404483C2.099128-.174346 2.30137-.927522 2.30137-1.743462C2.30137-2.726775 2.008468-4.254047 .627646-5.230386Z'/>
<path id='g7-43' d='M3.228892-1.57609H5.362889C5.453549-1.57609 5.620922-1.57609 5.620922-1.743462C5.620922-1.917808 5.460523-1.917808 5.362889-1.917808H3.228892V-4.05878C3.228892-4.14944 3.228892-4.316812 3.061519-4.316812C2.887173-4.316812 2.887173-4.156413 2.887173-4.05878V-1.917808H.746202C.655542-1.917808 .488169-1.917808 .488169-1.750436C.488169-1.57609 .648568-1.57609 .746202-1.57609H2.887173V.564882C2.887173 .655542 2.887173 .822914 3.054545 .822914C3.228892 .822914 3.228892 .662516 3.228892 .564882V-1.57609Z'/>
<path id='g7-49' d='M2.336239-4.435367C2.336239-4.623661 2.322291-4.630635 2.127024-4.630635C1.680697-4.191283 1.046077-4.184309 .760149-4.184309V-3.93325C.927522-3.93325 1.387796-3.93325 1.771357-4.128518V-.571856C1.771357-.341719 1.771357-.251059 1.073973-.251059H.808966V0C.934496-.006974 1.792279-.027895 2.050311-.027895C2.266501-.027895 3.145205-.006974 3.29863 0V-.251059H3.033624C2.336239-.251059 2.336239-.341719 2.336239-.571856V-4.435367Z'/>
<path id='g7-50' d='M3.521793-1.26924H3.284682C3.263761-1.115816 3.194022-.704359 3.103362-.63462C3.047572-.592777 2.510585-.592777 2.412951-.592777H1.129763C1.862017-1.241345 2.106102-1.436613 2.524533-1.764384C3.040598-2.175841 3.521793-2.608219 3.521793-3.270735C3.521793-4.11457 2.782565-4.630635 1.889913-4.630635C1.025156-4.630635 .439352-4.02391 .439352-3.382316C.439352-3.02665 .739228-2.991781 .808966-2.991781C.976339-2.991781 1.17858-3.110336 1.17858-3.361395C1.17858-3.486924 1.129763-3.731009 .767123-3.731009C.983313-4.226152 1.457534-4.379577 1.785305-4.379577C2.48269-4.379577 2.84533-3.835616 2.84533-3.270735C2.84533-2.66401 2.412951-2.182814 2.189788-1.931756L.509091-.27198C.439352-.209215 .439352-.195268 .439352 0H3.312578L3.521793-1.26924Z'/>
<path id='g7-52' d='M3.689166-1.143711V-1.39477H2.915068V-4.505106C2.915068-4.651557 2.915068-4.700374 2.761644-4.700374C2.677958-4.700374 2.650062-4.700374 2.580324-4.60274L.27198-1.39477V-1.143711H2.322291V-.571856C2.322291-.334745 2.322291-.251059 1.75741-.251059H1.569116V0C1.917808-.013948 2.364134-.027895 2.615193-.027895C2.873225-.027895 3.319552-.013948 3.668244 0V-.251059H3.47995C2.915068-.251059 2.915068-.334745 2.915068-.571856V-1.143711H3.689166ZM2.371108-3.947198V-1.39477H.530012L2.371108-3.947198Z'/>
<path id='g7-61' d='M5.355915-2.343213C5.460523-2.343213 5.620922-2.343213 5.620922-2.517559C5.620922-2.684932 5.453549-2.684932 5.362889-2.684932H.746202C.655542-2.684932 .488169-2.684932 .488169-2.517559C.488169-2.343213 .648568-2.343213 .753176-2.343213H5.355915ZM5.362889-.808966C5.453549-.808966 5.620922-.808966 5.620922-.976339C5.620922-1.150685 5.460523-1.150685 5.355915-1.150685H.753176C.648568-1.150685 .488169-1.150685 .488169-.976339C.488169-.808966 .655542-.808966 .746202-.808966H5.362889Z'/>
<path id='g5-106' d='M3.061519-4.358655C3.061519-4.47721 2.970859-4.623661 2.782565-4.623661C2.580324-4.623661 2.39203-4.428394 2.39203-4.2401C2.39203-4.128518 2.475716-3.975093 2.670984-3.975093C2.859278-3.975093 3.061519-4.156413 3.061519-4.358655ZM1.583064 .341719C1.464508 .822914 1.094894 1.227397 .683437 1.227397C.592777 1.227397 .509091 1.21345 .432379 1.185554C.613699 1.101868 .669489 .934496 .669489 .829888C.669489 .662516 .536986 .571856 .397509 .571856C.18132 .571856 0 .760149 0 .983313C0 1.248319 .27198 1.422665 .690411 1.422665S1.924782 1.171606 2.140971 .320797L2.768618-2.175841C2.789539-2.252553 2.803487-2.315318 2.803487-2.419925C2.803487-2.803487 2.475716-3.075467 2.057285-3.075467C1.283188-3.075467 .836862-2.106102 .836862-2.008468C.836862-1.917808 .934496-1.917808 .955417-1.917808C1.039103-1.917808 1.046077-1.93873 1.094894-2.043337C1.26924-2.447821 1.63188-2.880199 2.036364-2.880199C2.21071-2.880199 2.273474-2.761644 2.273474-2.538481C2.273474-2.461768 2.259527-2.364134 2.252553-2.329265L1.583064 .341719Z'/>
<path id='g5-110' d='M.850809-.439352C.822914-.348692 .781071-.174346 .781071-.153425C.781071 0 .9066 .069738 1.018182 .069738C1.143711 .069738 1.255293-.020922 1.290162-.083686S1.380822-.369614 1.415691-.516065C1.45056-.648568 1.527273-.969365 1.569116-1.143711C1.610959-1.297136 1.652802-1.45056 1.687671-1.610959C1.764384-1.896887 1.778331-1.952677 1.980573-2.238605C2.175841-2.517559 2.503611-2.880199 3.02665-2.880199C3.431133-2.880199 3.438107-2.524533 3.438107-2.39203C3.438107-1.973599 3.138232-1.199502 3.02665-.9066C2.949938-.711333 2.922042-.648568 2.922042-.530012C2.922042-.160399 3.228892 .069738 3.584558 .069738C4.281943 .069738 4.588792-.892653 4.588792-.99726C4.588792-1.08792 4.498132-1.08792 4.47721-1.08792C4.379577-1.08792 4.372603-1.046077 4.344707-.969365C4.184309-.411457 3.884433-.125529 3.605479-.125529C3.459029-.125529 3.431133-.223163 3.431133-.369614C3.431133-.530012 3.466002-.620672 3.591532-.934496C3.675218-1.150685 3.961146-1.889913 3.961146-2.280448C3.961146-2.956912 3.424159-3.075467 3.054545-3.075467C2.475716-3.075467 2.085181-2.719801 1.875965-2.440847C1.827148-2.922042 1.415691-3.075467 1.129763-3.075467C.829888-3.075467 .669489-2.859278 .578829-2.698879C.425405-2.440847 .327771-2.043337 .327771-2.008468C.327771-1.917808 .425405-1.917808 .446326-1.917808C.54396-1.917808 .550934-1.93873 .599751-2.127024C.704359-2.538481 .836862-2.880199 1.108842-2.880199C1.290162-2.880199 1.338979-2.726775 1.338979-2.538481C1.338979-2.405978 1.276214-2.147945 1.227397-1.959651S1.108842-1.48543 1.073973-1.332005L.850809-.439352Z'/>
<path id='g5-120' d='M1.736488-.739228C1.66675-.502117 1.436613-.125529 1.080946-.125529C1.060025-.125529 .850809-.125529 .704359-.223163C.990286-.313823 1.011208-.564882 1.011208-.606725C1.011208-.760149 .892653-.864757 .732254-.864757C.536986-.864757 .334745-.697385 .334745-.439352C.334745-.09066 .72528 .069738 1.066999 .069738C1.387796 .069738 1.673724-.132503 1.84807-.425405C2.015442-.055791 2.399004 .069738 2.677958 .069738C3.47995 .069738 3.905355-.801993 3.905355-.99726C3.905355-1.08792 3.814695-1.08792 3.793773-1.08792C3.696139-1.08792 3.689166-1.053051 3.66127-.969365C3.514819-.488169 3.096389-.125529 2.705853-.125529C2.426899-.125529 2.280448-.313823 2.280448-.578829C2.280448-.760149 2.447821-1.39477 2.643088-2.168867C2.782565-2.705853 3.096389-2.880199 3.326526-2.880199C3.340473-2.880199 3.556663-2.880199 3.703113-2.782565C3.47995-2.719801 3.396264-2.524533 3.396264-2.399004C3.396264-2.245579 3.514819-2.140971 3.675218-2.140971S4.065753-2.273474 4.065753-2.566376C4.065753-2.956912 3.619427-3.075467 3.340473-3.075467C2.991781-3.075467 2.712827-2.84533 2.559402-2.580324C2.433873-2.866252 2.113076-3.075467 1.72254-3.075467C.941469-3.075467 .495143-2.217684 .495143-2.008468C.495143-1.917808 .592777-1.917808 .613699-1.917808C.704359-1.917808 .711333-1.945704 .746202-2.036364C.920548-2.580324 1.3599-2.880199 1.701619-2.880199C1.931756-2.880199 2.12005-2.75467 2.12005-2.419925C2.12005-2.280448 2.036364-1.931756 1.973599-1.694645L1.736488-.739228Z'/>
<path id='g8-88' d='M12.612702 13.947696L13.818182 10.759651H13.569116C13.180573 11.795766 12.124533 12.473225 10.978829 12.772105C10.769614 12.821918 9.793275 13.080946 7.880448 13.080946H1.872976L6.94396 7.13325C7.013699 7.053549 7.033624 7.023661 7.033624 6.973848C7.033624 6.953923 7.033624 6.924035 6.963885 6.824408L2.321295 .478207H7.780822C9.115816 .478207 10.022416 .617684 10.11208 .637609C10.650062 .71731 11.516812 .886675 12.303861 1.384807C12.552927 1.544209 13.230386 1.992528 13.569116 2.799502H13.818182L12.612702 0H.836862C.607721 0 .597758 .009963 .56787 .069738C.557908 .099626 .557908 .288917 .557908 .398506L5.828144 7.611457L.667497 13.65878C.56787 13.778331 .56787 13.828144 .56787 13.838107C.56787 13.947696 .657534 13.947696 .836862 13.947696H12.612702Z'/>
<path id='g3-0' d='M5.188543-1.57609C5.300125-1.57609 5.467497-1.57609 5.467497-1.743462C5.467497-1.917808 5.307098-1.917808 5.188543-1.917808H1.03213C.920548-1.917808 .753176-1.917808 .753176-1.750436C.753176-1.57609 .913574-1.57609 1.03213-1.57609H5.188543Z'/>
<path id='g3-48' d='M2.022416-3.291656C2.078207-3.410212 2.085181-3.466002 2.085181-3.514819C2.085181-3.731009 1.889913-3.898381 1.673724-3.898381C1.408717-3.898381 1.325031-3.682192 1.290162-3.57061L.369614-.550934C.36264-.536986 .334745-.446326 .334745-.439352C.334745-.355666 .550934-.285928 .606725-.285928C.655542-.285928 .662516-.299875 .711333-.404483L2.022416-3.291656Z'/>
<path id='g1-3' d='M7.183064-6.495641C7.183064-6.804483 7.153176-6.844334 6.834371-6.844334H.9066C.597758-6.844334 .557908-6.814446 .557908-6.495641V-.358655C.557908-.039851 .587796 0 .916563 0H6.824408C7.153176 0 7.183064-.029888 7.183064-.348692V-6.495641ZM.956413-6.445828H6.784558V-.398506H.956413V-6.445828Z'/>
<path id='g6-40' d='M3.297634 2.391034C3.297634 2.361146 3.297634 2.34122 3.128269 2.171856C1.882939 .916563 1.564134-.966376 1.564134-2.49066C1.564134-4.224159 1.942715-5.957659 3.16812-7.202989C3.297634-7.32254 3.297634-7.342466 3.297634-7.372354C3.297634-7.442092 3.257783-7.47198 3.198007-7.47198C3.098381-7.47198 2.201743-6.794521 1.613948-5.529265C1.105853-4.433375 .986301-3.327522 .986301-2.49066C.986301-1.713574 1.09589-.508095 1.643836 .617684C2.241594 1.843088 3.098381 2.49066 3.198007 2.49066C3.257783 2.49066 3.297634 2.460772 3.297634 2.391034Z'/>
<path id='g6-41' d='M2.879203-2.49066C2.879203-3.267746 2.769614-4.473225 2.221669-5.599004C1.62391-6.824408 .767123-7.47198 .667497-7.47198C.607721-7.47198 .56787-7.43213 .56787-7.372354C.56787-7.342466 .56787-7.32254 .757161-7.143213C1.733499-6.156912 2.30137-4.572852 2.30137-2.49066C2.30137-.787049 1.932752 .966376 .697385 2.221669C.56787 2.34122 .56787 2.361146 .56787 2.391034C.56787 2.450809 .607721 2.49066 .667497 2.49066C.767123 2.49066 1.663761 1.8132 2.251557 .547945C2.759651-.547945 2.879203-1.653798 2.879203-2.49066Z'/>
<path id='g6-43' d='M4.07472-2.291407H6.854296C6.993773-2.291407 7.183064-2.291407 7.183064-2.49066S6.993773-2.689913 6.854296-2.689913H4.07472V-5.479452C4.07472-5.618929 4.07472-5.808219 3.875467-5.808219S3.676214-5.618929 3.676214-5.479452V-2.689913H.886675C.747198-2.689913 .557908-2.689913 .557908-2.49066S.747198-2.291407 .886675-2.291407H3.676214V.498132C3.676214 .637609 3.676214 .826899 3.875467 .826899S4.07472 .637609 4.07472 .498132V-2.291407Z'/>
<path id='g6-61' d='M6.844334-3.257783C6.993773-3.257783 7.183064-3.257783 7.183064-3.457036S6.993773-3.656289 6.854296-3.656289H.886675C.747198-3.656289 .557908-3.656289 .557908-3.457036S.747198-3.257783 .896638-3.257783H6.844334ZM6.854296-1.325031C6.993773-1.325031 7.183064-1.325031 7.183064-1.524284S6.993773-1.723537 6.844334-1.723537H.896638C.747198-1.723537 .557908-1.723537 .557908-1.524284S.747198-1.325031 .886675-1.325031H6.854296Z'/>
<path id='g6-91' d='M2.540473 2.49066V2.092154H1.574097V-7.073474H2.540473V-7.47198H1.175592V2.49066H2.540473Z'/>
<path id='g6-93' d='M1.58406-7.47198H.219178V-7.073474H1.185554V2.092154H.219178V2.49066H1.58406V-7.47198Z'/>
</defs>
<g id='page1' transform='matrix(1.5 0 0 1.5 0 0)'>
<use x='58.631466' y='34.792775' xlink:href='#g6-40'/>
<use x='62.505839' y='34.792775' xlink:href='#g1-3'/>
<use x='70.254587' y='36.287156' xlink:href='#g5-120'/>
<use x='77.484372' y='34.792775' xlink:href='#g6-43'/>
<use x='87.446986' y='34.792775' xlink:href='#g4-109'/>
<use x='96.194319' y='30.679279' xlink:href='#g7-50'/>
<use x='100.663689' y='34.792775' xlink:href='#g6-41'/>
<use x='106.198462' y='34.792775' xlink:href='#g2-104'/>
<use x='110.072834' y='34.792775' xlink:href='#g4-30'/>
<use x='116.008921' y='36.287156' xlink:href='#g5-120'/>
<use x='121.02484' y='34.792775' xlink:href='#g4-30'/>
<use x='126.960927' y='36.287156' xlink:href='#g7-49'/>
<use x='131.430297' y='34.792775' xlink:href='#g4-58'/>
<use x='134.197705' y='34.792775' xlink:href='#g4-58'/>
<use x='136.965114' y='34.792775' xlink:href='#g4-58'/>
<use x='139.732522' y='34.792775' xlink:href='#g4-30'/>
<use x='145.668609' y='36.287156' xlink:href='#g5-110'/>
<use x='151.091602' y='34.792775' xlink:href='#g2-105'/>
<use x='157.733295' y='34.792775' xlink:href='#g6-61'/>
<use x='168.249375' y='34.792775' xlink:href='#g2-104'/>
<use x='172.123747' y='34.792775' xlink:href='#g2-76'/>
<use x='178.995228' y='30.679279' xlink:href='#g3-48'/>
<use x='178.995228' y='37.255707' xlink:href='#g0-105'/>
<use x='181.250108' y='37.255707' xlink:href='#g0-110'/>
<use x='185.434779' y='37.255707' xlink:href='#g0-116'/>
<use x='189.045476' y='34.792775' xlink:href='#g6-91'/>
<use x='191.812884' y='34.792775' xlink:href='#g4-30'/>
<use x='197.748971' y='36.287156' xlink:href='#g5-120'/>
<use x='202.764891' y='34.792775' xlink:href='#g6-93'/>
<use x='205.532299' y='34.792775' xlink:href='#g4-30'/>
<use x='211.468386' y='36.287156' xlink:href='#g7-49'/>
<use x='215.937756' y='34.792775' xlink:href='#g4-58'/>
<use x='218.705164' y='34.792775' xlink:href='#g4-58'/>
<use x='221.472573' y='34.792775' xlink:href='#g4-58'/>
<use x='224.239981' y='34.792775' xlink:href='#g4-30'/>
<use x='230.176068' y='36.287156' xlink:href='#g5-110'/>
<use x='235.599061' y='34.792775' xlink:href='#g2-105'/>
<use x='241.687285' y='34.792775' xlink:href='#g2-0'/>
<use x='251.649899' y='34.792775' xlink:href='#g4-105'/>
<use x='261.475388' y='22.33943' xlink:href='#g5-110'/>
<use x='256.742557' y='25.328206' xlink:href='#g8-88'/>
<use x='257.044358' y='46.547341' xlink:href='#g5-106'/>
<use x='260.744047' y='46.547341' xlink:href='#g7-61'/>
<use x='266.860031' y='46.547341' xlink:href='#g7-49'/>
<use x='272.793465' y='34.792775' xlink:href='#g4-14'/>
<use x='277.598357' y='30.679279' xlink:href='#g7-40'/>
<use x='280.7117' y='30.679279' xlink:href='#g7-52'/>
<use x='284.682941' y='30.679279' xlink:href='#g7-41'/>
<use x='288.294407' y='34.792775' xlink:href='#g6-40'/>
<use x='292.168781' y='34.792775' xlink:href='#g4-120'/>
<use x='300.076579' y='34.792775' xlink:href='#g2-0'/>
<use x='310.039192' y='34.792775' xlink:href='#g4-120'/>
<use x='315.733125' y='36.287156' xlink:href='#g5-106'/>
<use x='319.930945' y='34.792775' xlink:href='#g6-41'/>
<use x='325.465718' y='34.792775' xlink:href='#g2-104'/>
<use x='329.34009' y='34.792775' xlink:href='#g4-30'/>
<use x='335.276177' y='36.287156' xlink:href='#g7-49'/>
<use x='339.745546' y='34.792775' xlink:href='#g4-58'/>
<use x='342.512955' y='34.792775' xlink:href='#g4-58'/>
<use x='345.280363' y='34.792775' xlink:href='#g4-30'/>
<use x='351.21645' y='36.287156' xlink:href='#g5-106'/>
<use x='354.91614' y='36.287156' xlink:href='#g3-0'/>
<use x='361.142819' y='36.287156' xlink:href='#g7-49'/>
<use x='365.612173' y='34.792775' xlink:href='#g4-30'/>
<use x='371.54826' y='36.287156' xlink:href='#g5-106'/>
<use x='375.24795' y='36.287156' xlink:href='#g7-43'/>
<use x='381.363934' y='36.287156' xlink:href='#g7-49'/>
<use x='385.833299' y='34.792775' xlink:href='#g4-58'/>
<use x='388.600708' y='34.792775' xlink:href='#g4-58'/>
<use x='391.368116' y='34.792775' xlink:href='#g4-58'/>
<use x='394.135525' y='34.792775' xlink:href='#g4-30'/>
<use x='400.071612' y='36.287156' xlink:href='#g5-110'/>
<use x='405.494604' y='34.792775' xlink:href='#g2-105'/>
</g>
</svg>