<?xml version='1.0' encoding='UTF-8'?>
<!-- This file was generated by dvisvgm 3.2 -->
<svg version='1.1' xmlns='http://www.w3.org/2000/svg' xmlns:xlink='http://www.w3.org/1999/xlink' width='73.146465pt' height='10.804483pt' viewBox='-21.101892 15.391258 73.146465 10.804483'>
<defs>
<path id='g3-61' d='M6.844334-3.257783C6.993773-3.257783 7.183064-3.257783 7.183064-3.457036S6.993773-3.656289 6.854296-3.656289H.886675C.747198-3.656289 .557908-3.656289 .557908-3.457036S.747198-3.257783 .896638-3.257783H6.844334ZM6.854296-1.325031C6.993773-1.325031 7.183064-1.325031 7.183064-1.524284S6.993773-1.723537 6.844334-1.723537H.896638C.747198-1.723537 .557908-1.723537 .557908-1.524284S.747198-1.325031 .886675-1.325031H6.854296Z'/>
<path id='g0-1' d='M1.912827-2.49066C1.912827-2.779577 1.673724-3.01868 1.384807-3.01868S.856787-2.779577 .856787-2.49066S1.09589-1.96264 1.384807-1.96264S1.912827-2.201743 1.912827-2.49066Z'/>
<path id='g2-114' d='M1.638854-1.408717C1.645828-1.45056 1.806227-2.078207 1.820174-2.113076C1.834122-2.168867 2.036364-2.517559 2.259527-2.684932C2.336239-2.740722 2.524533-2.880199 2.824408-2.880199C2.894147-2.880199 3.068493-2.873225 3.20797-2.782565C2.984807-2.719801 2.901121-2.524533 2.901121-2.399004C2.901121-2.245579 3.019676-2.140971 3.180075-2.140971S3.57061-2.273474 3.57061-2.566376C3.57061-2.929016 3.187049-3.075467 2.831382-3.075467C2.468742-3.075467 2.154919-2.929016 1.84807-2.580324C1.72254-3.005729 1.297136-3.075467 1.129763-3.075467C.871731-3.075467 .697385-2.915068 .585803-2.719801C.425405-2.447821 .327771-2.043337 .327771-2.008468C.327771-1.917808 .425405-1.917808 .446326-1.917808C.54396-1.917808 .550934-1.93873 .599751-2.127024C.704359-2.552428 .836862-2.880199 1.108842-2.880199C1.290162-2.880199 1.338979-2.726775 1.338979-2.538481C1.338979-2.405978 1.276214-2.147945 1.227397-1.959651S1.108842-1.48543 1.073973-1.332005L.850809-.439352C.822914-.348692 .781071-.174346 .781071-.153425C.781071 0 .9066 .069738 1.018182 .069738C1.12279 .069738 1.262267 .006974 1.318057-.132503C1.332005-.174346 1.408717-.481196 1.45056-.655542L1.638854-1.408717Z'/>
<path id='g2-115' d='M3.005729-2.622167C2.824408-2.580324 2.712827-2.433873 2.712827-2.294396C2.712827-2.133998 2.852304-2.071233 2.942964-2.071233C3.012702-2.071233 3.277709-2.113076 3.277709-2.468742C3.277709-2.922042 2.775592-3.075467 2.350187-3.075467C1.262267-3.075467 1.066999-2.273474 1.066999-2.057285C1.066999-1.799253 1.21345-1.63188 1.311083-1.548194C1.492403-1.408717 1.617933-1.380822 2.099128-1.297136C2.245579-1.26924 2.691905-1.185554 2.691905-.836862C2.691905-.718306 2.615193-.4533 2.322291-.278954C2.050311-.125529 1.708593-.125529 1.624907-.125529C1.345953-.125529 .948443-.188294 .788045-.418431C1.018182-.446326 1.171606-.620672 1.171606-.81594C1.171606-.990286 1.046077-1.073973 .899626-1.073973C.697385-1.073973 .495143-.913574 .495143-.606725C.495143-.188294 .941469 .069738 1.617933 .069738C2.901121 .069738 3.138232-.808966 3.138232-1.080946C3.138232-1.72254 2.433873-1.84807 2.175841-1.896887C2.113076-1.910834 1.93873-1.93873 1.896887-1.952677C1.638854-2.001494 1.513325-2.147945 1.513325-2.30137C1.513325-2.461768 1.638854-2.650062 1.792279-2.747696C1.980573-2.866252 2.224658-2.880199 2.343213-2.880199C2.489664-2.880199 2.852304-2.859278 3.005729-2.622167Z'/>
<path id='g1-14' d='M2.630137-4.353674C1.384807-4.054795 .418431-2.759651 .418431-1.554172C.418431-.597758 1.05604 .119552 1.992528 .119552C3.158157 .119552 3.985056-1.444583 3.985056-2.819427C3.985056-3.726027 3.58655-4.224159 3.247821-4.672478C2.889166-5.120797 2.30137-5.867995 2.30137-6.306351C2.30137-6.525529 2.500623-6.764633 2.849315-6.764633C3.148194-6.764633 3.347447-6.635118 3.556663-6.495641C3.755915-6.37609 3.955168-6.246575 4.104608-6.246575C4.353674-6.246575 4.503113-6.485679 4.503113-6.645081C4.503113-6.864259 4.343711-6.894147 3.985056-6.973848C3.466999-7.083437 3.327522-7.083437 3.16812-7.083437C2.391034-7.083437 2.032379-6.655044 2.032379-6.057285C2.032379-5.519303 2.321295-4.961395 2.630137-4.353674ZM2.749689-4.134496C2.998755-3.676214 3.297634-3.138232 3.297634-2.420922C3.297634-1.763387 2.919054-.099626 1.992528-.099626C1.444583-.099626 1.036115-.518057 1.036115-1.275218C1.036115-1.902864 1.404732-3.775841 2.749689-4.134496Z'/>
<path id='g1-15' d='M2.968867-2.251557C3.128269-2.251557 3.307597-2.251557 3.307597-2.420922C3.307597-2.560399 3.188045-2.560399 3.01868-2.560399H1.404732C1.643836-3.407223 2.201743-3.985056 3.108344-3.985056H3.417186C3.58655-3.985056 3.745953-3.985056 3.745953-4.154421C3.745953-4.293898 3.616438-4.293898 3.447073-4.293898H3.098381C1.803238-4.293898 .468244-3.297634 .468244-1.77335C.468244-.67746 1.215442 .109589 2.271482 .109589C2.919054 .109589 3.566625-.288917 3.566625-.398506C3.566625-.428394 3.556663-.537983 3.466999-.537983C3.447073-.537983 3.427148-.537983 3.337484-.478207C3.028643-.278954 2.660025-.109589 2.291407-.109589C1.713574-.109589 1.215442-.52802 1.215442-1.404732C1.215442-1.753425 1.295143-2.132005 1.325031-2.251557H2.968867Z'/>
</defs>
<g id='page1' transform='matrix(1.5 0 0 1.5 0 0)'>
<use x='-14.536172' y='17.344276' xlink:href='#g1-15'/>
<use x='-10.492299' y='13.728912' xlink:href='#g2-114'/>
<use x='-3.866723' y='17.344276' xlink:href='#g0-1'/>
<use x='1.114551' y='17.344276' xlink:href='#g1-15'/>
<use x='5.158425' y='13.728912' xlink:href='#g2-115'/>
<use x='12.184111' y='17.344276' xlink:href='#g3-61'/>
<use x='22.700191' y='17.344276' xlink:href='#g1-14'/>
<use x='27.505083' y='13.728912' xlink:href='#g2-114'/>
<use x='31.418673' y='13.728912' xlink:href='#g2-115'/>
</g>
</svg>