<?xml version='1.0' encoding='UTF-8'?>
<!-- This file was generated by dvisvgm 3.2 -->
<svg version='1.1' xmlns='http://www.w3.org/2000/svg' xmlns:xlink='http://www.w3.org/1999/xlink' width='22.654514pt' height='10.864259pt' viewBox='-21.027173 15.480922 22.654514 10.864259'>
<defs>
<path id='g1-22' d='M.376588 1.12279C.348692 1.227397 .348692 1.262267 .348692 1.26924C.348692 1.422665 .474222 1.492403 .585803 1.492403C.836862 1.492403 .892653 1.262267 .920548 1.143711C.934496 1.108842 1.073973 .550934 1.241345-.132503C1.457534 .013948 1.736488 .069738 1.987547 .069738C2.587298 .069738 2.977833-.418431 2.991781-.432379C3.124284 .048817 3.605479 .069738 3.710087 .069738C3.961146 .069738 4.135492-.083686 4.261021-.299875C4.414446-.571856 4.505106-.969365 4.505106-.99726C4.505106-1.08792 4.414446-1.08792 4.393524-1.08792C4.29589-1.08792 4.288917-1.060025 4.2401-.871731C4.156413-.536986 4.02391-.125529 3.731009-.125529C3.549689-.125529 3.500872-.278954 3.500872-.467248C3.500872-.585803 3.556663-.836862 3.605479-1.018182C3.654296-1.206476 3.724035-1.492403 3.758904-1.645828L3.919303-2.266501C3.961146-2.440847 4.037858-2.747696 4.037858-2.782565C4.037858-2.922042 3.926276-3.005729 3.807721-3.005729C3.731009-3.005729 3.598506-2.970859 3.521793-2.838356C3.500872-2.796513 3.445081-2.57335 3.410212-2.433873L3.263761-1.855044L3.047572-.983313C2.998755-.808966 2.998755-.795019 2.93599-.704359C2.719801-.397509 2.412951-.125529 2.015442-.125529C1.443587-.125529 1.443587-.620672 1.443587-.746202C1.443587-.927522 1.464508-1.018182 1.562142-1.39477C1.63188-1.701619 1.645828-1.750436 1.715567-2.022416L1.8132-2.412951C1.84807-2.559402 1.917808-2.824408 1.917808-2.852304C1.917808-2.977833 1.820174-3.075467 1.680697-3.075467C1.429639-3.075467 1.366874-2.831382 1.345953-2.747696L.376588 1.12279Z'/>
<path id='g1-23' d='M1.750436-2.873225C1.75741-2.901121 1.764384-2.942964 1.764384-2.977833C1.764384-2.984807 1.764384-3.075467 1.652802-3.075467C1.645828-3.075467 1.248319-3.040598 1.199502-3.040598C1.066999-3.02665 .941469-3.019676 .808966-3.005729C.697385-2.998755 .613699-2.991781 .613699-2.84533C.613699-2.747696 .711333-2.747696 .795019-2.747696C1.129763-2.747696 1.129763-2.705853 1.129763-2.643088C1.129763-2.601245 1.094894-2.461768 1.066999-2.371108L.718306-.962391C.54396-.265006 .509091-.125529 .509091-.097634C.509091 0 .613699 0 .641594 0H.753176C1.373848-.097634 2.259527-.425405 3.005729-1.08792C3.954172-1.931756 4.093649-2.838356 4.093649-2.852304C4.093649-2.977833 3.996015-3.075467 3.856538-3.075467C3.612453-3.075467 3.563636-2.880199 3.500872-2.684932C3.221918-1.694645 2.287422-.627646 1.101868-.278954L1.750436-2.873225Z'/>
<path id='g0-83' d='M6.425903-6.924035C6.425903-6.953923 6.405978-7.023661 6.316314-7.023661C6.266501-7.023661 6.256538-7.013699 6.136986-6.874222L5.65878-6.306351C5.399751-6.774595 4.881694-7.023661 4.234122-7.023661C2.968867-7.023661 1.77335-5.877958 1.77335-4.672478C1.77335-3.865504 2.30137-3.407223 2.809465-3.257783L3.875467-2.978829C4.244085-2.889166 4.79203-2.739726 4.79203-1.92279C4.79203-1.026152 3.975093-.089664 2.998755-.089664C2.361146-.089664 1.255293-.308842 1.255293-1.544209C1.255293-1.783313 1.305106-2.022416 1.315068-2.082192C1.325031-2.122042 1.334994-2.132005 1.334994-2.15193C1.334994-2.251557 1.265255-2.261519 1.215442-2.261519S1.145704-2.251557 1.115816-2.221669C1.075965-2.181818 .518057 .089664 .518057 .119552C.518057 .179328 .56787 .219178 .627646 .219178C.67746 .219178 .687422 .209215 .806974 .069738L1.295143-.498132C1.723537 .079701 2.400996 .219178 2.978829 .219178C4.333748 .219178 5.50934-1.105853 5.50934-2.34122C5.50934-3.028643 5.17061-3.367372 5.021171-3.506849C4.79203-3.73599 4.64259-3.775841 3.755915-4.004981C3.536737-4.064757 3.178082-4.164384 3.088418-4.184309C2.819427-4.273973 2.480697-4.562889 2.480697-5.090909C2.480697-5.897883 3.277709-6.744707 4.224159-6.744707C5.051059-6.744707 5.65878-6.316314 5.65878-5.200498C5.65878-4.881694 5.618929-4.702366 5.618929-4.64259C5.618929-4.632628 5.618929-4.542964 5.738481-4.542964C5.838107-4.542964 5.84807-4.572852 5.88792-4.742217L6.425903-6.924035Z'/>
</defs>
<g id='page1' transform='matrix(1.5 0 0 1.5 0 0)'>
<use x='-14.536172' y='17.344276' xlink:href='#g0-83'/>
<use x='-7.85291' y='13.728912' xlink:href='#g1-22'/>
<use x='-3.008755' y='13.728912' xlink:href='#g1-23'/>
</g>
</svg>