<?xml version='1.0' encoding='UTF-8'?>
<!-- This file was generated by dvisvgm 3.2 -->
<svg version='1.1' xmlns='http://www.w3.org/2000/svg' xmlns:xlink='http://www.w3.org/1999/xlink' width='152.364697pt' height='17.677062pt' viewBox='274.228522 30.008094 152.364697 17.677062'>
<defs>
<path id='g2-97' d='M2.942964-2.66401C2.796513-2.894147 2.559402-3.075467 2.224658-3.075467C1.332005-3.075467 .425405-2.092154 .425405-1.08792C.425405-.411457 .878705 .069738 1.478456 .069738C1.855044 .069738 2.189788-.146451 2.468742-.418431C2.601245 0 3.005729 .069738 3.187049 .069738C3.438107 .069738 3.612453-.083686 3.737983-.299875C3.891407-.571856 3.982067-.969365 3.982067-.99726C3.982067-1.08792 3.891407-1.08792 3.870486-1.08792C3.772852-1.08792 3.765878-1.060025 3.717061-.871731C3.633375-.536986 3.500872-.125529 3.20797-.125529C3.02665-.125529 2.977833-.278954 2.977833-.467248C2.977833-.585803 3.033624-.836862 3.082441-1.018182C3.131258-1.206476 3.200996-1.492403 3.235866-1.645828L3.375342-2.175841C3.417186-2.357161 3.500872-2.684932 3.500872-2.719801C3.500872-2.873225 3.375342-2.942964 3.263761-2.942964C3.145205-2.942964 2.984807-2.859278 2.942964-2.66401ZM2.496638-.871731C2.447821-.676463 2.294396-.536986 2.140971-.404483C2.078207-.348692 1.799253-.125529 1.499377-.125529C1.241345-.125529 .990286-.306849 .990286-.801993C.990286-1.171606 1.192528-1.93873 1.352927-2.217684C1.673724-2.775592 2.02939-2.880199 2.224658-2.880199C2.712827-2.880199 2.84533-2.350187 2.84533-2.273474C2.84533-2.245579 2.831382-2.196762 2.824408-2.175841L2.496638-.871731Z'/>
<path id='g1-25' d='M2.6401-3.716065H3.765878C3.437111-2.241594 3.347447-1.8132 3.347447-1.145704C3.347447-.996264 3.347447-.727273 3.427148-.388543C3.526775 .049813 3.636364 .109589 3.785803 .109589C3.985056 .109589 4.194271-.069738 4.194271-.268991C4.194271-.328767 4.194271-.348692 4.134496-.488169C3.845579-1.205479 3.845579-1.853051 3.845579-2.132005C3.845579-2.660025 3.915318-3.198007 4.024907-3.716065H5.160648C5.290162-3.716065 5.648817-3.716065 5.648817-4.054795C5.648817-4.293898 5.439601-4.293898 5.250311-4.293898H1.912827C1.693649-4.293898 1.315068-4.293898 .876712-3.825654C.52802-3.437111 .268991-2.978829 .268991-2.929016C.268991-2.919054 .268991-2.82939 .388543-2.82939C.468244-2.82939 .488169-2.86924 .547945-2.948941C1.036115-3.716065 1.613948-3.716065 1.8132-3.716065H2.381071C2.062267-2.510585 1.524284-1.305106 1.105853-.398506C1.026152-.249066 1.026152-.229141 1.026152-.159402C1.026152 .029888 1.185554 .109589 1.315068 .109589C1.613948 .109589 1.693649-.169365 1.8132-.537983C1.952677-.996264 1.952677-1.016189 2.082192-1.514321L2.6401-3.716065Z'/>
<path id='g1-30' d='M4.353674-6.674969C4.353674-6.694894 4.383562-6.804483 4.383562-6.814446S4.383562-6.914072 4.26401-6.914072C4.164384-6.914072 4.154421-6.884184 4.11457-6.714819L3.536737-4.41345C1.952677-4.363636 .488169-3.038605 .488169-1.683686C.488169-.737235 1.185554 .049813 2.400996 .119552C2.321295 .428394 2.251557 .747198 2.171856 1.05604C2.052304 1.524284 1.952677 1.902864 1.952677 1.932752C1.952677 2.032379 2.022416 2.042341 2.072229 2.042341S2.141968 2.032379 2.171856 2.002491C2.191781 1.982565 2.251557 1.743462 2.281445 1.603985L2.660025 .119552C4.26401 .069738 5.708593-1.275218 5.708593-2.610212C5.708593-3.39726 5.180573-4.313823 3.795766-4.41345L4.353674-6.674969ZM2.450809-.099626C1.853051-.129514 1.135741-.478207 1.135741-1.474471C1.135741-2.669988 1.992528-4.064757 3.476961-4.194271L2.450809-.099626ZM3.73599-4.194271C4.493151-4.154421 5.061021-3.696139 5.061021-2.819427C5.061021-1.643836 4.204234-.219178 2.709838-.099626L3.73599-4.194271Z'/>
<path id='g1-120' d='M3.327522-3.008717C3.387298-3.267746 3.616438-4.184309 4.313823-4.184309C4.363636-4.184309 4.60274-4.184309 4.811955-4.054795C4.533001-4.004981 4.333748-3.755915 4.333748-3.516812C4.333748-3.35741 4.443337-3.16812 4.712329-3.16812C4.931507-3.16812 5.250311-3.347447 5.250311-3.745953C5.250311-4.26401 4.662516-4.403487 4.323786-4.403487C3.745953-4.403487 3.39726-3.875467 3.277709-3.646326C3.028643-4.303861 2.49066-4.403487 2.201743-4.403487C1.165629-4.403487 .597758-3.118306 .597758-2.86924C.597758-2.769614 .697385-2.769614 .71731-2.769614C.797011-2.769614 .826899-2.789539 .846824-2.879203C1.185554-3.935243 1.843088-4.184309 2.181818-4.184309C2.371108-4.184309 2.719801-4.094645 2.719801-3.516812C2.719801-3.20797 2.550436-2.540473 2.181818-1.145704C2.022416-.52802 1.673724-.109589 1.235367-.109589C1.175592-.109589 .946451-.109589 .737235-.239103C.986301-.288917 1.205479-.498132 1.205479-.777086C1.205479-1.046077 .986301-1.125778 .836862-1.125778C.537983-1.125778 .288917-.86675 .288917-.547945C.288917-.089664 .787049 .109589 1.225405 .109589C1.882939 .109589 2.241594-.587796 2.271482-.647572C2.391034-.278954 2.749689 .109589 3.347447 .109589C4.373599 .109589 4.941469-1.175592 4.941469-1.424658C4.941469-1.524284 4.851806-1.524284 4.821918-1.524284C4.732254-1.524284 4.712329-1.484433 4.692403-1.414695C4.363636-.348692 3.686177-.109589 3.367372-.109589C2.978829-.109589 2.819427-.428394 2.819427-.767123C2.819427-.986301 2.879203-1.205479 2.988792-1.643836L3.327522-3.008717Z'/>
<path id='g3-40' d='M3.297634 2.391034C3.297634 2.361146 3.297634 2.34122 3.128269 2.171856C1.882939 .916563 1.564134-.966376 1.564134-2.49066C1.564134-4.224159 1.942715-5.957659 3.16812-7.202989C3.297634-7.32254 3.297634-7.342466 3.297634-7.372354C3.297634-7.442092 3.257783-7.47198 3.198007-7.47198C3.098381-7.47198 2.201743-6.794521 1.613948-5.529265C1.105853-4.433375 .986301-3.327522 .986301-2.49066C.986301-1.713574 1.09589-.508095 1.643836 .617684C2.241594 1.843088 3.098381 2.49066 3.198007 2.49066C3.257783 2.49066 3.297634 2.460772 3.297634 2.391034Z'/>
<path id='g3-41' d='M2.879203-2.49066C2.879203-3.267746 2.769614-4.473225 2.221669-5.599004C1.62391-6.824408 .767123-7.47198 .667497-7.47198C.607721-7.47198 .56787-7.43213 .56787-7.372354C.56787-7.342466 .56787-7.32254 .757161-7.143213C1.733499-6.156912 2.30137-4.572852 2.30137-2.49066C2.30137-.787049 1.932752 .966376 .697385 2.221669C.56787 2.34122 .56787 2.361146 .56787 2.391034C.56787 2.450809 .607721 2.49066 .667497 2.49066C.767123 2.49066 1.663761 1.8132 2.251557 .547945C2.759651-.547945 2.879203-1.653798 2.879203-2.49066Z'/>
<path id='g3-61' d='M6.844334-3.257783C6.993773-3.257783 7.183064-3.257783 7.183064-3.457036S6.993773-3.656289 6.854296-3.656289H.886675C.747198-3.656289 .557908-3.656289 .557908-3.457036S.747198-3.257783 .896638-3.257783H6.844334ZM6.854296-1.325031C6.993773-1.325031 7.183064-1.325031 7.183064-1.524284S6.993773-1.723537 6.844334-1.723537H.896638C.747198-1.723537 .557908-1.723537 .557908-1.524284S.747198-1.325031 .886675-1.325031H6.854296Z'/>
<path id='g3-95' d='M1.912827-6.136986C1.912827-6.405978 1.683686-6.665006 1.384807-6.665006C1.046077-6.665006 .846824-6.386052 .846824-6.136986C.846824-5.867995 1.075965-5.608966 1.374844-5.608966C1.713574-5.608966 1.912827-5.88792 1.912827-6.136986Z'/>
<path id='g0-0' d='M6.56538-2.291407C6.734745-2.291407 6.914072-2.291407 6.914072-2.49066S6.734745-2.689913 6.56538-2.689913H1.175592C1.006227-2.689913 .826899-2.689913 .826899-2.49066S1.006227-2.291407 1.175592-2.291407H6.56538Z'/>
<path id='g0-72' d='M3.297634-3.337484C3.427148-3.805729 3.556663-4.313823 3.656289-4.79203C3.775841-5.459527 3.845579-6.127024 3.845579-6.246575C3.845579-6.804483 3.297634-6.804483 3.178082-6.804483C2.420922-6.804483 1.743462-6.525529 1.275218-6.206725C.468244-5.65878 .209215-4.991283 .209215-4.941469C.209215-4.871731 .278954-4.871731 .308842-4.871731C.388543-4.871731 .856787-4.991283 1.066002-5.369863C1.334994-5.877958 1.62391-6.256538 2.520548-6.256538C2.929016-6.256538 2.998755-5.977584 2.998755-5.818182C2.998755-5.808219 2.968867-5.339975 2.849315-4.652553C2.799502-4.373599 2.769614-4.194271 2.560399-3.337484H2.201743C1.92279-3.327522 1.464508-3.008717 1.464508-2.859278C1.464508-2.799502 1.474471-2.789539 1.693649-2.789539H2.410959C2.201743-2.092154 1.92279-1.135741 1.464508 .079701C1.374844 .308842 1.374844 .328767 1.374844 .33873C1.374844 .408468 1.454545 .408468 1.474471 .408468C1.613948 .408468 1.92279 .278954 2.122042 .079701C2.171856 .019925 2.191781 0 2.231631-.099626C2.580324-.976339 2.879203-1.872976 3.138232-2.789539H5.379826C5.489415-2.789539 5.678705-2.789539 5.838107-2.889166C5.728518-2.470735 5.32005-.846824 5.32005-.059776C5.32005 .229141 5.489415 .488169 5.917808 .488169C7.242839 .488169 7.980075-.33873 7.980075-.657534C7.980075-.71731 7.930262-.737235 7.880448-.737235C7.800747-.737235 7.272727-.597758 7.123288-.209215C7.083437-.129514 7.073474-.119552 6.884184-.089664C6.774595-.069738 6.585305-.059776 6.575342-.059776C6.396015-.059776 6.166874-.179328 6.166874-.488169C6.166874-.607721 6.236613-1.155666 6.266501-1.374844C6.435866-2.480697 6.924035-4.353674 7.780822-6.625156C7.81071-6.694894 7.81071-6.714819 7.81071-6.734745C7.81071-6.804483 7.750934-6.804483 7.711083-6.804483C7.561644-6.804483 7.272727-6.665006 7.083437-6.495641C7.073474-6.475716 7.013699-6.425903 6.973848-6.336239C6.575342-5.3599 6.266501-4.353674 5.967621-3.337484H3.297634Z'/>
<path id='g0-76' d='M1.793275-.926526C2.331258-1.763387 2.500623-2.400996 2.630137-2.929016C2.978829-4.303861 3.35741-5.499377 3.975093-6.1868C4.094645-6.316314 4.174346-6.405978 4.493151-6.405978C5.180573-6.405978 5.200498-5.718555 5.200498-5.579078C5.200498-5.399751 5.150685-5.260274 5.150685-5.210461C5.150685-5.140722 5.210461-5.140722 5.220423-5.140722C5.379826-5.140722 5.648817-5.250311 5.897883-5.429639C6.07721-5.569116 6.166874-5.668742 6.166874-6.07721C6.166874-6.615193 5.88792-7.023661 5.330012-7.023661C5.011208-7.023661 4.134496-6.94396 3.158157-5.957659C2.361146-5.140722 1.892902-3.347447 1.703611-2.600249C1.524284-1.912827 1.444583-1.603985 1.145704-1.006227C1.075965-.886675 .816936-.448319 .67746-.318804C.408468-.069738 .308842 .109589 .308842 .159402C.308842 .179328 .328767 .219178 .398506 .219178C.438356 .219178 .647572 .179328 .9066 .009963C1.075965-.089664 1.09589-.109589 1.325031-.348692C1.823163-.33873 2.171856-.249066 2.799502-.069738C3.307597 .069738 3.815691 .219178 4.323786 .219178C5.13076 .219178 5.947696-.388543 6.266501-.826899C6.465753-1.09589 6.525529-1.344956 6.525529-1.374844C6.525529-1.444583 6.465753-1.444583 6.455791-1.444583C6.296389-1.444583 6.057285-1.334994 5.88792-1.215442C5.618929-1.046077 5.599004-.986301 5.539228-.816936C5.489415-.657534 5.429639-.577833 5.389788-.518057C5.310087-.398506 5.300125-.398506 5.150685-.398506C4.672478-.398506 4.174346-.547945 3.516812-.727273C3.237858-.806974 2.689913-.966376 2.191781-.966376C2.062267-.966376 1.92279-.956413 1.793275-.926526Z'/>
</defs>
<g id='page1' transform='matrix(1.5 0 0 1.5 0 0)'>
<use x='182.609799' y='29.299444' xlink:href='#g0-72'/>
<use x='193.886924' y='29.299444' xlink:href='#g3-61'/>
<use x='204.403004' y='29.299444' xlink:href='#g1-25'/>
<use x='210.439421' y='25.185948' xlink:href='#g2-97'/>
<use x='215.258994' y='29.299444' xlink:href='#g3-40'/>
<use x='219.133368' y='29.299444' xlink:href='#g1-120'/>
<use x='224.8273' y='29.299444' xlink:href='#g3-41'/>
<use x='232.695805' y='26.670402' xlink:href='#g3-95'/>
<use x='228.701674' y='29.299444' xlink:href='#g1-30'/>
<use x='234.637761' y='30.793825' xlink:href='#g2-97'/>
<use x='239.45733' y='29.299444' xlink:href='#g3-40'/>
<use x='243.331704' y='29.299444' xlink:href='#g1-120'/>
<use x='249.025636' y='29.299444' xlink:href='#g3-41'/>
<use x='255.113876' y='29.299444' xlink:href='#g0-0'/>
<use x='265.076489' y='29.299444' xlink:href='#g0-76'/>
<use x='271.94797' y='29.299444' xlink:href='#g3-40'/>
<use x='275.822344' y='29.299444' xlink:href='#g1-120'/>
<use x='281.516276' y='29.299444' xlink:href='#g3-41'/>
</g>
</svg>