<?xml version='1.0' encoding='UTF-8'?>
<!-- This file was generated by dvisvgm 3.2 -->
<svg version='1.1' xmlns='http://www.w3.org/2000/svg' xmlns:xlink='http://www.w3.org/1999/xlink' width='57.789027pt' height='13.43462pt' viewBox='-21.072004 15.645306 57.789027 13.43462'>
<defs>
<path id='g0-33' d='M8.308842-2.291407C7.760897-1.872976 7.491905-1.464508 7.412204-1.334994C6.963885-.647572 6.884184-.019925 6.884184-.009963C6.884184 .109589 7.003736 .109589 7.083437 .109589C7.252802 .109589 7.262765 .089664 7.302615-.089664C7.531756-1.066002 8.119552-1.902864 9.24533-2.361146C9.364882-2.400996 9.39477-2.420922 9.39477-2.49066S9.334994-2.590286 9.315068-2.600249C8.876712-2.769614 7.671233-3.267746 7.292653-4.941469C7.262765-5.061021 7.252802-5.090909 7.083437-5.090909C7.003736-5.090909 6.884184-5.090909 6.884184-4.971357C6.884184-4.951432 6.973848-4.323786 7.392279-3.656289C7.591532-3.35741 7.880448-3.008717 8.308842-2.689913H.9066C.727273-2.689913 .547945-2.689913 .547945-2.49066S.727273-2.291407 .9066-2.291407H8.308842Z'/>
<path id='g1-30' d='M4.353674-6.674969C4.353674-6.694894 4.383562-6.804483 4.383562-6.814446S4.383562-6.914072 4.26401-6.914072C4.164384-6.914072 4.154421-6.884184 4.11457-6.714819L3.536737-4.41345C1.952677-4.363636 .488169-3.038605 .488169-1.683686C.488169-.737235 1.185554 .049813 2.400996 .119552C2.321295 .428394 2.251557 .747198 2.171856 1.05604C2.052304 1.524284 1.952677 1.902864 1.952677 1.932752C1.952677 2.032379 2.022416 2.042341 2.072229 2.042341S2.141968 2.032379 2.171856 2.002491C2.191781 1.982565 2.251557 1.743462 2.281445 1.603985L2.660025 .119552C4.26401 .069738 5.708593-1.275218 5.708593-2.610212C5.708593-3.39726 5.180573-4.313823 3.795766-4.41345L4.353674-6.674969ZM2.450809-.099626C1.853051-.129514 1.135741-.478207 1.135741-1.474471C1.135741-2.669988 1.992528-4.064757 3.476961-4.194271L2.450809-.099626ZM3.73599-4.194271C4.493151-4.154421 5.061021-3.696139 5.061021-2.819427C5.061021-1.643836 4.204234-.219178 2.709838-.099626L3.73599-4.194271Z'/>
</defs>
<g id='page1' transform='matrix(1.5 0 0 1.5 0 0)'>
<use x='-14.536172' y='17.344276' xlink:href='#g1-30'/>
<use x='-8.600085' y='17.344276' xlink:href='#g1-30'/>
<use x='.103334' y='17.344276' xlink:href='#g0-33'/>
<use x='12.833335' y='17.344276' xlink:href='#g1-30'/>
<use x='18.769422' y='17.344276' xlink:href='#g1-30'/>
</g>
</svg>