<?xml version='1.0' encoding='UTF-8'?>
<!-- This file was generated by dvisvgm 3.2 -->
<svg version='1.1' xmlns='http://www.w3.org/2000/svg' xmlns:xlink='http://www.w3.org/1999/xlink' width='23.806463pt' height='13.046054pt' viewBox='-21.101892 15.316539 23.806463 13.046054'>
<defs>
<path id='g0-120' d='M1.736488-.739228C1.66675-.502117 1.436613-.125529 1.080946-.125529C1.060025-.125529 .850809-.125529 .704359-.223163C.990286-.313823 1.011208-.564882 1.011208-.606725C1.011208-.760149 .892653-.864757 .732254-.864757C.536986-.864757 .334745-.697385 .334745-.439352C.334745-.09066 .72528 .069738 1.066999 .069738C1.387796 .069738 1.673724-.132503 1.84807-.425405C2.015442-.055791 2.399004 .069738 2.677958 .069738C3.47995 .069738 3.905355-.801993 3.905355-.99726C3.905355-1.08792 3.814695-1.08792 3.793773-1.08792C3.696139-1.08792 3.689166-1.053051 3.66127-.969365C3.514819-.488169 3.096389-.125529 2.705853-.125529C2.426899-.125529 2.280448-.313823 2.280448-.578829C2.280448-.760149 2.447821-1.39477 2.643088-2.168867C2.782565-2.705853 3.096389-2.880199 3.326526-2.880199C3.340473-2.880199 3.556663-2.880199 3.703113-2.782565C3.47995-2.719801 3.396264-2.524533 3.396264-2.399004C3.396264-2.245579 3.514819-2.140971 3.675218-2.140971S4.065753-2.273474 4.065753-2.566376C4.065753-2.956912 3.619427-3.075467 3.340473-3.075467C2.991781-3.075467 2.712827-2.84533 2.559402-2.580324C2.433873-2.866252 2.113076-3.075467 1.72254-3.075467C.941469-3.075467 .495143-2.217684 .495143-2.008468C.495143-1.917808 .592777-1.917808 .613699-1.917808C.704359-1.917808 .711333-1.945704 .746202-2.036364C.920548-2.580324 1.3599-2.880199 1.701619-2.880199C1.931756-2.880199 2.12005-2.75467 2.12005-2.419925C2.12005-2.280448 2.036364-1.931756 1.973599-1.694645L1.736488-.739228Z'/>
<path id='g2-49' d='M2.336239-4.435367C2.336239-4.623661 2.322291-4.630635 2.127024-4.630635C1.680697-4.191283 1.046077-4.184309 .760149-4.184309V-3.93325C.927522-3.93325 1.387796-3.93325 1.771357-4.128518V-.571856C1.771357-.341719 1.771357-.251059 1.073973-.251059H.808966V0C.934496-.006974 1.792279-.027895 2.050311-.027895C2.266501-.027895 3.145205-.006974 3.29863 0V-.251059H3.033624C2.336239-.251059 2.336239-.341719 2.336239-.571856V-4.435367Z'/>
<path id='g1-1' d='M4.403487-6.953923C4.333748-7.083437 4.313823-7.13325 4.144458-7.13325S3.955168-7.083437 3.88543-6.953923L.518057-.199253C.468244-.109589 .468244-.089664 .468244-.079701C.468244 0 .52802 0 .687422 0H7.601494C7.760897 0 7.820672 0 7.820672-.079701C7.820672-.089664 7.820672-.109589 7.770859-.199253L4.403487-6.953923ZM3.825654-6.136986L6.505604-.757161H1.135741L3.825654-6.136986Z'/>
</defs>
<g id='page1' transform='matrix(1.5 0 0 1.5 0 0)'>
<use x='-14.536172' y='17.344276' xlink:href='#g1-1'/>
<use x='-6.233947' y='18.838657' xlink:href='#g2-49'/>
<use x='-2.262706' y='18.838657' xlink:href='#g0-120'/>
</g>
</svg>