<?xml version='1.0' encoding='UTF-8'?>
<!-- This file was generated by dvisvgm 3.2 -->
<svg version='1.1' xmlns='http://www.w3.org/2000/svg' xmlns:xlink='http://www.w3.org/1999/xlink' width='195.321475pt' height='50.518115pt' viewBox='252.865185 43.025153 195.321475 50.518115'>
<defs>
<path id='g6-51' d='M1.903861-2.329265C2.447821-2.329265 2.838356-1.952677 2.838356-1.206476C2.838356-.341719 2.336239-.083686 1.931756-.083686C1.652802-.083686 1.039103-.160399 .746202-.571856C1.073973-.585803 1.150685-.81594 1.150685-.962391C1.150685-1.185554 .983313-1.345953 .767123-1.345953C.571856-1.345953 .376588-1.227397 .376588-.941469C.376588-.285928 1.101868 .139477 1.945704 .139477C2.915068 .139477 3.584558-.509091 3.584558-1.206476C3.584558-1.750436 3.138232-2.294396 2.371108-2.454795C3.103362-2.719801 3.368369-3.242839 3.368369-3.668244C3.368369-4.219178 2.733748-4.630635 1.959651-4.630635S.592777-4.254047 .592777-3.696139C.592777-3.459029 .746202-3.326526 .955417-3.326526C1.171606-3.326526 1.311083-3.486924 1.311083-3.682192C1.311083-3.884433 1.171606-4.030884 .955417-4.044832C1.199502-4.351681 1.680697-4.428394 1.93873-4.428394C2.252553-4.428394 2.691905-4.274969 2.691905-3.668244C2.691905-3.375342 2.594271-3.054545 2.412951-2.838356C2.182814-2.57335 1.987547-2.559402 1.638854-2.538481C1.464508-2.524533 1.45056-2.524533 1.415691-2.517559C1.401743-2.517559 1.345953-2.503611 1.345953-2.426899C1.345953-2.329265 1.408717-2.329265 1.527273-2.329265H1.903861Z'/>
<path id='g5-40' d='M3.297634 2.391034C3.297634 2.361146 3.297634 2.34122 3.128269 2.171856C1.882939 .916563 1.564134-.966376 1.564134-2.49066C1.564134-4.224159 1.942715-5.957659 3.16812-7.202989C3.297634-7.32254 3.297634-7.342466 3.297634-7.372354C3.297634-7.442092 3.257783-7.47198 3.198007-7.47198C3.098381-7.47198 2.201743-6.794521 1.613948-5.529265C1.105853-4.433375 .986301-3.327522 .986301-2.49066C.986301-1.713574 1.09589-.508095 1.643836 .617684C2.241594 1.843088 3.098381 2.49066 3.198007 2.49066C3.257783 2.49066 3.297634 2.460772 3.297634 2.391034Z'/>
<path id='g5-41' d='M2.879203-2.49066C2.879203-3.267746 2.769614-4.473225 2.221669-5.599004C1.62391-6.824408 .767123-7.47198 .667497-7.47198C.607721-7.47198 .56787-7.43213 .56787-7.372354C.56787-7.342466 .56787-7.32254 .757161-7.143213C1.733499-6.156912 2.30137-4.572852 2.30137-2.49066C2.30137-.787049 1.932752 .966376 .697385 2.221669C.56787 2.34122 .56787 2.361146 .56787 2.391034C.56787 2.450809 .607721 2.49066 .667497 2.49066C.767123 2.49066 1.663761 1.8132 2.251557 .547945C2.759651-.547945 2.879203-1.653798 2.879203-2.49066Z'/>
<path id='g5-50' d='M1.265255-.767123L2.321295-1.793275C3.875467-3.16812 4.473225-3.706102 4.473225-4.702366C4.473225-5.838107 3.576588-6.635118 2.361146-6.635118C1.235367-6.635118 .498132-5.718555 .498132-4.83188C.498132-4.273973 .996264-4.273973 1.026152-4.273973C1.195517-4.273973 1.544209-4.393524 1.544209-4.801993C1.544209-5.061021 1.364882-5.32005 1.016189-5.32005C.936488-5.32005 .916563-5.32005 .886675-5.310087C1.115816-5.957659 1.653798-6.326276 2.231631-6.326276C3.138232-6.326276 3.566625-5.519303 3.566625-4.702366C3.566625-3.905355 3.068493-3.118306 2.520548-2.500623L.607721-.368618C.498132-.259029 .498132-.239103 .498132 0H4.194271L4.473225-1.733499H4.224159C4.174346-1.43462 4.104608-.996264 4.004981-.846824C3.935243-.767123 3.277709-.767123 3.058531-.767123H1.265255Z'/>
<path id='g5-61' d='M6.844334-3.257783C6.993773-3.257783 7.183064-3.257783 7.183064-3.457036S6.993773-3.656289 6.854296-3.656289H.886675C.747198-3.656289 .557908-3.656289 .557908-3.457036S.747198-3.257783 .896638-3.257783H6.844334ZM6.854296-1.325031C6.993773-1.325031 7.183064-1.325031 7.183064-1.524284S6.993773-1.723537 6.844334-1.723537H.896638C.747198-1.723537 .557908-1.723537 .557908-1.524284S.747198-1.325031 .886675-1.325031H6.854296Z'/>
<path id='g1-48' d='M2.022416-3.291656C2.078207-3.410212 2.085181-3.466002 2.085181-3.514819C2.085181-3.731009 1.889913-3.898381 1.673724-3.898381C1.408717-3.898381 1.325031-3.682192 1.290162-3.57061L.369614-.550934C.36264-.536986 .334745-.446326 .334745-.439352C.334745-.355666 .550934-.285928 .606725-.285928C.655542-.285928 .662516-.299875 .711333-.404483L2.022416-3.291656Z'/>
<path id='g1-121' d='M1.910834-2.915068C2.015442-2.901121 2.085181-2.894147 2.294396-2.838356C2.517559-2.775592 2.684932-2.733748 2.817435-2.733748C3.089415-2.733748 3.11731-2.942964 3.11731-3.005729C3.11731-3.061519 3.089415-3.277709 2.817435-3.277709C2.684932-3.277709 2.517559-3.235866 2.294396-3.173101C2.085181-3.11731 2.015442-3.110336 1.910834-3.096389C1.924782-3.340473 1.973599-3.633375 2.008468-3.849564C2.036364-3.989041 2.099128-4.344707 2.099128-4.588792C2.099128-4.798007 2.001494-4.909589 1.827148-4.909589C1.680697-4.909589 1.555168-4.832877 1.555168-4.588792C1.555168-4.358655 1.610959-4.009963 1.652802-3.772852C1.66675-3.696139 1.729514-3.354421 1.743462-3.096389C1.638854-3.110336 1.569116-3.11731 1.3599-3.173101C1.136737-3.235866 .969365-3.277709 .836862-3.277709C.564882-3.277709 .536986-3.068493 .536986-3.005729C.536986-2.949938 .564882-2.733748 .836862-2.733748C.969365-2.733748 1.136737-2.775592 1.3599-2.838356C1.569116-2.894147 1.638854-2.901121 1.743462-2.915068C1.729514-2.740722 1.680697-2.517559 1.645828-2.371108C1.555168-1.93873 1.555168-1.889913 1.555168-1.527273C1.555168-.18132 1.687671 1.248319 1.708593 1.387796C1.715567 1.45056 1.729514 1.492403 1.827148 1.492403C1.931756 1.492403 1.93873 1.45056 1.952677 1.352927C1.952677 1.345953 2.008468 .739228 2.036364 .313823C2.071233-.299875 2.099128-.913574 2.099128-1.527273C2.099128-1.889913 2.099128-1.93873 2.001494-2.385056C1.987547-2.461768 1.924782-2.740722 1.910834-2.915068Z'/>
<path id='g2-48' d='M1.793275-2.316314C1.798257-2.321295 1.843088-2.41594 1.843088-2.49066C1.843088-2.669988 1.683686-2.784558 1.534247-2.784558C1.330012-2.784558 1.275218-2.630137 1.250311-2.555417L.483188-.398506C.463263-.33873 .463263-.323786 .463263-.318804C.463263-.239103 .672478-.18929 .67746-.18929C.722291-.18929 .732254-.214197 .762142-.273973L1.793275-2.316314Z'/>
<path id='g4-112' d='M.523039 .850809C.474222 1.046077 .460274 1.101868 .18132 1.101868C.09066 1.101868-.006974 1.101868-.006974 1.248319C-.006974 1.325031 .055791 1.352927 .09066 1.352927C.27198 1.352927 .502117 1.325031 .690411 1.325031C.927522 1.325031 1.192528 1.352927 1.422665 1.352927C1.48543 1.352927 1.562142 1.332005 1.562142 1.199502C1.562142 1.101868 1.464508 1.101868 1.380822 1.101868C1.227397 1.101868 1.039103 1.101868 1.039103 1.018182C1.039103 .983313 1.08792 .801993 1.115816 .697385C1.199502 .327771 1.297136-.048817 1.373848-.341719C1.457534-.202242 1.673724 .069738 2.092154 .069738C2.942964 .069738 3.884433-.871731 3.884433-1.910834C3.884433-2.726775 3.319552-3.075467 2.838356-3.075467C2.405978-3.075467 2.036364-2.782565 1.84807-2.587298C1.729514-2.984807 1.338979-3.075467 1.129763-3.075467C.857783-3.075467 .690411-2.894147 .578829-2.705853C.439352-2.468742 .327771-2.050311 .327771-2.008468C.327771-1.917808 .425405-1.917808 .446326-1.917808C.54396-1.917808 .550934-1.93873 .599751-2.127024C.704359-2.531507 .836862-2.880199 1.108842-2.880199C1.290162-2.880199 1.338979-2.726775 1.338979-2.538481C1.338979-2.461768 1.325031-2.371108 1.318057-2.329265L.523039 .850809ZM1.841096-2.238605C2.245579-2.775592 2.594271-2.880199 2.817435-2.880199C3.089415-2.880199 3.326526-2.677958 3.326526-2.203736C3.326526-1.917808 3.173101-1.206476 2.963885-.801993C2.789539-.460274 2.447821-.125529 2.092154-.125529C1.597011-.125529 1.471482-.662516 1.471482-.732254C1.471482-.760149 1.48543-.808966 1.492403-.836862L1.841096-2.238605Z'/>
<path id='g4-115' d='M3.005729-2.622167C2.824408-2.580324 2.712827-2.433873 2.712827-2.294396C2.712827-2.133998 2.852304-2.071233 2.942964-2.071233C3.012702-2.071233 3.277709-2.113076 3.277709-2.468742C3.277709-2.922042 2.775592-3.075467 2.350187-3.075467C1.262267-3.075467 1.066999-2.273474 1.066999-2.057285C1.066999-1.799253 1.21345-1.63188 1.311083-1.548194C1.492403-1.408717 1.617933-1.380822 2.099128-1.297136C2.245579-1.26924 2.691905-1.185554 2.691905-.836862C2.691905-.718306 2.615193-.4533 2.322291-.278954C2.050311-.125529 1.708593-.125529 1.624907-.125529C1.345953-.125529 .948443-.188294 .788045-.418431C1.018182-.446326 1.171606-.620672 1.171606-.81594C1.171606-.990286 1.046077-1.073973 .899626-1.073973C.697385-1.073973 .495143-.913574 .495143-.606725C.495143-.188294 .941469 .069738 1.617933 .069738C2.901121 .069738 3.138232-.808966 3.138232-1.080946C3.138232-1.72254 2.433873-1.84807 2.175841-1.896887C2.113076-1.910834 1.93873-1.93873 1.896887-1.952677C1.638854-2.001494 1.513325-2.147945 1.513325-2.30137C1.513325-2.461768 1.638854-2.650062 1.792279-2.747696C1.980573-2.866252 2.224658-2.880199 2.343213-2.880199C2.489664-2.880199 2.852304-2.859278 3.005729-2.622167Z'/>
<path id='g3-14' d='M2.630137-4.353674C1.384807-4.054795 .418431-2.759651 .418431-1.554172C.418431-.597758 1.05604 .119552 1.992528 .119552C3.158157 .119552 3.985056-1.444583 3.985056-2.819427C3.985056-3.726027 3.58655-4.224159 3.247821-4.672478C2.889166-5.120797 2.30137-5.867995 2.30137-6.306351C2.30137-6.525529 2.500623-6.764633 2.849315-6.764633C3.148194-6.764633 3.347447-6.635118 3.556663-6.495641C3.755915-6.37609 3.955168-6.246575 4.104608-6.246575C4.353674-6.246575 4.503113-6.485679 4.503113-6.645081C4.503113-6.864259 4.343711-6.894147 3.985056-6.973848C3.466999-7.083437 3.327522-7.083437 3.16812-7.083437C2.391034-7.083437 2.032379-6.655044 2.032379-6.057285C2.032379-5.519303 2.321295-4.961395 2.630137-4.353674ZM2.749689-4.134496C2.998755-3.676214 3.297634-3.138232 3.297634-2.420922C3.297634-1.763387 2.919054-.099626 1.992528-.099626C1.444583-.099626 1.036115-.518057 1.036115-1.275218C1.036115-1.902864 1.404732-3.775841 2.749689-4.134496Z'/>
<path id='g3-25' d='M2.6401-3.716065H3.765878C3.437111-2.241594 3.347447-1.8132 3.347447-1.145704C3.347447-.996264 3.347447-.727273 3.427148-.388543C3.526775 .049813 3.636364 .109589 3.785803 .109589C3.985056 .109589 4.194271-.069738 4.194271-.268991C4.194271-.328767 4.194271-.348692 4.134496-.488169C3.845579-1.205479 3.845579-1.853051 3.845579-2.132005C3.845579-2.660025 3.915318-3.198007 4.024907-3.716065H5.160648C5.290162-3.716065 5.648817-3.716065 5.648817-4.054795C5.648817-4.293898 5.439601-4.293898 5.250311-4.293898H1.912827C1.693649-4.293898 1.315068-4.293898 .876712-3.825654C.52802-3.437111 .268991-2.978829 .268991-2.929016C.268991-2.919054 .268991-2.82939 .388543-2.82939C.468244-2.82939 .488169-2.86924 .547945-2.948941C1.036115-3.716065 1.613948-3.716065 1.8132-3.716065H2.381071C2.062267-2.510585 1.524284-1.305106 1.105853-.398506C1.026152-.249066 1.026152-.229141 1.026152-.159402C1.026152 .029888 1.185554 .109589 1.315068 .109589C1.613948 .109589 1.693649-.169365 1.8132-.537983C1.952677-.996264 1.952677-1.016189 2.082192-1.514321L2.6401-3.716065Z'/>
<path id='g3-59' d='M2.022416-.009963C2.022416-.667497 1.77335-1.05604 1.384807-1.05604C1.05604-1.05604 .856787-.806974 .856787-.52802C.856787-.259029 1.05604 0 1.384807 0C1.504359 0 1.633873-.039851 1.733499-.129514C1.763387-.14944 1.77335-.159402 1.783313-.159402S1.803238-.14944 1.803238-.009963C1.803238 .727273 1.454545 1.325031 1.125778 1.653798C1.016189 1.763387 1.016189 1.783313 1.016189 1.8132C1.016189 1.882939 1.066002 1.92279 1.115816 1.92279C1.225405 1.92279 2.022416 1.155666 2.022416-.009963Z'/>
<path id='g3-98' d='M2.381071-6.804483C2.381071-6.814446 2.381071-6.914072 2.251557-6.914072C2.022416-6.914072 1.295143-6.834371 1.036115-6.814446C.956413-6.804483 .846824-6.794521 .846824-6.615193C.846824-6.495641 .936488-6.495641 1.085928-6.495641C1.564134-6.495641 1.58406-6.425903 1.58406-6.326276C1.58406-6.256538 1.494396-5.917808 1.444583-5.708593L.627646-2.460772C.508095-1.96264 .468244-1.803238 .468244-1.454545C.468244-.508095 .996264 .109589 1.733499 .109589C2.909091 .109589 4.134496-1.374844 4.134496-2.809465C4.134496-3.716065 3.606476-4.403487 2.809465-4.403487C2.351183-4.403487 1.942715-4.11457 1.643836-3.805729L2.381071-6.804483ZM1.444583-3.038605C1.504359-3.257783 1.504359-3.277709 1.594022-3.387298C2.082192-4.034869 2.530511-4.184309 2.789539-4.184309C3.148194-4.184309 3.417186-3.88543 3.417186-3.247821C3.417186-2.660025 3.088418-1.514321 2.909091-1.135741C2.580324-.468244 2.122042-.109589 1.733499-.109589C1.39477-.109589 1.066002-.37858 1.066002-1.115816C1.066002-1.305106 1.066002-1.494396 1.225405-2.122042L1.444583-3.038605Z'/>
<path id='g3-99' d='M3.945205-3.785803C3.785803-3.785803 3.646326-3.785803 3.506849-3.646326C3.347447-3.496887 3.327522-3.327522 3.327522-3.257783C3.327522-3.01868 3.506849-2.909091 3.696139-2.909091C3.985056-2.909091 4.254047-3.148194 4.254047-3.5467C4.254047-4.034869 3.785803-4.403487 3.078456-4.403487C1.733499-4.403487 .408468-2.978829 .408468-1.574097C.408468-.67746 .986301 .109589 2.022416 .109589C3.447073 .109589 4.283935-.946451 4.283935-1.066002C4.283935-1.125778 4.224159-1.195517 4.164384-1.195517C4.11457-1.195517 4.094645-1.175592 4.034869-1.09589C3.247821-.109589 2.161893-.109589 2.042341-.109589C1.414695-.109589 1.145704-.597758 1.145704-1.195517C1.145704-1.603985 1.344956-2.570361 1.683686-3.188045C1.992528-3.755915 2.540473-4.184309 3.088418-4.184309C3.427148-4.184309 3.805729-4.054795 3.945205-3.785803Z'/>
<path id='g3-112' d='M.448319 1.215442C.368618 1.554172 .348692 1.62391-.089664 1.62391C-.209215 1.62391-.318804 1.62391-.318804 1.8132C-.318804 1.892902-.268991 1.932752-.18929 1.932752C.079701 1.932752 .368618 1.902864 .647572 1.902864C.976339 1.902864 1.315068 1.932752 1.633873 1.932752C1.683686 1.932752 1.8132 1.932752 1.8132 1.733499C1.8132 1.62391 1.713574 1.62391 1.574097 1.62391C1.075965 1.62391 1.075965 1.554172 1.075965 1.464508C1.075965 1.344956 1.494396-.278954 1.564134-.52802C1.693649-.239103 1.972603 .109589 2.480697 .109589C3.636364 .109589 4.881694-1.344956 4.881694-2.809465C4.881694-3.745953 4.313823-4.403487 3.556663-4.403487C3.058531-4.403487 2.580324-4.044832 2.251557-3.656289C2.15193-4.194271 1.723537-4.403487 1.354919-4.403487C.896638-4.403487 .707347-4.014944 .617684-3.835616C.438356-3.496887 .308842-2.899128 .308842-2.86924C.308842-2.769614 .408468-2.769614 .428394-2.769614C.52802-2.769614 .537983-2.779577 .597758-2.998755C.767123-3.706102 .966376-4.184309 1.325031-4.184309C1.494396-4.184309 1.633873-4.104608 1.633873-3.726027C1.633873-3.496887 1.603985-3.387298 1.564134-3.217933L.448319 1.215442ZM2.201743-3.108344C2.271482-3.377335 2.540473-3.656289 2.719801-3.805729C3.068493-4.11457 3.35741-4.184309 3.526775-4.184309C3.92528-4.184309 4.164384-3.835616 4.164384-3.247821S3.835616-1.514321 3.656289-1.135741C3.317559-.438356 2.839352-.109589 2.470735-.109589C1.8132-.109589 1.683686-.936488 1.683686-.996264C1.683686-1.016189 1.683686-1.036115 1.713574-1.155666L2.201743-3.108344Z'/>
<path id='g3-126' d='M5.349938-5.927771C5.210461-5.798257 4.881694-5.519303 4.881694-5.339975C4.881694-5.240349 4.98132-5.140722 5.080946-5.140722C5.17061-5.140722 5.220423-5.210461 5.270237-5.270237C5.389788-5.419676 5.618929-5.69863 6.057285-5.917808C6.127024-5.957659 6.22665-6.007472 6.22665-6.127024C6.22665-6.22665 6.156912-6.276463 6.087173-6.326276C5.867995-6.475716 5.758406-6.655044 5.678705-6.894147C5.65878-6.983811 5.618929-7.113325 5.479452-7.113325S5.280199-6.983811 5.280199-6.90411C5.280199-6.854296 5.3599-6.535492 5.519303-6.326276H2.161893C1.992528-6.326276 1.8132-6.326276 1.8132-6.127024S1.992528-5.927771 2.161893-5.927771H5.349938Z'/>
<path id='g0-0' d='M6.56538-2.291407C6.734745-2.291407 6.914072-2.291407 6.914072-2.49066S6.734745-2.689913 6.56538-2.689913H1.175592C1.006227-2.689913 .826899-2.689913 .826899-2.49066S1.006227-2.291407 1.175592-2.291407H6.56538Z'/>
<path id='g0-102' d='M2.819427-6.146949C2.819427-6.545455 3.078456-7.183064 4.164384-7.252802C4.214197-7.262765 4.254047-7.302615 4.254047-7.362391C4.254047-7.47198 4.174346-7.47198 4.064757-7.47198C3.068493-7.47198 2.161893-6.963885 2.15193-6.22665V-3.955168C2.15193-3.566625 2.15193-3.247821 1.753425-2.919054C1.404732-2.630137 1.026152-2.610212 .806974-2.600249C.757161-2.590286 .71731-2.550436 .71731-2.49066C.71731-2.391034 .777086-2.391034 .876712-2.381071C1.534247-2.34122 2.012453-1.982565 2.122042-1.494396C2.15193-1.384807 2.15193-1.364882 2.15193-1.006227V.966376C2.15193 1.384807 2.15193 1.703611 2.630137 2.082192C3.01868 2.381071 3.676214 2.49066 4.064757 2.49066C4.174346 2.49066 4.254047 2.49066 4.254047 2.381071C4.254047 2.281445 4.194271 2.281445 4.094645 2.271482C3.466999 2.231631 2.978829 1.912827 2.849315 1.404732C2.819427 1.315068 2.819427 1.295143 2.819427 .936488V-1.155666C2.819427-1.613948 2.739726-1.783313 2.420922-2.102117C2.211706-2.311333 1.92279-2.410959 1.643836-2.49066C2.460772-2.719801 2.819427-3.178082 2.819427-3.755915V-6.146949Z'/>
<path id='g0-103' d='M2.15193 1.165629C2.15193 1.564134 1.892902 2.201743 .806974 2.271482C.757161 2.281445 .71731 2.321295 .71731 2.381071C.71731 2.49066 .826899 2.49066 .916563 2.49066C1.882939 2.49066 2.809465 2.002491 2.819427 1.24533V-1.026152C2.819427-1.414695 2.819427-1.733499 3.217933-2.062267C3.566625-2.351183 3.945205-2.371108 4.164384-2.381071C4.214197-2.391034 4.254047-2.430884 4.254047-2.49066C4.254047-2.590286 4.194271-2.590286 4.094645-2.600249C3.437111-2.6401 2.958904-2.998755 2.849315-3.486924C2.819427-3.596513 2.819427-3.616438 2.819427-3.975093V-5.947696C2.819427-6.366127 2.819427-6.684932 2.34122-7.063512C1.942715-7.372354 1.255293-7.47198 .916563-7.47198C.826899-7.47198 .71731-7.47198 .71731-7.362391C.71731-7.262765 .777086-7.262765 .876712-7.252802C1.504359-7.212951 1.992528-6.894147 2.122042-6.386052C2.15193-6.296389 2.15193-6.276463 2.15193-5.917808V-3.825654C2.15193-3.367372 2.231631-3.198007 2.550436-2.879203C2.759651-2.669988 3.048568-2.570361 3.327522-2.49066C2.510585-2.261519 2.15193-1.803238 2.15193-1.225405V1.165629Z'/>
</defs>
<g id='page1' transform='matrix(1.5 0 0 1.5 0 0)'>
<use x='167.931019' y='39.262084' xlink:href='#g0-102'/>
<use x='172.912358' y='39.262084' xlink:href='#g3-98'/>
<use x='177.187993' y='35.148588' xlink:href='#g4-115'/>
<use x='177.187993' y='41.725016' xlink:href='#g4-112'/>
<use x='181.793068' y='39.262084' xlink:href='#g3-59'/>
<use x='186.220876' y='39.262084' xlink:href='#g3-98'/>
<use x='190.496511' y='34.474511' xlink:href='#g4-115'/>
<use x='194.256735' y='31.467994' xlink:href='#g2-48'/>
<use x='196.95151' y='34.474511' xlink:href='#g1-121'/>
<use x='190.496511' y='42.184384' xlink:href='#g4-112'/>
<use x='194.603467' y='40.191871' xlink:href='#g2-48'/>
<use x='201.102612' y='39.262084' xlink:href='#g0-103'/>
<use x='208.851253' y='39.262084' xlink:href='#g5-61'/>
<use x='219.367333' y='39.262084' xlink:href='#g5-40'/>
<use x='223.241707' y='39.262084' xlink:href='#g5-50'/>
<use x='228.223046' y='39.262084' xlink:href='#g3-25'/>
<use x='234.259463' y='39.262084' xlink:href='#g5-41'/>
<use x='238.133836' y='35.148588' xlink:href='#g6-51'/>
<use x='242.603206' y='39.262084' xlink:href='#g3-14'/>
<use x='247.408098' y='35.148588' xlink:href='#g6-51'/>
<use x='251.877468' y='39.262084' xlink:href='#g5-40'/>
<use x='255.831438' y='39.262084' xlink:href='#g3-126'/>
<use x='255.751841' y='39.262084' xlink:href='#g3-112'/>
<use x='262.978161' y='39.262084' xlink:href='#g0-0'/>
<use x='273.587656' y='36.799076' xlink:href='#g3-126'/>
<use x='272.940774' y='39.262084' xlink:href='#g3-112'/>
<use x='277.953239' y='36.383992' xlink:href='#g1-48'/>
<use x='280.748303' y='39.262084' xlink:href='#g5-41'/>
<use x='284.622677' y='39.262084' xlink:href='#g3-14'/>
<use x='289.427569' y='35.148588' xlink:href='#g4-115'/>
<use x='293.187793' y='35.148588' xlink:href='#g4-115'/>
<use x='296.948018' y='32.142071' xlink:href='#g2-48'/>
<use x='167.85948' y='58.086953' xlink:href='#g0-102'/>
<use x='172.840819' y='58.086953' xlink:href='#g3-99'/>
<use x='177.152215' y='53.973457' xlink:href='#g4-115'/>
<use x='177.152215' y='60.549885' xlink:href='#g4-112'/>
<use x='181.757291' y='58.086953' xlink:href='#g3-59'/>
<use x='186.185099' y='58.086953' xlink:href='#g3-99'/>
<use x='190.496496' y='53.29938' xlink:href='#g4-115'/>
<use x='194.25672' y='50.292862' xlink:href='#g2-48'/>
<use x='196.951494' y='53.29938' xlink:href='#g1-121'/>
<use x='190.496496' y='61.009252' xlink:href='#g4-112'/>
<use x='194.603452' y='59.01674' xlink:href='#g2-48'/>
<use x='201.102597' y='58.086953' xlink:href='#g0-103'/>
<use x='208.851253' y='58.086953' xlink:href='#g5-61'/>
<use x='219.367333' y='58.086953' xlink:href='#g5-40'/>
<use x='223.241707' y='58.086953' xlink:href='#g5-50'/>
<use x='228.223046' y='58.086953' xlink:href='#g3-25'/>
<use x='234.259463' y='58.086953' xlink:href='#g5-41'/>
<use x='238.133836' y='53.973457' xlink:href='#g6-51'/>
<use x='242.603206' y='58.086953' xlink:href='#g3-14'/>
<use x='247.408098' y='53.973457' xlink:href='#g6-51'/>
<use x='251.877468' y='58.086953' xlink:href='#g5-40'/>
<use x='255.831438' y='58.086953' xlink:href='#g3-126'/>
<use x='255.751841' y='58.086953' xlink:href='#g3-112'/>
<use x='262.978161' y='58.086953' xlink:href='#g0-0'/>
<use x='273.587656' y='55.623945' xlink:href='#g3-126'/>
<use x='272.940774' y='58.086953' xlink:href='#g3-112'/>
<use x='277.953239' y='55.20886' xlink:href='#g1-48'/>
<use x='280.748303' y='58.086953' xlink:href='#g5-41'/>
<use x='284.622677' y='58.086953' xlink:href='#g3-14'/>
<use x='289.427569' y='53.973457' xlink:href='#g4-115'/>
<use x='293.187793' y='53.973457' xlink:href='#g4-115'/>
<use x='296.948018' y='50.96694' xlink:href='#g2-48'/>
</g>
</svg>