<?xml version='1.0' encoding='UTF-8'?>
<!-- This file was generated by dvisvgm 3.2 -->
<svg version='1.1' xmlns='http://www.w3.org/2000/svg' xmlns:xlink='http://www.w3.org/1999/xlink' width='60.551016pt' height='14.940629pt' viewBox='-21.101892 11.568936 60.551016 14.940629'>
<defs>
<path id='g2-48' d='M4.582814-3.188045C4.582814-3.985056 4.533001-4.782067 4.184309-5.519303C3.726027-6.475716 2.909091-6.635118 2.49066-6.635118C1.892902-6.635118 1.165629-6.37609 .757161-5.449564C.438356-4.762142 .388543-3.985056 .388543-3.188045C.388543-2.440847 .428394-1.544209 .836862-.787049C1.265255 .019925 1.992528 .219178 2.480697 .219178C3.01868 .219178 3.775841 .009963 4.214197-.936488C4.533001-1.62391 4.582814-2.400996 4.582814-3.188045ZM2.480697 0C2.092154 0 1.504359-.249066 1.325031-1.205479C1.215442-1.803238 1.215442-2.719801 1.215442-3.307597C1.215442-3.945205 1.215442-4.60274 1.295143-5.140722C1.484433-6.326276 2.231631-6.41594 2.480697-6.41594C2.809465-6.41594 3.466999-6.236613 3.656289-5.250311C3.755915-4.692403 3.755915-3.935243 3.755915-3.307597C3.755915-2.560399 3.755915-1.882939 3.646326-1.24533C3.496887-.298879 2.929016 0 2.480697 0Z'/>
<path id='g2-61' d='M6.844334-3.257783C6.993773-3.257783 7.183064-3.257783 7.183064-3.457036S6.993773-3.656289 6.854296-3.656289H.886675C.747198-3.656289 .557908-3.656289 .557908-3.457036S.747198-3.257783 .896638-3.257783H6.844334ZM6.854296-1.325031C6.993773-1.325031 7.183064-1.325031 7.183064-1.524284S6.993773-1.723537 6.844334-1.723537H.896638C.747198-1.723537 .557908-1.723537 .557908-1.524284S.747198-1.325031 .886675-1.325031H6.854296Z'/>
<path id='g1-65' d='M1.783313-1.145704C1.384807-.478207 .996264-.33873 .557908-.308842C.438356-.298879 .348692-.298879 .348692-.109589C.348692-.049813 .398506 0 .478207 0C.747198 0 1.05604-.029888 1.334994-.029888C1.663761-.029888 2.012453 0 2.331258 0C2.391034 0 2.520548 0 2.520548-.18929C2.520548-.298879 2.430884-.308842 2.361146-.308842C2.132005-.328767 1.892902-.408468 1.892902-.657534C1.892902-.777086 1.952677-.886675 2.032379-1.026152L2.789539-2.30137H5.290162C5.310087-2.092154 5.449564-.737235 5.449564-.637609C5.449564-.33873 4.931507-.308842 4.732254-.308842C4.592777-.308842 4.493151-.308842 4.493151-.109589C4.493151 0 4.612702 0 4.632628 0C5.041096 0 5.469489-.029888 5.877958-.029888C6.127024-.029888 6.75467 0 7.003736 0C7.063512 0 7.183064 0 7.183064-.199253C7.183064-.308842 7.083437-.308842 6.953923-.308842C6.336239-.308842 6.336239-.37858 6.306351-.667497L5.69863-6.894147C5.678705-7.0934 5.678705-7.13325 5.50934-7.13325C5.349938-7.13325 5.310087-7.063512 5.250311-6.963885L1.783313-1.145704ZM2.978829-2.610212L4.941469-5.897883L5.260274-2.610212H2.978829Z'/>
<path id='g1-126' d='M5.349938-5.927771C5.210461-5.798257 4.881694-5.519303 4.881694-5.339975C4.881694-5.240349 4.98132-5.140722 5.080946-5.140722C5.17061-5.140722 5.220423-5.210461 5.270237-5.270237C5.389788-5.419676 5.618929-5.69863 6.057285-5.917808C6.127024-5.957659 6.22665-6.007472 6.22665-6.127024C6.22665-6.22665 6.156912-6.276463 6.087173-6.326276C5.867995-6.475716 5.758406-6.655044 5.678705-6.894147C5.65878-6.983811 5.618929-7.113325 5.479452-7.113325S5.280199-6.983811 5.280199-6.90411C5.280199-6.854296 5.3599-6.535492 5.519303-6.326276H2.161893C1.992528-6.326276 1.8132-6.326276 1.8132-6.127024S1.992528-5.927771 2.161893-5.927771H5.349938Z'/>
<path id='g0-1' d='M1.912827-2.49066C1.912827-2.779577 1.673724-3.01868 1.384807-3.01868S.856787-2.779577 .856787-2.49066S1.09589-1.96264 1.384807-1.96264S1.912827-2.201743 1.912827-2.49066Z'/>
<path id='g0-114' d='M7.770859-6.585305C7.790785-6.615193 7.820672-6.684932 7.820672-6.724782C7.820672-6.794521 7.81071-6.804483 7.581569-6.804483H.707347C.478207-6.804483 .468244-6.794521 .468244-6.724782C.468244-6.684932 .498132-6.615193 .518057-6.585305L3.875467 .139477C3.945205 .268991 3.975093 .328767 4.144458 .328767S4.343711 .268991 4.41345 .139477L7.770859-6.585305ZM1.703611-6.087173H7.173101L4.443337-.607721L1.703611-6.087173Z'/>
</defs>
<g id='page1' transform='matrix(1.5 0 0 1.5 0 0)'>
<use x='-14.536172' y='17.344276' xlink:href='#g0-114'/>
<use x='-4.020081' y='17.344276' xlink:href='#g0-1'/>
<use x='2.82405' y='14.825949' xlink:href='#g1-126'/>
<use x='.961193' y='17.344276' xlink:href='#g1-65'/>
<use x='11.200521' y='17.344276' xlink:href='#g2-61'/>
<use x='21.716601' y='17.344276' xlink:href='#g2-48'/>
</g>
</svg>