<?xml version='1.0' encoding='UTF-8'?>
<!-- This file was generated by dvisvgm 3.2 -->
<svg version='1.1' xmlns='http://www.w3.org/2000/svg' xmlns:xlink='http://www.w3.org/1999/xlink' width='195.835617pt' height='26.884184pt' viewBox='253.208693 26.763466 195.835617 26.884184'>
<defs>
<path id='g0-0' d='M6.56538-2.291407C6.734745-2.291407 6.914072-2.291407 6.914072-2.49066S6.734745-2.689913 6.56538-2.689913H1.175592C1.006227-2.689913 .826899-2.689913 .826899-2.49066S1.006227-2.291407 1.175592-2.291407H6.56538Z'/>
<path id='g0-17' d='M6.834371-4.224159C7.003736-4.224159 7.193026-4.224159 7.193026-4.423412S7.013699-4.622665 6.844334-4.622665H.896638C.727273-4.622665 .547945-4.622665 .547945-4.423412S.747198-4.224159 .9066-4.224159H6.834371ZM6.844334-.358655C7.013699-.358655 7.193026-.358655 7.193026-.557908S7.003736-.757161 6.834371-.757161H.9066C.747198-.757161 .547945-.757161 .547945-.557908S.727273-.358655 .896638-.358655H6.844334ZM6.844334-2.291407C7.013699-2.291407 7.193026-2.291407 7.193026-2.49066S7.013699-2.689913 6.844334-2.689913H.896638C.727273-2.689913 .547945-2.689913 .547945-2.49066S.727273-2.291407 .896638-2.291407H6.844334Z'/>
<path id='g3-32' d='M3.793773-4.651557C3.814695-4.721295 3.814695-4.749191 3.814695-4.756164C3.814695-4.839851 3.724035-4.839851 3.703113-4.839851C3.598506-4.839851 3.598506-4.811955 3.563636-4.686426L2.426899-.139477C1.855044-.209215 1.548194-.4533 1.548194-.920548C1.548194-1.025156 1.548194-1.220423 1.896887-2.085181C1.952677-2.238605 2.001494-2.357161 2.001494-2.475716C2.001494-2.838356 1.694645-3.075467 1.338979-3.075467C.641594-3.075467 .327771-2.12005 .327771-2.008468C.327771-1.917808 .425405-1.917808 .446326-1.917808C.54396-1.917808 .550934-1.952677 .571856-2.02939C.739228-2.601245 1.046077-2.880199 1.318057-2.880199C1.436613-2.880199 1.492403-2.803487 1.492403-2.636115C1.492403-2.475716 1.436613-2.343213 1.3599-2.133998C1.011208-1.255293 1.011208-1.094894 1.011208-.969365C1.011208-.167372 1.855044 .027895 2.378082 .055791C2.329265 .237111 2.064259 1.30411 2.064259 1.332005C2.064259 1.422665 2.147945 1.422665 2.175841 1.422665C2.273474 1.422665 2.287422 1.387796 2.315318 1.276214L2.615193 .069738C2.887173 .069738 3.528767 .069738 4.261021-.662516C4.449315-.857783 4.637609-1.101868 4.763138-1.408717C4.860772-1.638854 5.007223-2.21071 5.007223-2.531507C5.007223-3.075467 4.679452-3.082441 4.658531-3.082441C4.47721-3.082441 4.281943-2.894147 4.281943-2.712827C4.281943-2.594271 4.351681-2.538481 4.379577-2.517559C4.491158-2.419925 4.658531-2.245579 4.658531-1.93873C4.658531-1.352927 3.856538-.125529 2.66401-.125529L3.793773-4.651557Z'/>
<path id='g3-70' d='M2.385056-2.245579H3.131258C3.66127-2.245579 3.75193-2.161893 3.75193-1.931756C3.75193-1.827148 3.75193-1.8132 3.703113-1.617933C3.689166-1.57609 3.682192-1.555168 3.682192-1.534247C3.682192-1.464508 3.731009-1.429639 3.800747-1.429639C3.891407-1.429639 3.898381-1.464508 3.93325-1.590037L4.309838-3.068493C4.316812-3.089415 4.337733-3.194022 4.337733-3.20797C4.337733-3.277709 4.288917-3.312578 4.219178-3.312578C4.121544-3.312578 4.11457-3.270735 4.079701-3.145205C3.940224-2.601245 3.737983-2.496638 3.145205-2.496638H2.447821L2.887173-4.247073C2.942964-4.463263 2.949938-4.484184 3.242839-4.484184H4.309838C5.23736-4.484184 5.411706-4.261021 5.411706-3.682192C5.411706-3.452055 5.383811-3.305604 5.383811-3.249813S5.404732-3.131258 5.502366-3.131258C5.606974-3.131258 5.613948-3.194022 5.627895-3.312578L5.753425-4.526027C5.774346-4.735243 5.725529-4.735243 5.551183-4.735243H1.827148C1.694645-4.735243 1.603985-4.735243 1.603985-4.581818C1.603985-4.484184 1.687671-4.484184 1.827148-4.484184C1.834122-4.484184 1.966625-4.484184 2.092154-4.470237C2.238605-4.456289 2.252553-4.442341 2.252553-4.372603C2.252553-4.323786 2.231631-4.254047 2.224658-4.219178L1.311083-.571856C1.241345-.299875 1.234371-.251059 .690411-.251059C.571856-.251059 .481196-.251059 .481196-.104608C.481196-.034869 .530012 0 .592777 0C.795019 0 1.311083-.027895 1.513325-.027895L2.050311-.020922C2.231631-.020922 2.426899 0 2.601245 0C2.650062 0 2.75467 0 2.75467-.153425C2.75467-.251059 2.670984-.251059 2.510585-.251059C2.496638-.251059 2.322291-.251059 2.147945-.265006C2.001494-.278954 1.931756-.285928 1.931756-.383562C1.931756-.411457 1.931756-.432379 1.952677-.509091L2.385056-2.245579Z'/>
<path id='g4-1' d='M4.403487-6.953923C4.333748-7.083437 4.313823-7.13325 4.144458-7.13325S3.955168-7.083437 3.88543-6.953923L.518057-.199253C.468244-.109589 .468244-.089664 .468244-.079701C.468244 0 .52802 0 .687422 0H7.601494C7.760897 0 7.820672 0 7.820672-.079701C7.820672-.089664 7.820672-.109589 7.770859-.199253L4.403487-6.953923ZM3.825654-6.136986L6.505604-.757161H1.135741L3.825654-6.136986Z'/>
<path id='g4-40' d='M3.297634 2.391034C3.297634 2.361146 3.297634 2.34122 3.128269 2.171856C1.882939 .916563 1.564134-.966376 1.564134-2.49066C1.564134-4.224159 1.942715-5.957659 3.16812-7.202989C3.297634-7.32254 3.297634-7.342466 3.297634-7.372354C3.297634-7.442092 3.257783-7.47198 3.198007-7.47198C3.098381-7.47198 2.201743-6.794521 1.613948-5.529265C1.105853-4.433375 .986301-3.327522 .986301-2.49066C.986301-1.713574 1.09589-.508095 1.643836 .617684C2.241594 1.843088 3.098381 2.49066 3.198007 2.49066C3.257783 2.49066 3.297634 2.460772 3.297634 2.391034Z'/>
<path id='g4-41' d='M2.879203-2.49066C2.879203-3.267746 2.769614-4.473225 2.221669-5.599004C1.62391-6.824408 .767123-7.47198 .667497-7.47198C.607721-7.47198 .56787-7.43213 .56787-7.372354C.56787-7.342466 .56787-7.32254 .757161-7.143213C1.733499-6.156912 2.30137-4.572852 2.30137-2.49066C2.30137-.787049 1.932752 .966376 .697385 2.221669C.56787 2.34122 .56787 2.361146 .56787 2.391034C.56787 2.450809 .607721 2.49066 .667497 2.49066C.767123 2.49066 1.663761 1.8132 2.251557 .547945C2.759651-.547945 2.879203-1.653798 2.879203-2.49066Z'/>
<path id='g4-61' d='M6.844334-3.257783C6.993773-3.257783 7.183064-3.257783 7.183064-3.457036S6.993773-3.656289 6.854296-3.656289H.886675C.747198-3.656289 .557908-3.656289 .557908-3.457036S.747198-3.257783 .896638-3.257783H6.844334ZM6.854296-1.325031C6.993773-1.325031 7.183064-1.325031 7.183064-1.524284S6.993773-1.723537 6.844334-1.723537H.896638C.747198-1.723537 .557908-1.723537 .557908-1.524284S.747198-1.325031 .886675-1.325031H6.854296Z'/>
<path id='g4-94' d='M2.49066-6.914072L1.155666-5.559153L1.334994-5.379826L2.49066-6.396015L3.636364-5.379826L3.815691-5.559153L2.49066-6.914072Z'/>
<path id='g1-121' d='M1.910834-2.915068C2.015442-2.901121 2.085181-2.894147 2.294396-2.838356C2.517559-2.775592 2.684932-2.733748 2.817435-2.733748C3.089415-2.733748 3.11731-2.942964 3.11731-3.005729C3.11731-3.061519 3.089415-3.277709 2.817435-3.277709C2.684932-3.277709 2.517559-3.235866 2.294396-3.173101C2.085181-3.11731 2.015442-3.110336 1.910834-3.096389C1.924782-3.340473 1.973599-3.633375 2.008468-3.849564C2.036364-3.989041 2.099128-4.344707 2.099128-4.588792C2.099128-4.798007 2.001494-4.909589 1.827148-4.909589C1.680697-4.909589 1.555168-4.832877 1.555168-4.588792C1.555168-4.358655 1.610959-4.009963 1.652802-3.772852C1.66675-3.696139 1.729514-3.354421 1.743462-3.096389C1.638854-3.110336 1.569116-3.11731 1.3599-3.173101C1.136737-3.235866 .969365-3.277709 .836862-3.277709C.564882-3.277709 .536986-3.068493 .536986-3.005729C.536986-2.949938 .564882-2.733748 .836862-2.733748C.969365-2.733748 1.136737-2.775592 1.3599-2.838356C1.569116-2.894147 1.638854-2.901121 1.743462-2.915068C1.729514-2.740722 1.680697-2.517559 1.645828-2.371108C1.555168-1.93873 1.555168-1.889913 1.555168-1.527273C1.555168-.18132 1.687671 1.248319 1.708593 1.387796C1.715567 1.45056 1.729514 1.492403 1.827148 1.492403C1.931756 1.492403 1.93873 1.45056 1.952677 1.352927C1.952677 1.345953 2.008468 .739228 2.036364 .313823C2.071233-.299875 2.099128-.913574 2.099128-1.527273C2.099128-1.889913 2.099128-1.93873 2.001494-2.385056C1.987547-2.461768 1.924782-2.740722 1.910834-2.915068Z'/>
<path id='g2-32' d='M4.801993-6.655044C4.811955-6.694894 4.83188-6.75467 4.83188-6.804483C4.83188-6.90411 4.762142-6.914072 4.712329-6.914072C4.612702-6.914072 4.60274-6.894147 4.562889-6.714819L2.909091-.129514C2.15193-.219178 1.77335-.587796 1.77335-1.24533C1.77335-1.444583 1.77335-1.703611 2.311333-3.098381C2.351183-3.217933 2.420922-3.387298 2.420922-3.58655C2.420922-4.034869 2.102117-4.403487 1.603985-4.403487C.657534-4.403487 .288917-2.958904 .288917-2.86924C.288917-2.769614 .388543-2.769614 .408468-2.769614C.508095-2.769614 .518057-2.789539 .56787-2.948941C.836862-3.895392 1.235367-4.184309 1.574097-4.184309C1.653798-4.184309 1.823163-4.184309 1.823163-3.865504C1.823163-3.606476 1.723537-3.35741 1.594022-3.008717C1.115816-1.753425 1.115816-1.494396 1.115816-1.325031C1.115816-.37858 1.892902 .029888 2.849315 .089664C2.769614 .448319 2.769614 .468244 2.630137 .996264C2.600249 1.105853 2.400996 1.912827 2.400996 1.942715C2.400996 1.952677 2.400996 2.042341 2.520548 2.042341C2.540473 2.042341 2.590286 2.042341 2.610212 2.002491C2.6401 1.982565 2.699875 1.733499 2.729763 1.594022L3.108344 .109589C3.476961 .109589 4.353674 .109589 5.290162-.956413C5.69863-1.414695 5.907846-1.853051 6.017435-2.15193C6.107098-2.400996 6.326276-3.267746 6.326276-3.706102C6.326276-4.26401 6.057285-4.403487 5.88792-4.403487C5.638854-4.403487 5.389788-4.144458 5.389788-3.92528C5.389788-3.795766 5.449564-3.73599 5.539228-3.656289C5.648817-3.5467 5.897883-3.287671 5.897883-2.809465C5.897883-2.171856 5.379826-1.354919 5.031133-.996264C4.154421-.109589 3.516812-.109589 3.158157-.109589L4.801993-6.655044Z'/>
<path id='g2-120' d='M3.327522-3.008717C3.387298-3.267746 3.616438-4.184309 4.313823-4.184309C4.363636-4.184309 4.60274-4.184309 4.811955-4.054795C4.533001-4.004981 4.333748-3.755915 4.333748-3.516812C4.333748-3.35741 4.443337-3.16812 4.712329-3.16812C4.931507-3.16812 5.250311-3.347447 5.250311-3.745953C5.250311-4.26401 4.662516-4.403487 4.323786-4.403487C3.745953-4.403487 3.39726-3.875467 3.277709-3.646326C3.028643-4.303861 2.49066-4.403487 2.201743-4.403487C1.165629-4.403487 .597758-3.118306 .597758-2.86924C.597758-2.769614 .697385-2.769614 .71731-2.769614C.797011-2.769614 .826899-2.789539 .846824-2.879203C1.185554-3.935243 1.843088-4.184309 2.181818-4.184309C2.371108-4.184309 2.719801-4.094645 2.719801-3.516812C2.719801-3.20797 2.550436-2.540473 2.181818-1.145704C2.022416-.52802 1.673724-.109589 1.235367-.109589C1.175592-.109589 .946451-.109589 .737235-.239103C.986301-.288917 1.205479-.498132 1.205479-.777086C1.205479-1.046077 .986301-1.125778 .836862-1.125778C.537983-1.125778 .288917-.86675 .288917-.547945C.288917-.089664 .787049 .109589 1.225405 .109589C1.882939 .109589 2.241594-.587796 2.271482-.647572C2.391034-.278954 2.749689 .109589 3.347447 .109589C4.373599 .109589 4.941469-1.175592 4.941469-1.424658C4.941469-1.524284 4.851806-1.524284 4.821918-1.524284C4.732254-1.524284 4.712329-1.484433 4.692403-1.414695C4.363636-.348692 3.686177-.109589 3.367372-.109589C2.978829-.109589 2.819427-.428394 2.819427-.767123C2.819427-.986301 2.879203-1.205479 2.988792-1.643836L3.327522-3.008717Z'/>
<path id='g5-49' d='M2.336239-4.435367C2.336239-4.623661 2.322291-4.630635 2.127024-4.630635C1.680697-4.191283 1.046077-4.184309 .760149-4.184309V-3.93325C.927522-3.93325 1.387796-3.93325 1.771357-4.128518V-.571856C1.771357-.341719 1.771357-.251059 1.073973-.251059H.808966V0C.934496-.006974 1.792279-.027895 2.050311-.027895C2.266501-.027895 3.145205-.006974 3.29863 0V-.251059H3.033624C2.336239-.251059 2.336239-.341719 2.336239-.571856V-4.435367Z'/>
<path id='g5-50' d='M3.521793-1.26924H3.284682C3.263761-1.115816 3.194022-.704359 3.103362-.63462C3.047572-.592777 2.510585-.592777 2.412951-.592777H1.129763C1.862017-1.241345 2.106102-1.436613 2.524533-1.764384C3.040598-2.175841 3.521793-2.608219 3.521793-3.270735C3.521793-4.11457 2.782565-4.630635 1.889913-4.630635C1.025156-4.630635 .439352-4.02391 .439352-3.382316C.439352-3.02665 .739228-2.991781 .808966-2.991781C.976339-2.991781 1.17858-3.110336 1.17858-3.361395C1.17858-3.486924 1.129763-3.731009 .767123-3.731009C.983313-4.226152 1.457534-4.379577 1.785305-4.379577C2.48269-4.379577 2.84533-3.835616 2.84533-3.270735C2.84533-2.66401 2.412951-2.182814 2.189788-1.931756L.509091-.27198C.439352-.209215 .439352-.195268 .439352 0H3.312578L3.521793-1.26924Z'/>
<path id='g6-68' d='M4.712329 17.285181C4.772105 17.43462 4.811955 17.524284 4.971357 17.524284C5.070984 17.524284 5.200498 17.444583 5.200498 17.285181C5.200498 17.235367 5.190535 17.215442 5.140722 17.09589L1.603985 8.56787L5.140722 .029888C5.190535-.089664 5.200498-.109589 5.200498-.159402C5.200498-.318804 5.070984-.398506 4.971357-.398506C4.811955-.398506 4.772105-.308842 4.712329-.159402L1.175592 8.368618C1.125778 8.498132 1.115816 8.508095 1.115816 8.56787C1.115816 8.617684 1.125778 8.637609 1.175592 8.757161L4.712329 17.285181Z'/>
<path id='g6-69' d='M.936488 17.09589C.886675 17.215442 .876712 17.235367 .876712 17.285181C.876712 17.444583 1.006227 17.524284 1.105853 17.524284C1.265255 17.524284 1.305106 17.43462 1.364882 17.285181L4.901619 8.757161C4.951432 8.637609 4.961395 8.617684 4.961395 8.56787C4.961395 8.508095 4.951432 8.498132 4.901619 8.368618L1.364882-.159402C1.305106-.308842 1.265255-.398506 1.105853-.398506C1.006227-.398506 .876712-.318804 .876712-.159402C.876712-.109589 .886675-.089664 .936488 .029888L4.473225 8.557908L.936488 17.09589Z'/>
</defs>
<g id='page1' transform='matrix(1.5 0 0 1.5 0 0)'>
<use x='167.68998' y='18.240816' xlink:href='#g6-68'/>
<use x='173.778263' y='29.299444' xlink:href='#g2-32'/>
<use x='180.267847' y='30.793825' xlink:href='#g5-49'/>
<use x='184.737217' y='29.299444' xlink:href='#g2-32'/>
<use x='191.58424' y='24.511871' xlink:href='#g1-121'/>
<use x='191.226801' y='31.956077' xlink:href='#g5-50'/>
<use x='195.735345' y='18.240816' xlink:href='#g6-69'/>
<use x='204.590953' y='29.299444' xlink:href='#g4-61'/>
<use x='215.107033' y='29.299444' xlink:href='#g4-1'/>
<use x='223.409259' y='24.511871' xlink:href='#g3-32'/>
<use x='223.409259' y='32.227292' xlink:href='#g3-70'/>
<use x='230.032371' y='29.299444' xlink:href='#g4-40'/>
<use x='233.906745' y='29.299444' xlink:href='#g2-120'/>
<use x='239.600677' y='30.793825' xlink:href='#g5-49'/>
<use x='246.283913' y='29.299444' xlink:href='#g0-0'/>
<use x='256.246526' y='29.299444' xlink:href='#g2-120'/>
<use x='261.940458' y='30.793825' xlink:href='#g5-50'/>
<use x='266.409828' y='29.299444' xlink:href='#g4-41'/>
<use x='273.051534' y='29.299444' xlink:href='#g0-17'/>
<use x='285.228059' y='26.781117' xlink:href='#g4-94'/>
<use x='283.567614' y='29.299444' xlink:href='#g4-1'/>
<use x='291.86984' y='30.793825' xlink:href='#g5-49'/>
<use x='295.84108' y='30.793825' xlink:href='#g5-50'/>
</g>
</svg>