<?xml version='1.0' encoding='UTF-8'?>
<!-- This file was generated by dvisvgm 3.2 -->
<svg version='1.1' xmlns='http://www.w3.org/2000/svg' xmlns:xlink='http://www.w3.org/1999/xlink' width='216.248955pt' height='16.609892pt' viewBox='242.64272 31.822439 216.248955 16.609892'>
<defs>
<path id='g0-0' d='M6.56538-2.291407C6.734745-2.291407 6.914072-2.291407 6.914072-2.49066S6.734745-2.689913 6.56538-2.689913H1.175592C1.006227-2.689913 .826899-2.689913 .826899-2.49066S1.006227-2.291407 1.175592-2.291407H6.56538Z'/>
<path id='g0-77' d='M3.835616-5.569116C4.104608-4.273973 4.542964-2.141968 5.110834-.986301C5.330012-.557908 5.439601-.33873 5.539228-.33873C5.579078-.33873 5.599004-.33873 5.778331-.518057C6.535492-1.24533 7.053549-1.823163 7.750934-2.620174L9.932752-5.160648C9.793275-4.313823 9.43462-2.072229 9.43462-.9066C9.43462-.637609 9.444583-.37858 9.474471-.109589C9.484433 0 9.524284 .288917 9.942715 .288917S11.118306-.14944 11.118306-.348692C11.118306-.408468 11.058531-.418431 11.028643-.418431C10.899128-.418431 10.699875-.328767 10.590286-.259029C10.351183-.288917 10.331258-.448319 10.311333-.67746C10.281445-.996264 10.281445-1.295143 10.281445-1.334994C10.281445-2.440847 10.719801-5.459527 11.008717-6.694894C11.01868-6.764633 11.028643-6.784558 11.028643-6.864259C11.028643-6.90411 11.01868-7.013699 10.948941-7.013699C10.909091-7.013699 10.899128-7.003736 10.709838-6.784558C9.77335-5.648817 6.864259-2.161893 5.877958-1.325031C5.628892-1.853051 5.449564-2.231631 5.100872-3.626401C4.811955-4.752179 4.64259-5.579078 4.473225-6.545455C4.443337-6.684932 4.393524-6.953923 4.393524-6.973848C4.363636-7.023661 4.313823-7.023661 4.283935-7.023661C4.104608-7.023661 3.686177-6.804483 3.656289-6.595268C3.536737-5.758406 3.337484-4.443337 2.6401-2.540473C1.843088-.418431 1.62391-.418431 1.43462-.418431C1.305106-.418431 .936488-.498132 .71731-.697385C.667497-.747198 .647572-.747198 .627646-.747198C.488169-.747198 .268991-.298879 .268991-.019925C.268991 .069738 .268991 .18929 .587796 .358655C.836862 .488169 1.075965 .498132 1.125778 .498132C1.743462 .498132 2.331258-.926526 2.530511-1.43462C2.998755-2.560399 3.556663-4.134496 3.835616-5.569116Z'/>
<path id='g3-40' d='M3.297634 2.391034C3.297634 2.361146 3.297634 2.34122 3.128269 2.171856C1.882939 .916563 1.564134-.966376 1.564134-2.49066C1.564134-4.224159 1.942715-5.957659 3.16812-7.202989C3.297634-7.32254 3.297634-7.342466 3.297634-7.372354C3.297634-7.442092 3.257783-7.47198 3.198007-7.47198C3.098381-7.47198 2.201743-6.794521 1.613948-5.529265C1.105853-4.433375 .986301-3.327522 .986301-2.49066C.986301-1.713574 1.09589-.508095 1.643836 .617684C2.241594 1.843088 3.098381 2.49066 3.198007 2.49066C3.257783 2.49066 3.297634 2.460772 3.297634 2.391034Z'/>
<path id='g3-41' d='M2.879203-2.49066C2.879203-3.267746 2.769614-4.473225 2.221669-5.599004C1.62391-6.824408 .767123-7.47198 .667497-7.47198C.607721-7.47198 .56787-7.43213 .56787-7.372354C.56787-7.342466 .56787-7.32254 .757161-7.143213C1.733499-6.156912 2.30137-4.572852 2.30137-2.49066C2.30137-.787049 1.932752 .966376 .697385 2.221669C.56787 2.34122 .56787 2.361146 .56787 2.391034C.56787 2.450809 .607721 2.49066 .667497 2.49066C.767123 2.49066 1.663761 1.8132 2.251557 .547945C2.759651-.547945 2.879203-1.653798 2.879203-2.49066Z'/>
<path id='g3-61' d='M6.844334-3.257783C6.993773-3.257783 7.183064-3.257783 7.183064-3.457036S6.993773-3.656289 6.854296-3.656289H.886675C.747198-3.656289 .557908-3.656289 .557908-3.457036S.747198-3.257783 .896638-3.257783H6.844334ZM6.854296-1.325031C6.993773-1.325031 7.183064-1.325031 7.183064-1.524284S6.993773-1.723537 6.844334-1.723537H.896638C.747198-1.723537 .557908-1.723537 .557908-1.524284S.747198-1.325031 .886675-1.325031H6.854296Z'/>
<path id='g2-22' d='M.376588 1.12279C.348692 1.227397 .348692 1.262267 .348692 1.26924C.348692 1.422665 .474222 1.492403 .585803 1.492403C.836862 1.492403 .892653 1.262267 .920548 1.143711C.934496 1.108842 1.073973 .550934 1.241345-.132503C1.457534 .013948 1.736488 .069738 1.987547 .069738C2.587298 .069738 2.977833-.418431 2.991781-.432379C3.124284 .048817 3.605479 .069738 3.710087 .069738C3.961146 .069738 4.135492-.083686 4.261021-.299875C4.414446-.571856 4.505106-.969365 4.505106-.99726C4.505106-1.08792 4.414446-1.08792 4.393524-1.08792C4.29589-1.08792 4.288917-1.060025 4.2401-.871731C4.156413-.536986 4.02391-.125529 3.731009-.125529C3.549689-.125529 3.500872-.278954 3.500872-.467248C3.500872-.585803 3.556663-.836862 3.605479-1.018182C3.654296-1.206476 3.724035-1.492403 3.758904-1.645828L3.919303-2.266501C3.961146-2.440847 4.037858-2.747696 4.037858-2.782565C4.037858-2.922042 3.926276-3.005729 3.807721-3.005729C3.731009-3.005729 3.598506-2.970859 3.521793-2.838356C3.500872-2.796513 3.445081-2.57335 3.410212-2.433873L3.263761-1.855044L3.047572-.983313C2.998755-.808966 2.998755-.795019 2.93599-.704359C2.719801-.397509 2.412951-.125529 2.015442-.125529C1.443587-.125529 1.443587-.620672 1.443587-.746202C1.443587-.927522 1.464508-1.018182 1.562142-1.39477C1.63188-1.701619 1.645828-1.750436 1.715567-2.022416L1.8132-2.412951C1.84807-2.559402 1.917808-2.824408 1.917808-2.852304C1.917808-2.977833 1.820174-3.075467 1.680697-3.075467C1.429639-3.075467 1.366874-2.831382 1.345953-2.747696L.376588 1.12279Z'/>
<path id='g2-23' d='M1.750436-2.873225C1.75741-2.901121 1.764384-2.942964 1.764384-2.977833C1.764384-2.984807 1.764384-3.075467 1.652802-3.075467C1.645828-3.075467 1.248319-3.040598 1.199502-3.040598C1.066999-3.02665 .941469-3.019676 .808966-3.005729C.697385-2.998755 .613699-2.991781 .613699-2.84533C.613699-2.747696 .711333-2.747696 .795019-2.747696C1.129763-2.747696 1.129763-2.705853 1.129763-2.643088C1.129763-2.601245 1.094894-2.461768 1.066999-2.371108L.718306-.962391C.54396-.265006 .509091-.125529 .509091-.097634C.509091 0 .613699 0 .641594 0H.753176C1.373848-.097634 2.259527-.425405 3.005729-1.08792C3.954172-1.931756 4.093649-2.838356 4.093649-2.852304C4.093649-2.977833 3.996015-3.075467 3.856538-3.075467C3.612453-3.075467 3.563636-2.880199 3.500872-2.684932C3.221918-1.694645 2.287422-.627646 1.101868-.278954L1.750436-2.873225Z'/>
<path id='g2-26' d='M.376588 1.12279C.348692 1.227397 .348692 1.262267 .348692 1.26924C.348692 1.422665 .474222 1.492403 .585803 1.492403C.836862 1.492403 .892653 1.283188 .941469 1.060025C1.039103 .697385 1.234371-.097634 1.30411-.36264C1.366874-.258032 1.590037 .069738 2.071233 .069738C2.963885 .069738 3.912329-.878705 3.912329-1.896887C3.912329-2.636115 3.417186-3.075467 2.803487-3.075467C2.12005-3.075467 1.276214-2.475716 1.03213-1.492403L.376588 1.12279ZM2.064259-.125529C1.548194-.125529 1.39477-.641594 1.39477-.732254C1.39477-.746202 1.436613-.899626 1.457534-.983313C1.66675-1.841096 1.708593-2.001494 1.910834-2.308344C2.161893-2.677958 2.510585-2.880199 2.789539-2.880199C3.075467-2.880199 3.347447-2.677958 3.347447-2.175841C3.347447-1.855044 3.166127-1.080946 2.949938-.732254C2.629141-.237111 2.280448-.125529 2.064259-.125529Z'/>
<path id='g2-27' d='M4.079701-2.531507C4.198257-2.531507 4.261021-2.531507 4.337733-2.587298C4.428394-2.66401 4.449315-2.761644 4.449315-2.810461C4.449315-3.005729 4.267995-3.005729 4.14944-3.005729H2.364134C1.248319-3.005729 .411457-1.903861 .411457-1.066999C.411457-.418431 .892653 .069738 1.603985 .069738C2.48269 .069738 3.486924-.72528 3.486924-1.792279C3.486924-1.903861 3.486924-2.217684 3.277709-2.531507H4.079701ZM1.610959-.125529C1.234371-.125529 .920548-.376588 .920548-.871731C.920548-1.080946 1.046077-2.531507 2.245579-2.531507C2.601245-2.531507 2.963885-2.399004 2.963885-1.868991C2.963885-1.743462 2.901121-1.115816 2.559402-.648568C2.266501-.265006 1.875965-.125529 1.610959-.125529Z'/>
<path id='g1-14' d='M2.630137-4.353674C1.384807-4.054795 .418431-2.759651 .418431-1.554172C.418431-.597758 1.05604 .119552 1.992528 .119552C3.158157 .119552 3.985056-1.444583 3.985056-2.819427C3.985056-3.726027 3.58655-4.224159 3.247821-4.672478C2.889166-5.120797 2.30137-5.867995 2.30137-6.306351C2.30137-6.525529 2.500623-6.764633 2.849315-6.764633C3.148194-6.764633 3.347447-6.635118 3.556663-6.495641C3.755915-6.37609 3.955168-6.246575 4.104608-6.246575C4.353674-6.246575 4.503113-6.485679 4.503113-6.645081C4.503113-6.864259 4.343711-6.894147 3.985056-6.973848C3.466999-7.083437 3.327522-7.083437 3.16812-7.083437C2.391034-7.083437 2.032379-6.655044 2.032379-6.057285C2.032379-5.519303 2.321295-4.961395 2.630137-4.353674ZM2.749689-4.134496C2.998755-3.676214 3.297634-3.138232 3.297634-2.420922C3.297634-1.763387 2.919054-.099626 1.992528-.099626C1.444583-.099626 1.036115-.518057 1.036115-1.275218C1.036115-1.902864 1.404732-3.775841 2.749689-4.134496Z'/>
<path id='g1-17' d='M4.861768-2.759651C4.911582-2.938979 4.941469-3.068493 4.941469-3.337484C4.941469-3.985056 4.542964-4.403487 3.795766-4.403487C3.008717-4.403487 2.49066-3.88543 2.251557-3.536737C2.201743-4.104608 1.783313-4.403487 1.334994-4.403487C.876712-4.403487 .687422-4.014944 .597758-3.835616C.418431-3.496887 .288917-2.899128 .288917-2.86924C.288917-2.769614 .388543-2.769614 .408468-2.769614C.508095-2.769614 .518057-2.779577 .577833-2.998755C.747198-3.706102 .946451-4.184309 1.305106-4.184309C1.474471-4.184309 1.613948-4.104608 1.613948-3.726027C1.613948-3.516812 1.58406-3.407223 1.454545-2.889166L.876712-.587796C.846824-.438356 .787049-.209215 .787049-.159402C.787049 .019925 .926526 .109589 1.075965 .109589C1.195517 .109589 1.374844 .029888 1.444583-.169365C1.454545-.18929 1.574097-.657534 1.633873-.9066L1.853051-1.803238C1.912827-2.022416 1.972603-2.241594 2.022416-2.470735C2.042341-2.530511 2.122042-2.859278 2.132005-2.919054C2.161893-3.008717 2.470735-3.566625 2.809465-3.835616C3.028643-3.995019 3.337484-4.184309 3.765878-4.184309S4.303861-3.845579 4.303861-3.486924C4.303861-3.437111 4.303861-3.257783 4.204234-2.859278L3.068493 1.723537C3.038605 1.843088 3.038605 1.863014 3.038605 1.882939C3.038605 2.032379 3.148194 2.15193 3.317559 2.15193C3.626401 2.15193 3.696139 1.863014 3.726027 1.753425L4.861768-2.759651Z'/>
<path id='g1-82' d='M3.73599-6.117061C3.795766-6.356164 3.825654-6.455791 4.014944-6.485679C4.104608-6.495641 4.423412-6.495641 4.622665-6.495641C5.330012-6.495641 6.435866-6.495641 6.435866-5.50934C6.435866-5.17061 6.276463-4.483188 5.88792-4.094645C5.628892-3.835616 5.100872-3.516812 4.204234-3.516812H3.088418L3.73599-6.117061ZM5.17061-3.387298C6.176837-3.606476 7.362391-4.303861 7.362391-5.310087C7.362391-6.166874 6.465753-6.804483 5.160648-6.804483H2.321295C2.122042-6.804483 2.032379-6.804483 2.032379-6.60523C2.032379-6.495641 2.122042-6.495641 2.311333-6.495641C2.331258-6.495641 2.520548-6.495641 2.689913-6.475716C2.86924-6.455791 2.958904-6.445828 2.958904-6.316314C2.958904-6.276463 2.948941-6.246575 2.919054-6.127024L1.58406-.777086C1.484433-.388543 1.464508-.308842 .67746-.308842C.498132-.308842 .408468-.308842 .408468-.109589C.408468 0 .52802 0 .547945 0C.826899 0 1.524284-.029888 1.803238-.029888S2.789539 0 3.068493 0C3.148194 0 3.267746 0 3.267746-.199253C3.267746-.308842 3.178082-.308842 2.988792-.308842C2.620174-.308842 2.34122-.308842 2.34122-.488169C2.34122-.547945 2.361146-.597758 2.371108-.657534L3.028643-3.297634H4.214197C5.120797-3.297634 5.300125-2.739726 5.300125-2.391034C5.300125-2.241594 5.220423-1.932752 5.160648-1.703611C5.090909-1.424658 5.001245-1.05604 5.001245-.856787C5.001245 .219178 6.196762 .219178 6.326276 .219178C7.173101 .219178 7.521793-.787049 7.521793-.926526C7.521793-1.046077 7.412204-1.046077 7.402242-1.046077C7.312578-1.046077 7.292653-.976339 7.272727-.9066C7.023661-.169365 6.595268 0 6.366127 0C6.03736 0 5.967621-.219178 5.967621-.607721C5.967621-.916563 6.027397-1.424658 6.067248-1.743462C6.087173-1.882939 6.107098-2.072229 6.107098-2.211706C6.107098-2.978829 5.439601-3.287671 5.17061-3.387298Z'/>
</defs>
<g id='page1' transform='matrix(1.5 0 0 1.5 0 0)'>
<use x='161.353345' y='29.299444' xlink:href='#g1-82'/>
<use x='168.994842' y='25.185948' xlink:href='#g2-26'/>
<use x='173.128328' y='25.185948' xlink:href='#g2-27'/>
<use x='181.260643' y='29.299444' xlink:href='#g3-61'/>
<use x='191.776723' y='29.299444' xlink:href='#g3-40'/>
<use x='195.651095' y='29.299444' xlink:href='#g0-77'/>
<use x='207.61523' y='25.185948' xlink:href='#g2-26'/>
<use x='211.748717' y='25.185948' xlink:href='#g2-27'/>
<use x='217.113699' y='29.299444' xlink:href='#g3-41'/>
<use x='220.988058' y='24.290426' xlink:href='#g2-22'/>
<use x='226.330344' y='32.288221' xlink:href='#g2-23'/>
<use x='234.054811' y='29.299444' xlink:href='#g3-61'/>
<use x='244.570891' y='29.299444' xlink:href='#g1-17'/>
<use x='249.875095' y='25.185948' xlink:href='#g2-26'/>
<use x='254.008581' y='25.185948' xlink:href='#g2-22'/>
<use x='259.350867' y='29.299444' xlink:href='#g1-14'/>
<use x='264.155759' y='25.185948' xlink:href='#g2-27'/>
<use x='263.778709' y='31.762376' xlink:href='#g2-23'/>
<use x='271.734608' y='29.299444' xlink:href='#g0-0'/>
<use x='281.697221' y='29.299444' xlink:href='#g1-17'/>
<use x='287.001425' y='25.185948' xlink:href='#g2-27'/>
<use x='291.868279' y='25.185948' xlink:href='#g2-22'/>
<use x='297.210562' y='29.299444' xlink:href='#g1-14'/>
<use x='302.015454' y='25.185948' xlink:href='#g2-26'/>
<use x='301.638404' y='31.762376' xlink:href='#g2-23'/>
</g>
</svg>