<?xml version='1.0' encoding='UTF-8'?>
<!-- This file was generated by dvisvgm 3.2 -->
<svg version='1.1' xmlns='http://www.w3.org/2000/svg' xmlns:xlink='http://www.w3.org/1999/xlink' width='65.296784pt' height='13.270237pt' viewBox='-21.580099 15.809689 65.296784 13.270237'>
<defs>
<path id='g0-28' d='M6.166874-5.220423C6.286426-5.290162 6.366127-5.330012 6.366127-5.439601C6.366127-5.579078 6.256538-5.638854 6.166874-5.638854C6.097136-5.638854 6.027397-5.599004 5.987547-5.579078L.737235-2.709838C.617684-2.6401 .547945-2.610212 .547945-2.49066S.617684-2.34122 .737235-2.271482L5.977584 .587796C6.097136 .657534 6.127024 .657534 6.166874 .657534C6.296389 .657534 6.366127 .557908 6.366127 .458281C6.366127 .348692 6.286426 .308842 6.166874 .239103L1.165629-2.49066L6.166874-5.220423ZM9.205479-5.220423C9.325031-5.290162 9.404732-5.330012 9.404732-5.439601C9.404732-5.579078 9.295143-5.638854 9.205479-5.638854C9.135741-5.638854 9.066002-5.599004 9.026152-5.579078L3.775841-2.709838C3.656289-2.6401 3.58655-2.610212 3.58655-2.49066S3.656289-2.34122 3.775841-2.271482L9.016189 .587796C9.135741 .657534 9.165629 .657534 9.205479 .657534C9.334994 .657534 9.404732 .557908 9.404732 .458281C9.404732 .348692 9.325031 .308842 9.205479 .239103L4.204234-2.49066L9.205479-5.220423Z'/>
<path id='g1-59' d='M2.022416-.009963C2.022416-.667497 1.77335-1.05604 1.384807-1.05604C1.05604-1.05604 .856787-.806974 .856787-.52802C.856787-.259029 1.05604 0 1.384807 0C1.504359 0 1.633873-.039851 1.733499-.129514C1.763387-.14944 1.77335-.159402 1.783313-.159402S1.803238-.14944 1.803238-.009963C1.803238 .727273 1.454545 1.325031 1.125778 1.653798C1.016189 1.763387 1.016189 1.783313 1.016189 1.8132C1.016189 1.882939 1.066002 1.92279 1.115816 1.92279C1.225405 1.92279 2.022416 1.155666 2.022416-.009963Z'/>
<path id='g1-77' d='M9.225405-6.03736C9.315068-6.396015 9.334994-6.495641 10.082192-6.495641C10.311333-6.495641 10.400996-6.495641 10.400996-6.694894C10.400996-6.804483 10.30137-6.804483 10.132005-6.804483H8.816936C8.557908-6.804483 8.547945-6.804483 8.428394-6.615193L4.79203-.936488L4.014944-6.575342C3.985056-6.804483 3.965131-6.804483 3.706102-6.804483H2.34122C2.15193-6.804483 2.042341-6.804483 2.042341-6.615193C2.042341-6.495641 2.132005-6.495641 2.331258-6.495641C2.460772-6.495641 2.6401-6.485679 2.759651-6.475716C2.919054-6.455791 2.978829-6.425903 2.978829-6.316314C2.978829-6.276463 2.968867-6.246575 2.938979-6.127024L1.673724-1.05604C1.574097-.657534 1.404732-.33873 .597758-.308842C.547945-.308842 .418431-.298879 .418431-.119552C.418431-.029888 .478207 0 .557908 0C.876712 0 1.225405-.029888 1.554172-.029888C1.892902-.029888 2.251557 0 2.580324 0C2.630137 0 2.759651 0 2.759651-.199253C2.759651-.308842 2.650062-.308842 2.580324-.308842C2.012453-.318804 1.902864-.518057 1.902864-.747198C1.902864-.816936 1.912827-.86675 1.942715-.976339L3.297634-6.405978H3.307597L4.164384-.229141C4.184309-.109589 4.194271 0 4.313823 0C4.423412 0 4.483188-.109589 4.533001-.179328L8.557908-6.485679H8.56787L7.143213-.777086C7.043587-.388543 7.023661-.308842 6.236613-.308842C6.067248-.308842 5.957659-.308842 5.957659-.119552C5.957659 0 6.07721 0 6.107098 0C6.386052 0 7.063512-.029888 7.342466-.029888C7.750934-.029888 8.179328 0 8.587796 0C8.647572 0 8.777086 0 8.777086-.199253C8.777086-.308842 8.687422-.308842 8.498132-.308842C8.129514-.308842 7.85056-.308842 7.85056-.488169C7.85056-.52802 7.85056-.547945 7.900374-.727273L9.225405-6.03736Z'/>
<path id='g1-103' d='M4.692403-3.755915C4.702366-3.815691 4.722291-3.865504 4.722291-3.935243C4.722291-4.104608 4.60274-4.204234 4.433375-4.204234C4.333748-4.204234 4.064757-4.134496 4.024907-3.775841C3.845579-4.144458 3.496887-4.403487 3.098381-4.403487C1.96264-4.403487 .727273-3.008717 .727273-1.574097C.727273-.587796 1.334994 0 2.052304 0C2.6401 0 3.108344-.468244 3.20797-.577833L3.217933-.56787C3.008717 .318804 2.889166 .727273 2.889166 .747198C2.849315 .836862 2.510585 1.823163 1.454545 1.823163C1.265255 1.823163 .936488 1.8132 .657534 1.723537C.956413 1.633873 1.066002 1.374844 1.066002 1.205479C1.066002 1.046077 .956413 .856787 .687422 .856787C.468244 .856787 .14944 1.036115 .14944 1.43462C.14944 1.843088 .518057 2.042341 1.474471 2.042341C2.719801 2.042341 3.437111 1.265255 3.58655 .667497L4.692403-3.755915ZM3.39726-1.275218C3.337484-1.016189 3.108344-.767123 2.889166-.577833C2.67995-.398506 2.371108-.219178 2.082192-.219178C1.58406-.219178 1.43462-.737235 1.43462-1.135741C1.43462-1.613948 1.723537-2.789539 1.992528-3.297634C2.261519-3.785803 2.689913-4.184309 3.108344-4.184309C3.765878-4.184309 3.905355-3.377335 3.905355-3.327522S3.88543-3.217933 3.875467-3.178082L3.39726-1.275218Z'/>
<path id='g1-109' d='M.876712-.587796C.846824-.438356 .787049-.209215 .787049-.159402C.787049 .019925 .926526 .109589 1.075965 .109589C1.195517 .109589 1.374844 .029888 1.444583-.169365C1.454545-.18929 1.574097-.657534 1.633873-.9066L1.853051-1.803238C1.912827-2.022416 1.972603-2.241594 2.022416-2.470735C2.062267-2.6401 2.141968-2.929016 2.15193-2.968867C2.30137-3.277709 2.82939-4.184309 3.775841-4.184309C4.224159-4.184309 4.313823-3.815691 4.313823-3.486924C4.313823-3.237858 4.244085-2.958904 4.164384-2.660025L3.88543-1.504359L3.686177-.747198C3.646326-.547945 3.556663-.209215 3.556663-.159402C3.556663 .019925 3.696139 .109589 3.845579 .109589C4.154421 .109589 4.214197-.139477 4.293898-.458281C4.433375-1.016189 4.801993-2.470735 4.891656-2.859278C4.921544-2.988792 5.449564-4.184309 6.535492-4.184309C6.963885-4.184309 7.073474-3.845579 7.073474-3.486924C7.073474-2.919054 6.655044-1.783313 6.455791-1.255293C6.366127-1.016189 6.326276-.9066 6.326276-.707347C6.326276-.239103 6.674969 .109589 7.143213 .109589C8.079701 .109589 8.448319-1.344956 8.448319-1.424658C8.448319-1.524284 8.358655-1.524284 8.328767-1.524284C8.229141-1.524284 8.229141-1.494396 8.179328-1.344956C8.029888-.816936 7.711083-.109589 7.163138-.109589C6.993773-.109589 6.924035-.209215 6.924035-.438356C6.924035-.687422 7.013699-.926526 7.103362-1.145704C7.292653-1.663761 7.711083-2.769614 7.711083-3.337484C7.711083-3.985056 7.312578-4.403487 6.56538-4.403487S5.310087-3.965131 4.941469-3.437111C4.931507-3.566625 4.901619-3.905355 4.622665-4.144458C4.373599-4.353674 4.054795-4.403487 3.805729-4.403487C2.909091-4.403487 2.420922-3.765878 2.251557-3.536737C2.201743-4.104608 1.783313-4.403487 1.334994-4.403487C.876712-4.403487 .687422-4.014944 .597758-3.835616C.418431-3.486924 .288917-2.899128 .288917-2.86924C.288917-2.769614 .388543-2.769614 .408468-2.769614C.508095-2.769614 .518057-2.779577 .577833-2.998755C.747198-3.706102 .946451-4.184309 1.305106-4.184309C1.464508-4.184309 1.613948-4.104608 1.613948-3.726027C1.613948-3.516812 1.58406-3.407223 1.454545-2.889166L.876712-.587796Z'/>
</defs>
<g id='page1' transform='matrix(1.5 0 0 1.5 0 0)'>
<use x='-14.536172' y='17.344276' xlink:href='#g1-103'/>
<use x='-6.659532' y='17.344276' xlink:href='#g0-28'/>
<use x='6.070469' y='17.344276' xlink:href='#g1-77'/>
<use x='16.26833' y='17.344276' xlink:href='#g1-59'/>
<use x='20.696138' y='17.344276' xlink:href='#g1-109'/>
</g>
</svg>