<?xml version='1.0' encoding='UTF-8'?>
<!-- This file was generated by dvisvgm 3.2 -->
<svg version='1.1' xmlns='http://www.w3.org/2000/svg' xmlns:xlink='http://www.w3.org/1999/xlink' width='505.552245pt' height='99.975755pt' viewBox='96.581982 42.454738 505.552245 99.975755'>
<defs>
<path id='g5-24' d='M10.002491-2.291407C10.092154-2.311333 10.161893-2.391034 10.161893-2.49066C10.161893-2.600249 10.072229-2.689913 9.96264-2.689913C9.942715-2.689913 9.92279-2.67995 9.912827-2.67995L-.039851-.18929C-.129514-.169365-.18929-.089664-.18929 0C-.18929 .109589-.109589 .18929 0 .18929H.039851L10.002491-2.291407Z'/>
<path id='g4-50' d='M3.521793-1.26924H3.284682C3.263761-1.115816 3.194022-.704359 3.103362-.63462C3.047572-.592777 2.510585-.592777 2.412951-.592777H1.129763C1.862017-1.241345 2.106102-1.436613 2.524533-1.764384C3.040598-2.175841 3.521793-2.608219 3.521793-3.270735C3.521793-4.11457 2.782565-4.630635 1.889913-4.630635C1.025156-4.630635 .439352-4.02391 .439352-3.382316C.439352-3.02665 .739228-2.991781 .808966-2.991781C.976339-2.991781 1.17858-3.110336 1.17858-3.361395C1.17858-3.486924 1.129763-3.731009 .767123-3.731009C.983313-4.226152 1.457534-4.379577 1.785305-4.379577C2.48269-4.379577 2.84533-3.835616 2.84533-3.270735C2.84533-2.66401 2.412951-2.182814 2.189788-1.931756L.509091-.27198C.439352-.209215 .439352-.195268 .439352 0H3.312578L3.521793-1.26924Z'/>
<path id='g6-0' d='M4.11457 11.447073C4.11457 11.407223 4.094645 11.387298 4.07472 11.35741C3.616438 10.86924 2.938979 10.062267 2.520548 8.438356C2.291407 7.531756 2.201743 6.505604 2.201743 5.579078C2.201743 2.958904 2.82939 1.125778 4.024907-.169365C4.11457-.259029 4.11457-.278954 4.11457-.298879C4.11457-.398506 4.034869-.398506 3.995019-.398506C3.845579-.398506 3.307597 .199253 3.178082 .348692C2.161893 1.554172 1.514321 3.347447 1.514321 5.569116C1.514321 6.983811 1.763387 8.986301 3.068493 10.669988C3.16812 10.789539 3.815691 11.5467 3.995019 11.5467C4.034869 11.5467 4.11457 11.5467 4.11457 11.447073Z'/>
<path id='g6-1' d='M3.038605 5.579078C3.038605 4.164384 2.789539 2.161893 1.484433 .478207C1.384807 .358655 .737235-.398506 .557908-.398506C.508095-.398506 .438356-.37858 .438356-.298879C.438356-.259029 .458281-.229141 .498132-.199253C.976339 .318804 1.62391 1.125778 2.032379 2.709838C2.261519 3.616438 2.351183 4.64259 2.351183 5.569116C2.351183 6.575342 2.261519 7.591532 2.002491 8.56787C1.62391 9.96264 1.036115 10.759651 .52802 11.317559C.438356 11.407223 .438356 11.427148 .438356 11.447073C.438356 11.526775 .508095 11.5467 .557908 11.5467C.707347 11.5467 1.255293 10.938979 1.374844 10.799502C2.391034 9.594022 3.038605 7.800747 3.038605 5.579078Z'/>
<path id='g6-20' d='M2.49066 23.501868H5.110834V22.953923H3.038605V.14944H5.110834V-.398506H2.49066V23.501868Z'/>
<path id='g6-21' d='M2.211706 22.953923H.139477V23.501868H2.759651V-.398506H.139477V.14944H2.211706V22.953923Z'/>
<path id='g2-22' d='M.376588 1.12279C.348692 1.227397 .348692 1.262267 .348692 1.26924C.348692 1.422665 .474222 1.492403 .585803 1.492403C.836862 1.492403 .892653 1.262267 .920548 1.143711C.934496 1.108842 1.073973 .550934 1.241345-.132503C1.457534 .013948 1.736488 .069738 1.987547 .069738C2.587298 .069738 2.977833-.418431 2.991781-.432379C3.124284 .048817 3.605479 .069738 3.710087 .069738C3.961146 .069738 4.135492-.083686 4.261021-.299875C4.414446-.571856 4.505106-.969365 4.505106-.99726C4.505106-1.08792 4.414446-1.08792 4.393524-1.08792C4.29589-1.08792 4.288917-1.060025 4.2401-.871731C4.156413-.536986 4.02391-.125529 3.731009-.125529C3.549689-.125529 3.500872-.278954 3.500872-.467248C3.500872-.585803 3.556663-.836862 3.605479-1.018182C3.654296-1.206476 3.724035-1.492403 3.758904-1.645828L3.919303-2.266501C3.961146-2.440847 4.037858-2.747696 4.037858-2.782565C4.037858-2.922042 3.926276-3.005729 3.807721-3.005729C3.731009-3.005729 3.598506-2.970859 3.521793-2.838356C3.500872-2.796513 3.445081-2.57335 3.410212-2.433873L3.263761-1.855044L3.047572-.983313C2.998755-.808966 2.998755-.795019 2.93599-.704359C2.719801-.397509 2.412951-.125529 2.015442-.125529C1.443587-.125529 1.443587-.620672 1.443587-.746202C1.443587-.927522 1.464508-1.018182 1.562142-1.39477C1.63188-1.701619 1.645828-1.750436 1.715567-2.022416L1.8132-2.412951C1.84807-2.559402 1.917808-2.824408 1.917808-2.852304C1.917808-2.977833 1.820174-3.075467 1.680697-3.075467C1.429639-3.075467 1.366874-2.831382 1.345953-2.747696L.376588 1.12279Z'/>
<path id='g2-97' d='M2.942964-2.66401C2.796513-2.894147 2.559402-3.075467 2.224658-3.075467C1.332005-3.075467 .425405-2.092154 .425405-1.08792C.425405-.411457 .878705 .069738 1.478456 .069738C1.855044 .069738 2.189788-.146451 2.468742-.418431C2.601245 0 3.005729 .069738 3.187049 .069738C3.438107 .069738 3.612453-.083686 3.737983-.299875C3.891407-.571856 3.982067-.969365 3.982067-.99726C3.982067-1.08792 3.891407-1.08792 3.870486-1.08792C3.772852-1.08792 3.765878-1.060025 3.717061-.871731C3.633375-.536986 3.500872-.125529 3.20797-.125529C3.02665-.125529 2.977833-.278954 2.977833-.467248C2.977833-.585803 3.033624-.836862 3.082441-1.018182C3.131258-1.206476 3.200996-1.492403 3.235866-1.645828L3.375342-2.175841C3.417186-2.357161 3.500872-2.684932 3.500872-2.719801C3.500872-2.873225 3.375342-2.942964 3.263761-2.942964C3.145205-2.942964 2.984807-2.859278 2.942964-2.66401ZM2.496638-.871731C2.447821-.676463 2.294396-.536986 2.140971-.404483C2.078207-.348692 1.799253-.125529 1.499377-.125529C1.241345-.125529 .990286-.306849 .990286-.801993C.990286-1.171606 1.192528-1.93873 1.352927-2.217684C1.673724-2.775592 2.02939-2.880199 2.224658-2.880199C2.712827-2.880199 2.84533-2.350187 2.84533-2.273474C2.84533-2.245579 2.831382-2.196762 2.824408-2.175841L2.496638-.871731Z'/>
<path id='g2-98' d='M1.841096-4.630635C1.84807-4.644583 1.868991-4.735243 1.868991-4.742217C1.868991-4.777086 1.841096-4.839851 1.75741-4.839851C1.617933-4.839851 1.039103-4.78406 .864757-4.770112C.808966-4.763138 .711333-4.756164 .711333-4.609714C.711333-4.51208 .808966-4.51208 .892653-4.51208C1.227397-4.51208 1.227397-4.463263 1.227397-4.407472C1.227397-4.358655 1.157659-4.079701 1.115816-3.919303L.955417-3.277709C.892653-3.040598 .509091-1.513325 .495143-1.422665C.460274-1.255293 .460274-1.164633 .460274-1.080946C.460274-.376588 .9066 .069738 1.48543 .069738C2.357161 .069738 3.284682-.878705 3.284682-1.910834C3.284682-2.726775 2.719801-3.075467 2.238605-3.075467C1.875965-3.075467 1.569116-2.873225 1.3599-2.691905L1.841096-4.630635ZM1.492403-.125529C1.150685-.125529 .955417-.425405 .955417-.836862C.955417-1.094894 1.018182-1.332005 1.21345-2.12005C1.255293-2.252553 1.255293-2.266501 1.387796-2.419925C1.652802-2.726775 1.966625-2.880199 2.217684-2.880199C2.489664-2.880199 2.726775-2.677958 2.726775-2.203736C2.726775-1.917808 2.57335-1.206476 2.364134-.801993C2.196762-.460274 1.84807-.125529 1.492403-.125529Z'/>
<path id='g2-99' d='M3.054545-2.670984C2.803487-2.629141 2.698879-2.433873 2.698879-2.280448C2.698879-2.092154 2.84533-2.022416 2.970859-2.022416C3.124284-2.022416 3.368369-2.133998 3.368369-2.468742C3.368369-2.942964 2.824408-3.075467 2.447821-3.075467C1.401743-3.075467 .432379-2.113076 .432379-1.143711C.432379-.54396 .850809 .069738 1.72254 .069738C2.901121 .069738 3.452055-.620672 3.452055-.718306C3.452055-.760149 3.38929-.836862 3.333499-.836862C3.291656-.836862 3.277709-.822914 3.221918-.767123C2.677958-.125529 1.862017-.125529 1.736488-.125529C1.234371-.125529 1.011208-.467248 1.011208-.899626C1.011208-1.101868 1.108842-1.862017 1.471482-2.343213C1.736488-2.684932 2.099128-2.880199 2.447821-2.880199C2.545455-2.880199 2.880199-2.866252 3.054545-2.670984Z'/>
<path id='g2-100' d='M3.982067-4.630635C3.989041-4.644583 4.009963-4.735243 4.009963-4.742217C4.009963-4.777086 3.982067-4.839851 3.898381-4.839851C3.758904-4.839851 3.180075-4.78406 3.005729-4.770112C2.949938-4.763138 2.852304-4.756164 2.852304-4.609714C2.852304-4.51208 2.949938-4.51208 3.033624-4.51208C3.368369-4.51208 3.368369-4.463263 3.368369-4.407472C3.368369-4.358655 3.354421-4.316812 3.340473-4.254047L2.942964-2.66401C2.796513-2.894147 2.559402-3.075467 2.224658-3.075467C1.332005-3.075467 .425405-2.092154 .425405-1.08792C.425405-.411457 .878705 .069738 1.478456 .069738C1.855044 .069738 2.189788-.146451 2.468742-.418431C2.601245 0 3.005729 .069738 3.187049 .069738C3.438107 .069738 3.612453-.083686 3.737983-.299875C3.891407-.571856 3.982067-.969365 3.982067-.99726C3.982067-1.08792 3.891407-1.08792 3.870486-1.08792C3.772852-1.08792 3.765878-1.060025 3.717061-.871731C3.633375-.536986 3.500872-.125529 3.20797-.125529C3.02665-.125529 2.977833-.278954 2.977833-.467248C2.977833-.599751 2.991781-.662516 3.012702-.753176L3.982067-4.630635ZM2.496638-.871731C2.447821-.676463 2.294396-.536986 2.140971-.404483C2.078207-.348692 1.799253-.125529 1.499377-.125529C1.241345-.125529 .990286-.306849 .990286-.801993C.990286-1.171606 1.192528-1.93873 1.352927-2.217684C1.673724-2.775592 2.02939-2.880199 2.224658-2.880199C2.712827-2.880199 2.84533-2.350187 2.84533-2.273474C2.84533-2.245579 2.831382-2.196762 2.824408-2.175841L2.496638-.871731Z'/>
<path id='g2-101' d='M1.562142-1.590037C1.75741-1.590037 2.308344-1.603985 2.684932-1.736488C3.200996-1.917808 3.29863-2.252553 3.29863-2.461768C3.29863-2.84533 2.915068-3.075467 2.433873-3.075467C1.597011-3.075467 .467248-2.433873 .467248-1.241345C.467248-.536986 .9066 .069738 1.72254 .069738C2.901121 .069738 3.452055-.620672 3.452055-.718306C3.452055-.760149 3.38929-.836862 3.333499-.836862C3.291656-.836862 3.277709-.822914 3.221918-.767123C2.677958-.125529 1.862017-.125529 1.736488-.125529C1.318057-.125529 1.039103-.404483 1.039103-.969365C1.039103-1.066999 1.039103-1.206476 1.12279-1.590037H1.562142ZM1.17858-1.785305C1.464508-2.796513 2.238605-2.880199 2.433873-2.880199C2.740722-2.880199 2.998755-2.726775 2.998755-2.461768C2.998755-1.785305 1.820174-1.785305 1.520299-1.785305H1.17858Z'/>
<path id='g2-102' d='M2.838356-2.75467H3.521793C3.66127-2.75467 3.75193-2.75467 3.75193-2.908095C3.75193-3.005729 3.66127-3.005729 3.535741-3.005729H2.887173C3.047572-3.891407 3.103362-4.212204 3.159153-4.414446C3.194022-4.56787 3.347447-4.714321 3.514819-4.714321C3.521793-4.714321 3.710087-4.714321 3.84259-4.630635C3.556663-4.539975 3.535741-4.288917 3.535741-4.247073C3.535741-4.093649 3.654296-3.989041 3.814695-3.989041C4.002989-3.989041 4.212204-4.14944 4.212204-4.414446C4.212204-4.735243 3.870486-4.909589 3.514819-4.909589C3.20797-4.909589 2.866252-4.735243 2.677958-4.38655C2.538481-4.128518 2.48269-3.814695 2.336239-3.005729H1.785305C1.645828-3.005729 1.555168-3.005729 1.555168-2.852304C1.555168-2.75467 1.645828-2.75467 1.771357-2.75467H2.287422C2.280448-2.712827 1.841096-.202242 1.673724 .54396C1.638854 .697385 1.520299 1.227397 1.185554 1.227397C1.17858 1.227397 1.011208 1.227397 .878705 1.143711C1.164633 1.053051 1.185554 .801993 1.185554 .760149C1.185554 .606725 1.066999 .502117 .9066 .502117C.718306 .502117 .509091 .662516 .509091 .927522C.509091 1.241345 .836862 1.422665 1.185554 1.422665C1.63188 1.422665 1.93873 .962391 2.022416 .808966C2.273474 .341719 2.433873-.516065 2.447821-.599751L2.838356-2.75467Z'/>
<path id='g2-103' d='M3.710087-2.57335C3.737983-2.677958 3.737983-2.712827 3.737983-2.719801C3.737983-2.873225 3.612453-2.942964 3.500872-2.942964C3.340473-2.942964 3.20797-2.810461 3.180075-2.677958C3.061519-2.866252 2.824408-3.075467 2.461768-3.075467C1.590037-3.075467 .676463-2.140971 .676463-1.143711C.676463-.425405 1.164633 0 1.736488 0C2.057285 0 2.364134-.160399 2.608219-.376588L2.454795 .251059C2.378082 .54396 2.329265 .732254 2.064259 .969365C1.75741 1.227397 1.457534 1.227397 1.283188 1.227397C.962391 1.227397 .871731 1.206476 .746202 1.17858C.920548 1.094894 .969365 .927522 .969365 .829888C.969365 .662516 .836862 .571856 .697385 .571856C.502117 .571856 .299875 .732254 .299875 .99726C.299875 1.415691 .899626 1.422665 1.290162 1.422665C2.385056 1.422665 2.852304 .864757 2.949938 .467248L3.710087-2.57335ZM2.747696-.927522C2.719801-.822914 2.719801-.808966 2.601245-.669489C2.357161-.376588 2.022416-.195268 1.75741-.195268C1.401743-.195268 1.234371-.495143 1.234371-.857783C1.234371-1.164633 1.422665-1.945704 1.603985-2.252553C1.896887-2.740722 2.224658-2.880199 2.461768-2.880199C2.949938-2.880199 3.082441-2.357161 3.082441-2.287422C3.082441-2.273474 3.082441-2.259527 3.061519-2.182814L2.747696-.927522Z'/>
<path id='g1-14' d='M2.630137-4.353674C1.384807-4.054795 .418431-2.759651 .418431-1.554172C.418431-.597758 1.05604 .119552 1.992528 .119552C3.158157 .119552 3.985056-1.444583 3.985056-2.819427C3.985056-3.726027 3.58655-4.224159 3.247821-4.672478C2.889166-5.120797 2.30137-5.867995 2.30137-6.306351C2.30137-6.525529 2.500623-6.764633 2.849315-6.764633C3.148194-6.764633 3.347447-6.635118 3.556663-6.495641C3.755915-6.37609 3.955168-6.246575 4.104608-6.246575C4.353674-6.246575 4.503113-6.485679 4.503113-6.645081C4.503113-6.864259 4.343711-6.894147 3.985056-6.973848C3.466999-7.083437 3.327522-7.083437 3.16812-7.083437C2.391034-7.083437 2.032379-6.655044 2.032379-6.057285C2.032379-5.519303 2.321295-4.961395 2.630137-4.353674ZM2.749689-4.134496C2.998755-3.676214 3.297634-3.138232 3.297634-2.420922C3.297634-1.763387 2.919054-.099626 1.992528-.099626C1.444583-.099626 1.036115-.518057 1.036115-1.275218C1.036115-1.902864 1.404732-3.775841 2.749689-4.134496Z'/>
<path id='g1-15' d='M2.968867-2.251557C3.128269-2.251557 3.307597-2.251557 3.307597-2.420922C3.307597-2.560399 3.188045-2.560399 3.01868-2.560399H1.404732C1.643836-3.407223 2.201743-3.985056 3.108344-3.985056H3.417186C3.58655-3.985056 3.745953-3.985056 3.745953-4.154421C3.745953-4.293898 3.616438-4.293898 3.447073-4.293898H3.098381C1.803238-4.293898 .468244-3.297634 .468244-1.77335C.468244-.67746 1.215442 .109589 2.271482 .109589C2.919054 .109589 3.566625-.288917 3.566625-.398506C3.566625-.428394 3.556663-.537983 3.466999-.537983C3.447073-.537983 3.427148-.537983 3.337484-.478207C3.028643-.278954 2.660025-.109589 2.291407-.109589C1.713574-.109589 1.215442-.52802 1.215442-1.404732C1.215442-1.753425 1.295143-2.132005 1.325031-2.251557H2.968867Z'/>
<path id='g1-17' d='M4.861768-2.759651C4.911582-2.938979 4.941469-3.068493 4.941469-3.337484C4.941469-3.985056 4.542964-4.403487 3.795766-4.403487C3.008717-4.403487 2.49066-3.88543 2.251557-3.536737C2.201743-4.104608 1.783313-4.403487 1.334994-4.403487C.876712-4.403487 .687422-4.014944 .597758-3.835616C.418431-3.496887 .288917-2.899128 .288917-2.86924C.288917-2.769614 .388543-2.769614 .408468-2.769614C.508095-2.769614 .518057-2.779577 .577833-2.998755C.747198-3.706102 .946451-4.184309 1.305106-4.184309C1.474471-4.184309 1.613948-4.104608 1.613948-3.726027C1.613948-3.516812 1.58406-3.407223 1.454545-2.889166L.876712-.587796C.846824-.438356 .787049-.209215 .787049-.159402C.787049 .019925 .926526 .109589 1.075965 .109589C1.195517 .109589 1.374844 .029888 1.444583-.169365C1.454545-.18929 1.574097-.657534 1.633873-.9066L1.853051-1.803238C1.912827-2.022416 1.972603-2.241594 2.022416-2.470735C2.042341-2.530511 2.122042-2.859278 2.132005-2.919054C2.161893-3.008717 2.470735-3.566625 2.809465-3.835616C3.028643-3.995019 3.337484-4.184309 3.765878-4.184309S4.303861-3.845579 4.303861-3.486924C4.303861-3.437111 4.303861-3.257783 4.204234-2.859278L3.068493 1.723537C3.038605 1.843088 3.038605 1.863014 3.038605 1.882939C3.038605 2.032379 3.148194 2.15193 3.317559 2.15193C3.626401 2.15193 3.696139 1.863014 3.726027 1.753425L4.861768-2.759651Z'/>
<path id='g1-18' d='M4.533001-4.98132C4.533001-5.638854 4.353674-7.023661 3.337484-7.023661C1.952677-7.023661 .418431-4.214197 .418431-1.932752C.418431-.996264 .707347 .109589 1.613948 .109589C3.01868 .109589 4.533001-2.749689 4.533001-4.98132ZM1.474471-3.616438C1.643836-4.254047 1.843088-5.051059 2.241594-5.758406C2.510585-6.246575 2.879203-6.804483 3.327522-6.804483C3.815691-6.804483 3.875467-6.166874 3.875467-5.599004C3.875467-5.110834 3.795766-4.60274 3.556663-3.616438H1.474471ZM3.466999-3.297634C3.35741-2.839352 3.148194-1.992528 2.769614-1.275218C2.420922-.597758 2.042341-.109589 1.613948-.109589C1.285181-.109589 1.075965-.398506 1.075965-1.325031C1.075965-1.743462 1.135741-2.321295 1.39477-3.297634H3.466999Z'/>
<path id='g1-30' d='M4.353674-6.674969C4.353674-6.694894 4.383562-6.804483 4.383562-6.814446S4.383562-6.914072 4.26401-6.914072C4.164384-6.914072 4.154421-6.884184 4.11457-6.714819L3.536737-4.41345C1.952677-4.363636 .488169-3.038605 .488169-1.683686C.488169-.737235 1.185554 .049813 2.400996 .119552C2.321295 .428394 2.251557 .747198 2.171856 1.05604C2.052304 1.524284 1.952677 1.902864 1.952677 1.932752C1.952677 2.032379 2.022416 2.042341 2.072229 2.042341S2.141968 2.032379 2.171856 2.002491C2.191781 1.982565 2.251557 1.743462 2.281445 1.603985L2.660025 .119552C4.26401 .069738 5.708593-1.275218 5.708593-2.610212C5.708593-3.39726 5.180573-4.313823 3.795766-4.41345L4.353674-6.674969ZM2.450809-.099626C1.853051-.129514 1.135741-.478207 1.135741-1.474471C1.135741-2.669988 1.992528-4.064757 3.476961-4.194271L2.450809-.099626ZM3.73599-4.194271C4.493151-4.154421 5.061021-3.696139 5.061021-2.819427C5.061021-1.643836 4.204234-.219178 2.709838-.099626L3.73599-4.194271Z'/>
<path id='g1-64' d='M4.612702-3.377335C4.513076-3.995019 4.104608-4.552927 3.327522-4.552927C2.719801-4.552927 2.072229-4.393524 1.295143-3.616438C.468244-2.789539 .398506-1.863014 .398506-1.554172C.398506-.936488 .836862 .219178 2.231631 .219178C4.60274 .219178 5.638854-3.128269 5.638854-4.552927C5.638854-6.136986 4.712329-7.13325 3.486924-7.13325C2.042341-7.13325 1.58406-5.838107 1.58406-5.559153C1.58406-5.419676 1.663761-5.210461 1.96264-5.210461C2.291407-5.210461 2.500623-5.50934 2.500623-5.738481C2.500623-6.087173 2.191781-6.087173 2.032379-6.087173C2.470735-6.824408 3.178082-6.884184 3.466999-6.884184C4.194271-6.884184 4.891656-6.366127 4.891656-5.080946C4.891656-4.692403 4.83188-4.184309 4.622665-3.377335H4.612702ZM2.261519-.059776C1.165629-.059776 1.165629-1.085928 1.165629-1.185554C1.165629-1.454545 1.414695-2.849315 1.823163-3.447073C2.221669-4.014944 2.709838-4.333748 3.327522-4.333748C4.41345-4.333748 4.433375-3.217933 4.433375-3.01868C4.433375-2.30137 3.795766-.059776 2.261519-.059776Z'/>
<path id='g1-109' d='M.876712-.587796C.846824-.438356 .787049-.209215 .787049-.159402C.787049 .019925 .926526 .109589 1.075965 .109589C1.195517 .109589 1.374844 .029888 1.444583-.169365C1.454545-.18929 1.574097-.657534 1.633873-.9066L1.853051-1.803238C1.912827-2.022416 1.972603-2.241594 2.022416-2.470735C2.062267-2.6401 2.141968-2.929016 2.15193-2.968867C2.30137-3.277709 2.82939-4.184309 3.775841-4.184309C4.224159-4.184309 4.313823-3.815691 4.313823-3.486924C4.313823-3.237858 4.244085-2.958904 4.164384-2.660025L3.88543-1.504359L3.686177-.747198C3.646326-.547945 3.556663-.209215 3.556663-.159402C3.556663 .019925 3.696139 .109589 3.845579 .109589C4.154421 .109589 4.214197-.139477 4.293898-.458281C4.433375-1.016189 4.801993-2.470735 4.891656-2.859278C4.921544-2.988792 5.449564-4.184309 6.535492-4.184309C6.963885-4.184309 7.073474-3.845579 7.073474-3.486924C7.073474-2.919054 6.655044-1.783313 6.455791-1.255293C6.366127-1.016189 6.326276-.9066 6.326276-.707347C6.326276-.239103 6.674969 .109589 7.143213 .109589C8.079701 .109589 8.448319-1.344956 8.448319-1.424658C8.448319-1.524284 8.358655-1.524284 8.328767-1.524284C8.229141-1.524284 8.229141-1.494396 8.179328-1.344956C8.029888-.816936 7.711083-.109589 7.163138-.109589C6.993773-.109589 6.924035-.209215 6.924035-.438356C6.924035-.687422 7.013699-.926526 7.103362-1.145704C7.292653-1.663761 7.711083-2.769614 7.711083-3.337484C7.711083-3.985056 7.312578-4.403487 6.56538-4.403487S5.310087-3.965131 4.941469-3.437111C4.931507-3.566625 4.901619-3.905355 4.622665-4.144458C4.373599-4.353674 4.054795-4.403487 3.805729-4.403487C2.909091-4.403487 2.420922-3.765878 2.251557-3.536737C2.201743-4.104608 1.783313-4.403487 1.334994-4.403487C.876712-4.403487 .687422-4.014944 .597758-3.835616C.418431-3.486924 .288917-2.899128 .288917-2.86924C.288917-2.769614 .388543-2.769614 .408468-2.769614C.508095-2.769614 .518057-2.779577 .577833-2.998755C.747198-3.706102 .946451-4.184309 1.305106-4.184309C1.464508-4.184309 1.613948-4.104608 1.613948-3.726027C1.613948-3.516812 1.58406-3.407223 1.454545-2.889166L.876712-.587796Z'/>
<path id='g3-40' d='M3.297634 2.391034C3.297634 2.361146 3.297634 2.34122 3.128269 2.171856C1.882939 .916563 1.564134-.966376 1.564134-2.49066C1.564134-4.224159 1.942715-5.957659 3.16812-7.202989C3.297634-7.32254 3.297634-7.342466 3.297634-7.372354C3.297634-7.442092 3.257783-7.47198 3.198007-7.47198C3.098381-7.47198 2.201743-6.794521 1.613948-5.529265C1.105853-4.433375 .986301-3.327522 .986301-2.49066C.986301-1.713574 1.09589-.508095 1.643836 .617684C2.241594 1.843088 3.098381 2.49066 3.198007 2.49066C3.257783 2.49066 3.297634 2.460772 3.297634 2.391034Z'/>
<path id='g3-41' d='M2.879203-2.49066C2.879203-3.267746 2.769614-4.473225 2.221669-5.599004C1.62391-6.824408 .767123-7.47198 .667497-7.47198C.607721-7.47198 .56787-7.43213 .56787-7.372354C.56787-7.342466 .56787-7.32254 .757161-7.143213C1.733499-6.156912 2.30137-4.572852 2.30137-2.49066C2.30137-.787049 1.932752 .966376 .697385 2.221669C.56787 2.34122 .56787 2.361146 .56787 2.391034C.56787 2.450809 .607721 2.49066 .667497 2.49066C.767123 2.49066 1.663761 1.8132 2.251557 .547945C2.759651-.547945 2.879203-1.653798 2.879203-2.49066Z'/>
<path id='g3-43' d='M4.07472-2.291407H6.854296C6.993773-2.291407 7.183064-2.291407 7.183064-2.49066S6.993773-2.689913 6.854296-2.689913H4.07472V-5.479452C4.07472-5.618929 4.07472-5.808219 3.875467-5.808219S3.676214-5.618929 3.676214-5.479452V-2.689913H.886675C.747198-2.689913 .557908-2.689913 .557908-2.49066S.747198-2.291407 .886675-2.291407H3.676214V.498132C3.676214 .637609 3.676214 .826899 3.875467 .826899S4.07472 .637609 4.07472 .498132V-2.291407Z'/>
<path id='g3-49' d='M2.929016-6.37609C2.929016-6.615193 2.929016-6.635118 2.699875-6.635118C2.082192-5.997509 1.205479-5.997509 .886675-5.997509V-5.688667C1.085928-5.688667 1.673724-5.688667 2.191781-5.947696V-.787049C2.191781-.428394 2.161893-.308842 1.265255-.308842H.946451V0C1.295143-.029888 2.161893-.029888 2.560399-.029888S3.825654-.029888 4.174346 0V-.308842H3.855542C2.958904-.308842 2.929016-.418431 2.929016-.787049V-6.37609Z'/>
<path id='g3-50' d='M1.265255-.767123L2.321295-1.793275C3.875467-3.16812 4.473225-3.706102 4.473225-4.702366C4.473225-5.838107 3.576588-6.635118 2.361146-6.635118C1.235367-6.635118 .498132-5.718555 .498132-4.83188C.498132-4.273973 .996264-4.273973 1.026152-4.273973C1.195517-4.273973 1.544209-4.393524 1.544209-4.801993C1.544209-5.061021 1.364882-5.32005 1.016189-5.32005C.936488-5.32005 .916563-5.32005 .886675-5.310087C1.115816-5.957659 1.653798-6.326276 2.231631-6.326276C3.138232-6.326276 3.566625-5.519303 3.566625-4.702366C3.566625-3.905355 3.068493-3.118306 2.520548-2.500623L.607721-.368618C.498132-.259029 .498132-.239103 .498132 0H4.194271L4.473225-1.733499H4.224159C4.174346-1.43462 4.104608-.996264 4.004981-.846824C3.935243-.767123 3.277709-.767123 3.058531-.767123H1.265255Z'/>
<path id='g3-61' d='M6.844334-3.257783C6.993773-3.257783 7.183064-3.257783 7.183064-3.457036S6.993773-3.656289 6.854296-3.656289H.886675C.747198-3.656289 .557908-3.656289 .557908-3.457036S.747198-3.257783 .896638-3.257783H6.844334ZM6.854296-1.325031C6.993773-1.325031 7.183064-1.325031 7.183064-1.524284S6.993773-1.723537 6.844334-1.723537H.896638C.747198-1.723537 .557908-1.723537 .557908-1.524284S.747198-1.325031 .886675-1.325031H6.854296Z'/>
<path id='g0-0' d='M6.56538-2.291407C6.734745-2.291407 6.914072-2.291407 6.914072-2.49066S6.734745-2.689913 6.56538-2.689913H1.175592C1.006227-2.689913 .826899-2.689913 .826899-2.49066S1.006227-2.291407 1.175592-2.291407H6.56538Z'/>
<path id='g0-76' d='M1.793275-.926526C2.331258-1.763387 2.500623-2.400996 2.630137-2.929016C2.978829-4.303861 3.35741-5.499377 3.975093-6.1868C4.094645-6.316314 4.174346-6.405978 4.493151-6.405978C5.180573-6.405978 5.200498-5.718555 5.200498-5.579078C5.200498-5.399751 5.150685-5.260274 5.150685-5.210461C5.150685-5.140722 5.210461-5.140722 5.220423-5.140722C5.379826-5.140722 5.648817-5.250311 5.897883-5.429639C6.07721-5.569116 6.166874-5.668742 6.166874-6.07721C6.166874-6.615193 5.88792-7.023661 5.330012-7.023661C5.011208-7.023661 4.134496-6.94396 3.158157-5.957659C2.361146-5.140722 1.892902-3.347447 1.703611-2.600249C1.524284-1.912827 1.444583-1.603985 1.145704-1.006227C1.075965-.886675 .816936-.448319 .67746-.318804C.408468-.069738 .308842 .109589 .308842 .159402C.308842 .179328 .328767 .219178 .398506 .219178C.438356 .219178 .647572 .179328 .9066 .009963C1.075965-.089664 1.09589-.109589 1.325031-.348692C1.823163-.33873 2.171856-.249066 2.799502-.069738C3.307597 .069738 3.815691 .219178 4.323786 .219178C5.13076 .219178 5.947696-.388543 6.266501-.826899C6.465753-1.09589 6.525529-1.344956 6.525529-1.374844C6.525529-1.444583 6.465753-1.444583 6.455791-1.444583C6.296389-1.444583 6.057285-1.334994 5.88792-1.215442C5.618929-1.046077 5.599004-.986301 5.539228-.816936C5.489415-.657534 5.429639-.577833 5.389788-.518057C5.310087-.398506 5.300125-.398506 5.150685-.398506C4.672478-.398506 4.174346-.547945 3.516812-.727273C3.237858-.806974 2.689913-.966376 2.191781-.966376C2.062267-.966376 1.92279-.956413 1.793275-.926526Z'/>
<path id='g0-79' d='M7.740971-4.801993C7.740971-6.067248 7.183064-7.023661 5.967621-7.023661C4.931507-7.023661 4.054795-6.1868 3.985056-6.127024C3.188045-5.339975 2.889166-4.443337 2.889166-4.423412C2.889166-4.363636 2.938979-4.353674 2.988792-4.353674C3.178082-4.353674 3.337484-4.4533 3.486924-4.562889C3.666252-4.692403 3.676214-4.722291 3.785803-4.951432C3.875467-5.150685 4.104608-5.638854 4.473225-6.057285C4.712329-6.326276 4.911582-6.475716 5.310087-6.475716C6.276463-6.475716 6.894147-5.678705 6.894147-4.373599C6.894147-2.34122 5.449564-.328767 3.606476-.328767C2.191781-.328767 1.414695-1.454545 1.414695-2.879203C1.414695-4.234122 2.11208-5.728518 3.566625-6.585305C3.666252-6.645081 3.965131-6.824408 3.965131-6.953923C3.965131-7.023661 3.88543-7.023661 3.865504-7.023661C3.516812-7.023661 .56787-5.439601 .56787-2.450809C.56787-1.05604 1.295143 .219178 2.948941 .219178C4.891656 .219178 7.740971-1.733499 7.740971-4.801993Z'/>
</defs>
<g id='page1' transform='matrix(1.5 0 0 1.5 0 0)'>
<use x='64.079146' y='42.749115' xlink:href='#g0-76'/>
<use x='70.950627' y='42.749115' xlink:href='#g3-40'/>
<use x='74.825001' y='42.749115' xlink:href='#g1-30'/>
<use x='80.761088' y='44.243495' xlink:href='#g2-97'/>
<use x='87.794527' y='42.749115' xlink:href='#g3-43'/>
<use x='97.75714' y='42.749115' xlink:href='#g1-14'/>
<use x='102.562032' y='42.749115' xlink:href='#g1-30'/>
<use x='108.498119' y='44.243495' xlink:href='#g2-97'/>
<use x='113.317692' y='42.749115' xlink:href='#g3-41'/>
<use x='119.959378' y='42.749115' xlink:href='#g3-61'/>
<use x='130.475458' y='42.749115' xlink:href='#g3-40'/>
<use x='134.34983' y='42.749115' xlink:href='#g1-14'/>
<use x='138.777672' y='44.243495' xlink:href='#g2-97'/>
<use x='143.099116' y='44.243495' xlink:href='#g2-102'/>
<use x='150.477693' y='42.749115' xlink:href='#g3-43'/>
<use x='160.440307' y='42.749115' xlink:href='#g1-18'/>
<use x='165.39396' y='42.749115' xlink:href='#g1-15'/>
<use x='169.437833' y='44.243495' xlink:href='#g2-97'/>
<use x='173.759277' y='44.243495' xlink:href='#g2-98'/>
<use x='177.262815' y='44.243495' xlink:href='#g2-99'/>
<use x='181.321325' y='42.749115' xlink:href='#g1-17'/>
<use x='186.268089' y='44.243495' xlink:href='#g2-98'/>
<use x='190.269746' y='42.749115' xlink:href='#g1-14'/>
<use x='194.697588' y='44.243495' xlink:href='#g2-99'/>
<use x='198.257983' y='44.243495' xlink:href='#g2-102'/>
<use x='203.422697' y='42.749115' xlink:href='#g3-41'/>
<use x='208.957441' y='42.749115' xlink:href='#g3-40'/>
<use x='212.831813' y='42.749115' xlink:href='#g1-14'/>
<use x='217.259655' y='44.243495' xlink:href='#g2-97'/>
<use x='221.581099' y='44.243495' xlink:href='#g2-103'/>
<use x='228.430031' y='42.749115' xlink:href='#g3-43'/>
<use x='238.392645' y='42.749115' xlink:href='#g1-18'/>
<use x='243.346298' y='42.749115' xlink:href='#g1-15'/>
<use x='247.390171' y='44.243495' xlink:href='#g2-97'/>
<use x='251.711615' y='44.243495' xlink:href='#g2-100'/>
<use x='255.858935' y='44.243495' xlink:href='#g2-101'/>
<use x='260.137003' y='42.749115' xlink:href='#g1-17'/>
<use x='265.083767' y='44.243495' xlink:href='#g2-100'/>
<use x='269.729219' y='42.749115' xlink:href='#g1-14'/>
<use x='274.157061' y='44.243495' xlink:href='#g2-101'/>
<use x='277.937012' y='44.243495' xlink:href='#g2-103'/>
<use x='282.572069' y='42.749115' xlink:href='#g3-41'/>
<use x='288.106813' y='28.701664' xlink:href='#g6-20'/>
<use x='294.560411' y='36.009313' xlink:href='#g3-49'/>
<rect x='294.560411' y='40.059205' height='.398484' width='4.981335'/>
<use x='294.560411' y='49.582985' xlink:href='#g3-50'/>
<use x='300.73726' y='42.749115' xlink:href='#g1-64'/>
<use x='306.026463' y='44.243495' xlink:href='#g2-22'/>
<use x='311.36875' y='42.749115' xlink:href='#g1-30'/>
<use x='317.304837' y='44.243495' xlink:href='#g2-102'/>
<use x='322.469551' y='42.749115' xlink:href='#g1-64'/>
<use x='328.312221' y='38.635619' xlink:href='#g2-22'/>
<use x='333.654508' y='42.749115' xlink:href='#g1-30'/>
<use x='339.590595' y='44.243495' xlink:href='#g2-103'/>
<use x='346.43953' y='42.749115' xlink:href='#g0-0'/>
<use x='357.597657' y='36.009313' xlink:href='#g3-49'/>
<rect x='357.597657' y='40.059205' height='.398484' width='4.981335'/>
<use x='357.597657' y='49.582985' xlink:href='#g3-50'/>
<use x='363.774506' y='42.749115' xlink:href='#g1-109'/>
<use x='372.52184' y='38.635619' xlink:href='#g4-50'/>
<use x='376.991209' y='42.749115' xlink:href='#g1-30'/>
<use x='382.927296' y='44.243495' xlink:href='#g2-102'/>
<use x='388.092011' y='42.749115' xlink:href='#g1-30'/>
<use x='394.028098' y='44.243495' xlink:href='#g2-103'/>
<use x='398.663167' y='28.701664' xlink:href='#g6-21'/>
<use x='119.959378' y='70.644735' xlink:href='#g3-61'/>
<use x='130.475458' y='62.57493' xlink:href='#g6-0'/>
<use x='135.041693' y='70.644735' xlink:href='#g1-14'/>
<use x='139.469535' y='72.139116' xlink:href='#g2-102'/>
<use x='144.13612' y='72.139116' xlink:href='#g2-103'/>
<use x='150.985053' y='70.644735' xlink:href='#g3-43'/>
<use x='160.947666' y='72.702843' xlink:href='#g5-24'/>
<use x='170.910306' y='70.212183' xlink:href='#g5-24'/>
<use x='180.872946' y='67.721523' xlink:href='#g5-24'/>
<use x='183.728662' y='67.009198' xlink:href='#g5-24'/>
<use x='161.94393' y='70.644735' xlink:href='#g1-18'/>
<use x='166.897583' y='70.644735' xlink:href='#g1-15'/>
<use x='170.941457' y='72.139116' xlink:href='#g2-103'/>
<use x='175.078407' y='72.139116' xlink:href='#g2-98'/>
<use x='178.581945' y='72.139116' xlink:href='#g2-102'/>
<use x='183.746632' y='70.644735' xlink:href='#g1-17'/>
<use x='188.693397' y='72.139116' xlink:href='#g2-98'/>
<use x='195.905168' y='70.644735' xlink:href='#g0-0'/>
<use x='205.867782' y='72.702843' xlink:href='#g5-24'/>
<use x='215.830422' y='70.212183' xlink:href='#g5-24'/>
<use x='225.793062' y='67.721523' xlink:href='#g5-24'/>
<use x='228.648777' y='67.009198' xlink:href='#g5-24'/>
<use x='206.864046' y='70.644735' xlink:href='#g1-18'/>
<use x='211.817698' y='70.644735' xlink:href='#g1-15'/>
<use x='215.861572' y='72.139116' xlink:href='#g2-103'/>
<use x='219.998522' y='72.139116' xlink:href='#g2-98'/>
<use x='223.50206' y='72.139116' xlink:href='#g2-102'/>
<use x='228.666748' y='70.644735' xlink:href='#g1-17'/>
<use x='233.613512' y='72.139116' xlink:href='#g2-98'/>
<use x='240.825283' y='70.644735' xlink:href='#g3-43'/>
<use x='250.787897' y='70.644735' xlink:href='#g0-79'/>
<use x='258.996042' y='70.644735' xlink:href='#g3-40'/>
<use x='262.870416' y='70.644735' xlink:href='#g1-18'/>
<use x='267.824069' y='66.531239' xlink:href='#g4-50'/>
<use x='272.293439' y='70.644735' xlink:href='#g3-41'/>
<use x='276.167812' y='62.57493' xlink:href='#g6-1'/>
<use x='282.394424' y='56.597285' xlink:href='#g6-20'/>
<use x='288.848022' y='63.904934' xlink:href='#g3-49'/>
<rect x='288.848022' y='67.954825' height='.398484' width='4.981335'/>
<use x='288.848022' y='77.478605' xlink:href='#g3-50'/>
<use x='295.024871' y='70.644735' xlink:href='#g1-64'/>
<use x='300.314075' y='72.139116' xlink:href='#g2-22'/>
<use x='305.656361' y='70.644735' xlink:href='#g1-30'/>
<use x='311.592448' y='72.139116' xlink:href='#g2-102'/>
<use x='316.757162' y='70.644735' xlink:href='#g1-64'/>
<use x='322.599832' y='66.531239' xlink:href='#g2-22'/>
<use x='327.942119' y='70.644735' xlink:href='#g1-30'/>
<use x='333.878206' y='72.139116' xlink:href='#g2-103'/>
<use x='340.727141' y='70.644735' xlink:href='#g0-0'/>
<use x='351.885268' y='63.904934' xlink:href='#g3-49'/>
<rect x='351.885268' y='67.954825' height='.398484' width='4.981335'/>
<use x='351.885268' y='77.478605' xlink:href='#g3-50'/>
<use x='358.062117' y='70.644735' xlink:href='#g1-109'/>
<use x='366.809451' y='66.531239' xlink:href='#g4-50'/>
<use x='371.27882' y='70.644735' xlink:href='#g1-30'/>
<use x='377.214907' y='72.139116' xlink:href='#g2-102'/>
<use x='382.379622' y='70.644735' xlink:href='#g1-30'/>
<use x='388.315709' y='72.139116' xlink:href='#g2-103'/>
<use x='392.950778' y='56.597285' xlink:href='#g6-21'/>
<use x='119.959378' y='92.463002' xlink:href='#g3-61'/>
<use x='130.475458' y='92.463002' xlink:href='#g0-76'/>
<use x='137.346939' y='92.463002' xlink:href='#g3-40'/>
<use x='141.221313' y='92.463002' xlink:href='#g1-30'/>
<use x='147.1574' y='93.957383' xlink:href='#g2-97'/>
<use x='151.976973' y='92.463002' xlink:href='#g3-41'/>
</g>
</svg>