<?xml version='1.0' encoding='UTF-8'?>
<!-- This file was generated by dvisvgm 3.2 -->
<svg version='1.1' xmlns='http://www.w3.org/2000/svg' xmlns:xlink='http://www.w3.org/1999/xlink' width='86.046558pt' height='14.94396pt' viewBox='307.970369 32.741196 86.046558 14.94396'>
<defs>
<path id='g3-49' d='M2.336239-4.435367C2.336239-4.623661 2.322291-4.630635 2.127024-4.630635C1.680697-4.191283 1.046077-4.184309 .760149-4.184309V-3.93325C.927522-3.93325 1.387796-3.93325 1.771357-4.128518V-.571856C1.771357-.341719 1.771357-.251059 1.073973-.251059H.808966V0C.934496-.006974 1.792279-.027895 2.050311-.027895C2.266501-.027895 3.145205-.006974 3.29863 0V-.251059H3.033624C2.336239-.251059 2.336239-.341719 2.336239-.571856V-4.435367Z'/>
<path id='g3-50' d='M3.521793-1.26924H3.284682C3.263761-1.115816 3.194022-.704359 3.103362-.63462C3.047572-.592777 2.510585-.592777 2.412951-.592777H1.129763C1.862017-1.241345 2.106102-1.436613 2.524533-1.764384C3.040598-2.175841 3.521793-2.608219 3.521793-3.270735C3.521793-4.11457 2.782565-4.630635 1.889913-4.630635C1.025156-4.630635 .439352-4.02391 .439352-3.382316C.439352-3.02665 .739228-2.991781 .808966-2.991781C.976339-2.991781 1.17858-3.110336 1.17858-3.361395C1.17858-3.486924 1.129763-3.731009 .767123-3.731009C.983313-4.226152 1.457534-4.379577 1.785305-4.379577C2.48269-4.379577 2.84533-3.835616 2.84533-3.270735C2.84533-2.66401 2.412951-2.182814 2.189788-1.931756L.509091-.27198C.439352-.209215 .439352-.195268 .439352 0H3.312578L3.521793-1.26924Z'/>
<path id='g1-30' d='M4.353674-6.674969C4.353674-6.694894 4.383562-6.804483 4.383562-6.814446S4.383562-6.914072 4.26401-6.914072C4.164384-6.914072 4.154421-6.884184 4.11457-6.714819L3.536737-4.41345C1.952677-4.363636 .488169-3.038605 .488169-1.683686C.488169-.737235 1.185554 .049813 2.400996 .119552C2.321295 .428394 2.251557 .747198 2.171856 1.05604C2.052304 1.524284 1.952677 1.902864 1.952677 1.932752C1.952677 2.032379 2.022416 2.042341 2.072229 2.042341S2.141968 2.032379 2.171856 2.002491C2.191781 1.982565 2.251557 1.743462 2.281445 1.603985L2.660025 .119552C4.26401 .069738 5.708593-1.275218 5.708593-2.610212C5.708593-3.39726 5.180573-4.313823 3.795766-4.41345L4.353674-6.674969ZM2.450809-.099626C1.853051-.129514 1.135741-.478207 1.135741-1.474471C1.135741-2.669988 1.992528-4.064757 3.476961-4.194271L2.450809-.099626ZM3.73599-4.194271C4.493151-4.154421 5.061021-3.696139 5.061021-2.819427C5.061021-1.643836 4.204234-.219178 2.709838-.099626L3.73599-4.194271Z'/>
<path id='g1-58' d='M1.912827-.52802C1.912827-.816936 1.673724-1.05604 1.384807-1.05604S.856787-.816936 .856787-.52802S1.09589 0 1.384807 0S1.912827-.239103 1.912827-.52802Z'/>
<path id='g1-84' d='M4.254047-6.047323C4.323786-6.326276 4.363636-6.386052 4.483188-6.41594C4.572852-6.435866 4.901619-6.435866 5.110834-6.435866C6.117061-6.435866 6.56538-6.396015 6.56538-5.618929C6.56538-5.469489 6.525529-5.080946 6.485679-4.821918C6.475716-4.782067 6.455791-4.662516 6.455791-4.632628C6.455791-4.572852 6.485679-4.503113 6.575342-4.503113C6.684932-4.503113 6.704857-4.582814 6.724782-4.732254L6.993773-6.465753C7.003736-6.505604 7.013699-6.60523 7.013699-6.635118C7.013699-6.744707 6.914072-6.744707 6.744707-6.744707H1.215442C.976339-6.744707 .966376-6.734745 .896638-6.545455L.298879-4.79203C.288917-4.772105 .239103-4.632628 .239103-4.612702C.239103-4.552927 .288917-4.503113 .358655-4.503113C.458281-4.503113 .468244-4.552927 .52802-4.712329C1.066002-6.256538 1.325031-6.435866 2.799502-6.435866H3.188045C3.466999-6.435866 3.466999-6.396015 3.466999-6.316314C3.466999-6.256538 3.437111-6.136986 3.427148-6.107098L2.092154-.787049C2.002491-.418431 1.972603-.308842 .9066-.308842C.547945-.308842 .488169-.308842 .488169-.119552C.488169 0 .597758 0 .657534 0C.926526 0 1.205479-.019925 1.474471-.019925C1.753425-.019925 2.042341-.029888 2.321295-.029888S2.879203-.019925 3.148194-.019925C3.437111-.019925 3.73599 0 4.014944 0C4.11457 0 4.234122 0 4.234122-.199253C4.234122-.308842 4.154421-.308842 3.895392-.308842C3.646326-.308842 3.516812-.308842 3.257783-.328767C2.968867-.358655 2.889166-.388543 2.889166-.547945C2.889166-.557908 2.889166-.607721 2.929016-.757161L4.254047-6.047323Z'/>
<path id='g2-48' d='M4.582814-3.188045C4.582814-3.985056 4.533001-4.782067 4.184309-5.519303C3.726027-6.475716 2.909091-6.635118 2.49066-6.635118C1.892902-6.635118 1.165629-6.37609 .757161-5.449564C.438356-4.762142 .388543-3.985056 .388543-3.188045C.388543-2.440847 .428394-1.544209 .836862-.787049C1.265255 .019925 1.992528 .219178 2.480697 .219178C3.01868 .219178 3.775841 .009963 4.214197-.936488C4.533001-1.62391 4.582814-2.400996 4.582814-3.188045ZM2.480697 0C2.092154 0 1.504359-.249066 1.325031-1.205479C1.215442-1.803238 1.215442-2.719801 1.215442-3.307597C1.215442-3.945205 1.215442-4.60274 1.295143-5.140722C1.484433-6.326276 2.231631-6.41594 2.480697-6.41594C2.809465-6.41594 3.466999-6.236613 3.656289-5.250311C3.755915-4.692403 3.755915-3.935243 3.755915-3.307597C3.755915-2.560399 3.755915-1.882939 3.646326-1.24533C3.496887-.298879 2.929016 0 2.480697 0Z'/>
<path id='g0-104' d='M3.267746-7.0934C3.317559-7.202989 3.317559-7.222914 3.317559-7.272727C3.317559-7.382316 3.227895-7.47198 3.118306-7.47198C3.028643-7.47198 2.958904-7.422167 2.889166-7.242839L1.145704-2.669988C1.125778-2.610212 1.09589-2.550436 1.09589-2.49066C1.09589-2.460772 1.09589-2.440847 1.145704-2.321295L2.889166 2.251557C2.929016 2.361146 2.978829 2.49066 3.118306 2.49066C3.227895 2.49066 3.317559 2.400996 3.317559 2.291407C3.317559 2.261519 3.317559 2.241594 3.267746 2.132005L1.504359-2.49066L3.267746-7.0934Z'/>
<path id='g0-105' d='M2.719801-2.321295C2.769614-2.440847 2.769614-2.460772 2.769614-2.49066S2.769614-2.540473 2.719801-2.660025L.976339-7.242839C.916563-7.412204 .856787-7.47198 .747198-7.47198S.547945-7.382316 .547945-7.272727C.547945-7.242839 .547945-7.222914 .597758-7.113325L2.361146-2.49066L.597758 2.11208C.547945 2.221669 .547945 2.241594 .547945 2.291407C.547945 2.400996 .637609 2.49066 .747198 2.49066C.876712 2.49066 .916563 2.391034 .956413 2.291407L2.719801-2.321295Z'/>
<path id='g0-106' d='M1.58406-7.113325C1.58406-7.292653 1.58406-7.47198 1.384807-7.47198S1.185554-7.292653 1.185554-7.113325V2.132005C1.185554 2.311333 1.185554 2.49066 1.384807 2.49066S1.58406 2.311333 1.58406 2.132005V-7.113325Z'/>
</defs>
<g id='page1' transform='matrix(1.5 0 0 1.5 0 0)'>
<use x='204.217689' y='29.299444' xlink:href='#g0-104'/>
<use x='208.092061' y='29.299444' xlink:href='#g2-48'/>
<use x='213.0734' y='29.299444' xlink:href='#g0-106'/>
<use x='215.840808' y='29.299444' xlink:href='#g1-84'/>
<use x='223.046451' y='29.299444' xlink:href='#g1-30'/>
<use x='228.982538' y='30.793825' xlink:href='#g3-49'/>
<use x='233.451908' y='29.299444' xlink:href='#g1-30'/>
<use x='239.387995' y='30.793825' xlink:href='#g3-50'/>
<use x='243.857364' y='29.299444' xlink:href='#g1-58'/>
<use x='246.624773' y='29.299444' xlink:href='#g1-58'/>
<use x='249.392181' y='29.299444' xlink:href='#g1-58'/>
<use x='252.15959' y='29.299444' xlink:href='#g0-106'/>
<use x='254.926998' y='29.299444' xlink:href='#g2-48'/>
<use x='259.908337' y='29.299444' xlink:href='#g0-105'/>
</g>
</svg>