<?xml version='1.0' encoding='UTF-8'?>
<!-- This file was generated by dvisvgm 3.2 -->
<svg version='1.1' xmlns='http://www.w3.org/2000/svg' xmlns:xlink='http://www.w3.org/1999/xlink' width='14.029909pt' height='14.746677pt' viewBox='-21.072004 15.645306 14.029909 14.746677'>
<defs>
<path id='g1-121' d='M3.87746-2.629141C3.905355-2.726775 3.905355-2.740722 3.905355-2.782565C3.905355-2.922042 3.793773-3.005729 3.675218-3.005729C3.598506-3.005729 3.466002-2.970859 3.38929-2.838356C3.368369-2.796513 3.312578-2.57335 3.277709-2.433873L3.131258-1.855044C3.089415-1.687671 2.873225-.808966 2.852304-.732254C2.84533-.732254 2.538481-.125529 1.994521-.125529C1.520299-.125529 1.520299-.578829 1.520299-.704359C1.520299-1.080946 1.680697-1.520299 1.889913-2.057285C1.973599-2.280448 2.008468-2.364134 2.008468-2.48269C2.008468-2.817435 1.72254-3.075467 1.345953-3.075467C.641594-3.075467 .327771-2.127024 .327771-2.008468C.327771-1.917808 .425405-1.917808 .446326-1.917808C.54396-1.917808 .550934-1.952677 .571856-2.02939C.746202-2.608219 1.046077-2.880199 1.325031-2.880199C1.443587-2.880199 1.499377-2.803487 1.499377-2.636115C1.499377-2.475716 1.436613-2.322291 1.401743-2.231631C1.066999-1.380822 .99726-1.12279 .99726-.81594C.99726-.697385 .99726-.369614 1.26924-.146451C1.48543 .034869 1.778331 .069738 1.966625 .069738C2.245579 .069738 2.496638-.034869 2.726775-.244085C2.636115 .139477 2.559402 .432379 2.266501 .781071C2.078207 .99726 1.799253 1.227397 1.429639 1.227397C1.380822 1.227397 1.053051 1.227397 .9066 .99726C1.283188 .955417 1.283188 .620672 1.283188 .613699C1.283188 .390535 1.080946 .348692 1.011208 .348692C.836862 .348692 .606725 .488169 .606725 .808966C.606725 1.164633 .941469 1.422665 1.436613 1.422665C2.140971 1.422665 2.998755 .878705 3.214944 .006974L3.87746-2.629141Z'/>
<path id='g0-30' d='M4.353674-6.674969C4.353674-6.694894 4.383562-6.804483 4.383562-6.814446S4.383562-6.914072 4.26401-6.914072C4.164384-6.914072 4.154421-6.884184 4.11457-6.714819L3.536737-4.41345C1.952677-4.363636 .488169-3.038605 .488169-1.683686C.488169-.737235 1.185554 .049813 2.400996 .119552C2.321295 .428394 2.251557 .747198 2.171856 1.05604C2.052304 1.524284 1.952677 1.902864 1.952677 1.932752C1.952677 2.032379 2.022416 2.042341 2.072229 2.042341S2.141968 2.032379 2.171856 2.002491C2.191781 1.982565 2.251557 1.743462 2.281445 1.603985L2.660025 .119552C4.26401 .069738 5.708593-1.275218 5.708593-2.610212C5.708593-3.39726 5.180573-4.313823 3.795766-4.41345L4.353674-6.674969ZM2.450809-.099626C1.853051-.129514 1.135741-.478207 1.135741-1.474471C1.135741-2.669988 1.992528-4.064757 3.476961-4.194271L2.450809-.099626ZM3.73599-4.194271C4.493151-4.154421 5.061021-3.696139 5.061021-2.819427C5.061021-1.643836 4.204234-.219178 2.709838-.099626L3.73599-4.194271Z'/>
</defs>
<g id='page1' transform='matrix(1.5 0 0 1.5 0 0)'>
<use x='-14.536172' y='17.344276' xlink:href='#g0-30'/>
<use x='-8.600085' y='18.838657' xlink:href='#g1-121'/>
</g>
</svg>