<?xml version='1.0' encoding='UTF-8'?>
<!-- This file was generated by dvisvgm 3.2 -->
<svg version='1.1' xmlns='http://www.w3.org/2000/svg' xmlns:xlink='http://www.w3.org/1999/xlink' width='17.320093pt' height='14.94396pt' viewBox='-20.025927 14.808444 17.320093 14.94396'>
<defs>
<path id='g1-10' d='M6.744707-1.613948H6.495641C6.445828-1.354919 6.405978-1.125778 6.316314-.886675C6.266501-.727273 6.236613-.647572 5.65878-.647572H4.861768C4.991283-1.205479 5.300125-1.683686 5.748443-2.34122C6.216687-3.048568 6.625156-3.73599 6.625156-4.523039C6.625156-5.907846 5.280199-7.023661 3.596513-7.023661C1.882939-7.023661 .557908-5.88792 .557908-4.523039C.557908-3.73599 .966376-3.048568 1.43462-2.34122C1.872976-1.683686 2.191781-1.205479 2.321295-.647572H1.524284C.946451-.647572 .916563-.727273 .86675-.876712C.787049-1.105853 .737235-1.364882 .687422-1.613948H.438356L.767123 0H2.361146C2.580324 0 2.610212 0 2.610212-.209215C2.610212-.9066 2.30137-1.783313 2.072229-2.420922C1.863014-2.998755 1.58406-3.785803 1.58406-4.533001C1.58406-6.127024 2.67995-6.804483 3.58655-6.804483C4.542964-6.804483 5.599004-6.087173 5.599004-4.533001C5.599004-3.785803 5.330012-3.028643 5.041096-2.211706C4.891656-1.793275 4.572852-.896638 4.572852-.209215C4.572852 0 4.60274 0 4.83188 0H6.41594L6.744707-1.613948Z'/>
<path id='g0-105' d='M2.719801-2.321295C2.769614-2.440847 2.769614-2.460772 2.769614-2.49066S2.769614-2.540473 2.719801-2.660025L.976339-7.242839C.916563-7.412204 .856787-7.47198 .747198-7.47198S.547945-7.382316 .547945-7.272727C.547945-7.242839 .547945-7.222914 .597758-7.113325L2.361146-2.49066L.597758 2.11208C.547945 2.221669 .547945 2.241594 .547945 2.291407C.547945 2.400996 .637609 2.49066 .747198 2.49066C.876712 2.49066 .916563 2.391034 .956413 2.291407L2.719801-2.321295Z'/>
<path id='g0-106' d='M1.58406-7.113325C1.58406-7.292653 1.58406-7.47198 1.384807-7.47198S1.185554-7.292653 1.185554-7.113325V2.132005C1.185554 2.311333 1.185554 2.49066 1.384807 2.49066S1.58406 2.311333 1.58406 2.132005V-7.113325Z'/>
</defs>
<g id='page1' transform='matrix(1.5 0 0 1.5 0 0)'>
<use x='-14.536172' y='17.344276' xlink:href='#g0-106'/>
<use x='-11.768764' y='17.344276' xlink:href='#g1-10'/>
<use x='-4.573504' y='17.344276' xlink:href='#g0-105'/>
</g>
</svg>