<?xml version='1.0' encoding='UTF-8'?>
<!-- This file was generated by dvisvgm 3.2 -->
<svg version='1.1' xmlns='http://www.w3.org/2000/svg' xmlns:xlink='http://www.w3.org/1999/xlink' width='9.937577pt' height='13.569116pt' viewBox='-22.282465 15.346426 9.937577 13.569116'>
<defs>
<path id='g0-112' d='M.448319 1.215442C.368618 1.554172 .348692 1.62391-.089664 1.62391C-.209215 1.62391-.318804 1.62391-.318804 1.8132C-.318804 1.892902-.268991 1.932752-.18929 1.932752C.079701 1.932752 .368618 1.902864 .647572 1.902864C.976339 1.902864 1.315068 1.932752 1.633873 1.932752C1.683686 1.932752 1.8132 1.932752 1.8132 1.733499C1.8132 1.62391 1.713574 1.62391 1.574097 1.62391C1.075965 1.62391 1.075965 1.554172 1.075965 1.464508C1.075965 1.344956 1.494396-.278954 1.564134-.52802C1.693649-.239103 1.972603 .109589 2.480697 .109589C3.636364 .109589 4.881694-1.344956 4.881694-2.809465C4.881694-3.745953 4.313823-4.403487 3.556663-4.403487C3.058531-4.403487 2.580324-4.044832 2.251557-3.656289C2.15193-4.194271 1.723537-4.403487 1.354919-4.403487C.896638-4.403487 .707347-4.014944 .617684-3.835616C.438356-3.496887 .308842-2.899128 .308842-2.86924C.308842-2.769614 .408468-2.769614 .428394-2.769614C.52802-2.769614 .537983-2.779577 .597758-2.998755C.767123-3.706102 .966376-4.184309 1.325031-4.184309C1.494396-4.184309 1.633873-4.104608 1.633873-3.726027C1.633873-3.496887 1.603985-3.387298 1.564134-3.217933L.448319 1.215442ZM2.201743-3.108344C2.271482-3.377335 2.540473-3.656289 2.719801-3.805729C3.068493-4.11457 3.35741-4.184309 3.526775-4.184309C3.92528-4.184309 4.164384-3.835616 4.164384-3.247821S3.835616-1.514321 3.656289-1.135741C3.317559-.438356 2.839352-.109589 2.470735-.109589C1.8132-.109589 1.683686-.936488 1.683686-.996264C1.683686-1.016189 1.683686-1.036115 1.713574-1.155666L2.201743-3.108344Z'/>
<path id='g0-126' d='M5.349938-5.927771C5.210461-5.798257 4.881694-5.519303 4.881694-5.339975C4.881694-5.240349 4.98132-5.140722 5.080946-5.140722C5.17061-5.140722 5.220423-5.210461 5.270237-5.270237C5.389788-5.419676 5.618929-5.69863 6.057285-5.917808C6.127024-5.957659 6.22665-6.007472 6.22665-6.127024C6.22665-6.22665 6.156912-6.276463 6.087173-6.326276C5.867995-6.475716 5.758406-6.655044 5.678705-6.894147C5.65878-6.983811 5.618929-7.113325 5.479452-7.113325S5.280199-6.983811 5.280199-6.90411C5.280199-6.854296 5.3599-6.535492 5.519303-6.326276H2.161893C1.992528-6.326276 1.8132-6.326276 1.8132-6.127024S1.992528-5.927771 2.161893-5.927771H5.349938Z'/>
</defs>
<g id='page1' transform='matrix(1.5 0 0 1.5 0 0)'>
<use x='-14.456576' y='17.344276' xlink:href='#g0-126'/>
<use x='-14.536172' y='17.344276' xlink:href='#g0-112'/>
</g>
</svg>