<?xml version='1.0' encoding='UTF-8'?>
<!-- This file was generated by dvisvgm 3.2 -->
<svg version='1.1' xmlns='http://www.w3.org/2000/svg' xmlns:xlink='http://www.w3.org/1999/xlink' width='34.620248pt' height='10.550436pt' viewBox='-21.400772 16.063737 34.620248 10.550436'>
<defs>
<path id='g1-48' d='M4.582814-3.188045C4.582814-3.985056 4.533001-4.782067 4.184309-5.519303C3.726027-6.475716 2.909091-6.635118 2.49066-6.635118C1.892902-6.635118 1.165629-6.37609 .757161-5.449564C.438356-4.762142 .388543-3.985056 .388543-3.188045C.388543-2.440847 .428394-1.544209 .836862-.787049C1.265255 .019925 1.992528 .219178 2.480697 .219178C3.01868 .219178 3.775841 .009963 4.214197-.936488C4.533001-1.62391 4.582814-2.400996 4.582814-3.188045ZM2.480697 0C2.092154 0 1.504359-.249066 1.325031-1.205479C1.215442-1.803238 1.215442-2.719801 1.215442-3.307597C1.215442-3.945205 1.215442-4.60274 1.295143-5.140722C1.484433-6.326276 2.231631-6.41594 2.480697-6.41594C2.809465-6.41594 3.466999-6.236613 3.656289-5.250311C3.755915-4.692403 3.755915-3.935243 3.755915-3.307597C3.755915-2.560399 3.755915-1.882939 3.646326-1.24533C3.496887-.298879 2.929016 0 2.480697 0Z'/>
<path id='g0-28' d='M2.929016-3.716065H4.60274C4.732254-3.716065 5.090909-3.716065 5.090909-4.054795C5.090909-4.293898 4.881694-4.293898 4.692403-4.293898H1.902864C1.703611-4.293898 1.315068-4.293898 .876712-3.825654C.547945-3.466999 .268991-2.988792 .268991-2.929016C.268991-2.919054 .268991-2.82939 .388543-2.82939C.468244-2.82939 .488169-2.86924 .547945-2.948941C1.036115-3.716065 1.603985-3.716065 1.8132-3.716065H2.6401L1.663761-.518057C1.62391-.398506 1.564134-.18929 1.564134-.14944C1.564134-.039851 1.633873 .119552 1.853051 .119552C2.181818 .119552 2.231631-.159402 2.261519-.308842L2.929016-3.716065Z'/>
<path id='g0-62' d='M6.724782-2.271482C6.834371-2.321295 6.914072-2.371108 6.914072-2.49066S6.834371-2.660025 6.724782-2.709838L1.205479-5.310087C1.075965-5.379826 1.05604-5.379826 1.026152-5.379826C.916563-5.379826 .826899-5.290162 .826899-5.180573C.826899-5.090909 .876712-5.031133 1.016189-4.961395L6.246575-2.49066L1.016189-.019925C.876712 .049813 .826899 .109589 .826899 .199253C.826899 .308842 .916563 .398506 1.026152 .398506C1.05604 .398506 1.075965 .398506 1.205479 .328767L6.724782-2.271482Z'/>
</defs>
<g id='page1' transform='matrix(1.5 0 0 1.5 0 0)'>
<use x='-14.536172' y='17.344276' xlink:href='#g0-28'/>
<use x='-6.28591' y='17.344276' xlink:href='#g0-62'/>
<use x='4.23017' y='17.344276' xlink:href='#g1-48'/>
</g>
</svg>