<?xml version='1.0' encoding='UTF-8'?>
<!-- This file was generated by dvisvgm 3.2 -->
<svg version='1.1' xmlns='http://www.w3.org/2000/svg' xmlns:xlink='http://www.w3.org/1999/xlink' width='100.55241pt' height='17.270617pt' viewBox='300.287643 30.414539 100.55241 17.270617'>
<defs>
<path id='g3-48' d='M3.598506-2.224658C3.598506-2.991781 3.507846-3.542715 3.187049-4.030884C2.970859-4.351681 2.538481-4.630635 1.980573-4.630635C.36264-4.630635 .36264-2.726775 .36264-2.224658S.36264 .139477 1.980573 .139477S3.598506-1.72254 3.598506-2.224658ZM1.980573-.055791C1.659776-.055791 1.234371-.244085 1.094894-.81594C.99726-1.227397 .99726-1.799253 .99726-2.315318C.99726-2.824408 .99726-3.354421 1.101868-3.737983C1.248319-4.288917 1.694645-4.435367 1.980573-4.435367C2.357161-4.435367 2.719801-4.20523 2.84533-3.800747C2.956912-3.424159 2.963885-2.922042 2.963885-2.315318C2.963885-1.799253 2.963885-1.283188 2.873225-.843836C2.733748-.209215 2.259527-.055791 1.980573-.055791Z'/>
<path id='g0-121' d='M1.910834-2.915068C2.015442-2.901121 2.085181-2.894147 2.294396-2.838356C2.517559-2.775592 2.684932-2.733748 2.817435-2.733748C3.089415-2.733748 3.11731-2.942964 3.11731-3.005729C3.11731-3.061519 3.089415-3.277709 2.817435-3.277709C2.684932-3.277709 2.517559-3.235866 2.294396-3.173101C2.085181-3.11731 2.015442-3.110336 1.910834-3.096389C1.924782-3.340473 1.973599-3.633375 2.008468-3.849564C2.036364-3.989041 2.099128-4.344707 2.099128-4.588792C2.099128-4.798007 2.001494-4.909589 1.827148-4.909589C1.680697-4.909589 1.555168-4.832877 1.555168-4.588792C1.555168-4.358655 1.610959-4.009963 1.652802-3.772852C1.66675-3.696139 1.729514-3.354421 1.743462-3.096389C1.638854-3.110336 1.569116-3.11731 1.3599-3.173101C1.136737-3.235866 .969365-3.277709 .836862-3.277709C.564882-3.277709 .536986-3.068493 .536986-3.005729C.536986-2.949938 .564882-2.733748 .836862-2.733748C.969365-2.733748 1.136737-2.775592 1.3599-2.838356C1.569116-2.894147 1.638854-2.901121 1.743462-2.915068C1.729514-2.740722 1.680697-2.517559 1.645828-2.371108C1.555168-1.93873 1.555168-1.889913 1.555168-1.527273C1.555168-.18132 1.687671 1.248319 1.708593 1.387796C1.715567 1.45056 1.729514 1.492403 1.827148 1.492403C1.931756 1.492403 1.93873 1.45056 1.952677 1.352927C1.952677 1.345953 2.008468 .739228 2.036364 .313823C2.071233-.299875 2.099128-.913574 2.099128-1.527273C2.099128-1.889913 2.099128-1.93873 2.001494-2.385056C1.987547-2.461768 1.924782-2.740722 1.910834-2.915068Z'/>
<path id='g1-13' d='M.408468-2.530511C.797011-3.676214 1.882939-3.686177 1.992528-3.686177C3.496887-3.686177 3.606476-1.942715 3.606476-1.155666C3.606476-.547945 3.556663-.37858 3.486924-.179328C3.267746 .547945 2.968867 1.703611 2.968867 1.96264C2.968867 2.072229 3.01868 2.141968 3.098381 2.141968C3.227895 2.141968 3.307597 1.92279 3.417186 1.544209C3.646326 .707347 3.745953 .139477 3.785803-.169365C3.805729-.298879 3.825654-.428394 3.865504-.557908C4.184309-1.544209 4.821918-3.028643 5.220423-3.815691C5.290162-3.935243 5.409714-4.154421 5.409714-4.194271C5.409714-4.293898 5.310087-4.293898 5.290162-4.293898C5.260274-4.293898 5.200498-4.293898 5.17061-4.224159C4.652553-3.277709 4.254047-2.281445 3.855542-1.275218C3.845579-1.58406 3.835616-2.34122 3.447073-3.307597C3.20797-3.915318 2.809465-4.403487 2.122042-4.403487C.876712-4.403487 .179328-2.889166 .179328-2.580324C.179328-2.480697 .268991-2.480697 .368618-2.480697L.408468-2.530511Z'/>
<path id='g1-32' d='M4.801993-6.655044C4.811955-6.694894 4.83188-6.75467 4.83188-6.804483C4.83188-6.90411 4.762142-6.914072 4.712329-6.914072C4.612702-6.914072 4.60274-6.894147 4.562889-6.714819L2.909091-.129514C2.15193-.219178 1.77335-.587796 1.77335-1.24533C1.77335-1.444583 1.77335-1.703611 2.311333-3.098381C2.351183-3.217933 2.420922-3.387298 2.420922-3.58655C2.420922-4.034869 2.102117-4.403487 1.603985-4.403487C.657534-4.403487 .288917-2.958904 .288917-2.86924C.288917-2.769614 .388543-2.769614 .408468-2.769614C.508095-2.769614 .518057-2.789539 .56787-2.948941C.836862-3.895392 1.235367-4.184309 1.574097-4.184309C1.653798-4.184309 1.823163-4.184309 1.823163-3.865504C1.823163-3.606476 1.723537-3.35741 1.594022-3.008717C1.115816-1.753425 1.115816-1.494396 1.115816-1.325031C1.115816-.37858 1.892902 .029888 2.849315 .089664C2.769614 .448319 2.769614 .468244 2.630137 .996264C2.600249 1.105853 2.400996 1.912827 2.400996 1.942715C2.400996 1.952677 2.400996 2.042341 2.520548 2.042341C2.540473 2.042341 2.590286 2.042341 2.610212 2.002491C2.6401 1.982565 2.699875 1.733499 2.729763 1.594022L3.108344 .109589C3.476961 .109589 4.353674 .109589 5.290162-.956413C5.69863-1.414695 5.907846-1.853051 6.017435-2.15193C6.107098-2.400996 6.326276-3.267746 6.326276-3.706102C6.326276-4.26401 6.057285-4.403487 5.88792-4.403487C5.638854-4.403487 5.389788-4.144458 5.389788-3.92528C5.389788-3.795766 5.449564-3.73599 5.539228-3.656289C5.648817-3.5467 5.897883-3.287671 5.897883-2.809465C5.897883-2.171856 5.379826-1.354919 5.031133-.996264C4.154421-.109589 3.516812-.109589 3.158157-.109589L4.801993-6.655044Z'/>
<path id='g1-120' d='M3.327522-3.008717C3.387298-3.267746 3.616438-4.184309 4.313823-4.184309C4.363636-4.184309 4.60274-4.184309 4.811955-4.054795C4.533001-4.004981 4.333748-3.755915 4.333748-3.516812C4.333748-3.35741 4.443337-3.16812 4.712329-3.16812C4.931507-3.16812 5.250311-3.347447 5.250311-3.745953C5.250311-4.26401 4.662516-4.403487 4.323786-4.403487C3.745953-4.403487 3.39726-3.875467 3.277709-3.646326C3.028643-4.303861 2.49066-4.403487 2.201743-4.403487C1.165629-4.403487 .597758-3.118306 .597758-2.86924C.597758-2.769614 .697385-2.769614 .71731-2.769614C.797011-2.769614 .826899-2.789539 .846824-2.879203C1.185554-3.935243 1.843088-4.184309 2.181818-4.184309C2.371108-4.184309 2.719801-4.094645 2.719801-3.516812C2.719801-3.20797 2.550436-2.540473 2.181818-1.145704C2.022416-.52802 1.673724-.109589 1.235367-.109589C1.175592-.109589 .946451-.109589 .737235-.239103C.986301-.288917 1.205479-.498132 1.205479-.777086C1.205479-1.046077 .986301-1.125778 .836862-1.125778C.537983-1.125778 .288917-.86675 .288917-.547945C.288917-.089664 .787049 .109589 1.225405 .109589C1.882939 .109589 2.241594-.587796 2.271482-.647572C2.391034-.278954 2.749689 .109589 3.347447 .109589C4.373599 .109589 4.941469-1.175592 4.941469-1.424658C4.941469-1.524284 4.851806-1.524284 4.821918-1.524284C4.732254-1.524284 4.712329-1.484433 4.692403-1.414695C4.363636-.348692 3.686177-.109589 3.367372-.109589C2.978829-.109589 2.819427-.428394 2.819427-.767123C2.819427-.986301 2.879203-1.205479 2.988792-1.643836L3.327522-3.008717Z'/>
<path id='g2-22' d='M4.283935-5.569116V-5.877958H.687422V-5.569116H4.283935Z'/>
<path id='g2-40' d='M3.297634 2.391034C3.297634 2.361146 3.297634 2.34122 3.128269 2.171856C1.882939 .916563 1.564134-.966376 1.564134-2.49066C1.564134-4.224159 1.942715-5.957659 3.16812-7.202989C3.297634-7.32254 3.297634-7.342466 3.297634-7.372354C3.297634-7.442092 3.257783-7.47198 3.198007-7.47198C3.098381-7.47198 2.201743-6.794521 1.613948-5.529265C1.105853-4.433375 .986301-3.327522 .986301-2.49066C.986301-1.713574 1.09589-.508095 1.643836 .617684C2.241594 1.843088 3.098381 2.49066 3.198007 2.49066C3.257783 2.49066 3.297634 2.460772 3.297634 2.391034Z'/>
<path id='g2-41' d='M2.879203-2.49066C2.879203-3.267746 2.769614-4.473225 2.221669-5.599004C1.62391-6.824408 .767123-7.47198 .667497-7.47198C.607721-7.47198 .56787-7.43213 .56787-7.372354C.56787-7.342466 .56787-7.32254 .757161-7.143213C1.733499-6.156912 2.30137-4.572852 2.30137-2.49066C2.30137-.787049 1.932752 .966376 .697385 2.221669C.56787 2.34122 .56787 2.361146 .56787 2.391034C.56787 2.450809 .607721 2.49066 .667497 2.49066C.767123 2.49066 1.663761 1.8132 2.251557 .547945C2.759651-.547945 2.879203-1.653798 2.879203-2.49066Z'/>
<path id='g2-61' d='M6.844334-3.257783C6.993773-3.257783 7.183064-3.257783 7.183064-3.457036S6.993773-3.656289 6.854296-3.656289H.886675C.747198-3.656289 .557908-3.656289 .557908-3.457036S.747198-3.257783 .896638-3.257783H6.844334ZM6.854296-1.325031C6.993773-1.325031 7.183064-1.325031 7.183064-1.524284S6.993773-1.723537 6.844334-1.723537H.896638C.747198-1.723537 .557908-1.723537 .557908-1.524284S.747198-1.325031 .886675-1.325031H6.854296Z'/>
</defs>
<g id='page1' transform='matrix(1.5 0 0 1.5 0 0)'>
<use x='201.942681' y='26.670402' xlink:href='#g2-22'/>
<use x='199.902845' y='29.299444' xlink:href='#g1-32'/>
<use x='206.749865' y='29.299444' xlink:href='#g2-40'/>
<use x='210.624239' y='29.299444' xlink:href='#g1-120'/>
<use x='216.318171' y='29.299444' xlink:href='#g2-41'/>
<use x='222.959877' y='29.299444' xlink:href='#g2-61'/>
<use x='233.475957' y='29.299444' xlink:href='#g1-32'/>
<use x='240.32298' y='25.185948' xlink:href='#g0-121'/>
<use x='244.474086' y='29.299444' xlink:href='#g2-40'/>
<use x='248.348459' y='29.299444' xlink:href='#g1-120'/>
<use x='254.042391' y='29.299444' xlink:href='#g2-41'/>
<use x='257.916765' y='29.299444' xlink:href='#g1-13'/>
<use x='263.628196' y='25.185948' xlink:href='#g3-48'/>
</g>
</svg>