<?xml version='1.0' encoding='UTF-8'?>
<!-- This file was generated by dvisvgm 3.2 -->
<svg version='1.1' xmlns='http://www.w3.org/2000/svg' xmlns:xlink='http://www.w3.org/1999/xlink' width='53.422286pt' height='14.94396pt' viewBox='-20.160423 14.808444 53.422286 14.94396'>
<defs>
<path id='g2-110' d='M.850809-.439352C.822914-.348692 .781071-.174346 .781071-.153425C.781071 0 .9066 .069738 1.018182 .069738C1.143711 .069738 1.255293-.020922 1.290162-.083686S1.380822-.369614 1.415691-.516065C1.45056-.648568 1.527273-.969365 1.569116-1.143711C1.610959-1.297136 1.652802-1.45056 1.687671-1.610959C1.764384-1.896887 1.778331-1.952677 1.980573-2.238605C2.175841-2.517559 2.503611-2.880199 3.02665-2.880199C3.431133-2.880199 3.438107-2.524533 3.438107-2.39203C3.438107-1.973599 3.138232-1.199502 3.02665-.9066C2.949938-.711333 2.922042-.648568 2.922042-.530012C2.922042-.160399 3.228892 .069738 3.584558 .069738C4.281943 .069738 4.588792-.892653 4.588792-.99726C4.588792-1.08792 4.498132-1.08792 4.47721-1.08792C4.379577-1.08792 4.372603-1.046077 4.344707-.969365C4.184309-.411457 3.884433-.125529 3.605479-.125529C3.459029-.125529 3.431133-.223163 3.431133-.369614C3.431133-.530012 3.466002-.620672 3.591532-.934496C3.675218-1.150685 3.961146-1.889913 3.961146-2.280448C3.961146-2.956912 3.424159-3.075467 3.054545-3.075467C2.475716-3.075467 2.085181-2.719801 1.875965-2.440847C1.827148-2.922042 1.415691-3.075467 1.129763-3.075467C.829888-3.075467 .669489-2.859278 .578829-2.698879C.425405-2.440847 .327771-2.043337 .327771-2.008468C.327771-1.917808 .425405-1.917808 .446326-1.917808C.54396-1.917808 .550934-1.93873 .599751-2.127024C.704359-2.538481 .836862-2.880199 1.108842-2.880199C1.290162-2.880199 1.338979-2.726775 1.338979-2.538481C1.338979-2.405978 1.276214-2.147945 1.227397-1.959651S1.108842-1.48543 1.073973-1.332005L.850809-.439352Z'/>
<path id='g3-49' d='M2.336239-4.435367C2.336239-4.623661 2.322291-4.630635 2.127024-4.630635C1.680697-4.191283 1.046077-4.184309 .760149-4.184309V-3.93325C.927522-3.93325 1.387796-3.93325 1.771357-4.128518V-.571856C1.771357-.341719 1.771357-.251059 1.073973-.251059H.808966V0C.934496-.006974 1.792279-.027895 2.050311-.027895C2.266501-.027895 3.145205-.006974 3.29863 0V-.251059H3.033624C2.336239-.251059 2.336239-.341719 2.336239-.571856V-4.435367Z'/>
<path id='g1-30' d='M4.353674-6.674969C4.353674-6.694894 4.383562-6.804483 4.383562-6.814446S4.383562-6.914072 4.26401-6.914072C4.164384-6.914072 4.154421-6.884184 4.11457-6.714819L3.536737-4.41345C1.952677-4.363636 .488169-3.038605 .488169-1.683686C.488169-.737235 1.185554 .049813 2.400996 .119552C2.321295 .428394 2.251557 .747198 2.171856 1.05604C2.052304 1.524284 1.952677 1.902864 1.952677 1.932752C1.952677 2.032379 2.022416 2.042341 2.072229 2.042341S2.141968 2.032379 2.171856 2.002491C2.191781 1.982565 2.251557 1.743462 2.281445 1.603985L2.660025 .119552C4.26401 .069738 5.708593-1.275218 5.708593-2.610212C5.708593-3.39726 5.180573-4.313823 3.795766-4.41345L4.353674-6.674969ZM2.450809-.099626C1.853051-.129514 1.135741-.478207 1.135741-1.474471C1.135741-2.669988 1.992528-4.064757 3.476961-4.194271L2.450809-.099626ZM3.73599-4.194271C4.493151-4.154421 5.061021-3.696139 5.061021-2.819427C5.061021-1.643836 4.204234-.219178 2.709838-.099626L3.73599-4.194271Z'/>
<path id='g1-58' d='M1.912827-.52802C1.912827-.816936 1.673724-1.05604 1.384807-1.05604S.856787-.816936 .856787-.52802S1.09589 0 1.384807 0S1.912827-.239103 1.912827-.52802Z'/>
<path id='g0-104' d='M3.267746-7.0934C3.317559-7.202989 3.317559-7.222914 3.317559-7.272727C3.317559-7.382316 3.227895-7.47198 3.118306-7.47198C3.028643-7.47198 2.958904-7.422167 2.889166-7.242839L1.145704-2.669988C1.125778-2.610212 1.09589-2.550436 1.09589-2.49066C1.09589-2.460772 1.09589-2.440847 1.145704-2.321295L2.889166 2.251557C2.929016 2.361146 2.978829 2.49066 3.118306 2.49066C3.227895 2.49066 3.317559 2.400996 3.317559 2.291407C3.317559 2.261519 3.317559 2.241594 3.267746 2.132005L1.504359-2.49066L3.267746-7.0934Z'/>
<path id='g0-105' d='M2.719801-2.321295C2.769614-2.440847 2.769614-2.460772 2.769614-2.49066S2.769614-2.540473 2.719801-2.660025L.976339-7.242839C.916563-7.412204 .856787-7.47198 .747198-7.47198S.547945-7.382316 .547945-7.272727C.547945-7.242839 .547945-7.222914 .597758-7.113325L2.361146-2.49066L.597758 2.11208C.547945 2.221669 .547945 2.241594 .547945 2.291407C.547945 2.400996 .637609 2.49066 .747198 2.49066C.876712 2.49066 .916563 2.391034 .956413 2.291407L2.719801-2.321295Z'/>
</defs>
<g id='page1' transform='matrix(1.5 0 0 1.5 0 0)'>
<use x='-14.536172' y='17.344276' xlink:href='#g0-104'/>
<use x='-10.6618' y='17.344276' xlink:href='#g1-30'/>
<use x='-4.725713' y='18.838657' xlink:href='#g3-49'/>
<use x='-.256344' y='17.344276' xlink:href='#g1-58'/>
<use x='2.511065' y='17.344276' xlink:href='#g1-58'/>
<use x='5.278473' y='17.344276' xlink:href='#g1-58'/>
<use x='8.045882' y='17.344276' xlink:href='#g1-30'/>
<use x='13.981969' y='18.838657' xlink:href='#g2-110'/>
<use x='19.404961' y='17.344276' xlink:href='#g0-105'/>
</g>
</svg>