<?xml version='1.0' encoding='UTF-8'?>
<!-- This file was generated by dvisvgm 3.2 -->
<svg version='1.1' xmlns='http://www.w3.org/2000/svg' xmlns:xlink='http://www.w3.org/1999/xlink' width='13.459067pt' height='12.61268pt' viewBox='-21.012229 15.645306 13.459067 12.61268'>
<defs>
<path id='g1-52' d='M3.689166-1.143711V-1.39477H2.915068V-4.505106C2.915068-4.651557 2.915068-4.700374 2.761644-4.700374C2.677958-4.700374 2.650062-4.700374 2.580324-4.60274L.27198-1.39477V-1.143711H2.322291V-.571856C2.322291-.334745 2.322291-.251059 1.75741-.251059H1.569116V0C1.917808-.013948 2.364134-.027895 2.615193-.027895C2.873225-.027895 3.319552-.013948 3.668244 0V-.251059H3.47995C2.915068-.251059 2.915068-.334745 2.915068-.571856V-1.143711H3.689166ZM2.371108-3.947198V-1.39477H.530012L2.371108-3.947198Z'/>
<path id='g0-21' d='M3.556663-2.909091C3.965131-1.863014 4.443337-.33873 4.60274-.109589C4.762142 .109589 4.861768 .109589 5.13076 .109589H5.349938C5.449564 .099626 5.459527 .039851 5.459527 .009963S5.439601-.039851 5.409714-.079701C5.310087-.18929 5.250311-.33873 5.180573-.537983L3.148194-6.206725C2.938979-6.784558 2.400996-6.914072 1.932752-6.914072C1.882939-6.914072 1.753425-6.914072 1.753425-6.804483C1.753425-6.724782 1.833126-6.704857 1.843088-6.704857C2.171856-6.645081 2.241594-6.585305 2.49066-5.907846L3.457036-3.198007L.707347-.468244C.587796-.348692 .52802-.288917 .52802-.159402C.52802 .009963 .667497 .129514 .826899 .129514S1.075965 .019925 1.155666-.079701L3.556663-2.909091Z'/>
</defs>
<g id='page1' transform='matrix(1.5 0 0 1.5 0 0)'>
<use x='-14.536172' y='17.344276' xlink:href='#g0-21'/>
<use x='-8.724607' y='18.838657' xlink:href='#g1-52'/>
</g>
</svg>