<?xml version='1.0' encoding='UTF-8'?>
<!-- This file was generated by dvisvgm 3.2 -->
<svg version='1.1' xmlns='http://www.w3.org/2000/svg' xmlns:xlink='http://www.w3.org/1999/xlink' width='264.058518pt' height='34.721653pt' viewBox='219.121334 27.263402 264.058518 34.721653'>
<defs>
<path id='g0-0' d='M6.56538-2.291407C6.734745-2.291407 6.914072-2.291407 6.914072-2.49066S6.734745-2.689913 6.56538-2.689913H1.175592C1.006227-2.689913 .826899-2.689913 .826899-2.49066S1.006227-2.291407 1.175592-2.291407H6.56538Z'/>
<path id='g0-114' d='M7.770859-6.585305C7.790785-6.615193 7.820672-6.684932 7.820672-6.724782C7.820672-6.794521 7.81071-6.804483 7.581569-6.804483H.707347C.478207-6.804483 .468244-6.794521 .468244-6.724782C.468244-6.684932 .498132-6.615193 .518057-6.585305L3.875467 .139477C3.945205 .268991 3.975093 .328767 4.144458 .328767S4.343711 .268991 4.41345 .139477L7.770859-6.585305ZM1.703611-6.087173H7.173101L4.443337-.607721L1.703611-6.087173Z'/>
<path id='g3-50' d='M3.521793-1.26924H3.284682C3.263761-1.115816 3.194022-.704359 3.103362-.63462C3.047572-.592777 2.510585-.592777 2.412951-.592777H1.129763C1.862017-1.241345 2.106102-1.436613 2.524533-1.764384C3.040598-2.175841 3.521793-2.608219 3.521793-3.270735C3.521793-4.11457 2.782565-4.630635 1.889913-4.630635C1.025156-4.630635 .439352-4.02391 .439352-3.382316C.439352-3.02665 .739228-2.991781 .808966-2.991781C.976339-2.991781 1.17858-3.110336 1.17858-3.361395C1.17858-3.486924 1.129763-3.731009 .767123-3.731009C.983313-4.226152 1.457534-4.379577 1.785305-4.379577C2.48269-4.379577 2.84533-3.835616 2.84533-3.270735C2.84533-2.66401 2.412951-2.182814 2.189788-1.931756L.509091-.27198C.439352-.209215 .439352-.195268 .439352 0H3.312578L3.521793-1.26924Z'/>
<path id='g3-51' d='M1.903861-2.329265C2.447821-2.329265 2.838356-1.952677 2.838356-1.206476C2.838356-.341719 2.336239-.083686 1.931756-.083686C1.652802-.083686 1.039103-.160399 .746202-.571856C1.073973-.585803 1.150685-.81594 1.150685-.962391C1.150685-1.185554 .983313-1.345953 .767123-1.345953C.571856-1.345953 .376588-1.227397 .376588-.941469C.376588-.285928 1.101868 .139477 1.945704 .139477C2.915068 .139477 3.584558-.509091 3.584558-1.206476C3.584558-1.750436 3.138232-2.294396 2.371108-2.454795C3.103362-2.719801 3.368369-3.242839 3.368369-3.668244C3.368369-4.219178 2.733748-4.630635 1.959651-4.630635S.592777-4.254047 .592777-3.696139C.592777-3.459029 .746202-3.326526 .955417-3.326526C1.171606-3.326526 1.311083-3.486924 1.311083-3.682192C1.311083-3.884433 1.171606-4.030884 .955417-4.044832C1.199502-4.351681 1.680697-4.428394 1.93873-4.428394C2.252553-4.428394 2.691905-4.274969 2.691905-3.668244C2.691905-3.375342 2.594271-3.054545 2.412951-2.838356C2.182814-2.57335 1.987547-2.559402 1.638854-2.538481C1.464508-2.524533 1.45056-2.524533 1.415691-2.517559C1.401743-2.517559 1.345953-2.503611 1.345953-2.426899C1.345953-2.329265 1.408717-2.329265 1.527273-2.329265H1.903861Z'/>
<path id='g3-52' d='M3.689166-1.143711V-1.39477H2.915068V-4.505106C2.915068-4.651557 2.915068-4.700374 2.761644-4.700374C2.677958-4.700374 2.650062-4.700374 2.580324-4.60274L.27198-1.39477V-1.143711H2.322291V-.571856C2.322291-.334745 2.322291-.251059 1.75741-.251059H1.569116V0C1.917808-.013948 2.364134-.027895 2.615193-.027895C2.873225-.027895 3.319552-.013948 3.668244 0V-.251059H3.47995C2.915068-.251059 2.915068-.334745 2.915068-.571856V-1.143711H3.689166ZM2.371108-3.947198V-1.39477H.530012L2.371108-3.947198Z'/>
<path id='g2-40' d='M3.297634 2.391034C3.297634 2.361146 3.297634 2.34122 3.128269 2.171856C1.882939 .916563 1.564134-.966376 1.564134-2.49066C1.564134-4.224159 1.942715-5.957659 3.16812-7.202989C3.297634-7.32254 3.297634-7.342466 3.297634-7.372354C3.297634-7.442092 3.257783-7.47198 3.198007-7.47198C3.098381-7.47198 2.201743-6.794521 1.613948-5.529265C1.105853-4.433375 .986301-3.327522 .986301-2.49066C.986301-1.713574 1.09589-.508095 1.643836 .617684C2.241594 1.843088 3.098381 2.49066 3.198007 2.49066C3.257783 2.49066 3.297634 2.460772 3.297634 2.391034Z'/>
<path id='g2-41' d='M2.879203-2.49066C2.879203-3.267746 2.769614-4.473225 2.221669-5.599004C1.62391-6.824408 .767123-7.47198 .667497-7.47198C.607721-7.47198 .56787-7.43213 .56787-7.372354C.56787-7.342466 .56787-7.32254 .757161-7.143213C1.733499-6.156912 2.30137-4.572852 2.30137-2.49066C2.30137-.787049 1.932752 .966376 .697385 2.221669C.56787 2.34122 .56787 2.361146 .56787 2.391034C.56787 2.450809 .607721 2.49066 .667497 2.49066C.767123 2.49066 1.663761 1.8132 2.251557 .547945C2.759651-.547945 2.879203-1.653798 2.879203-2.49066Z'/>
<path id='g2-43' d='M4.07472-2.291407H6.854296C6.993773-2.291407 7.183064-2.291407 7.183064-2.49066S6.993773-2.689913 6.854296-2.689913H4.07472V-5.479452C4.07472-5.618929 4.07472-5.808219 3.875467-5.808219S3.676214-5.618929 3.676214-5.479452V-2.689913H.886675C.747198-2.689913 .557908-2.689913 .557908-2.49066S.747198-2.291407 .886675-2.291407H3.676214V.498132C3.676214 .637609 3.676214 .826899 3.875467 .826899S4.07472 .637609 4.07472 .498132V-2.291407Z'/>
<path id='g2-61' d='M6.844334-3.257783C6.993773-3.257783 7.183064-3.257783 7.183064-3.457036S6.993773-3.656289 6.854296-3.656289H.886675C.747198-3.656289 .557908-3.656289 .557908-3.457036S.747198-3.257783 .896638-3.257783H6.844334ZM6.854296-1.325031C6.993773-1.325031 7.183064-1.325031 7.183064-1.524284S6.993773-1.723537 6.844334-1.723537H.896638C.747198-1.723537 .557908-1.723537 .557908-1.524284S.747198-1.325031 .886675-1.325031H6.854296Z'/>
<path id='g1-11' d='M4.752179-2.351183C4.752179-3.915318 3.825654-4.403487 3.088418-4.403487C1.723537-4.403487 .408468-2.978829 .408468-1.574097C.408468-.647572 1.006227 .109589 2.022416 .109589C2.650062 .109589 3.367372-.119552 4.124533-.727273C4.254047-.199253 4.582814 .109589 5.031133 .109589C5.559153 .109589 5.867995-.438356 5.867995-.597758C5.867995-.667497 5.808219-.697385 5.748443-.697385C5.678705-.697385 5.648817-.667497 5.618929-.597758C5.439601-.109589 5.080946-.109589 5.061021-.109589C4.752179-.109589 4.752179-.886675 4.752179-1.125778C4.752179-1.334994 4.752179-1.354919 4.851806-1.474471C5.788294-2.650062 5.997509-3.805729 5.997509-3.815691C5.997509-3.835616 5.987547-3.915318 5.877958-3.915318C5.778331-3.915318 5.778331-3.88543 5.728518-3.706102C5.549191-3.078456 5.220423-2.321295 4.752179-1.733499V-2.351183ZM4.084682-.986301C3.20797-.219178 2.440847-.109589 2.042341-.109589C1.444583-.109589 1.145704-.557908 1.145704-1.195517C1.145704-1.683686 1.404732-2.759651 1.723537-3.267746C2.191781-3.995019 2.729763-4.184309 3.078456-4.184309C4.064757-4.184309 4.064757-2.879203 4.064757-2.102117C4.064757-1.733499 4.064757-1.155666 4.084682-.986301Z'/>
<path id='g1-13' d='M.408468-2.530511C.797011-3.676214 1.882939-3.686177 1.992528-3.686177C3.496887-3.686177 3.606476-1.942715 3.606476-1.155666C3.606476-.547945 3.556663-.37858 3.486924-.179328C3.267746 .547945 2.968867 1.703611 2.968867 1.96264C2.968867 2.072229 3.01868 2.141968 3.098381 2.141968C3.227895 2.141968 3.307597 1.92279 3.417186 1.544209C3.646326 .707347 3.745953 .139477 3.785803-.169365C3.805729-.298879 3.825654-.428394 3.865504-.557908C4.184309-1.544209 4.821918-3.028643 5.220423-3.815691C5.290162-3.935243 5.409714-4.154421 5.409714-4.194271C5.409714-4.293898 5.310087-4.293898 5.290162-4.293898C5.260274-4.293898 5.200498-4.293898 5.17061-4.224159C4.652553-3.277709 4.254047-2.281445 3.855542-1.275218C3.845579-1.58406 3.835616-2.34122 3.447073-3.307597C3.20797-3.915318 2.809465-4.403487 2.122042-4.403487C.876712-4.403487 .179328-2.889166 .179328-2.580324C.179328-2.480697 .268991-2.480697 .368618-2.480697L.408468-2.530511Z'/>
<path id='g1-14' d='M2.630137-4.353674C1.384807-4.054795 .418431-2.759651 .418431-1.554172C.418431-.597758 1.05604 .119552 1.992528 .119552C3.158157 .119552 3.985056-1.444583 3.985056-2.819427C3.985056-3.726027 3.58655-4.224159 3.247821-4.672478C2.889166-5.120797 2.30137-5.867995 2.30137-6.306351C2.30137-6.525529 2.500623-6.764633 2.849315-6.764633C3.148194-6.764633 3.347447-6.635118 3.556663-6.495641C3.755915-6.37609 3.955168-6.246575 4.104608-6.246575C4.353674-6.246575 4.503113-6.485679 4.503113-6.645081C4.503113-6.864259 4.343711-6.894147 3.985056-6.973848C3.466999-7.083437 3.327522-7.083437 3.16812-7.083437C2.391034-7.083437 2.032379-6.655044 2.032379-6.057285C2.032379-5.519303 2.321295-4.961395 2.630137-4.353674ZM2.749689-4.134496C2.998755-3.676214 3.297634-3.138232 3.297634-2.420922C3.297634-1.763387 2.919054-.099626 1.992528-.099626C1.444583-.099626 1.036115-.518057 1.036115-1.275218C1.036115-1.902864 1.404732-3.775841 2.749689-4.134496Z'/>
<path id='g1-70' d='M3.01868-3.237858H3.985056C4.732254-3.237858 4.811955-3.078456 4.811955-2.789539C4.811955-2.719801 4.811955-2.600249 4.742217-2.30137C4.722291-2.251557 4.712329-2.211706 4.712329-2.191781C4.712329-2.11208 4.772105-2.072229 4.83188-2.072229C4.931507-2.072229 4.931507-2.102117 4.98132-2.281445L5.529265-4.443337C5.559153-4.552927 5.559153-4.572852 5.559153-4.60274C5.559153-4.622665 5.539228-4.712329 5.439601-4.712329S5.330012-4.662516 5.290162-4.503113C5.080946-3.726027 4.851806-3.5467 4.004981-3.5467H3.098381L3.73599-6.07721C3.825654-6.425903 3.835616-6.465753 4.273973-6.465753H5.589041C6.814446-6.465753 7.043587-6.136986 7.043587-5.369863C7.043587-5.140722 7.043587-5.100872 7.013699-4.83188C6.993773-4.702366 6.993773-4.682441 6.993773-4.652553C6.993773-4.60274 7.023661-4.533001 7.113325-4.533001C7.222914-4.533001 7.232877-4.592777 7.252802-4.782067L7.452055-6.505604C7.481943-6.774595 7.43213-6.774595 7.183064-6.774595H2.30137C2.102117-6.774595 2.002491-6.774595 2.002491-6.575342C2.002491-6.465753 2.092154-6.465753 2.281445-6.465753C2.650062-6.465753 2.929016-6.465753 2.929016-6.286426C2.929016-6.246575 2.929016-6.22665 2.879203-6.047323L1.564134-.777086C1.464508-.388543 1.444583-.308842 .657534-.308842C.488169-.308842 .37858-.308842 .37858-.119552C.37858 0 .498132 0 .52802 0C.816936 0 1.554172-.029888 1.843088-.029888C2.171856-.029888 2.998755 0 3.327522 0C3.417186 0 3.536737 0 3.536737-.18929C3.536737-.268991 3.476961-.288917 3.476961-.298879C3.447073-.308842 3.427148-.308842 3.198007-.308842C2.978829-.308842 2.929016-.308842 2.67995-.328767C2.391034-.358655 2.361146-.398506 2.361146-.52802C2.361146-.547945 2.361146-.607721 2.400996-.757161L3.01868-3.237858Z'/>
<path id='g1-109' d='M.876712-.587796C.846824-.438356 .787049-.209215 .787049-.159402C.787049 .019925 .926526 .109589 1.075965 .109589C1.195517 .109589 1.374844 .029888 1.444583-.169365C1.454545-.18929 1.574097-.657534 1.633873-.9066L1.853051-1.803238C1.912827-2.022416 1.972603-2.241594 2.022416-2.470735C2.062267-2.6401 2.141968-2.929016 2.15193-2.968867C2.30137-3.277709 2.82939-4.184309 3.775841-4.184309C4.224159-4.184309 4.313823-3.815691 4.313823-3.486924C4.313823-3.237858 4.244085-2.958904 4.164384-2.660025L3.88543-1.504359L3.686177-.747198C3.646326-.547945 3.556663-.209215 3.556663-.159402C3.556663 .019925 3.696139 .109589 3.845579 .109589C4.154421 .109589 4.214197-.139477 4.293898-.458281C4.433375-1.016189 4.801993-2.470735 4.891656-2.859278C4.921544-2.988792 5.449564-4.184309 6.535492-4.184309C6.963885-4.184309 7.073474-3.845579 7.073474-3.486924C7.073474-2.919054 6.655044-1.783313 6.455791-1.255293C6.366127-1.016189 6.326276-.9066 6.326276-.707347C6.326276-.239103 6.674969 .109589 7.143213 .109589C8.079701 .109589 8.448319-1.344956 8.448319-1.424658C8.448319-1.524284 8.358655-1.524284 8.328767-1.524284C8.229141-1.524284 8.229141-1.494396 8.179328-1.344956C8.029888-.816936 7.711083-.109589 7.163138-.109589C6.993773-.109589 6.924035-.209215 6.924035-.438356C6.924035-.687422 7.013699-.926526 7.103362-1.145704C7.292653-1.663761 7.711083-2.769614 7.711083-3.337484C7.711083-3.985056 7.312578-4.403487 6.56538-4.403487S5.310087-3.965131 4.941469-3.437111C4.931507-3.566625 4.901619-3.905355 4.622665-4.144458C4.373599-4.353674 4.054795-4.403487 3.805729-4.403487C2.909091-4.403487 2.420922-3.765878 2.251557-3.536737C2.201743-4.104608 1.783313-4.403487 1.334994-4.403487C.876712-4.403487 .687422-4.014944 .597758-3.835616C.418431-3.486924 .288917-2.899128 .288917-2.86924C.288917-2.769614 .388543-2.769614 .408468-2.769614C.508095-2.769614 .518057-2.779577 .577833-2.998755C.747198-3.706102 .946451-4.184309 1.305106-4.184309C1.464508-4.184309 1.613948-4.104608 1.613948-3.726027C1.613948-3.516812 1.58406-3.407223 1.454545-2.889166L.876712-.587796Z'/>
<path id='g1-120' d='M3.327522-3.008717C3.387298-3.267746 3.616438-4.184309 4.313823-4.184309C4.363636-4.184309 4.60274-4.184309 4.811955-4.054795C4.533001-4.004981 4.333748-3.755915 4.333748-3.516812C4.333748-3.35741 4.443337-3.16812 4.712329-3.16812C4.931507-3.16812 5.250311-3.347447 5.250311-3.745953C5.250311-4.26401 4.662516-4.403487 4.323786-4.403487C3.745953-4.403487 3.39726-3.875467 3.277709-3.646326C3.028643-4.303861 2.49066-4.403487 2.201743-4.403487C1.165629-4.403487 .597758-3.118306 .597758-2.86924C.597758-2.769614 .697385-2.769614 .71731-2.769614C.797011-2.769614 .826899-2.789539 .846824-2.879203C1.185554-3.935243 1.843088-4.184309 2.181818-4.184309C2.371108-4.184309 2.719801-4.094645 2.719801-3.516812C2.719801-3.20797 2.550436-2.540473 2.181818-1.145704C2.022416-.52802 1.673724-.109589 1.235367-.109589C1.175592-.109589 .946451-.109589 .737235-.239103C.986301-.288917 1.205479-.498132 1.205479-.777086C1.205479-1.046077 .986301-1.125778 .836862-1.125778C.537983-1.125778 .288917-.86675 .288917-.547945C.288917-.089664 .787049 .109589 1.225405 .109589C1.882939 .109589 2.241594-.587796 2.271482-.647572C2.391034-.278954 2.749689 .109589 3.347447 .109589C4.373599 .109589 4.941469-1.175592 4.941469-1.424658C4.941469-1.524284 4.851806-1.524284 4.821918-1.524284C4.732254-1.524284 4.712329-1.484433 4.692403-1.414695C4.363636-.348692 3.686177-.109589 3.367372-.109589C2.978829-.109589 2.819427-.428394 2.819427-.767123C2.819427-.986301 2.879203-1.205479 2.988792-1.643836L3.327522-3.008717Z'/>
</defs>
<g id='page1' transform='matrix(1.5 0 0 1.5 0 0)'>
<use x='153.280773' y='25.259038' xlink:href='#g1-14'/>
<use x='158.085665' y='25.259038' xlink:href='#g1-70'/>
<rect x='146.080889' y='29.30893' height='.398484' width='26.994884'/>
<use x='146.080889' y='38.83271' xlink:href='#g1-14'/>
<use x='150.885781' y='38.83271' xlink:href='#g1-109'/>
<use x='159.633115' y='38.83271' xlink:href='#g2-40'/>
<use x='163.507489' y='38.83271' xlink:href='#g1-120'/>
<use x='169.201421' y='38.83271' xlink:href='#g2-41'/>
<use x='177.03862' y='31.99884' xlink:href='#g2-61'/>
<use x='187.5547' y='31.99884' xlink:href='#g1-11'/>
<use x='193.927819' y='33.493221' xlink:href='#g3-50'/>
<use x='198.397189' y='31.99884' xlink:href='#g1-109'/>
<use x='207.144522' y='31.99884' xlink:href='#g2-40'/>
<use x='211.018896' y='31.99884' xlink:href='#g1-120'/>
<use x='216.712828' y='31.99884' xlink:href='#g2-41'/>
<use x='222.801068' y='31.99884' xlink:href='#g2-43'/>
<use x='232.763681' y='31.99884' xlink:href='#g1-11'/>
<use x='239.136801' y='33.493221' xlink:href='#g3-52'/>
<use x='243.60617' y='31.99884' xlink:href='#g1-109'/>
<use x='252.353504' y='27.885344' xlink:href='#g3-51'/>
<use x='256.822873' y='31.99884' xlink:href='#g2-40'/>
<use x='260.697247' y='31.99884' xlink:href='#g1-120'/>
<use x='266.391179' y='31.99884' xlink:href='#g2-41'/>
<use x='272.479419' y='31.99884' xlink:href='#g0-0'/>
<use x='282.442033' y='31.99884' xlink:href='#g1-13'/>
<use x='288.153464' y='31.99884' xlink:href='#g0-114'/>
<use x='296.455689' y='27.885344' xlink:href='#g3-50'/>
<use x='300.925059' y='31.99884' xlink:href='#g1-109'/>
<use x='309.672392' y='31.99884' xlink:href='#g2-40'/>
<use x='313.546766' y='31.99884' xlink:href='#g1-120'/>
<use x='319.240698' y='31.99884' xlink:href='#g2-41'/>
</g>
</svg>