<?xml version='1.0' encoding='UTF-8'?>
<!-- This file was generated by dvisvgm 3.2 -->
<svg version='1.1' xmlns='http://www.w3.org/2000/svg' xmlns:xlink='http://www.w3.org/1999/xlink' width='307.061671pt' height='36.97415pt' viewBox='196.340343 27.515441 307.061671 36.97415'>
<defs>
<path id='g5-18' d='M6.973848 23.402242C6.973848 23.362391 6.953923 23.342466 6.933998 23.312578C6.56538 22.94396 5.897883 22.276463 5.230386 21.200498C3.626401 18.630137 2.899128 15.392279 2.899128 11.556663C2.899128 8.876712 3.257783 5.419676 4.901619 2.450809C5.688667 1.036115 6.505604 .219178 6.94396-.219178C6.973848-.249066 6.973848-.268991 6.973848-.298879C6.973848-.398506 6.90411-.398506 6.764633-.398506S6.60523-.398506 6.455791-.249066C3.118306 2.789539 2.072229 7.352428 2.072229 11.5467C2.072229 15.462017 2.968867 19.407223 5.499377 22.386052C5.69863 22.615193 6.07721 23.023661 6.485679 23.382316C6.60523 23.501868 6.625156 23.501868 6.764633 23.501868S6.973848 23.501868 6.973848 23.402242Z'/>
<path id='g5-19' d='M5.250311 11.556663C5.250311 7.641345 4.353674 3.696139 1.823163 .71731C1.62391 .488169 1.24533 .079701 .836862-.278954C.71731-.398506 .697385-.398506 .557908-.398506C.438356-.398506 .348692-.398506 .348692-.298879C.348692-.259029 .388543-.219178 .408468-.199253C.757161 .159402 1.424658 .826899 2.092154 1.902864C3.696139 4.473225 4.423412 7.711083 4.423412 11.5467C4.423412 14.22665 4.064757 17.683686 2.420922 20.652553C1.633873 22.067248 .806974 22.894147 .388543 23.312578C.368618 23.342466 .348692 23.372354 .348692 23.402242C.348692 23.501868 .438356 23.501868 .557908 23.501868C.697385 23.501868 .71731 23.501868 .86675 23.352428C4.204234 20.313823 5.250311 15.750934 5.250311 11.556663Z'/>
<path id='g5-90' d='M1.036115 21.688667C1.354919 21.668742 1.524284 21.449564 1.524284 21.200498C1.524284 20.871731 1.275218 20.712329 1.046077 20.712329C.806974 20.712329 .557908 20.861768 .557908 21.210461C.557908 21.718555 1.05604 22.136986 1.663761 22.136986C3.178082 22.136986 3.745953 19.805729 4.4533 16.916563C5.220423 13.768369 5.867995 10.590286 6.405978 7.392279C6.774595 5.270237 7.143213 3.277709 7.481943 1.992528C7.601494 1.504359 7.940224 .219178 8.328767 .219178C8.637609 .219178 8.886675 .408468 8.926526 .448319C8.597758 .468244 8.428394 .687422 8.428394 .936488C8.428394 1.265255 8.67746 1.424658 8.9066 1.424658C9.145704 1.424658 9.39477 1.275218 9.39477 .926526C9.39477 .388543 8.856787 0 8.308842 0C7.551681 0 6.993773 1.085928 6.445828 3.118306C6.41594 3.227895 5.061021 8.229141 3.965131 14.744707C3.706102 16.268991 3.417186 17.932752 3.088418 19.317559C2.909091 20.044832 2.450809 21.917808 1.643836 21.917808C1.285181 21.917808 1.046077 21.688667 1.036115 21.688667Z'/>
<path id='g4-40' d='M2.475716-5.230386C1.150685-4.29589 .801993-2.817435 .801993-1.750436C.801993-.767123 1.094894 .760149 2.475716 1.736488C2.531507 1.736488 2.615193 1.736488 2.615193 1.652802C2.615193 1.610959 2.594271 1.597011 2.545455 1.548194C1.617933 .711333 1.276214-.474222 1.276214-1.743462C1.276214-3.626401 1.994521-4.546949 2.566376-5.063014C2.594271-5.090909 2.615193-5.111831 2.615193-5.1467C2.615193-5.230386 2.531507-5.230386 2.475716-5.230386Z'/>
<path id='g4-41' d='M.627646-5.230386C.578829-5.230386 .495143-5.230386 .495143-5.1467C.495143-5.111831 .516065-5.090909 .557908-5.042092C1.157659-4.491158 1.827148-3.549689 1.827148-1.750436C1.827148-.292902 1.373848 .808966 .620672 1.492403C.502117 1.610959 .495143 1.617933 .495143 1.652802S.516065 1.736488 .585803 1.736488C.669489 1.736488 1.332005 1.276214 1.792279 .404483C2.099128-.174346 2.30137-.927522 2.30137-1.743462C2.30137-2.726775 2.008468-4.254047 .627646-5.230386Z'/>
<path id='g4-48' d='M3.598506-2.224658C3.598506-2.991781 3.507846-3.542715 3.187049-4.030884C2.970859-4.351681 2.538481-4.630635 1.980573-4.630635C.36264-4.630635 .36264-2.726775 .36264-2.224658S.36264 .139477 1.980573 .139477S3.598506-1.72254 3.598506-2.224658ZM1.980573-.055791C1.659776-.055791 1.234371-.244085 1.094894-.81594C.99726-1.227397 .99726-1.799253 .99726-2.315318C.99726-2.824408 .99726-3.354421 1.101868-3.737983C1.248319-4.288917 1.694645-4.435367 1.980573-4.435367C2.357161-4.435367 2.719801-4.20523 2.84533-3.800747C2.956912-3.424159 2.963885-2.922042 2.963885-2.315318C2.963885-1.799253 2.963885-1.283188 2.873225-.843836C2.733748-.209215 2.259527-.055791 1.980573-.055791Z'/>
<path id='g4-50' d='M3.521793-1.26924H3.284682C3.263761-1.115816 3.194022-.704359 3.103362-.63462C3.047572-.592777 2.510585-.592777 2.412951-.592777H1.129763C1.862017-1.241345 2.106102-1.436613 2.524533-1.764384C3.040598-2.175841 3.521793-2.608219 3.521793-3.270735C3.521793-4.11457 2.782565-4.630635 1.889913-4.630635C1.025156-4.630635 .439352-4.02391 .439352-3.382316C.439352-3.02665 .739228-2.991781 .808966-2.991781C.976339-2.991781 1.17858-3.110336 1.17858-3.361395C1.17858-3.486924 1.129763-3.731009 .767123-3.731009C.983313-4.226152 1.457534-4.379577 1.785305-4.379577C2.48269-4.379577 2.84533-3.835616 2.84533-3.270735C2.84533-2.66401 2.412951-2.182814 2.189788-1.931756L.509091-.27198C.439352-.209215 .439352-.195268 .439352 0H3.312578L3.521793-1.26924Z'/>
<path id='g4-61' d='M5.355915-2.343213C5.460523-2.343213 5.620922-2.343213 5.620922-2.517559C5.620922-2.684932 5.453549-2.684932 5.362889-2.684932H.746202C.655542-2.684932 .488169-2.684932 .488169-2.517559C.488169-2.343213 .648568-2.343213 .753176-2.343213H5.355915ZM5.362889-.808966C5.453549-.808966 5.620922-.808966 5.620922-.976339C5.620922-1.150685 5.460523-1.150685 5.355915-1.150685H.753176C.648568-1.150685 .488169-1.150685 .488169-.976339C.488169-.808966 .655542-.808966 .746202-.808966H5.362889Z'/>
<path id='g2-66' d='M1.325031-.54396C1.262267-.306849 1.248319-.251059 .711333-.251059C.592777-.251059 .502117-.251059 .502117-.104608C.502117 0 .585803 0 .711333 0H3.410212C4.581818 0 5.481445-.801993 5.481445-1.492403C5.481445-1.987547 5.028144-2.412951 4.288917-2.489664C5.132752-2.643088 5.837111-3.173101 5.837111-3.772852C5.837111-4.302864 5.300125-4.763138 4.393524-4.763138H1.855044C1.72254-4.763138 1.63188-4.763138 1.63188-4.609714C1.63188-4.51208 1.715567-4.51208 1.855044-4.51208C1.862017-4.51208 1.994521-4.51208 2.12005-4.498132C2.266501-4.484184 2.280448-4.470237 2.280448-4.400498C2.280448-4.38655 2.280448-4.351681 2.252553-4.247073L1.325031-.54396ZM2.440847-2.57335L2.866252-4.274969C2.922042-4.491158 2.929016-4.51208 3.221918-4.51208H4.281943C4.993275-4.51208 5.153674-4.044832 5.153674-3.779826C5.153674-3.214944 4.519054-2.57335 3.584558-2.57335H2.440847ZM2.106102-.251059C1.889913-.251059 1.882939-.258032 1.882939-.320797C1.882939-.327771 1.882939-.36264 1.910834-.467248L2.39203-2.378082H3.870486C4.526027-2.378082 4.777086-1.945704 4.777086-1.54122C4.777086-.850809 4.072727-.251059 3.228892-.251059H2.106102Z'/>
<path id='g2-100' d='M3.982067-4.630635C3.989041-4.644583 4.009963-4.735243 4.009963-4.742217C4.009963-4.777086 3.982067-4.839851 3.898381-4.839851C3.758904-4.839851 3.180075-4.78406 3.005729-4.770112C2.949938-4.763138 2.852304-4.756164 2.852304-4.609714C2.852304-4.51208 2.949938-4.51208 3.033624-4.51208C3.368369-4.51208 3.368369-4.463263 3.368369-4.407472C3.368369-4.358655 3.354421-4.316812 3.340473-4.254047L2.942964-2.66401C2.796513-2.894147 2.559402-3.075467 2.224658-3.075467C1.332005-3.075467 .425405-2.092154 .425405-1.08792C.425405-.411457 .878705 .069738 1.478456 .069738C1.855044 .069738 2.189788-.146451 2.468742-.418431C2.601245 0 3.005729 .069738 3.187049 .069738C3.438107 .069738 3.612453-.083686 3.737983-.299875C3.891407-.571856 3.982067-.969365 3.982067-.99726C3.982067-1.08792 3.891407-1.08792 3.870486-1.08792C3.772852-1.08792 3.765878-1.060025 3.717061-.871731C3.633375-.536986 3.500872-.125529 3.20797-.125529C3.02665-.125529 2.977833-.278954 2.977833-.467248C2.977833-.599751 2.991781-.662516 3.012702-.753176L3.982067-4.630635ZM2.496638-.871731C2.447821-.676463 2.294396-.536986 2.140971-.404483C2.078207-.348692 1.799253-.125529 1.499377-.125529C1.241345-.125529 .990286-.306849 .990286-.801993C.990286-1.171606 1.192528-1.93873 1.352927-2.217684C1.673724-2.775592 2.02939-2.880199 2.224658-2.880199C2.712827-2.880199 2.84533-2.350187 2.84533-2.273474C2.84533-2.245579 2.831382-2.196762 2.824408-2.175841L2.496638-.871731Z'/>
<path id='g2-107' d='M2.182814-4.630635C2.189788-4.644583 2.21071-4.735243 2.21071-4.742217C2.21071-4.777086 2.182814-4.839851 2.099128-4.839851C1.959651-4.839851 1.380822-4.78406 1.206476-4.770112C1.150685-4.763138 1.053051-4.756164 1.053051-4.609714C1.053051-4.51208 1.150685-4.51208 1.234371-4.51208C1.569116-4.51208 1.569116-4.463263 1.569116-4.407472C1.569116-4.358655 1.555168-4.316812 1.54122-4.254047L.557908-.306849C.523039-.18132 .523039-.167372 .523039-.153425C.523039-.048817 .606725 .069738 .760149 .069738C.948443 .069738 1.039103-.069738 1.080946-.223163C1.094894-.251059 1.39477-1.478456 1.422665-1.57609C1.917808-1.527273 2.315318-1.366874 2.315318-1.004234C2.315318-.969365 2.315318-.934496 2.30137-.864757C2.273474-.760149 2.273474-.72528 2.273474-.648568C2.273474-.153425 2.677958 .069738 3.012702 .069738C3.689166 .069738 3.898381-.990286 3.898381-.99726C3.898381-1.08792 3.807721-1.08792 3.7868-1.08792C3.689166-1.08792 3.682192-1.053051 3.647323-.920548C3.563636-.620672 3.375342-.125529 3.033624-.125529C2.84533-.125529 2.789539-.299875 2.789539-.488169C2.789539-.606725 2.789539-.620672 2.831382-.801993C2.838356-.822914 2.866252-.941469 2.866252-1.018182C2.866252-1.638854 2.02939-1.736488 1.736488-1.75741C1.93873-1.882939 2.196762-2.113076 2.315318-2.217684C2.670984-2.552428 3.019676-2.880199 3.410212-2.880199C3.493898-2.880199 3.584558-2.859278 3.640349-2.789539C3.340473-2.740722 3.277709-2.503611 3.277709-2.399004C3.277709-2.245579 3.396264-2.140971 3.556663-2.140971C3.744956-2.140971 3.954172-2.294396 3.954172-2.587298C3.954172-2.817435 3.7868-3.075467 3.417186-3.075467C3.019676-3.075467 2.657036-2.789539 2.30137-2.461768C2.008468-2.182814 1.778331-1.966625 1.492403-1.84807L2.182814-4.630635Z'/>
<path id='g2-120' d='M1.736488-.739228C1.66675-.502117 1.436613-.125529 1.080946-.125529C1.060025-.125529 .850809-.125529 .704359-.223163C.990286-.313823 1.011208-.564882 1.011208-.606725C1.011208-.760149 .892653-.864757 .732254-.864757C.536986-.864757 .334745-.697385 .334745-.439352C.334745-.09066 .72528 .069738 1.066999 .069738C1.387796 .069738 1.673724-.132503 1.84807-.425405C2.015442-.055791 2.399004 .069738 2.677958 .069738C3.47995 .069738 3.905355-.801993 3.905355-.99726C3.905355-1.08792 3.814695-1.08792 3.793773-1.08792C3.696139-1.08792 3.689166-1.053051 3.66127-.969365C3.514819-.488169 3.096389-.125529 2.705853-.125529C2.426899-.125529 2.280448-.313823 2.280448-.578829C2.280448-.760149 2.447821-1.39477 2.643088-2.168867C2.782565-2.705853 3.096389-2.880199 3.326526-2.880199C3.340473-2.880199 3.556663-2.880199 3.703113-2.782565C3.47995-2.719801 3.396264-2.524533 3.396264-2.399004C3.396264-2.245579 3.514819-2.140971 3.675218-2.140971S4.065753-2.273474 4.065753-2.566376C4.065753-2.956912 3.619427-3.075467 3.340473-3.075467C2.991781-3.075467 2.712827-2.84533 2.559402-2.580324C2.433873-2.866252 2.113076-3.075467 1.72254-3.075467C.941469-3.075467 .495143-2.217684 .495143-2.008468C.495143-1.917808 .592777-1.917808 .613699-1.917808C.704359-1.917808 .711333-1.945704 .746202-2.036364C.920548-2.580324 1.3599-2.880199 1.701619-2.880199C1.931756-2.880199 2.12005-2.75467 2.12005-2.419925C2.12005-2.280448 2.036364-1.931756 1.973599-1.694645L1.736488-.739228Z'/>
<path id='g0-106' d='M1.58406-7.113325C1.58406-7.292653 1.58406-7.47198 1.384807-7.47198S1.185554-7.292653 1.185554-7.113325V2.132005C1.185554 2.311333 1.185554 2.49066 1.384807 2.49066S1.58406 2.311333 1.58406 2.132005V-7.113325Z'/>
<path id='g3-40' d='M3.297634 2.391034C3.297634 2.361146 3.297634 2.34122 3.128269 2.171856C1.882939 .916563 1.564134-.966376 1.564134-2.49066C1.564134-4.224159 1.942715-5.957659 3.16812-7.202989C3.297634-7.32254 3.297634-7.342466 3.297634-7.372354C3.297634-7.442092 3.257783-7.47198 3.198007-7.47198C3.098381-7.47198 2.201743-6.794521 1.613948-5.529265C1.105853-4.433375 .986301-3.327522 .986301-2.49066C.986301-1.713574 1.09589-.508095 1.643836 .617684C2.241594 1.843088 3.098381 2.49066 3.198007 2.49066C3.257783 2.49066 3.297634 2.460772 3.297634 2.391034Z'/>
<path id='g3-41' d='M2.879203-2.49066C2.879203-3.267746 2.769614-4.473225 2.221669-5.599004C1.62391-6.824408 .767123-7.47198 .667497-7.47198C.607721-7.47198 .56787-7.43213 .56787-7.372354C.56787-7.342466 .56787-7.32254 .757161-7.143213C1.733499-6.156912 2.30137-4.572852 2.30137-2.49066C2.30137-.787049 1.932752 .966376 .697385 2.221669C.56787 2.34122 .56787 2.361146 .56787 2.391034C.56787 2.450809 .607721 2.49066 .667497 2.49066C.767123 2.49066 1.663761 1.8132 2.251557 .547945C2.759651-.547945 2.879203-1.653798 2.879203-2.49066Z'/>
<path id='g3-43' d='M4.07472-2.291407H6.854296C6.993773-2.291407 7.183064-2.291407 7.183064-2.49066S6.993773-2.689913 6.854296-2.689913H4.07472V-5.479452C4.07472-5.618929 4.07472-5.808219 3.875467-5.808219S3.676214-5.618929 3.676214-5.479452V-2.689913H.886675C.747198-2.689913 .557908-2.689913 .557908-2.49066S.747198-2.291407 .886675-2.291407H3.676214V.498132C3.676214 .637609 3.676214 .826899 3.875467 .826899S4.07472 .637609 4.07472 .498132V-2.291407Z'/>
<path id='g3-50' d='M1.265255-.767123L2.321295-1.793275C3.875467-3.16812 4.473225-3.706102 4.473225-4.702366C4.473225-5.838107 3.576588-6.635118 2.361146-6.635118C1.235367-6.635118 .498132-5.718555 .498132-4.83188C.498132-4.273973 .996264-4.273973 1.026152-4.273973C1.195517-4.273973 1.544209-4.393524 1.544209-4.801993C1.544209-5.061021 1.364882-5.32005 1.016189-5.32005C.936488-5.32005 .916563-5.32005 .886675-5.310087C1.115816-5.957659 1.653798-6.326276 2.231631-6.326276C3.138232-6.326276 3.566625-5.519303 3.566625-4.702366C3.566625-3.905355 3.068493-3.118306 2.520548-2.500623L.607721-.368618C.498132-.259029 .498132-.239103 .498132 0H4.194271L4.473225-1.733499H4.224159C4.174346-1.43462 4.104608-.996264 4.004981-.846824C3.935243-.767123 3.277709-.767123 3.058531-.767123H1.265255Z'/>
<path id='g3-61' d='M6.844334-3.257783C6.993773-3.257783 7.183064-3.257783 7.183064-3.457036S6.993773-3.656289 6.854296-3.656289H.886675C.747198-3.656289 .557908-3.656289 .557908-3.457036S.747198-3.257783 .896638-3.257783H6.844334ZM6.854296-1.325031C6.993773-1.325031 7.183064-1.325031 7.183064-1.524284S6.993773-1.723537 6.844334-1.723537H.896638C.747198-1.723537 .557908-1.723537 .557908-1.524284S.747198-1.325031 .886675-1.325031H6.854296Z'/>
<path id='g3-91' d='M2.540473 2.49066V2.092154H1.574097V-7.073474H2.540473V-7.47198H1.175592V2.49066H2.540473Z'/>
<path id='g3-93' d='M1.58406-7.47198H.219178V-7.073474H1.185554V2.092154H.219178V2.49066H1.58406V-7.47198Z'/>
<path id='g3-101' d='M1.115816-2.510585C1.175592-3.995019 2.012453-4.244085 2.351183-4.244085C3.377335-4.244085 3.476961-2.899128 3.476961-2.510585H1.115816ZM1.105853-2.30137H3.88543C4.104608-2.30137 4.134496-2.30137 4.134496-2.510585C4.134496-3.496887 3.596513-4.463263 2.351183-4.463263C1.195517-4.463263 .278954-3.437111 .278954-2.191781C.278954-.856787 1.325031 .109589 2.470735 .109589C3.686177 .109589 4.134496-.996264 4.134496-1.185554C4.134496-1.285181 4.054795-1.305106 4.004981-1.305106C3.915318-1.305106 3.895392-1.24533 3.875467-1.165629C3.526775-.139477 2.630137-.139477 2.530511-.139477C2.032379-.139477 1.633873-.438356 1.404732-.806974C1.105853-1.285181 1.105853-1.942715 1.105853-2.30137Z'/>
<path id='g3-112' d='M1.713574-3.745953V-4.403487L.278954-4.293898V-3.985056C.986301-3.985056 1.05604-3.92528 1.05604-3.486924V1.175592C1.05604 1.62391 .946451 1.62391 .278954 1.62391V1.932752C.617684 1.92279 1.135741 1.902864 1.39477 1.902864C1.663761 1.902864 2.171856 1.92279 2.520548 1.932752V1.62391C1.853051 1.62391 1.743462 1.62391 1.743462 1.175592V-.498132V-.587796C1.793275-.428394 2.211706 .109589 2.968867 .109589C4.154421 .109589 5.190535-.86675 5.190535-2.15193C5.190535-3.417186 4.224159-4.403487 3.108344-4.403487C2.331258-4.403487 1.912827-3.965131 1.713574-3.745953ZM1.743462-1.135741V-3.35741C2.032379-3.865504 2.520548-4.154421 3.028643-4.154421C3.755915-4.154421 4.363636-3.277709 4.363636-2.15193C4.363636-.946451 3.666252-.109589 2.929016-.109589C2.530511-.109589 2.15193-.308842 1.882939-.71731C1.743462-.926526 1.743462-.936488 1.743462-1.135741Z'/>
<path id='g3-120' d='M2.859278-2.34122C3.158157-2.719801 3.536737-3.20797 3.775841-3.466999C4.084682-3.825654 4.493151-3.975093 4.961395-3.985056V-4.293898C4.702366-4.273973 4.403487-4.26401 4.144458-4.26401C3.845579-4.26401 3.317559-4.283935 3.188045-4.293898V-3.985056C3.39726-3.965131 3.476961-3.835616 3.476961-3.676214S3.377335-3.387298 3.327522-3.327522L2.709838-2.550436L1.932752-3.556663C1.843088-3.656289 1.843088-3.676214 1.843088-3.73599C1.843088-3.88543 1.992528-3.975093 2.191781-3.985056V-4.293898C1.932752-4.283935 1.275218-4.26401 1.115816-4.26401C.9066-4.26401 .438356-4.273973 .169365-4.293898V-3.985056C.86675-3.985056 .876712-3.975093 1.344956-3.377335L2.331258-2.092154L1.39477-.9066C.916563-.328767 .328767-.308842 .119552-.308842V0C.37858-.019925 .687422-.029888 .946451-.029888C1.235367-.029888 1.653798-.009963 1.892902 0V-.308842C1.673724-.33873 1.603985-.468244 1.603985-.617684C1.603985-.836862 1.892902-1.165629 2.500623-1.882939L3.257783-.886675C3.337484-.777086 3.466999-.617684 3.466999-.557908C3.466999-.468244 3.377335-.318804 3.108344-.308842V0C3.407223-.009963 3.965131-.029888 4.184309-.029888C4.4533-.029888 4.841843-.019925 5.140722 0V-.308842C4.60274-.308842 4.423412-.328767 4.194271-.617684L2.859278-2.34122Z'/>
<path id='g1-12' d='M5.728518-5.668742C5.728518-6.41594 5.180573-7.033624 4.373599-7.033624C3.795766-7.033624 3.516812-6.874222 3.16812-6.615193C2.620174-6.216687 2.072229-5.250311 1.882939-4.493151L.298879 1.833126C.288917 1.872976 .33873 1.932752 .418431 1.932752S.52802 1.912827 .537983 1.882939L1.235367-.86675C1.424658-.268991 1.863014 .099626 2.590286 .099626S4.064757-.249066 4.513076-.687422C4.991283-1.145704 5.310087-1.783313 5.310087-2.520548C5.310087-3.237858 4.941469-3.755915 4.582814-4.004981C5.160648-4.333748 5.728518-4.951432 5.728518-5.668742ZM3.935243-4.014944C3.805729-3.965131 3.696139-3.945205 3.457036-3.945205C3.317559-3.945205 3.118306-3.935243 3.01868-3.985056C3.038605-4.084682 3.39726-4.064757 3.506849-4.064757C3.716065-4.064757 3.805729-4.064757 3.935243-4.014944ZM5.17061-5.897883C5.17061-5.200498 4.79203-4.483188 4.273973-4.174346C4.004981-4.273973 3.805729-4.293898 3.506849-4.293898C3.297634-4.293898 2.739726-4.303861 2.739726-3.975093C2.729763-3.696139 3.247821-3.726027 3.427148-3.726027C3.795766-3.726027 3.945205-3.73599 4.244085-3.855542C4.622665-3.496887 4.672478-3.188045 4.682441-2.729763C4.702366-2.15193 4.463263-1.404732 4.184309-1.016189C3.795766-.478207 3.128269-.119552 2.560399-.119552C1.803238-.119552 1.424658-.697385 1.424658-1.404732C1.424658-1.504359 1.424658-1.653798 1.474471-1.843088L2.11208-4.363636C2.331258-5.220423 3.048568-6.804483 4.244085-6.804483C4.821918-6.804483 5.17061-6.495641 5.17061-5.897883Z'/>
<path id='g1-13' d='M.408468-2.530511C.797011-3.676214 1.882939-3.686177 1.992528-3.686177C3.496887-3.686177 3.606476-1.942715 3.606476-1.155666C3.606476-.547945 3.556663-.37858 3.486924-.179328C3.267746 .547945 2.968867 1.703611 2.968867 1.96264C2.968867 2.072229 3.01868 2.141968 3.098381 2.141968C3.227895 2.141968 3.307597 1.92279 3.417186 1.544209C3.646326 .707347 3.745953 .139477 3.785803-.169365C3.805729-.298879 3.825654-.428394 3.865504-.557908C4.184309-1.544209 4.821918-3.028643 5.220423-3.815691C5.290162-3.935243 5.409714-4.154421 5.409714-4.194271C5.409714-4.293898 5.310087-4.293898 5.290162-4.293898C5.260274-4.293898 5.200498-4.293898 5.17061-4.224159C4.652553-3.277709 4.254047-2.281445 3.855542-1.275218C3.845579-1.58406 3.835616-2.34122 3.447073-3.307597C3.20797-3.915318 2.809465-4.403487 2.122042-4.403487C.876712-4.403487 .179328-2.889166 .179328-2.580324C.179328-2.480697 .268991-2.480697 .368618-2.480697L.408468-2.530511Z'/>
<path id='g1-22' d='M2.30137-3.496887C2.351183-3.706102 2.450809-4.084682 2.450809-4.134496C2.450809-4.303861 2.331258-4.403487 2.161893-4.403487C2.132005-4.403487 1.853051-4.393524 1.763387-4.044832L.328767 1.723537C.298879 1.843088 .298879 1.863014 .298879 1.882939C.298879 2.032379 .408468 2.15193 .577833 2.15193C.787049 2.15193 .9066 1.972603 .926526 1.942715C.966376 1.853051 1.09589 1.334994 1.474471-.199253C1.793275 .069738 2.241594 .109589 2.440847 .109589C3.138232 .109589 3.526775-.33873 3.765878-.617684C3.855542-.169365 4.224159 .109589 4.662516 .109589C5.011208 .109589 5.240349-.119552 5.399751-.438356C5.569116-.797011 5.69863-1.404732 5.69863-1.424658C5.69863-1.524284 5.608966-1.524284 5.579078-1.524284C5.479452-1.524284 5.469489-1.484433 5.439601-1.344956C5.270237-.697385 5.090909-.109589 4.682441-.109589C4.41345-.109589 4.383562-.368618 4.383562-.56787C4.383562-.787049 4.503113-1.255293 4.582814-1.603985L4.861768-2.67995C4.891656-2.82939 4.991283-3.20797 5.031133-3.35741C5.080946-3.58655 5.180573-3.965131 5.180573-4.024907C5.180573-4.204234 5.041096-4.293898 4.891656-4.293898C4.841843-4.293898 4.582814-4.283935 4.503113-3.945205L4.034869-2.082192C3.915318-1.58406 3.805729-1.165629 3.775841-1.066002C3.765878-1.016189 3.287671-.109589 2.480697-.109589C1.982565-.109589 1.743462-.438356 1.743462-.976339C1.743462-1.265255 1.8132-1.544209 1.882939-1.823163L2.30137-3.496887Z'/>
<path id='g1-25' d='M2.6401-3.716065H3.765878C3.437111-2.241594 3.347447-1.8132 3.347447-1.145704C3.347447-.996264 3.347447-.727273 3.427148-.388543C3.526775 .049813 3.636364 .109589 3.785803 .109589C3.985056 .109589 4.194271-.069738 4.194271-.268991C4.194271-.328767 4.194271-.348692 4.134496-.488169C3.845579-1.205479 3.845579-1.853051 3.845579-2.132005C3.845579-2.660025 3.915318-3.198007 4.024907-3.716065H5.160648C5.290162-3.716065 5.648817-3.716065 5.648817-4.054795C5.648817-4.293898 5.439601-4.293898 5.250311-4.293898H1.912827C1.693649-4.293898 1.315068-4.293898 .876712-3.825654C.52802-3.437111 .268991-2.978829 .268991-2.929016C.268991-2.919054 .268991-2.82939 .388543-2.82939C.468244-2.82939 .488169-2.86924 .547945-2.948941C1.036115-3.716065 1.613948-3.716065 1.8132-3.716065H2.381071C2.062267-2.510585 1.524284-1.305106 1.105853-.398506C1.026152-.249066 1.026152-.229141 1.026152-.159402C1.026152 .029888 1.185554 .109589 1.315068 .109589C1.613948 .109589 1.693649-.169365 1.8132-.537983C1.952677-.996264 1.952677-1.016189 2.082192-1.514321L2.6401-3.716065Z'/>
<path id='g1-66' d='M1.594022-.777086C1.494396-.388543 1.474471-.308842 .687422-.308842C.518057-.308842 .418431-.308842 .418431-.109589C.418431 0 .508095 0 .687422 0H4.244085C5.818182 0 6.993773-1.175592 6.993773-2.15193C6.993773-2.86924 6.41594-3.447073 5.449564-3.556663C6.485679-3.745953 7.531756-4.483188 7.531756-5.429639C7.531756-6.166874 6.874222-6.804483 5.678705-6.804483H2.331258C2.141968-6.804483 2.042341-6.804483 2.042341-6.60523C2.042341-6.495641 2.132005-6.495641 2.321295-6.495641C2.34122-6.495641 2.530511-6.495641 2.699875-6.475716C2.879203-6.455791 2.968867-6.445828 2.968867-6.316314C2.968867-6.276463 2.958904-6.246575 2.929016-6.127024L1.594022-.777086ZM3.098381-3.646326L3.716065-6.117061C3.805729-6.465753 3.825654-6.495641 4.254047-6.495641H5.539228C6.41594-6.495641 6.625156-5.907846 6.625156-5.469489C6.625156-4.592777 5.768369-3.646326 4.552927-3.646326H3.098381ZM2.650062-.308842C2.510585-.308842 2.49066-.308842 2.430884-.318804C2.331258-.328767 2.30137-.33873 2.30137-.418431C2.30137-.448319 2.30137-.468244 2.351183-.647572L3.038605-3.427148H4.921544C5.877958-3.427148 6.067248-2.689913 6.067248-2.261519C6.067248-1.275218 5.180573-.308842 4.004981-.308842H2.650062Z'/>
<path id='g1-90' d='M7.173101-6.56538C7.183064-6.60523 7.202989-6.655044 7.202989-6.714819C7.202989-6.804483 7.153176-6.804483 6.953923-6.804483H2.749689C2.510585-6.804483 2.500623-6.794521 2.440847-6.60523L1.892902-4.811955C1.872976-4.762142 1.863014-4.692403 1.863014-4.672478C1.863014-4.662516 1.863014-4.562889 1.982565-4.562889C2.072229-4.562889 2.092154-4.632628 2.11208-4.662516C2.49066-5.838107 3.008717-6.495641 4.562889-6.495641H6.1868L.617684-.268991C.617684-.259029 .577833-.119552 .577833-.089664C.577833 0 .647572 0 .826899 0H5.160648C5.399751 0 5.409714-.009963 5.469489-.199253L6.176837-2.400996C6.1868-2.440847 6.216687-2.510585 6.216687-2.550436C6.216687-2.600249 6.176837-2.660025 6.087173-2.660025S5.987547-2.620174 5.917808-2.410959C5.479452-1.05604 5.001245-.33873 3.307597-.33873H1.603985L7.173101-6.56538Z'/>
<path id='g1-100' d='M5.140722-6.804483C5.140722-6.814446 5.140722-6.914072 5.011208-6.914072C4.861768-6.914072 3.915318-6.824408 3.745953-6.804483C3.666252-6.794521 3.606476-6.744707 3.606476-6.615193C3.606476-6.495641 3.696139-6.495641 3.845579-6.495641C4.323786-6.495641 4.343711-6.425903 4.343711-6.326276L4.313823-6.127024L3.716065-3.765878C3.536737-4.134496 3.247821-4.403487 2.799502-4.403487C1.633873-4.403487 .398506-2.938979 .398506-1.484433C.398506-.547945 .946451 .109589 1.723537 .109589C1.92279 .109589 2.420922 .069738 3.01868-.637609C3.098381-.219178 3.447073 .109589 3.92528 .109589C4.273973 .109589 4.503113-.119552 4.662516-.438356C4.83188-.797011 4.961395-1.404732 4.961395-1.424658C4.961395-1.524284 4.871731-1.524284 4.841843-1.524284C4.742217-1.524284 4.732254-1.484433 4.702366-1.344956C4.533001-.697385 4.353674-.109589 3.945205-.109589C3.676214-.109589 3.646326-.368618 3.646326-.56787C3.646326-.806974 3.666252-.876712 3.706102-1.046077L5.140722-6.804483ZM3.068493-1.185554C3.01868-1.006227 3.01868-.986301 2.86924-.816936C2.430884-.268991 2.022416-.109589 1.743462-.109589C1.24533-.109589 1.105853-.657534 1.105853-1.046077C1.105853-1.544209 1.424658-2.769614 1.653798-3.227895C1.96264-3.815691 2.410959-4.184309 2.809465-4.184309C3.457036-4.184309 3.596513-3.367372 3.596513-3.307597S3.576588-3.188045 3.566625-3.138232L3.068493-1.185554Z'/>
<path id='g1-107' d='M2.859278-6.804483C2.859278-6.814446 2.859278-6.914072 2.729763-6.914072C2.500623-6.914072 1.77335-6.834371 1.514321-6.814446C1.43462-6.804483 1.325031-6.794521 1.325031-6.615193C1.325031-6.495641 1.414695-6.495641 1.564134-6.495641C2.042341-6.495641 2.062267-6.425903 2.062267-6.326276L2.032379-6.127024L.587796-.388543C.547945-.249066 .547945-.229141 .547945-.169365C.547945 .059776 .747198 .109589 .836862 .109589C.966376 .109589 1.115816 .019925 1.175592-.099626C1.225405-.18929 1.673724-2.032379 1.733499-2.281445C2.072229-2.251557 2.889166-2.092154 2.889166-1.43462C2.889166-1.364882 2.889166-1.325031 2.859278-1.225405C2.839352-1.105853 2.819427-.986301 2.819427-.876712C2.819427-.288917 3.217933 .109589 3.73599 .109589C4.034869 .109589 4.303861-.049813 4.523039-.418431C4.772105-.856787 4.881694-1.404732 4.881694-1.424658C4.881694-1.524284 4.79203-1.524284 4.762142-1.524284C4.662516-1.524284 4.652553-1.484433 4.622665-1.344956C4.423412-.617684 4.194271-.109589 3.755915-.109589C3.566625-.109589 3.437111-.219178 3.437111-.577833C3.437111-.747198 3.476961-.976339 3.516812-1.135741C3.556663-1.305106 3.556663-1.344956 3.556663-1.444583C3.556663-2.092154 2.929016-2.381071 2.082192-2.49066C2.391034-2.669988 2.709838-2.988792 2.938979-3.227895C3.417186-3.755915 3.875467-4.184309 4.363636-4.184309C4.423412-4.184309 4.433375-4.184309 4.4533-4.174346C4.572852-4.154421 4.582814-4.154421 4.662516-4.094645C4.682441-4.084682 4.682441-4.07472 4.702366-4.054795C4.224159-4.024907 4.134496-3.636364 4.134496-3.516812C4.134496-3.35741 4.244085-3.16812 4.513076-3.16812C4.772105-3.16812 5.061021-3.387298 5.061021-3.775841C5.061021-4.07472 4.83188-4.403487 4.383562-4.403487C4.104608-4.403487 3.646326-4.323786 2.929016-3.526775C2.590286-3.148194 2.201743-2.749689 1.823163-2.600249L2.859278-6.804483Z'/>
<path id='g1-120' d='M3.327522-3.008717C3.387298-3.267746 3.616438-4.184309 4.313823-4.184309C4.363636-4.184309 4.60274-4.184309 4.811955-4.054795C4.533001-4.004981 4.333748-3.755915 4.333748-3.516812C4.333748-3.35741 4.443337-3.16812 4.712329-3.16812C4.931507-3.16812 5.250311-3.347447 5.250311-3.745953C5.250311-4.26401 4.662516-4.403487 4.323786-4.403487C3.745953-4.403487 3.39726-3.875467 3.277709-3.646326C3.028643-4.303861 2.49066-4.403487 2.201743-4.403487C1.165629-4.403487 .597758-3.118306 .597758-2.86924C.597758-2.769614 .697385-2.769614 .71731-2.769614C.797011-2.769614 .826899-2.789539 .846824-2.879203C1.185554-3.935243 1.843088-4.184309 2.181818-4.184309C2.371108-4.184309 2.719801-4.094645 2.719801-3.516812C2.719801-3.20797 2.550436-2.540473 2.181818-1.145704C2.022416-.52802 1.673724-.109589 1.235367-.109589C1.175592-.109589 .946451-.109589 .737235-.239103C.986301-.288917 1.205479-.498132 1.205479-.777086C1.205479-1.046077 .986301-1.125778 .836862-1.125778C.537983-1.125778 .288917-.86675 .288917-.547945C.288917-.089664 .787049 .109589 1.225405 .109589C1.882939 .109589 2.241594-.587796 2.271482-.647572C2.391034-.278954 2.749689 .109589 3.347447 .109589C4.373599 .109589 4.941469-1.175592 4.941469-1.424658C4.941469-1.524284 4.851806-1.524284 4.821918-1.524284C4.732254-1.524284 4.712329-1.484433 4.692403-1.414695C4.363636-.348692 3.686177-.109589 3.367372-.109589C2.978829-.109589 2.819427-.428394 2.819427-.767123C2.819427-.986301 2.879203-1.205479 2.988792-1.643836L3.327522-3.008717Z'/>
</defs>
<g id='page1' transform='matrix(1.5 0 0 1.5 0 0)'>
<use x='130.315729' y='33.538644' xlink:href='#g1-90'/>
<use x='137.829225' y='33.538644' xlink:href='#g3-91'/>
<use x='140.596633' y='33.538644' xlink:href='#g1-66'/>
<use x='148.653242' y='33.538644' xlink:href='#g3-40'/>
<use x='152.527616' y='33.538644' xlink:href='#g1-120'/>
<use x='158.221548' y='33.538644' xlink:href='#g3-41'/>
<use x='162.095921' y='33.538644' xlink:href='#g3-93'/>
<use x='167.630662' y='33.538644' xlink:href='#g3-61'/>
<use x='178.146742' y='33.538644' xlink:href='#g1-90'/>
<use x='185.660238' y='33.538644' xlink:href='#g0-106'/>
<use x='188.427647' y='35.33747' xlink:href='#g2-66'/>
<use x='194.786809' y='35.33747' xlink:href='#g4-40'/>
<use x='197.900152' y='35.33747' xlink:href='#g2-120'/>
<use x='202.417954' y='35.33747' xlink:href='#g4-41'/>
<use x='205.531297' y='35.33747' xlink:href='#g4-61'/>
<use x='211.647281' y='35.33747' xlink:href='#g4-48'/>
<use x='217.777014' y='33.538644' xlink:href='#g3-101'/>
<use x='222.204865' y='33.538644' xlink:href='#g3-120'/>
<use x='227.462953' y='33.538644' xlink:href='#g3-112'/>
<use x='234.658152' y='19.491193' xlink:href='#g5-18'/>
<use x='243.18731' y='26.798842' xlink:href='#g1-12'/>
<rect x='243.18731' y='30.848734' height='.398484' width='6.160918'/>
<use x='243.777109' y='40.372514' xlink:href='#g3-50'/>
<use x='252.204141' y='19.978274' xlink:href='#g5-90'/>
<use x='269.063145' y='26.798842' xlink:href='#g1-100'/>
<use x='274.248578' y='23.183478' xlink:href='#g2-100'/>
<use x='278.89403' y='26.798842' xlink:href='#g1-107'/>
<rect x='265.022709' y='30.848734' height='.398484' width='23.411946'/>
<use x='265.022709' y='40.372514' xlink:href='#g3-40'/>
<use x='268.897083' y='40.372514' xlink:href='#g3-50'/>
<use x='273.878422' y='40.372514' xlink:href='#g1-25'/>
<use x='279.914839' y='40.372514' xlink:href='#g3-41'/>
<use x='283.789213' y='37.494421' xlink:href='#g2-100'/>
<use x='298.75925' y='26.798842' xlink:href='#g0-106'/>
<use x='301.526658' y='26.798842' xlink:href='#g1-66'/>
<use x='309.083417' y='28.293223' xlink:href='#g2-107'/>
<use x='313.985201' y='26.798842' xlink:href='#g0-106'/>
<use x='316.752609' y='23.183478' xlink:href='#g4-50'/>
<rect x='290.825683' y='30.848734' height='.398484' width='38.329835'/>
<use x='290.825683' y='40.372514' xlink:href='#g1-13'/>
<use x='296.537114' y='40.372514' xlink:href='#g1-107'/>
<use x='302.037333' y='37.494421' xlink:href='#g4-50'/>
<use x='308.720569' y='40.372514' xlink:href='#g3-43'/>
<use x='318.683182' y='40.372514' xlink:href='#g1-22'/>
<use x='324.686167' y='37.494421' xlink:href='#g4-50'/>
<use x='330.351031' y='19.491193' xlink:href='#g5-19'/>
</g>
</svg>