<?xml version='1.0' encoding='UTF-8'?>
<!-- This file was generated by dvisvgm 3.2 -->
<svg version='1.1' xmlns='http://www.w3.org/2000/svg' xmlns:xlink='http://www.w3.org/1999/xlink' width='10.610212pt' height='10.864259pt' viewBox='-21.05706 15.480922 10.610212 10.864259'>
<defs>
<path id='g0-71' d='M7.571606-6.924035C7.571606-6.953923 7.551681-7.023661 7.462017-7.023661C7.43213-7.023661 7.422167-7.013699 7.312578-6.90411L6.615193-6.136986C6.525529-6.276463 6.067248-7.023661 4.961395-7.023661C2.739726-7.023661 .498132-4.821918 .498132-2.510585C.498132-.926526 1.603985 .219178 3.217933 .219178C3.656289 .219178 4.104608 .129514 4.463263-.019925C4.961395-.219178 5.150685-.428394 5.330012-.627646C5.419676-.37858 5.678705-.009963 5.778331-.009963C5.828144-.009963 5.84807-.039851 5.84807-.049813C5.867995-.069738 5.967621-.448319 6.017435-.657534L6.206725-1.424658C6.246575-1.594022 6.296389-1.763387 6.336239-1.932752C6.445828-2.381071 6.455791-2.400996 7.023661-2.410959C7.073474-2.410959 7.183064-2.420922 7.183064-2.610212C7.183064-2.67995 7.13325-2.719801 7.053549-2.719801C6.824408-2.719801 6.236613-2.689913 6.007472-2.689913C5.69863-2.689913 4.921544-2.719801 4.612702-2.719801C4.523039-2.719801 4.403487-2.719801 4.403487-2.520548C4.403487-2.410959 4.483188-2.410959 4.702366-2.410959C4.712329-2.410959 5.001245-2.410959 5.230386-2.391034C5.489415-2.361146 5.539228-2.331258 5.539228-2.201743C5.539228-2.11208 5.429639-1.663761 5.330012-1.295143C5.051059-.199253 3.755915-.089664 3.407223-.089664C2.450809-.089664 1.404732-.657534 1.404732-2.181818C1.404732-2.49066 1.504359-4.134496 2.550436-5.429639C3.088418-6.107098 4.054795-6.714819 5.041096-6.714819C6.057285-6.714819 6.645081-5.947696 6.645081-4.79203C6.645081-4.393524 6.615193-4.383562 6.615193-4.283935S6.724782-4.184309 6.764633-4.184309C6.894147-4.184309 6.894147-4.204234 6.94396-4.383562L7.571606-6.924035Z'/>
</defs>
<g id='page1' transform='matrix(1.5 0 0 1.5 0 0)'>
<use x='-14.536172' y='17.344276' xlink:href='#g0-71'/>
</g>
</svg>