<?xml version='1.0' encoding='UTF-8'?>
<!-- This file was generated by dvisvgm 3.2 -->
<svg version='1.1' xmlns='http://www.w3.org/2000/svg' xmlns:xlink='http://www.w3.org/1999/xlink' width='10.669988pt' height='10.206725pt' viewBox='-21.176612 15.809689 10.669988 10.206725'>
<defs>
<path id='g0-66' d='M1.594022-.777086C1.494396-.388543 1.474471-.308842 .687422-.308842C.518057-.308842 .418431-.308842 .418431-.109589C.418431 0 .508095 0 .687422 0H4.244085C5.818182 0 6.993773-1.175592 6.993773-2.15193C6.993773-2.86924 6.41594-3.447073 5.449564-3.556663C6.485679-3.745953 7.531756-4.483188 7.531756-5.429639C7.531756-6.166874 6.874222-6.804483 5.678705-6.804483H2.331258C2.141968-6.804483 2.042341-6.804483 2.042341-6.60523C2.042341-6.495641 2.132005-6.495641 2.321295-6.495641C2.34122-6.495641 2.530511-6.495641 2.699875-6.475716C2.879203-6.455791 2.968867-6.445828 2.968867-6.316314C2.968867-6.276463 2.958904-6.246575 2.929016-6.127024L1.594022-.777086ZM3.098381-3.646326L3.716065-6.117061C3.805729-6.465753 3.825654-6.495641 4.254047-6.495641H5.539228C6.41594-6.495641 6.625156-5.907846 6.625156-5.469489C6.625156-4.592777 5.768369-3.646326 4.552927-3.646326H3.098381ZM2.650062-.308842C2.510585-.308842 2.49066-.308842 2.430884-.318804C2.331258-.328767 2.30137-.33873 2.30137-.418431C2.30137-.448319 2.30137-.468244 2.351183-.647572L3.038605-3.427148H4.921544C5.877958-3.427148 6.067248-2.689913 6.067248-2.261519C6.067248-1.275218 5.180573-.308842 4.004981-.308842H2.650062Z'/>
</defs>
<g id='page1' transform='matrix(1.5 0 0 1.5 0 0)'>
<use x='-14.536172' y='17.344276' xlink:href='#g0-66'/>
</g>
</svg>