<?xml version='1.0' encoding='UTF-8'?>
<!-- This file was generated by dvisvgm 3.2 -->
<svg version='1.1' xmlns='http://www.w3.org/2000/svg' xmlns:xlink='http://www.w3.org/1999/xlink' width='6.396015pt' height='13.479452pt' viewBox='-21.116836 15.600474 6.396015 13.479452'>
<defs>
<path id='g0-16' d='M3.227895-5.768369C3.407223-5.589041 3.636364-5.589041 3.835616-5.589041C4.084682-5.589041 4.722291-5.589041 4.722291-5.897883C4.722291-6.146949 4.323786-6.166874 3.92528-6.166874C3.815691-6.166874 3.5467-6.166874 3.287671-6.067248C3.237858-6.1868 3.217933-6.236613 3.217933-6.445828C3.217933-6.585305 3.267746-6.794521 3.267746-6.814446C3.267746-6.894147 3.217933-6.94396 3.148194-6.94396C2.968867-6.94396 2.968867-6.485679 2.968867-6.455791C2.968867-6.286426 2.998755-6.107098 3.078456-5.957659C2.032379-5.429639 .458281-3.596513 .458281-1.663761C.458281-.259029 1.364882 .039851 2.082192 .278954C2.381071 .388543 2.400996 .388543 2.689913 .488169C2.899128 .557908 3.307597 .697385 3.307597 1.165629C3.307597 1.43462 3.118306 1.823163 2.749689 1.823163C2.49066 1.823163 2.221669 1.703611 2.012453 1.524284C1.942715 1.464508 1.932752 1.454545 1.892902 1.454545C1.843088 1.454545 1.793275 1.494396 1.793275 1.564134C1.793275 1.663761 2.221669 2.042341 2.749689 2.042341C3.367372 2.042341 3.835616 1.404732 3.835616 .836862C3.835616 .458281 3.646326 .249066 3.566625 .169365C3.39726-.019925 3.20797-.079701 2.620174-.278954C1.823163-.547945 1.663761-.597758 1.424658-.806974C1.006227-1.185554 1.006227-1.753425 1.006227-1.942715C1.006227-3.486924 2.221669-5.230386 3.227895-5.768369ZM3.457036-5.877958C3.606476-5.947696 3.785803-5.947696 3.915318-5.947696C4.244085-5.947696 4.283935-5.937733 4.463263-5.88792C4.383562-5.858032 4.283935-5.808219 3.845579-5.808219C3.636364-5.808219 3.566625-5.808219 3.457036-5.877958Z'/>
</defs>
<g id='page1' transform='matrix(1.5 0 0 1.5 0 0)'>
<use x='-14.536172' y='17.344276' xlink:href='#g0-16'/>
</g>
</svg>