<?xml version='1.0' encoding='UTF-8'?>
<!-- This file was generated by dvisvgm 3.2 -->
<svg version='1.1' xmlns='http://www.w3.org/2000/svg' xmlns:xlink='http://www.w3.org/1999/xlink' width='7.038605pt' height='6.60523pt' viewBox='-21.012229 19.411184 7.038605 6.60523'>
<defs>
<path id='g0-23' d='M2.231631-4.293898C2.231631-4.303861 2.231631-4.403487 2.102117-4.403487C1.872976-4.403487 1.145704-4.323786 .886675-4.303861C.806974-4.293898 .697385-4.283935 .697385-4.104608C.697385-3.985056 .787049-3.985056 .936488-3.985056C1.414695-3.985056 1.43462-3.915318 1.43462-3.815691C1.43462-3.745953 1.315068-3.277709 1.24533-3.008717L.637609-.56787C.597758-.418431 .52802-.139477 .52802-.119552C.52802-.009963 .627646 0 .687422 0H.826899C1.524284-.119552 2.610212-.508095 3.636364-1.464508C4.951432-2.689913 5.220423-4.044832 5.220423-4.134496C5.220423-4.303861 5.100872-4.403487 4.931507-4.403487C4.851806-4.403487 4.622665-4.363636 4.542964-4.07472C3.905355-1.8132 2.391034-.697385 1.255293-.328767L2.231631-4.293898Z'/>
</defs>
<g id='page1' transform='matrix(1.5 0 0 1.5 0 0)'>
<use x='-14.536172' y='17.344276' xlink:href='#g0-23'/>
</g>
</svg>