<?xml version='1.0' encoding='UTF-8'?>
<!-- This file was generated by dvisvgm 3.2 -->
<svg version='1.1' xmlns='http://www.w3.org/2000/svg' xmlns:xlink='http://www.w3.org/1999/xlink' width='17.062723pt' height='9.952677pt' viewBox='-20.982341 16.063737 17.062723 9.952677'>
<defs>
<path id='g1-49' d='M2.929016-6.37609C2.929016-6.615193 2.929016-6.635118 2.699875-6.635118C2.082192-5.997509 1.205479-5.997509 .886675-5.997509V-5.688667C1.085928-5.688667 1.673724-5.688667 2.191781-5.947696V-.787049C2.191781-.428394 2.161893-.308842 1.265255-.308842H.946451V0C1.295143-.029888 2.161893-.029888 2.560399-.029888S3.825654-.029888 4.174346 0V-.308842H3.855542C2.958904-.308842 2.929016-.418431 2.929016-.787049V-6.37609Z'/>
<path id='g0-6' d='M4.07472-3.118306H6.844334C7.013699-3.118306 7.193026-3.118306 7.193026-3.317559S7.013699-3.516812 6.844334-3.516812H4.07472V-6.266501C4.07472-6.425903 4.07472-6.635118 3.875467-6.635118S3.676214-6.455791 3.676214-6.296389V-3.516812H.896638C.727273-3.516812 .547945-3.516812 .547945-3.317559S.727273-3.118306 .896638-3.118306H3.676214V-.398506H.896638C.727273-.398506 .547945-.398506 .547945-.199253S.727273 0 .896638 0H6.844334C7.013699 0 7.193026 0 7.193026-.199253S7.013699-.398506 6.844334-.398506H4.07472V-3.118306Z'/>
</defs>
<g id='page1' transform='matrix(1.5 0 0 1.5 0 0)'>
<use x='-14.536172' y='17.344276' xlink:href='#g0-6'/>
<use x='-6.787425' y='17.344276' xlink:href='#g1-49'/>
</g>
</svg>