<?xml version='1.0' encoding='UTF-8'?>
<!-- This file was generated by dvisvgm 3.2 -->
<svg version='1.1' xmlns='http://www.w3.org/2000/svg' xmlns:xlink='http://www.w3.org/1999/xlink' width='14.826932pt' height='12.478184pt' viewBox='-21.385828 15.779801 14.826932 12.478184'>
<defs>
<path id='g1-50' d='M3.521793-1.26924H3.284682C3.263761-1.115816 3.194022-.704359 3.103362-.63462C3.047572-.592777 2.510585-.592777 2.412951-.592777H1.129763C1.862017-1.241345 2.106102-1.436613 2.524533-1.764384C3.040598-2.175841 3.521793-2.608219 3.521793-3.270735C3.521793-4.11457 2.782565-4.630635 1.889913-4.630635C1.025156-4.630635 .439352-4.02391 .439352-3.382316C.439352-3.02665 .739228-2.991781 .808966-2.991781C.976339-2.991781 1.17858-3.110336 1.17858-3.361395C1.17858-3.486924 1.129763-3.731009 .767123-3.731009C.983313-4.226152 1.457534-4.379577 1.785305-4.379577C2.48269-4.379577 2.84533-3.835616 2.84533-3.270735C2.84533-2.66401 2.412951-2.182814 2.189788-1.931756L.509091-.27198C.439352-.209215 .439352-.195268 .439352 0H3.312578L3.521793-1.26924Z'/>
<path id='g0-90' d='M5.937733-6.465753C6.027397-6.595268 6.027397-6.615193 6.027397-6.645081C6.027397-6.824408 5.877958-6.824408 5.69863-6.824408H1.135741C.816936-6.824408 .816936-6.794521 .787049-6.535492L.637609-5.190535L.617684-5.061021C.617684-4.921544 .727273-4.871731 .797011-4.871731C.886675-4.871731 .946451-4.941469 .966376-5.021171C1.006227-5.260274 1.09589-5.69863 1.703611-6.07721C2.271482-6.445828 2.968867-6.475716 3.307597-6.475716H4.11457L.368618-.358655C.278954-.229141 .278954-.209215 .278954-.179328C.278954 0 .438356 0 .617684 0H5.728518C6.027397 0 6.027397-.019925 6.067248-.278954L6.336239-2.241594C6.336239-2.351183 6.246575-2.420922 6.166874-2.420922C6.017435-2.420922 5.997509-2.321295 5.967621-2.122042C5.798257-1.305106 5.021171-.348692 3.606476-.348692H2.191781L5.937733-6.465753ZM1.125778-6.475716H1.653798V-6.465753C1.384807-6.316314 1.195517-6.136986 1.075965-6.027397L1.125778-6.475716ZM4.523039-6.475716H5.539228L1.783313-.348692H.767123L4.523039-6.475716ZM5.051059-.358655C5.330012-.518057 5.589041-.737235 5.818182-1.016189C5.798257-.816936 5.778331-.707347 5.728518-.348692H5.051059V-.358655Z'/>
</defs>
<g id='page1' transform='matrix(1.5 0 0 1.5 0 0)'>
<use x='-14.536172' y='17.344276' xlink:href='#g0-90'/>
<use x='-7.89439' y='18.838657' xlink:href='#g1-50'/>
</g>
</svg>