<?xml version='1.0' encoding='UTF-8'?>
<!-- This file was generated by dvisvgm 3.2 -->
<svg version='1.1' xmlns='http://www.w3.org/2000/svg' xmlns:xlink='http://www.w3.org/1999/xlink' width='57.624022pt' height='10.371108pt' viewBox='-21.176612 15.809689 57.624022 10.371108'>
<defs>
<path id='g0-0' d='M6.56538-2.291407C6.734745-2.291407 6.914072-2.291407 6.914072-2.49066S6.734745-2.689913 6.56538-2.689913H1.175592C1.006227-2.689913 .826899-2.689913 .826899-2.49066S1.006227-2.291407 1.175592-2.291407H6.56538Z'/>
<path id='g0-33' d='M8.308842-2.291407C7.760897-1.872976 7.491905-1.464508 7.412204-1.334994C6.963885-.647572 6.884184-.019925 6.884184-.009963C6.884184 .109589 7.003736 .109589 7.083437 .109589C7.252802 .109589 7.262765 .089664 7.302615-.089664C7.531756-1.066002 8.119552-1.902864 9.24533-2.361146C9.364882-2.400996 9.39477-2.420922 9.39477-2.49066S9.334994-2.590286 9.315068-2.600249C8.876712-2.769614 7.671233-3.267746 7.292653-4.941469C7.262765-5.061021 7.252802-5.090909 7.083437-5.090909C7.003736-5.090909 6.884184-5.090909 6.884184-4.971357C6.884184-4.951432 6.973848-4.323786 7.392279-3.656289C7.591532-3.35741 7.880448-3.008717 8.308842-2.689913H.9066C.727273-2.689913 .547945-2.689913 .547945-2.49066S.727273-2.291407 .9066-2.291407H8.308842Z'/>
<path id='g1-66' d='M1.594022-.777086C1.494396-.388543 1.474471-.308842 .687422-.308842C.518057-.308842 .418431-.308842 .418431-.109589C.418431 0 .508095 0 .687422 0H4.244085C5.818182 0 6.993773-1.175592 6.993773-2.15193C6.993773-2.86924 6.41594-3.447073 5.449564-3.556663C6.485679-3.745953 7.531756-4.483188 7.531756-5.429639C7.531756-6.166874 6.874222-6.804483 5.678705-6.804483H2.331258C2.141968-6.804483 2.042341-6.804483 2.042341-6.60523C2.042341-6.495641 2.132005-6.495641 2.321295-6.495641C2.34122-6.495641 2.530511-6.495641 2.699875-6.475716C2.879203-6.455791 2.968867-6.445828 2.968867-6.316314C2.968867-6.276463 2.958904-6.246575 2.929016-6.127024L1.594022-.777086ZM3.098381-3.646326L3.716065-6.117061C3.805729-6.465753 3.825654-6.495641 4.254047-6.495641H5.539228C6.41594-6.495641 6.625156-5.907846 6.625156-5.469489C6.625156-4.592777 5.768369-3.646326 4.552927-3.646326H3.098381ZM2.650062-.308842C2.510585-.308842 2.49066-.308842 2.430884-.318804C2.331258-.328767 2.30137-.33873 2.30137-.418431C2.30137-.448319 2.30137-.468244 2.351183-.647572L3.038605-3.427148H4.921544C5.877958-3.427148 6.067248-2.689913 6.067248-2.261519C6.067248-1.275218 5.180573-.308842 4.004981-.308842H2.650062Z'/>
</defs>
<g id='page1' transform='matrix(1.5 0 0 1.5 0 0)'>
<use x='-14.536172' y='17.344276' xlink:href='#g1-66'/>
<use x='-3.712232' y='17.344276' xlink:href='#g0-33'/>
<use x='9.01777' y='17.344276' xlink:href='#g0-0'/>
<use x='16.766517' y='17.344276' xlink:href='#g1-66'/>
</g>
</svg>