<?xml version='1.0' encoding='UTF-8'?>
<!-- This file was generated by dvisvgm 3.2 -->
<svg version='1.1' xmlns='http://www.w3.org/2000/svg' xmlns:xlink='http://www.w3.org/1999/xlink' width='46.940505pt' height='10.371108pt' viewBox='-21.221444 15.809689 46.940505 10.371108'>
<defs>
<path id='g0-33' d='M8.308842-2.291407C7.760897-1.872976 7.491905-1.464508 7.412204-1.334994C6.963885-.647572 6.884184-.019925 6.884184-.009963C6.884184 .109589 7.003736 .109589 7.083437 .109589C7.252802 .109589 7.262765 .089664 7.302615-.089664C7.531756-1.066002 8.119552-1.902864 9.24533-2.361146C9.364882-2.400996 9.39477-2.420922 9.39477-2.49066S9.334994-2.590286 9.315068-2.600249C8.876712-2.769614 7.671233-3.267746 7.292653-4.941469C7.262765-5.061021 7.252802-5.090909 7.083437-5.090909C7.003736-5.090909 6.884184-5.090909 6.884184-4.971357C6.884184-4.951432 6.973848-4.323786 7.392279-3.656289C7.591532-3.35741 7.880448-3.008717 8.308842-2.689913H.9066C.727273-2.689913 .547945-2.689913 .547945-2.49066S.727273-2.291407 .9066-2.291407H8.308842Z'/>
<path id='g0-49' d='M5.061021-2.699875C4.523039-3.377335 4.403487-3.526775 4.094645-3.775841C3.536737-4.224159 2.978829-4.403487 2.470735-4.403487C1.305106-4.403487 .547945-3.307597 .547945-2.141968C.547945-.996264 1.285181 .109589 2.430884 .109589S4.403487-.797011 4.891656-1.594022C5.429639-.916563 5.549191-.767123 5.858032-.518057C6.41594-.069738 6.973848 .109589 7.481943 .109589C8.647572 .109589 9.404732-.986301 9.404732-2.15193C9.404732-3.297634 8.667497-4.403487 7.521793-4.403487S5.549191-3.496887 5.061021-2.699875ZM5.32005-2.361146C5.728518-3.078456 6.465753-4.084682 7.591532-4.084682C8.647572-4.084682 9.185554-3.048568 9.185554-2.15193C9.185554-1.175592 8.518057-.368618 7.641345-.368618C7.063512-.368618 6.615193-.787049 6.405978-.996264C6.156912-1.265255 5.927771-1.574097 5.32005-2.361146ZM4.632628-1.932752C4.224159-1.215442 3.486924-.209215 2.361146-.209215C1.305106-.209215 .767123-1.24533 .767123-2.141968C.767123-3.118306 1.43462-3.92528 2.311333-3.92528C2.889166-3.92528 3.337484-3.506849 3.5467-3.297634C3.795766-3.028643 4.024907-2.719801 4.632628-1.932752Z'/>
<path id='g1-76' d='M3.726027-6.027397C3.815691-6.386052 3.845579-6.495641 4.782067-6.495641C5.080946-6.495641 5.160648-6.495641 5.160648-6.684932C5.160648-6.804483 5.051059-6.804483 5.001245-6.804483C4.672478-6.804483 3.855542-6.774595 3.526775-6.774595C3.227895-6.774595 2.500623-6.804483 2.201743-6.804483C2.132005-6.804483 2.012453-6.804483 2.012453-6.60523C2.012453-6.495641 2.102117-6.495641 2.291407-6.495641C2.311333-6.495641 2.500623-6.495641 2.669988-6.475716C2.849315-6.455791 2.938979-6.445828 2.938979-6.316314C2.938979-6.276463 2.929016-6.246575 2.899128-6.127024L1.564134-.777086C1.464508-.388543 1.444583-.308842 .657534-.308842C.488169-.308842 .388543-.308842 .388543-.109589C.388543 0 .478207 0 .657534 0H5.270237C5.50934 0 5.519303 0 5.579078-.169365L6.366127-2.321295C6.405978-2.430884 6.405978-2.450809 6.405978-2.460772C6.405978-2.500623 6.37609-2.570361 6.286426-2.570361S6.1868-2.520548 6.117061-2.361146C5.778331-1.444583 5.339975-.308842 3.616438-.308842H2.67995C2.540473-.308842 2.520548-.308842 2.460772-.318804C2.361146-.328767 2.331258-.33873 2.331258-.418431C2.331258-.448319 2.331258-.468244 2.381071-.647572L3.726027-6.027397Z'/>
</defs>
<g id='page1' transform='matrix(1.5 0 0 1.5 0 0)'>
<use x='-14.536172' y='17.344276' xlink:href='#g1-76'/>
<use x='-4.988693' y='17.344276' xlink:href='#g0-33'/>
<use x='7.741308' y='17.344276' xlink:href='#g0-49'/>
</g>
</svg>