<?xml version='1.0' encoding='UTF-8'?>
<!-- This file was generated by dvisvgm 3.2 -->
<svg version='1.1' xmlns='http://www.w3.org/2000/svg' xmlns:xlink='http://www.w3.org/1999/xlink' width='21.163568pt' height='14.970836pt' viewBox='-21.221444 15.316539 21.163568 14.970836'>
<defs>
<path id='g2-33' d='M1.524284-2.082192L1.912827-6.625156C1.912827-6.953923 1.643836-7.13325 1.384807-7.13325S.856787-6.953923 .856787-6.625156L1.24533-2.092154C1.255293-1.942715 1.265255-1.863014 1.384807-1.863014C1.484433-1.863014 1.514321-1.912827 1.524284-2.082192ZM1.912827-.52802C1.912827-.816936 1.673724-1.05604 1.384807-1.05604S.856787-.816936 .856787-.52802S1.09589 0 1.384807 0S1.912827-.239103 1.912827-.52802Z'/>
<path id='g0-34' d='M2.21071-3.821669C2.817435-2.970859 3.710087-2.831382 3.744956-2.831382C3.849564-2.831382 3.849564-2.929016 3.849564-2.998755C3.849564-3.075467 3.849564-3.145205 3.758904-3.166127C3.472976-3.242839 2.496638-3.493898 2.154919-4.6934C2.12005-4.798007 2.113076-4.839851 2.043337-4.839851C1.987547-4.839851 1.959651-4.798007 1.945704-4.756164C1.862017-4.463263 1.590037-3.500872 .390535-3.187049C.251059-3.152179 .230137-3.145205 .230137-2.998755C.230137-2.929016 .230137-2.831382 .334745-2.831382C.369614-2.831382 1.262267-2.970859 1.868991-3.821669V1.073973C1.868991 1.185554 1.868991 1.352927 2.036364 1.352927C2.21071 1.352927 2.21071 1.192528 2.21071 1.073973V-3.821669Z'/>
<path id='g1-78' d='M7.531756-5.758406C7.631382-6.156912 7.81071-6.465753 8.607721-6.495641C8.657534-6.495641 8.777086-6.505604 8.777086-6.694894C8.777086-6.704857 8.777086-6.804483 8.647572-6.804483C8.318804-6.804483 7.970112-6.774595 7.641345-6.774595C7.302615-6.774595 6.953923-6.804483 6.625156-6.804483C6.56538-6.804483 6.445828-6.804483 6.445828-6.60523C6.445828-6.495641 6.545455-6.495641 6.625156-6.495641C7.193026-6.485679 7.302615-6.276463 7.302615-6.057285C7.302615-6.027397 7.28269-5.877958 7.272727-5.84807L6.156912-1.414695L3.955168-6.615193C3.875467-6.794521 3.865504-6.804483 3.636364-6.804483H2.30137C2.102117-6.804483 2.012453-6.804483 2.012453-6.60523C2.012453-6.495641 2.102117-6.495641 2.291407-6.495641C2.34122-6.495641 2.968867-6.495641 2.968867-6.405978L1.633873-1.05604C1.534247-.657534 1.364882-.33873 .557908-.308842C.498132-.308842 .388543-.298879 .388543-.109589C.388543-.039851 .438356 0 .518057 0C.836862 0 1.185554-.029888 1.514321-.029888C1.853051-.029888 2.211706 0 2.540473 0C2.590286 0 2.719801 0 2.719801-.199253C2.719801-.298879 2.630137-.308842 2.520548-.308842C1.942715-.328767 1.863014-.547945 1.863014-.747198C1.863014-.816936 1.872976-.86675 1.902864-.976339L3.217933-6.236613C3.257783-6.176837 3.257783-6.156912 3.307597-6.057285L5.788294-.18929C5.858032-.019925 5.88792 0 5.977584 0C6.087173 0 6.087173-.029888 6.136986-.209215L7.531756-5.758406Z'/>
</defs>
<g id='page1' transform='matrix(1.5 0 0 1.5 0 0)'>
<use x='-14.536172' y='17.344276' xlink:href='#g1-78'/>
<use x='-6.531465' y='18.838657' xlink:href='#g0-34'/>
<use x='-1.951411' y='17.344276' xlink:href='#g2-33'/>
</g>
</svg>