<?xml version='1.0' encoding='UTF-8'?>
<!-- This file was generated by dvisvgm 3.2 -->
<svg version='1.1' xmlns='http://www.w3.org/2000/svg' xmlns:xlink='http://www.w3.org/1999/xlink' width='45.639112pt' height='12.497611pt' viewBox='-21.236388 15.854521 45.639112 12.497611'>
<defs>
<path id='g0-101' d='M.9066-1.597011H3.110336C3.228892-1.597011 3.263761-1.638854 3.263761-1.743462C3.263761-2.496638 2.782565-3.110336 1.903861-3.110336C1.060025-3.110336 .27198-2.48269 .27198-1.527273C.27198-.578829 1.115816 .062765 1.973599 .062765C2.48269 .062765 3.103362-.223163 3.242839-.767123C3.249813-.788045 3.256787-.81594 3.256787-.836862V-.857783C3.249813-.913574 3.200996-.941469 3.145205-.941469C3.005729-.941469 2.977833-.697385 2.887173-.585803C2.684932-.313823 2.350187-.160399 2.008468-.160399H1.987547C1.708593-.160399 1.401743-.313823 1.234371-.502117C.955417-.795019 .9066-1.206476 .9066-1.597011ZM.913574-1.778331C.990286-2.308344 1.220423-2.908095 1.896887-2.908095C2.147945-2.908095 2.350187-2.817435 2.545455-2.594271C2.712827-2.371108 2.775592-2.057285 2.775592-1.778331H.913574Z'/>
<path id='g0-104' d='M.369614-4.770112V-4.519054H.488169C.711333-4.519054 .892653-4.491158 .892653-4.170361V-.697385C.892653-.648568 .899626-.599751 .899626-.54396C.899626-.265006 .690411-.258032 .411457-.258032H.369614V-.006974H1.973599V-.258032H1.827148C1.624907-.258032 1.45056-.278954 1.45056-.509091V-1.806227C1.45056-2.294396 1.771357-2.880199 2.510585-2.880199C2.915068-2.880199 3.040598-2.552428 3.040598-2.127024V-.516065C3.040598-.27198 2.838356-.258032 2.615193-.258032H2.517559V-.006974H4.121544V-.258032H3.975093C3.7868-.258032 3.598506-.278954 3.598506-.523039V-2.050311C3.598506-2.259527 3.591532-2.461768 3.486924-2.650062C3.305604-2.977833 2.922042-3.075467 2.57335-3.075467C2.140971-3.075467 1.603985-2.859278 1.429639-2.426899L1.422665-4.846824L.369614-4.770112Z'/>
<path id='g0-109' d='M.369614-2.998755V-2.747696H.467248C.683437-2.747696 .892653-2.726775 .892653-2.399004V-.54396C.892653-.265006 .72528-.258032 .369614-.258032V-.006974H1.973599V-.258032H1.827148C1.624907-.258032 1.45056-.278954 1.45056-.509091V-1.806227C1.45056-2.294396 1.771357-2.880199 2.510585-2.880199C2.915068-2.880199 3.040598-2.552428 3.040598-2.127024V-.516065C3.040598-.27198 2.838356-.258032 2.615193-.258032H2.517559V-.006974H4.121544V-.258032H3.975093C3.772852-.258032 3.598506-.278954 3.598506-.509091V-1.806227C3.598506-2.294396 3.919303-2.880199 4.658531-2.880199C5.063014-2.880199 5.188543-2.552428 5.188543-2.127024V-.516065C5.188543-.27198 4.986301-.258032 4.763138-.258032H4.665504V-.006974H6.269489V-.258032H6.116065C5.927771-.258032 5.746451-.278954 5.746451-.516065V-1.994521C5.746451-2.461768 5.697634-3.075467 4.6934-3.075467C4.309838-3.075467 3.961146-2.922042 3.710087-2.629141C3.654296-2.566376 3.619427-2.489664 3.563636-2.426899C3.500872-2.922042 2.977833-3.075467 2.580324-3.075467C2.133998-3.075467 1.569116-2.84533 1.408717-2.385056L1.401743-3.075467L1.046077-3.047572L.369614-2.998755Z'/>
<path id='g0-111' d='M1.868991-3.110336C1.066999-3.02665 .27198-2.454795 .27198-1.48543V-1.422665C.320797-.488169 1.17858 .062765 2.001494 .062765C2.789539 .062765 3.640349-.495143 3.689166-1.422665V-1.457534C3.689166-2.426899 2.880199-3.110336 1.945704-3.110336H1.868991ZM.9066-1.366874C.9066-1.422665 .899626-1.478456 .899626-1.534247C.899626-1.917808 .934496-2.371108 1.26924-2.66401C1.464508-2.831382 1.715567-2.915068 1.966625-2.915068C2.280448-2.915068 2.601245-2.789539 2.803487-2.545455C3.019676-2.294396 3.054545-1.931756 3.054545-1.63188C3.054545-1.241345 3.047572-.795019 2.768618-.488169C2.57335-.265006 2.273474-.160399 1.980573-.160399C1.443587-.160399 1.03213-.502117 .934496-1.080946C.920548-1.17858 .920548-1.26924 .9066-1.366874Z'/>
<path id='g0-114' d='M.334745-2.998755V-2.747696H.432379C.648568-2.747696 .857783-2.726775 .857783-2.399004V-.54396C.857783-.265006 .690411-.258032 .334745-.258032V-.006974H2.043337V-.258032C1.966625-.258032 1.882939-.251059 1.806227-.251059C1.57609-.251059 1.387796-.285928 1.387796-.536986V-1.080946C1.387796-1.21345 1.380822-1.352927 1.380822-1.48543C1.380822-2.036364 1.562142-2.880199 2.322291-2.880199V-2.873225C2.238605-2.824408 2.203736-2.726775 2.203736-2.629141C2.203736-2.433873 2.350187-2.308344 2.524533-2.308344C2.712827-2.308344 2.838356-2.461768 2.838356-2.615193C2.838356-2.915068 2.559402-3.075467 2.287422-3.075467C1.841096-3.075467 1.436613-2.691905 1.345953-2.308344L1.338979-3.075467L.990286-3.047572L.334745-2.998755Z'/>
<path id='g0-116' d='M1.164633-4.29589C1.164633-3.744956 .899626-2.949938 .195268-2.949938V-2.75467H.843836V-.969365C.843836-.746202 .857783-.523039 .976339-.334745C1.157659-.048817 1.506351 .062765 1.827148 .062765C2.078207 .062765 2.30137-.048817 2.447821-.258032C2.601245-.481196 2.622167-.739228 2.622167-1.004234V-1.26924H2.385056C2.385056-1.171606 2.39203-1.073973 2.39203-.976339C2.39203-.690411 2.322291-.160399 1.896887-.160399C1.506351-.160399 1.401743-.557908 1.401743-.920548V-2.75467H2.489664V-3.005729H1.401743V-4.29589H1.164633Z'/>
<path id='g1-70' d='M3.01868-3.237858H3.985056C4.732254-3.237858 4.811955-3.078456 4.811955-2.789539C4.811955-2.719801 4.811955-2.600249 4.742217-2.30137C4.722291-2.251557 4.712329-2.211706 4.712329-2.191781C4.712329-2.11208 4.772105-2.072229 4.83188-2.072229C4.931507-2.072229 4.931507-2.102117 4.98132-2.281445L5.529265-4.443337C5.559153-4.552927 5.559153-4.572852 5.559153-4.60274C5.559153-4.622665 5.539228-4.712329 5.439601-4.712329S5.330012-4.662516 5.290162-4.503113C5.080946-3.726027 4.851806-3.5467 4.004981-3.5467H3.098381L3.73599-6.07721C3.825654-6.425903 3.835616-6.465753 4.273973-6.465753H5.589041C6.814446-6.465753 7.043587-6.136986 7.043587-5.369863C7.043587-5.140722 7.043587-5.100872 7.013699-4.83188C6.993773-4.702366 6.993773-4.682441 6.993773-4.652553C6.993773-4.60274 7.023661-4.533001 7.113325-4.533001C7.222914-4.533001 7.232877-4.592777 7.252802-4.782067L7.452055-6.505604C7.481943-6.774595 7.43213-6.774595 7.183064-6.774595H2.30137C2.102117-6.774595 2.002491-6.774595 2.002491-6.575342C2.002491-6.465753 2.092154-6.465753 2.281445-6.465753C2.650062-6.465753 2.929016-6.465753 2.929016-6.286426C2.929016-6.246575 2.929016-6.22665 2.879203-6.047323L1.564134-.777086C1.464508-.388543 1.444583-.308842 .657534-.308842C.488169-.308842 .37858-.308842 .37858-.119552C.37858 0 .498132 0 .52802 0C.816936 0 1.554172-.029888 1.843088-.029888C2.171856-.029888 2.998755 0 3.327522 0C3.417186 0 3.536737 0 3.536737-.18929C3.536737-.268991 3.476961-.288917 3.476961-.298879C3.447073-.308842 3.427148-.308842 3.198007-.308842C2.978829-.308842 2.929016-.308842 2.67995-.328767C2.391034-.358655 2.361146-.398506 2.361146-.52802C2.361146-.547945 2.361146-.607721 2.400996-.757161L3.01868-3.237858Z'/>
</defs>
<g id='page1' transform='matrix(1.5 0 0 1.5 0 0)'>
<use x='-14.536172' y='17.344276' xlink:href='#g1-70'/>
<use x='-8.129628' y='18.838657' xlink:href='#g0-116'/>
<use x='-5.017063' y='18.838657' xlink:href='#g0-104'/>
<use x='-.617971' y='18.838657' xlink:href='#g0-101'/>
<use x='2.923449' y='18.838657' xlink:href='#g0-114'/>
<use x='6.036014' y='18.838657' xlink:href='#g0-109'/>
<use x='12.579317' y='18.838657' xlink:href='#g0-111'/>
</g>
</svg>