<?xml version='1.0' encoding='UTF-8'?>
<!-- This file was generated by dvisvgm 3.2 -->
<svg version='1.1' xmlns='http://www.w3.org/2000/svg' xmlns:xlink='http://www.w3.org/1999/xlink' width='60.229225pt' height='7.800747pt' viewBox='-21.370884 18.38005 60.229225 7.800747'>
<defs>
<path id='g0-0' d='M6.56538-2.291407C6.734745-2.291407 6.914072-2.291407 6.914072-2.49066S6.734745-2.689913 6.56538-2.689913H1.175592C1.006227-2.689913 .826899-2.689913 .826899-2.49066S1.006227-2.291407 1.175592-2.291407H6.56538Z'/>
<path id='g0-33' d='M8.308842-2.291407C7.760897-1.872976 7.491905-1.464508 7.412204-1.334994C6.963885-.647572 6.884184-.019925 6.884184-.009963C6.884184 .109589 7.003736 .109589 7.083437 .109589C7.252802 .109589 7.262765 .089664 7.302615-.089664C7.531756-1.066002 8.119552-1.902864 9.24533-2.361146C9.364882-2.400996 9.39477-2.420922 9.39477-2.49066S9.334994-2.590286 9.315068-2.600249C8.876712-2.769614 7.671233-3.267746 7.292653-4.941469C7.262765-5.061021 7.252802-5.090909 7.083437-5.090909C7.003736-5.090909 6.884184-5.090909 6.884184-4.971357C6.884184-4.951432 6.973848-4.323786 7.392279-3.656289C7.591532-3.35741 7.880448-3.008717 8.308842-2.689913H.9066C.727273-2.689913 .547945-2.689913 .547945-2.49066S.727273-2.291407 .9066-2.291407H8.308842Z'/>
<path id='g1-109' d='M.876712-.587796C.846824-.438356 .787049-.209215 .787049-.159402C.787049 .019925 .926526 .109589 1.075965 .109589C1.195517 .109589 1.374844 .029888 1.444583-.169365C1.454545-.18929 1.574097-.657534 1.633873-.9066L1.853051-1.803238C1.912827-2.022416 1.972603-2.241594 2.022416-2.470735C2.062267-2.6401 2.141968-2.929016 2.15193-2.968867C2.30137-3.277709 2.82939-4.184309 3.775841-4.184309C4.224159-4.184309 4.313823-3.815691 4.313823-3.486924C4.313823-3.237858 4.244085-2.958904 4.164384-2.660025L3.88543-1.504359L3.686177-.747198C3.646326-.547945 3.556663-.209215 3.556663-.159402C3.556663 .019925 3.696139 .109589 3.845579 .109589C4.154421 .109589 4.214197-.139477 4.293898-.458281C4.433375-1.016189 4.801993-2.470735 4.891656-2.859278C4.921544-2.988792 5.449564-4.184309 6.535492-4.184309C6.963885-4.184309 7.073474-3.845579 7.073474-3.486924C7.073474-2.919054 6.655044-1.783313 6.455791-1.255293C6.366127-1.016189 6.326276-.9066 6.326276-.707347C6.326276-.239103 6.674969 .109589 7.143213 .109589C8.079701 .109589 8.448319-1.344956 8.448319-1.424658C8.448319-1.524284 8.358655-1.524284 8.328767-1.524284C8.229141-1.524284 8.229141-1.494396 8.179328-1.344956C8.029888-.816936 7.711083-.109589 7.163138-.109589C6.993773-.109589 6.924035-.209215 6.924035-.438356C6.924035-.687422 7.013699-.926526 7.103362-1.145704C7.292653-1.663761 7.711083-2.769614 7.711083-3.337484C7.711083-3.985056 7.312578-4.403487 6.56538-4.403487S5.310087-3.965131 4.941469-3.437111C4.931507-3.566625 4.901619-3.905355 4.622665-4.144458C4.373599-4.353674 4.054795-4.403487 3.805729-4.403487C2.909091-4.403487 2.420922-3.765878 2.251557-3.536737C2.201743-4.104608 1.783313-4.403487 1.334994-4.403487C.876712-4.403487 .687422-4.014944 .597758-3.835616C.418431-3.486924 .288917-2.899128 .288917-2.86924C.288917-2.769614 .388543-2.769614 .408468-2.769614C.508095-2.769614 .518057-2.779577 .577833-2.998755C.747198-3.706102 .946451-4.184309 1.305106-4.184309C1.464508-4.184309 1.613948-4.104608 1.613948-3.726027C1.613948-3.516812 1.58406-3.407223 1.454545-2.889166L.876712-.587796Z'/>
</defs>
<g id='page1' transform='matrix(1.5 0 0 1.5 0 0)'>
<use x='-14.536172' y='17.344276' xlink:href='#g1-109'/>
<use x='-3.021506' y='17.344276' xlink:href='#g0-33'/>
<use x='9.708495' y='17.344276' xlink:href='#g0-0'/>
<use x='17.457242' y='17.344276' xlink:href='#g1-109'/>
</g>
</svg>