<?xml version='1.0' encoding='UTF-8'?>
<!-- This file was generated by dvisvgm 3.2 -->
<svg version='1.1' xmlns='http://www.w3.org/2000/svg' xmlns:xlink='http://www.w3.org/1999/xlink' width='41.213737pt' height='12.941469pt' viewBox='-20.56391 16.138456 41.213737 12.941469'>
<defs>
<path id='g0-60' d='M6.724782-4.961395C6.844334-5.021171 6.914072-5.070984 6.914072-5.180573S6.824408-5.379826 6.714819-5.379826C6.684932-5.379826 6.665006-5.379826 6.535492-5.310087L1.016189-2.709838C.9066-2.660025 .826899-2.610212 .826899-2.49066S.9066-2.321295 1.016189-2.271482L6.535492 .328767C6.665006 .398506 6.684932 .398506 6.714819 .398506C6.824408 .398506 6.914072 .308842 6.914072 .199253S6.844334 .039851 6.724782-.019925L1.494396-2.49066L6.724782-4.961395Z'/>
<path id='g0-62' d='M6.724782-2.271482C6.834371-2.321295 6.914072-2.371108 6.914072-2.49066S6.834371-2.660025 6.724782-2.709838L1.205479-5.310087C1.075965-5.379826 1.05604-5.379826 1.026152-5.379826C.916563-5.379826 .826899-5.290162 .826899-5.180573C.826899-5.090909 .876712-5.031133 1.016189-4.961395L6.246575-2.49066L1.016189-.019925C.876712 .049813 .826899 .109589 .826899 .199253C.826899 .308842 .916563 .398506 1.026152 .398506C1.05604 .398506 1.075965 .398506 1.205479 .328767L6.724782-2.271482Z'/>
<path id='g0-105' d='M2.82939-6.22665C2.82939-6.425903 2.689913-6.585305 2.460772-6.585305C2.191781-6.585305 1.92279-6.326276 1.92279-6.057285C1.92279-5.867995 2.062267-5.69863 2.30137-5.69863C2.530511-5.69863 2.82939-5.927771 2.82939-6.22665ZM2.072229-2.480697C2.191781-2.769614 2.191781-2.789539 2.291407-3.058531C2.371108-3.257783 2.420922-3.39726 2.420922-3.58655C2.420922-4.034869 2.102117-4.403487 1.603985-4.403487C.667497-4.403487 .288917-2.958904 .288917-2.86924C.288917-2.769614 .388543-2.769614 .408468-2.769614C.508095-2.769614 .518057-2.789539 .56787-2.948941C.836862-3.88543 1.235367-4.184309 1.574097-4.184309C1.653798-4.184309 1.823163-4.184309 1.823163-3.865504C1.823163-3.656289 1.753425-3.447073 1.713574-3.347447C1.633873-3.088418 1.185554-1.932752 1.026152-1.504359C.926526-1.24533 .797011-.916563 .797011-.707347C.797011-.239103 1.135741 .109589 1.613948 .109589C2.550436 .109589 2.919054-1.334994 2.919054-1.424658C2.919054-1.524284 2.82939-1.524284 2.799502-1.524284C2.699875-1.524284 2.699875-1.494396 2.650062-1.344956C2.470735-.71731 2.141968-.109589 1.633873-.109589C1.464508-.109589 1.39477-.209215 1.39477-.438356C1.39477-.687422 1.454545-.826899 1.683686-1.43462L2.072229-2.480697Z'/>
<path id='g0-106' d='M3.955168-6.22665C3.955168-6.41594 3.815691-6.585305 3.576588-6.585305C3.347447-6.585305 3.048568-6.356164 3.048568-6.057285C3.048568-5.858032 3.188045-5.69863 3.417186-5.69863C3.686177-5.69863 3.955168-5.957659 3.955168-6.22665ZM1.952677 .498132C1.763387 1.255293 1.285181 1.823163 .727273 1.823163C.667497 1.823163 .518057 1.823163 .33873 1.733499C.637609 1.663761 .787049 1.404732 .787049 1.205479C.787049 1.046077 .67746 .856787 .408468 .856787C.159402 .856787-.129514 1.066002-.129514 1.424658C-.129514 1.823163 .268991 2.042341 .747198 2.042341C1.444583 2.042341 2.371108 1.514321 2.620174 .52802L3.536737-3.118306C3.58655-3.317559 3.58655-3.457036 3.58655-3.486924C3.58655-4.054795 3.16812-4.403487 2.669988-4.403487C1.653798-4.403487 1.085928-2.958904 1.085928-2.86924C1.085928-2.769614 1.185554-2.769614 1.205479-2.769614C1.295143-2.769614 1.305106-2.779577 1.384807-2.968867C1.633873-3.576588 2.092154-4.184309 2.6401-4.184309C2.779577-4.184309 2.958904-4.144458 2.958904-3.726027C2.958904-3.496887 2.929016-3.387298 2.889166-3.217933L1.952677 .498132Z'/>
</defs>
<g id='page1' transform='matrix(1.5 0 0 1.5 0 0)'>
<use x='-14.536172' y='17.344276' xlink:href='#g0-60'/>
<use x='-4.020092' y='17.344276' xlink:href='#g0-105'/>
<use x='-.587834' y='17.344276' xlink:href='#g0-106'/>
<use x='6.852479' y='17.344276' xlink:href='#g0-62'/>
</g>
</svg>