<?xml version='1.0' encoding='UTF-8'?>
<!-- This file was generated by dvisvgm 3.2 -->
<svg version='1.1' xmlns='http://www.w3.org/2000/svg' xmlns:xlink='http://www.w3.org/1999/xlink' width='236.322957pt' height='44.538553pt' viewBox='232.914366 27.51081 236.322957 44.538553'>
<defs>
<path id='g1-0' d='M5.188543-1.57609C5.300125-1.57609 5.467497-1.57609 5.467497-1.743462C5.467497-1.917808 5.307098-1.917808 5.188543-1.917808H1.03213C.920548-1.917808 .753176-1.917808 .753176-1.750436C.753176-1.57609 .913574-1.57609 1.03213-1.57609H5.188543Z'/>
<path id='g5-40' d='M2.475716-5.230386C1.150685-4.29589 .801993-2.817435 .801993-1.750436C.801993-.767123 1.094894 .760149 2.475716 1.736488C2.531507 1.736488 2.615193 1.736488 2.615193 1.652802C2.615193 1.610959 2.594271 1.597011 2.545455 1.548194C1.617933 .711333 1.276214-.474222 1.276214-1.743462C1.276214-3.626401 1.994521-4.546949 2.566376-5.063014C2.594271-5.090909 2.615193-5.111831 2.615193-5.1467C2.615193-5.230386 2.531507-5.230386 2.475716-5.230386Z'/>
<path id='g5-41' d='M.627646-5.230386C.578829-5.230386 .495143-5.230386 .495143-5.1467C.495143-5.111831 .516065-5.090909 .557908-5.042092C1.157659-4.491158 1.827148-3.549689 1.827148-1.750436C1.827148-.292902 1.373848 .808966 .620672 1.492403C.502117 1.610959 .495143 1.617933 .495143 1.652802S.516065 1.736488 .585803 1.736488C.669489 1.736488 1.332005 1.276214 1.792279 .404483C2.099128-.174346 2.30137-.927522 2.30137-1.743462C2.30137-2.726775 2.008468-4.254047 .627646-5.230386Z'/>
<path id='g5-91' d='M2.022416 1.743462V1.401743H1.290162V-4.888667H2.022416V-5.230386H.948443V1.743462H2.022416Z'/>
<path id='g5-93' d='M1.297136-5.230386H.223163V-4.888667H.955417V1.401743H.223163V1.743462H1.297136V-5.230386Z'/>
<path id='g6-88' d='M12.612702 13.947696L13.818182 10.759651H13.569116C13.180573 11.795766 12.124533 12.473225 10.978829 12.772105C10.769614 12.821918 9.793275 13.080946 7.880448 13.080946H1.872976L6.94396 7.13325C7.013699 7.053549 7.033624 7.023661 7.033624 6.973848C7.033624 6.953923 7.033624 6.924035 6.963885 6.824408L2.321295 .478207H7.780822C9.115816 .478207 10.022416 .617684 10.11208 .637609C10.650062 .71731 11.516812 .886675 12.303861 1.384807C12.552927 1.544209 13.230386 1.992528 13.569116 2.799502H13.818182L12.612702 0H.836862C.607721 0 .597758 .009963 .56787 .069738C.557908 .099626 .557908 .288917 .557908 .398506L5.828144 7.611457L.667497 13.65878C.56787 13.778331 .56787 13.828144 .56787 13.838107C.56787 13.947696 .657534 13.947696 .836862 13.947696H12.612702Z'/>
<path id='g4-40' d='M3.297634 2.391034C3.297634 2.361146 3.297634 2.34122 3.128269 2.171856C1.882939 .916563 1.564134-.966376 1.564134-2.49066C1.564134-4.224159 1.942715-5.957659 3.16812-7.202989C3.297634-7.32254 3.297634-7.342466 3.297634-7.372354C3.297634-7.442092 3.257783-7.47198 3.198007-7.47198C3.098381-7.47198 2.201743-6.794521 1.613948-5.529265C1.105853-4.433375 .986301-3.327522 .986301-2.49066C.986301-1.713574 1.09589-.508095 1.643836 .617684C2.241594 1.843088 3.098381 2.49066 3.198007 2.49066C3.257783 2.49066 3.297634 2.460772 3.297634 2.391034Z'/>
<path id='g4-41' d='M2.879203-2.49066C2.879203-3.267746 2.769614-4.473225 2.221669-5.599004C1.62391-6.824408 .767123-7.47198 .667497-7.47198C.607721-7.47198 .56787-7.43213 .56787-7.372354C.56787-7.342466 .56787-7.32254 .757161-7.143213C1.733499-6.156912 2.30137-4.572852 2.30137-2.49066C2.30137-.787049 1.932752 .966376 .697385 2.221669C.56787 2.34122 .56787 2.361146 .56787 2.391034C.56787 2.450809 .607721 2.49066 .667497 2.49066C.767123 2.49066 1.663761 1.8132 2.251557 .547945C2.759651-.547945 2.879203-1.653798 2.879203-2.49066Z'/>
<path id='g4-61' d='M6.844334-3.257783C6.993773-3.257783 7.183064-3.257783 7.183064-3.457036S6.993773-3.656289 6.854296-3.656289H.886675C.747198-3.656289 .557908-3.656289 .557908-3.457036S.747198-3.257783 .896638-3.257783H6.844334ZM6.854296-1.325031C6.993773-1.325031 7.183064-1.325031 7.183064-1.524284S6.993773-1.723537 6.844334-1.723537H.896638C.747198-1.723537 .557908-1.723537 .557908-1.524284S.747198-1.325031 .886675-1.325031H6.854296Z'/>
<path id='g2-30' d='M4.353674-6.674969C4.353674-6.694894 4.383562-6.804483 4.383562-6.814446S4.383562-6.914072 4.26401-6.914072C4.164384-6.914072 4.154421-6.884184 4.11457-6.714819L3.536737-4.41345C1.952677-4.363636 .488169-3.038605 .488169-1.683686C.488169-.737235 1.185554 .049813 2.400996 .119552C2.321295 .428394 2.251557 .747198 2.171856 1.05604C2.052304 1.524284 1.952677 1.902864 1.952677 1.932752C1.952677 2.032379 2.022416 2.042341 2.072229 2.042341S2.141968 2.032379 2.171856 2.002491C2.191781 1.982565 2.251557 1.743462 2.281445 1.603985L2.660025 .119552C4.26401 .069738 5.708593-1.275218 5.708593-2.610212C5.708593-3.39726 5.180573-4.313823 3.795766-4.41345L4.353674-6.674969ZM2.450809-.099626C1.853051-.129514 1.135741-.478207 1.135741-1.474471C1.135741-2.669988 1.992528-4.064757 3.476961-4.194271L2.450809-.099626ZM3.73599-4.194271C4.493151-4.154421 5.061021-3.696139 5.061021-2.819427C5.061021-1.643836 4.204234-.219178 2.709838-.099626L3.73599-4.194271Z'/>
<path id='g2-90' d='M7.173101-6.56538C7.183064-6.60523 7.202989-6.655044 7.202989-6.714819C7.202989-6.804483 7.153176-6.804483 6.953923-6.804483H2.749689C2.510585-6.804483 2.500623-6.794521 2.440847-6.60523L1.892902-4.811955C1.872976-4.762142 1.863014-4.692403 1.863014-4.672478C1.863014-4.662516 1.863014-4.562889 1.982565-4.562889C2.072229-4.562889 2.092154-4.632628 2.11208-4.662516C2.49066-5.838107 3.008717-6.495641 4.562889-6.495641H6.1868L.617684-.268991C.617684-.259029 .577833-.119552 .577833-.089664C.577833 0 .647572 0 .826899 0H5.160648C5.399751 0 5.409714-.009963 5.469489-.199253L6.176837-2.400996C6.1868-2.440847 6.216687-2.510585 6.216687-2.550436C6.216687-2.600249 6.176837-2.660025 6.087173-2.660025S5.987547-2.620174 5.917808-2.410959C5.479452-1.05604 5.001245-.33873 3.307597-.33873H1.603985L7.173101-6.56538Z'/>
<path id='g2-101' d='M1.863014-2.30137C2.15193-2.30137 2.889166-2.321295 3.387298-2.530511C4.084682-2.82939 4.134496-3.417186 4.134496-3.556663C4.134496-3.995019 3.755915-4.403487 3.068493-4.403487C1.96264-4.403487 .458281-3.437111 .458281-1.693649C.458281-.67746 1.046077 .109589 2.022416 .109589C3.447073 .109589 4.283935-.946451 4.283935-1.066002C4.283935-1.125778 4.224159-1.195517 4.164384-1.195517C4.11457-1.195517 4.094645-1.175592 4.034869-1.09589C3.247821-.109589 2.161893-.109589 2.042341-.109589C1.265255-.109589 1.175592-.946451 1.175592-1.265255C1.175592-1.384807 1.185554-1.693649 1.334994-2.30137H1.863014ZM1.39477-2.520548C1.783313-4.034869 2.809465-4.184309 3.068493-4.184309C3.536737-4.184309 3.805729-3.895392 3.805729-3.556663C3.805729-2.520548 2.211706-2.520548 1.803238-2.520548H1.39477Z'/>
<path id='g2-120' d='M3.327522-3.008717C3.387298-3.267746 3.616438-4.184309 4.313823-4.184309C4.363636-4.184309 4.60274-4.184309 4.811955-4.054795C4.533001-4.004981 4.333748-3.755915 4.333748-3.516812C4.333748-3.35741 4.443337-3.16812 4.712329-3.16812C4.931507-3.16812 5.250311-3.347447 5.250311-3.745953C5.250311-4.26401 4.662516-4.403487 4.323786-4.403487C3.745953-4.403487 3.39726-3.875467 3.277709-3.646326C3.028643-4.303861 2.49066-4.403487 2.201743-4.403487C1.165629-4.403487 .597758-3.118306 .597758-2.86924C.597758-2.769614 .697385-2.769614 .71731-2.769614C.797011-2.769614 .826899-2.789539 .846824-2.879203C1.185554-3.935243 1.843088-4.184309 2.181818-4.184309C2.371108-4.184309 2.719801-4.094645 2.719801-3.516812C2.719801-3.20797 2.550436-2.540473 2.181818-1.145704C2.022416-.52802 1.673724-.109589 1.235367-.109589C1.175592-.109589 .946451-.109589 .737235-.239103C.986301-.288917 1.205479-.498132 1.205479-.777086C1.205479-1.046077 .986301-1.125778 .836862-1.125778C.537983-1.125778 .288917-.86675 .288917-.547945C.288917-.089664 .787049 .109589 1.225405 .109589C1.882939 .109589 2.241594-.587796 2.271482-.647572C2.391034-.278954 2.749689 .109589 3.347447 .109589C4.373599 .109589 4.941469-1.175592 4.941469-1.424658C4.941469-1.524284 4.851806-1.524284 4.821918-1.524284C4.732254-1.524284 4.712329-1.484433 4.692403-1.414695C4.363636-.348692 3.686177-.109589 3.367372-.109589C2.978829-.109589 2.819427-.428394 2.819427-.767123C2.819427-.986301 2.879203-1.205479 2.988792-1.643836L3.327522-3.008717Z'/>
<path id='g2-121' d='M4.841843-3.795766C4.881694-3.935243 4.881694-3.955168 4.881694-4.024907C4.881694-4.204234 4.742217-4.293898 4.592777-4.293898C4.493151-4.293898 4.333748-4.234122 4.244085-4.084682C4.224159-4.034869 4.144458-3.726027 4.104608-3.5467C4.034869-3.287671 3.965131-3.01868 3.905355-2.749689L3.457036-.956413C3.417186-.806974 2.988792-.109589 2.331258-.109589C1.823163-.109589 1.713574-.547945 1.713574-.916563C1.713574-1.374844 1.882939-1.992528 2.221669-2.86924C2.381071-3.277709 2.420922-3.387298 2.420922-3.58655C2.420922-4.034869 2.102117-4.403487 1.603985-4.403487C.657534-4.403487 .288917-2.958904 .288917-2.86924C.288917-2.769614 .388543-2.769614 .408468-2.769614C.508095-2.769614 .518057-2.789539 .56787-2.948941C.836862-3.88543 1.235367-4.184309 1.574097-4.184309C1.653798-4.184309 1.823163-4.184309 1.823163-3.865504C1.823163-3.616438 1.723537-3.35741 1.653798-3.16812C1.255293-2.11208 1.075965-1.544209 1.075965-1.075965C1.075965-.18929 1.703611 .109589 2.291407 .109589C2.67995 .109589 3.01868-.059776 3.297634-.33873C3.16812 .179328 3.048568 .667497 2.650062 1.195517C2.391034 1.534247 2.012453 1.823163 1.554172 1.823163C1.414695 1.823163 .966376 1.793275 .797011 1.404732C.956413 1.404732 1.085928 1.404732 1.225405 1.285181C1.325031 1.195517 1.424658 1.066002 1.424658 .876712C1.424658 .56787 1.155666 .52802 1.05604 .52802C.826899 .52802 .498132 .687422 .498132 1.175592C.498132 1.673724 .936488 2.042341 1.554172 2.042341C2.580324 2.042341 3.606476 1.135741 3.88543 .009963L4.841843-3.795766Z'/>
<path id='g3-12' d='M4.414446-3.947198C4.414446-4.560897 3.884433-4.916563 3.270735-4.916563C2.315318-4.916563 1.610959-3.828643 1.436613-3.124284L.341719 1.26924C.327771 1.318057 .397509 1.352927 .439352 1.352927C.502117 1.352927 .557908 1.345953 .571856 1.30411L1.039103-.557908C1.185554-.237111 1.520299 .062765 2.085181 .062765C3.061519 .062765 4.163387-.641594 4.163387-1.708593C4.163387-2.12005 3.975093-2.538481 3.619427-2.768618C3.961146-2.984807 4.414446-3.382316 4.414446-3.947198ZM3.033624-2.775592C2.929016-2.75467 2.880199-2.726775 2.677958-2.726775C2.566376-2.726775 2.399004-2.733748 2.350187-2.761644C2.419925-2.803487 2.615193-2.810461 2.677958-2.810461C2.782565-2.810461 2.93599-2.803487 3.033624-2.775592ZM3.954172-4.072727C3.954172-3.703113 3.772852-3.159153 3.340473-2.915068C3.20797-2.956912 3.075467-3.005729 2.684932-3.005729C2.440847-3.005729 2.092154-2.991781 2.092154-2.740722C2.092154-2.566376 2.308344-2.538481 2.66401-2.538481C2.901121-2.538481 3.110336-2.57335 3.326526-2.636115C3.535741-2.489664 3.647323-2.203736 3.647323-1.896887C3.647323-.885679 2.956912-.132503 2.106102-.132503C1.569116-.132503 1.185554-.460274 1.185554-1.011208C1.185554-1.080946 1.192528-1.150685 1.206476-1.21345L1.66675-3.068493C1.834122-3.731009 2.447821-4.721295 3.256787-4.721295C3.668244-4.721295 3.954172-4.498132 3.954172-4.072727Z'/>
<path id='g3-30' d='M3.431133-4.749191C3.431133-4.839851 3.347447-4.839851 3.312578-4.839851C3.20797-4.839851 3.200996-4.804981 3.173101-4.686426L2.775592-3.089415C1.54122-3.033624 .488169-2.147945 .488169-1.21345C.488169-.425405 1.206476 .048817 1.980573 .076712C1.924782 .292902 1.875965 .516065 1.820174 .732254C1.736488 1.060025 1.673724 1.318057 1.673724 1.338979C1.673724 1.422665 1.764384 1.422665 1.785305 1.422665C1.889913 1.422665 1.896887 1.401743 1.931756 1.255293L2.224658 .083686C3.417186 .034869 4.51208-.843836 4.51208-1.792279C4.51208-2.524533 3.870486-3.047572 3.019676-3.082441L3.431133-4.749191ZM2.02939-.118555C1.492403-.146451 .99726-.439352 .99726-1.094894C.99726-1.792279 1.527273-2.775592 2.719801-2.887173L2.02939-.118555ZM2.963885-2.887173C3.500872-2.866252 4.002989-2.57335 4.002989-1.910834C4.002989-1.150685 3.403238-.216189 2.273474-.118555L2.963885-2.887173Z'/>
<path id='g3-70' d='M2.385056-2.245579H3.131258C3.66127-2.245579 3.75193-2.161893 3.75193-1.931756C3.75193-1.827148 3.75193-1.8132 3.703113-1.617933C3.689166-1.57609 3.682192-1.555168 3.682192-1.534247C3.682192-1.464508 3.731009-1.429639 3.800747-1.429639C3.891407-1.429639 3.898381-1.464508 3.93325-1.590037L4.309838-3.068493C4.316812-3.089415 4.337733-3.194022 4.337733-3.20797C4.337733-3.277709 4.288917-3.312578 4.219178-3.312578C4.121544-3.312578 4.11457-3.270735 4.079701-3.145205C3.940224-2.601245 3.737983-2.496638 3.145205-2.496638H2.447821L2.887173-4.247073C2.942964-4.463263 2.949938-4.484184 3.242839-4.484184H4.309838C5.23736-4.484184 5.411706-4.261021 5.411706-3.682192C5.411706-3.452055 5.383811-3.305604 5.383811-3.249813S5.404732-3.131258 5.502366-3.131258C5.606974-3.131258 5.613948-3.194022 5.627895-3.312578L5.753425-4.526027C5.774346-4.735243 5.725529-4.735243 5.551183-4.735243H1.827148C1.694645-4.735243 1.603985-4.735243 1.603985-4.581818C1.603985-4.484184 1.687671-4.484184 1.827148-4.484184C1.834122-4.484184 1.966625-4.484184 2.092154-4.470237C2.238605-4.456289 2.252553-4.442341 2.252553-4.372603C2.252553-4.323786 2.231631-4.254047 2.224658-4.219178L1.311083-.571856C1.241345-.299875 1.234371-.251059 .690411-.251059C.571856-.251059 .481196-.251059 .481196-.104608C.481196-.034869 .530012 0 .592777 0C.795019 0 1.311083-.027895 1.513325-.027895L2.050311-.020922C2.231631-.020922 2.426899 0 2.601245 0C2.650062 0 2.75467 0 2.75467-.153425C2.75467-.251059 2.670984-.251059 2.510585-.251059C2.496638-.251059 2.322291-.251059 2.147945-.265006C2.001494-.278954 1.931756-.285928 1.931756-.383562C1.931756-.411457 1.931756-.432379 1.952677-.509091L2.385056-2.245579Z'/>
<path id='g3-120' d='M1.736488-.739228C1.66675-.502117 1.436613-.125529 1.080946-.125529C1.060025-.125529 .850809-.125529 .704359-.223163C.990286-.313823 1.011208-.564882 1.011208-.606725C1.011208-.760149 .892653-.864757 .732254-.864757C.536986-.864757 .334745-.697385 .334745-.439352C.334745-.09066 .72528 .069738 1.066999 .069738C1.387796 .069738 1.673724-.132503 1.84807-.425405C2.015442-.055791 2.399004 .069738 2.677958 .069738C3.47995 .069738 3.905355-.801993 3.905355-.99726C3.905355-1.08792 3.814695-1.08792 3.793773-1.08792C3.696139-1.08792 3.689166-1.053051 3.66127-.969365C3.514819-.488169 3.096389-.125529 2.705853-.125529C2.426899-.125529 2.280448-.313823 2.280448-.578829C2.280448-.760149 2.447821-1.39477 2.643088-2.168867C2.782565-2.705853 3.096389-2.880199 3.326526-2.880199C3.340473-2.880199 3.556663-2.880199 3.703113-2.782565C3.47995-2.719801 3.396264-2.524533 3.396264-2.399004C3.396264-2.245579 3.514819-2.140971 3.675218-2.140971S4.065753-2.273474 4.065753-2.566376C4.065753-2.956912 3.619427-3.075467 3.340473-3.075467C2.991781-3.075467 2.712827-2.84533 2.559402-2.580324C2.433873-2.866252 2.113076-3.075467 1.72254-3.075467C.941469-3.075467 .495143-2.217684 .495143-2.008468C.495143-1.917808 .592777-1.917808 .613699-1.917808C.704359-1.917808 .711333-1.945704 .746202-2.036364C.920548-2.580324 1.3599-2.880199 1.701619-2.880199C1.931756-2.880199 2.12005-2.75467 2.12005-2.419925C2.12005-2.280448 2.036364-1.931756 1.973599-1.694645L1.736488-.739228Z'/>
<path id='g0-104' d='M3.267746-7.0934C3.317559-7.202989 3.317559-7.222914 3.317559-7.272727C3.317559-7.382316 3.227895-7.47198 3.118306-7.47198C3.028643-7.47198 2.958904-7.422167 2.889166-7.242839L1.145704-2.669988C1.125778-2.610212 1.09589-2.550436 1.09589-2.49066C1.09589-2.460772 1.09589-2.440847 1.145704-2.321295L2.889166 2.251557C2.929016 2.361146 2.978829 2.49066 3.118306 2.49066C3.227895 2.49066 3.317559 2.400996 3.317559 2.291407C3.317559 2.261519 3.317559 2.241594 3.267746 2.132005L1.504359-2.49066L3.267746-7.0934Z'/>
<path id='g0-105' d='M2.719801-2.321295C2.769614-2.440847 2.769614-2.460772 2.769614-2.49066S2.769614-2.540473 2.719801-2.660025L.976339-7.242839C.916563-7.412204 .856787-7.47198 .747198-7.47198S.547945-7.382316 .547945-7.272727C.547945-7.242839 .547945-7.222914 .597758-7.113325L2.361146-2.49066L.597758 2.11208C.547945 2.221669 .547945 2.241594 .547945 2.291407C.547945 2.400996 .637609 2.49066 .747198 2.49066C.876712 2.49066 .916563 2.391034 .956413 2.291407L2.719801-2.321295Z'/>
</defs>
<g id='page1' transform='matrix(1.5 0 0 1.5 0 0)'>
<use x='154.180353' y='33.926091' xlink:href='#g0-104'/>
<use x='158.054725' y='33.926091' xlink:href='#g2-30'/>
<use x='163.990812' y='33.926091' xlink:href='#g4-40'/>
<use x='167.865186' y='33.926091' xlink:href='#g2-120'/>
<use x='173.559118' y='33.926091' xlink:href='#g4-41'/>
<use x='177.433492' y='33.926091' xlink:href='#g2-30'/>
<use x='183.369579' y='33.926091' xlink:href='#g4-40'/>
<use x='187.243953' y='33.926091' xlink:href='#g2-121'/>
<use x='192.485896' y='33.926091' xlink:href='#g4-41'/>
<use x='196.36027' y='33.926091' xlink:href='#g0-105'/>
<use x='203.001942' y='33.926091' xlink:href='#g4-61'/>
<use x='214.090186' y='24.461522' xlink:href='#g6-88'/>
<use x='213.518022' y='46.29642' xlink:href='#g3-30'/>
<use x='218.308405' y='46.29642' xlink:href='#g5-40'/>
<use x='221.421748' y='46.29642' xlink:href='#g3-120'/>
<use x='225.93955' y='46.29642' xlink:href='#g5-41'/>
<use x='231.908773' y='27.18629' xlink:href='#g2-101'/>
<use x='236.547644' y='23.570926' xlink:href='#g1-0'/>
<use x='242.774324' y='23.570926' xlink:href='#g3-12'/>
<use x='247.650175' y='23.570926' xlink:href='#g3-70'/>
<use x='253.775156' y='23.570926' xlink:href='#g5-91'/>
<use x='256.030602' y='23.570926' xlink:href='#g3-30'/>
<use x='260.820986' y='23.570926' xlink:href='#g5-40'/>
<use x='263.934329' y='23.570926' xlink:href='#g3-120'/>
<use x='268.452131' y='23.570926' xlink:href='#g5-41'/>
<use x='271.565474' y='23.570926' xlink:href='#g5-93'/>
<rect x='231.908773' y='31.236182' height='.398484' width='42.410221'/>
<use x='249.357136' y='40.759961' xlink:href='#g2-90'/>
<use x='275.514508' y='33.926091' xlink:href='#g2-30'/>
<use x='281.450595' y='33.926091' xlink:href='#g4-40'/>
<use x='285.324969' y='33.926091' xlink:href='#g2-120'/>
<use x='291.018901' y='33.926091' xlink:href='#g4-41'/>
<use x='294.893275' y='33.926091' xlink:href='#g2-30'/>
<use x='300.829362' y='33.926091' xlink:href='#g4-40'/>
<use x='304.703736' y='33.926091' xlink:href='#g2-121'/>
<use x='309.945679' y='33.926091' xlink:href='#g4-41'/>
</g>
</svg>