<?xml version='1.0' encoding='UTF-8'?>
<!-- This file was generated by dvisvgm 3.2 -->
<svg version='1.1' xmlns='http://www.w3.org/2000/svg' xmlns:xlink='http://www.w3.org/1999/xlink' width='497.73871pt' height='39.109895pt' viewBox='101.472031 27.51081 497.73871 39.109895'>
<defs>
<path id='g0-17' d='M6.834371-4.224159C7.003736-4.224159 7.193026-4.224159 7.193026-4.423412S7.013699-4.622665 6.844334-4.622665H.896638C.727273-4.622665 .547945-4.622665 .547945-4.423412S.747198-4.224159 .9066-4.224159H6.834371ZM6.844334-.358655C7.013699-.358655 7.193026-.358655 7.193026-.557908S7.003736-.757161 6.834371-.757161H.9066C.747198-.757161 .547945-.757161 .547945-.557908S.727273-.358655 .896638-.358655H6.844334ZM6.844334-2.291407C7.013699-2.291407 7.193026-2.291407 7.193026-2.49066S7.013699-2.689913 6.844334-2.689913H.896638C.727273-2.689913 .547945-2.689913 .547945-2.49066S.727273-2.291407 .896638-2.291407H6.844334Z'/>
<path id='g0-68' d='M2.032379 0C4.353674 0 7.631382-1.77335 7.631382-4.493151C7.631382-5.379826 7.212951-5.937733 6.724782-6.246575C5.867995-6.804483 4.951432-6.804483 4.004981-6.804483C3.148194-6.804483 2.560399-6.804483 1.723537-6.445828C.398506-5.858032 .209215-5.031133 .209215-4.951432C.209215-4.891656 .249066-4.871731 .308842-4.871731C.468244-4.871731 .697385-5.011208 .777086-5.061021C.986301-5.200498 1.016189-5.260274 1.075965-5.449564C1.215442-5.84807 1.494396-6.196762 2.749689-6.256538C2.590286-4.174346 2.082192-2.271482 1.384807-.52802C1.016189-.398506 .777086-.169365 .777086-.069738C.777086-.009963 .787049 0 1.006227 0H2.032379ZM2.082192-.547945C3.217933-3.327522 3.427148-5.061021 3.566625-6.256538C4.234122-6.256538 6.784558-6.256538 6.784558-4.064757C6.784558-2.11208 5.031133-.547945 2.620174-.547945H2.082192Z'/>
<path id='g2-0' d='M4.383562-1.105853C4.463263-1.105853 4.597758-1.105853 4.597758-1.24533S4.463263-1.384807 4.383562-1.384807H1.011208C.931507-1.384807 .797011-1.384807 .797011-1.24533S.931507-1.105853 1.011208-1.105853H4.383562Z'/>
<path id='g2-48' d='M1.793275-2.316314C1.798257-2.321295 1.843088-2.41594 1.843088-2.49066C1.843088-2.669988 1.683686-2.784558 1.534247-2.784558C1.330012-2.784558 1.275218-2.630137 1.250311-2.555417L.483188-.398506C.463263-.33873 .463263-.323786 .463263-.318804C.463263-.239103 .672478-.18929 .67746-.18929C.722291-.18929 .732254-.214197 .762142-.273973L1.793275-2.316314Z'/>
<path id='g8-43' d='M2.699875-1.105853H4.433375C4.498132-1.105853 4.632628-1.105853 4.632628-1.24533S4.498132-1.384807 4.433375-1.384807H2.699875V-3.118306C2.699875-3.188045 2.699875-3.32254 2.560399-3.32254S2.420922-3.188045 2.420922-3.118306V-1.384807H.682441C.617684-1.384807 .483188-1.384807 .483188-1.24533S.617684-1.105853 .682441-1.105853H2.420922V.627646C2.420922 .697385 2.420922 .83188 2.560399 .83188S2.699875 .697385 2.699875 .627646V-1.105853Z'/>
<path id='g8-48' d='M2.993773-1.594022C2.993773-1.952677 2.993773-3.317559 1.693649-3.317559S.393524-1.952677 .393524-1.594022C.393524-1.230386 .393524 .109589 1.693649 .109589S2.993773-1.230386 2.993773-1.594022ZM1.693649-.054795C1.50934-.054795 1.090909-.119552 .966376-.622665C.896638-.891656 .891656-1.24533 .891656-1.653798C.891656-2.022416 .891656-2.366127 .971357-2.650062C1.09589-3.068493 1.479452-3.153176 1.693649-3.153176C2.062267-3.153176 2.326276-2.963885 2.425903-2.615193C2.495641-2.361146 2.495641-1.947696 2.495641-1.653798C2.495641-1.315068 2.495641-.911582 2.420922-.612702C2.291407-.129514 1.892902-.054795 1.693649-.054795Z'/>
<path id='g1-0' d='M5.188543-1.57609C5.300125-1.57609 5.467497-1.57609 5.467497-1.743462C5.467497-1.917808 5.307098-1.917808 5.188543-1.917808H1.03213C.920548-1.917808 .753176-1.917808 .753176-1.750436C.753176-1.57609 .913574-1.57609 1.03213-1.57609H5.188543Z'/>
<path id='g7-3' d='M2.915068-4.825903C2.866252-4.96538 2.789539-4.972354 2.726775-4.972354C2.587298-4.972354 2.566376-4.916563 2.531507-4.811955L1.03213-.704359C.899626-.334745 .613699-.258032 .313823-.251059V0C.530012-.020922 .746202-.027895 .962391-.027895C1.185554-.027895 1.687671-.006974 1.792279 0V-.251059C1.429639-.258032 1.276214-.425405 1.276214-.592777C1.276214-.63462 1.276214-.648568 1.311083-.732254L2.503611-4.009963L3.758904-.571856C3.793773-.481196 3.793773-.467248 3.793773-.446326C3.793773-.251059 3.410212-.251059 3.221918-.251059V0C3.57061-.013948 4.016936-.027895 4.267995-.027895C4.553923-.027895 5.05604-.006974 5.132752 0V-.251059C4.686426-.251059 4.581818-.251059 4.47721-.530012L2.915068-4.825903Z'/>
<path id='g7-43' d='M3.228892-1.57609H5.362889C5.453549-1.57609 5.620922-1.57609 5.620922-1.743462C5.620922-1.917808 5.460523-1.917808 5.362889-1.917808H3.228892V-4.05878C3.228892-4.14944 3.228892-4.316812 3.061519-4.316812C2.887173-4.316812 2.887173-4.156413 2.887173-4.05878V-1.917808H.746202C.655542-1.917808 .488169-1.917808 .488169-1.750436C.488169-1.57609 .648568-1.57609 .746202-1.57609H2.887173V.564882C2.887173 .655542 2.887173 .822914 3.054545 .822914C3.228892 .822914 3.228892 .662516 3.228892 .564882V-1.57609Z'/>
<path id='g7-91' d='M2.022416 1.743462V1.401743H1.290162V-4.888667H2.022416V-5.230386H.948443V1.743462H2.022416Z'/>
<path id='g7-93' d='M1.297136-5.230386H.223163V-4.888667H.955417V1.401743H.223163V1.743462H1.297136V-5.230386Z'/>
<path id='g4-30' d='M3.431133-4.749191C3.431133-4.839851 3.347447-4.839851 3.312578-4.839851C3.20797-4.839851 3.200996-4.804981 3.173101-4.686426L2.775592-3.089415C1.54122-3.033624 .488169-2.147945 .488169-1.21345C.488169-.425405 1.206476 .048817 1.980573 .076712C1.924782 .292902 1.875965 .516065 1.820174 .732254C1.736488 1.060025 1.673724 1.318057 1.673724 1.338979C1.673724 1.422665 1.764384 1.422665 1.785305 1.422665C1.889913 1.422665 1.896887 1.401743 1.931756 1.255293L2.224658 .083686C3.417186 .034869 4.51208-.843836 4.51208-1.792279C4.51208-2.524533 3.870486-3.047572 3.019676-3.082441L3.431133-4.749191ZM2.02939-.118555C1.492403-.146451 .99726-.439352 .99726-1.094894C.99726-1.792279 1.527273-2.775592 2.719801-2.887173L2.02939-.118555ZM2.963885-2.887173C3.500872-2.866252 4.002989-2.57335 4.002989-1.910834C4.002989-1.150685 3.403238-.216189 2.273474-.118555L2.963885-2.887173Z'/>
<path id='g4-59' d='M1.471482-.111582C1.471482 .27198 1.401743 .718306 .927522 1.164633C.899626 1.192528 .878705 1.21345 .878705 1.248319C.878705 1.297136 .934496 1.345953 .976339 1.345953C1.073973 1.345953 1.66675 .788045 1.66675-.041843C1.66675-.474222 1.499377-.801993 1.17858-.801993C.948443-.801993 .781071-.620672 .781071-.404483C.781071-.18132 .941469 0 1.185554 0C1.352927 0 1.464508-.111582 1.471482-.111582Z'/>
<path id='g4-60' d='M5.314072-3.668244C5.397758-3.710087 5.467497-3.758904 5.467497-3.849564C5.467497-3.947198 5.390785-4.02391 5.293151-4.02391C5.286177-4.02391 5.251308-4.02391 5.167621-3.982067L.9066-1.931756C.822914-1.889913 .753176-1.841096 .753176-1.750436C.753176-1.638854 .829888-1.603985 .899626-1.569116L5.153674 .481196C5.251308 .530012 5.279203 .530012 5.293151 .530012C5.390785 .530012 5.467497 .4533 5.467497 .355666C5.467497 .251059 5.383811 .209215 5.321046 .18132L1.318057-1.743462L5.314072-3.668244Z'/>
<path id='g4-70' d='M2.385056-2.245579H3.131258C3.66127-2.245579 3.75193-2.161893 3.75193-1.931756C3.75193-1.827148 3.75193-1.8132 3.703113-1.617933C3.689166-1.57609 3.682192-1.555168 3.682192-1.534247C3.682192-1.464508 3.731009-1.429639 3.800747-1.429639C3.891407-1.429639 3.898381-1.464508 3.93325-1.590037L4.309838-3.068493C4.316812-3.089415 4.337733-3.194022 4.337733-3.20797C4.337733-3.277709 4.288917-3.312578 4.219178-3.312578C4.121544-3.312578 4.11457-3.270735 4.079701-3.145205C3.940224-2.601245 3.737983-2.496638 3.145205-2.496638H2.447821L2.887173-4.247073C2.942964-4.463263 2.949938-4.484184 3.242839-4.484184H4.309838C5.23736-4.484184 5.411706-4.261021 5.411706-3.682192C5.411706-3.452055 5.383811-3.305604 5.383811-3.249813S5.404732-3.131258 5.502366-3.131258C5.606974-3.131258 5.613948-3.194022 5.627895-3.312578L5.753425-4.526027C5.774346-4.735243 5.725529-4.735243 5.551183-4.735243H1.827148C1.694645-4.735243 1.603985-4.735243 1.603985-4.581818C1.603985-4.484184 1.687671-4.484184 1.827148-4.484184C1.834122-4.484184 1.966625-4.484184 2.092154-4.470237C2.238605-4.456289 2.252553-4.442341 2.252553-4.372603C2.252553-4.323786 2.231631-4.254047 2.224658-4.219178L1.311083-.571856C1.241345-.299875 1.234371-.251059 .690411-.251059C.571856-.251059 .481196-.251059 .481196-.104608C.481196-.034869 .530012 0 .592777 0C.795019 0 1.311083-.027895 1.513325-.027895L2.050311-.020922C2.231631-.020922 2.426899 0 2.601245 0C2.650062 0 2.75467 0 2.75467-.153425C2.75467-.251059 2.670984-.251059 2.510585-.251059C2.496638-.251059 2.322291-.251059 2.147945-.265006C2.001494-.278954 1.931756-.285928 1.931756-.383562C1.931756-.411457 1.931756-.432379 1.952677-.509091L2.385056-2.245579Z'/>
<path id='g4-107' d='M2.182814-4.630635C2.189788-4.644583 2.21071-4.735243 2.21071-4.742217C2.21071-4.777086 2.182814-4.839851 2.099128-4.839851C1.959651-4.839851 1.380822-4.78406 1.206476-4.770112C1.150685-4.763138 1.053051-4.756164 1.053051-4.609714C1.053051-4.51208 1.150685-4.51208 1.234371-4.51208C1.569116-4.51208 1.569116-4.463263 1.569116-4.407472C1.569116-4.358655 1.555168-4.316812 1.54122-4.254047L.557908-.306849C.523039-.18132 .523039-.167372 .523039-.153425C.523039-.048817 .606725 .069738 .760149 .069738C.948443 .069738 1.039103-.069738 1.080946-.223163C1.094894-.251059 1.39477-1.478456 1.422665-1.57609C1.917808-1.527273 2.315318-1.366874 2.315318-1.004234C2.315318-.969365 2.315318-.934496 2.30137-.864757C2.273474-.760149 2.273474-.72528 2.273474-.648568C2.273474-.153425 2.677958 .069738 3.012702 .069738C3.689166 .069738 3.898381-.990286 3.898381-.99726C3.898381-1.08792 3.807721-1.08792 3.7868-1.08792C3.689166-1.08792 3.682192-1.053051 3.647323-.920548C3.563636-.620672 3.375342-.125529 3.033624-.125529C2.84533-.125529 2.789539-.299875 2.789539-.488169C2.789539-.606725 2.789539-.620672 2.831382-.801993C2.838356-.822914 2.866252-.941469 2.866252-1.018182C2.866252-1.638854 2.02939-1.736488 1.736488-1.75741C1.93873-1.882939 2.196762-2.113076 2.315318-2.217684C2.670984-2.552428 3.019676-2.880199 3.410212-2.880199C3.493898-2.880199 3.584558-2.859278 3.640349-2.789539C3.340473-2.740722 3.277709-2.503611 3.277709-2.399004C3.277709-2.245579 3.396264-2.140971 3.556663-2.140971C3.744956-2.140971 3.954172-2.294396 3.954172-2.587298C3.954172-2.817435 3.7868-3.075467 3.417186-3.075467C3.019676-3.075467 2.657036-2.789539 2.30137-2.461768C2.008468-2.182814 1.778331-1.966625 1.492403-1.84807L2.182814-4.630635Z'/>
<path id='g5-73' d='M2.37609-2.973848C2.420922-3.143213 2.425903-3.178082 2.834371-3.178082C2.968867-3.178082 3.038605-3.178082 3.038605-3.317559C3.038605-3.35741 3.008717-3.402242 2.948941-3.402242C2.839352-3.402242 2.714819-3.387298 2.60523-3.387298C2.475716-3.387298 2.351183-3.382316 2.221669-3.382316S1.967621-3.387298 1.838107-3.387298C1.723537-3.387298 1.594022-3.402242 1.479452-3.402242C1.449564-3.402242 1.349938-3.402242 1.349938-3.262765C1.349938-3.178082 1.424658-3.178082 1.529265-3.178082C1.549191-3.178082 1.643836-3.178082 1.743462-3.16812C1.877958-3.158157 1.882939-3.153176 1.882939-3.108344C1.882939-3.083437 1.882939-3.073474 1.872976-3.028643L1.220423-.428394C1.175592-.259029 1.17061-.224159 .762142-.224159C.627646-.224159 .557908-.224159 .557908-.084682C.557908-.029888 .597758 0 .647572 0C.757161 0 .881694-.014944 .991283-.014944C1.120797-.014944 1.24533-.019925 1.374844-.019925S1.628892-.014944 1.758406-.014944C1.872976-.014944 2.002491 0 2.117061 0C2.146949 0 2.241594 0 2.241594-.139477C2.241594-.224159 2.166874-.224159 2.067248-.224159C1.987547-.224159 1.937733-.224159 1.853051-.234122C1.713574-.244085 1.708593-.249066 1.708593-.293898C1.708593-.318804 1.718555-.358655 1.728518-.388543L2.37609-2.973848Z'/>
<path id='g5-107' d='M1.833126-3.267746C1.853051-3.337484 1.853051-3.347447 1.853051-3.372354C1.853051-3.457036 1.778331-3.457036 1.69863-3.452055L1.085928-3.407223C1.001245-3.402242 .991283-3.39726 .966376-3.377335C.946451-3.352428 .931507-3.292653 .931507-3.262765C.931507-3.178082 1.011208-3.178082 1.080946-3.178082C1.085928-3.178082 1.175592-3.178082 1.250311-3.16812C1.344956-3.158157 1.349938-3.143213 1.349938-3.103362C1.349938-3.088418 1.349938-3.078456 1.325031-2.988792L.637609-.239103C.617684-.164384 .617684-.154421 .617684-.124533C.617684-.009963 .707347 .054795 .806974 .054795C1.001245 .054795 1.046077-.129514 1.066002-.199253L1.290162-1.115816C1.419676-1.110834 2.042341-1.075965 2.042341-.722291C2.042341-.687422 2.042341-.667497 2.027397-.607721C2.012453-.537983 2.012453-.508095 2.012453-.478207C2.012453-.124533 2.331258 .054795 2.620174 .054795C3.128269 .054795 3.327522-.657534 3.327522-.71731C3.327522-.787049 3.242839-.787049 3.222914-.787049C3.138232-.787049 3.128269-.762142 3.103362-.672478C3.053549-.498132 2.909091-.11457 2.6401-.11457C2.455791-.11457 2.430884-.298879 2.430884-.408468C2.430884-.41345 2.430884-.483188 2.450809-.56787C2.470735-.647572 2.475716-.697385 2.475716-.737235C2.475716-1.175592 1.927771-1.250311 1.599004-1.275218C1.738481-1.354919 1.947696-1.524284 2.027397-1.594022C2.311333-1.818182 2.585305-2.032379 2.86924-2.032379C2.983811-2.032379 3.013699-2.002491 3.043587-1.972603C3.038605-1.972603 3.013699-1.957659 3.003736-1.957659C2.774595-1.877958 2.774595-1.673724 2.774595-1.65878C2.774595-1.574097 2.834371-1.454545 2.998755-1.454545C3.098381-1.454545 3.307597-1.534247 3.307597-1.808219C3.307597-2.052304 3.118306-2.201743 2.879203-2.201743C2.540473-2.201743 2.251557-1.972603 1.88792-1.678705C1.713574-1.539228 1.549191-1.414695 1.349938-1.334994L1.833126-3.267746Z'/>
<path id='g9-89' d='M12.164384 13.947696V13.409714C10.839352 13.409714 10.530511 12.951432 10.530511 12.313823V1.633873C10.530511 .986301 10.849315 .537983 12.164384 .537983V0H.557908V.537983C1.882939 .537983 2.191781 .996264 2.191781 1.633873V12.313823C2.191781 12.961395 1.872976 13.409714 .557908 13.409714V13.947696H5.349938V13.409714C4.024907 13.409714 3.716065 12.951432 3.716065 12.313823V.537983H9.006227V12.313823C9.006227 12.961395 8.687422 13.409714 7.372354 13.409714V13.947696H12.164384Z'/>
<path id='g9-90' d='M1.036115 21.688667C1.354919 21.668742 1.524284 21.449564 1.524284 21.200498C1.524284 20.871731 1.275218 20.712329 1.046077 20.712329C.806974 20.712329 .557908 20.861768 .557908 21.210461C.557908 21.718555 1.05604 22.136986 1.663761 22.136986C3.178082 22.136986 3.745953 19.805729 4.4533 16.916563C5.220423 13.768369 5.867995 10.590286 6.405978 7.392279C6.774595 5.270237 7.143213 3.277709 7.481943 1.992528C7.601494 1.504359 7.940224 .219178 8.328767 .219178C8.637609 .219178 8.886675 .408468 8.926526 .448319C8.597758 .468244 8.428394 .687422 8.428394 .936488C8.428394 1.265255 8.67746 1.424658 8.9066 1.424658C9.145704 1.424658 9.39477 1.275218 9.39477 .926526C9.39477 .388543 8.856787 0 8.308842 0C7.551681 0 6.993773 1.085928 6.445828 3.118306C6.41594 3.227895 5.061021 8.229141 3.965131 14.744707C3.706102 16.268991 3.417186 17.932752 3.088418 19.317559C2.909091 20.044832 2.450809 21.917808 1.643836 21.917808C1.285181 21.917808 1.046077 21.688667 1.036115 21.688667Z'/>
<path id='g6-61' d='M6.844334-3.257783C6.993773-3.257783 7.183064-3.257783 7.183064-3.457036S6.993773-3.656289 6.854296-3.656289H.886675C.747198-3.656289 .557908-3.656289 .557908-3.457036S.747198-3.257783 .896638-3.257783H6.844334ZM6.854296-1.325031C6.993773-1.325031 7.183064-1.325031 7.183064-1.524284S6.993773-1.723537 6.844334-1.723537H.896638C.747198-1.723537 .557908-1.723537 .557908-1.524284S.747198-1.325031 .886675-1.325031H6.854296Z'/>
<path id='g3-30' d='M4.353674-6.674969C4.353674-6.694894 4.383562-6.804483 4.383562-6.814446S4.383562-6.914072 4.26401-6.914072C4.164384-6.914072 4.154421-6.884184 4.11457-6.714819L3.536737-4.41345C1.952677-4.363636 .488169-3.038605 .488169-1.683686C.488169-.737235 1.185554 .049813 2.400996 .119552C2.321295 .428394 2.251557 .747198 2.171856 1.05604C2.052304 1.524284 1.952677 1.902864 1.952677 1.932752C1.952677 2.032379 2.022416 2.042341 2.072229 2.042341S2.141968 2.032379 2.171856 2.002491C2.191781 1.982565 2.251557 1.743462 2.281445 1.603985L2.660025 .119552C4.26401 .069738 5.708593-1.275218 5.708593-2.610212C5.708593-3.39726 5.180573-4.313823 3.795766-4.41345L4.353674-6.674969ZM2.450809-.099626C1.853051-.129514 1.135741-.478207 1.135741-1.474471C1.135741-2.669988 1.992528-4.064757 3.476961-4.194271L2.450809-.099626ZM3.73599-4.194271C4.493151-4.154421 5.061021-3.696139 5.061021-2.819427C5.061021-1.643836 4.204234-.219178 2.709838-.099626L3.73599-4.194271Z'/>
<path id='g3-90' d='M7.173101-6.56538C7.183064-6.60523 7.202989-6.655044 7.202989-6.714819C7.202989-6.804483 7.153176-6.804483 6.953923-6.804483H2.749689C2.510585-6.804483 2.500623-6.794521 2.440847-6.60523L1.892902-4.811955C1.872976-4.762142 1.863014-4.692403 1.863014-4.672478C1.863014-4.662516 1.863014-4.562889 1.982565-4.562889C2.072229-4.562889 2.092154-4.632628 2.11208-4.662516C2.49066-5.838107 3.008717-6.495641 4.562889-6.495641H6.1868L.617684-.268991C.617684-.259029 .577833-.119552 .577833-.089664C.577833 0 .647572 0 .826899 0H5.160648C5.399751 0 5.409714-.009963 5.469489-.199253L6.176837-2.400996C6.1868-2.440847 6.216687-2.510585 6.216687-2.550436C6.216687-2.600249 6.176837-2.660025 6.087173-2.660025S5.987547-2.620174 5.917808-2.410959C5.479452-1.05604 5.001245-.33873 3.307597-.33873H1.603985L7.173101-6.56538Z'/>
<path id='g3-100' d='M5.140722-6.804483C5.140722-6.814446 5.140722-6.914072 5.011208-6.914072C4.861768-6.914072 3.915318-6.824408 3.745953-6.804483C3.666252-6.794521 3.606476-6.744707 3.606476-6.615193C3.606476-6.495641 3.696139-6.495641 3.845579-6.495641C4.323786-6.495641 4.343711-6.425903 4.343711-6.326276L4.313823-6.127024L3.716065-3.765878C3.536737-4.134496 3.247821-4.403487 2.799502-4.403487C1.633873-4.403487 .398506-2.938979 .398506-1.484433C.398506-.547945 .946451 .109589 1.723537 .109589C1.92279 .109589 2.420922 .069738 3.01868-.637609C3.098381-.219178 3.447073 .109589 3.92528 .109589C4.273973 .109589 4.503113-.119552 4.662516-.438356C4.83188-.797011 4.961395-1.404732 4.961395-1.424658C4.961395-1.524284 4.871731-1.524284 4.841843-1.524284C4.742217-1.524284 4.732254-1.484433 4.702366-1.344956C4.533001-.697385 4.353674-.109589 3.945205-.109589C3.676214-.109589 3.646326-.368618 3.646326-.56787C3.646326-.806974 3.666252-.876712 3.706102-1.046077L5.140722-6.804483ZM3.068493-1.185554C3.01868-1.006227 3.01868-.986301 2.86924-.816936C2.430884-.268991 2.022416-.109589 1.743462-.109589C1.24533-.109589 1.105853-.657534 1.105853-1.046077C1.105853-1.544209 1.424658-2.769614 1.653798-3.227895C1.96264-3.815691 2.410959-4.184309 2.809465-4.184309C3.457036-4.184309 3.596513-3.367372 3.596513-3.307597S3.576588-3.188045 3.566625-3.138232L3.068493-1.185554Z'/>
<path id='g3-101' d='M1.863014-2.30137C2.15193-2.30137 2.889166-2.321295 3.387298-2.530511C4.084682-2.82939 4.134496-3.417186 4.134496-3.556663C4.134496-3.995019 3.755915-4.403487 3.068493-4.403487C1.96264-4.403487 .458281-3.437111 .458281-1.693649C.458281-.67746 1.046077 .109589 2.022416 .109589C3.447073 .109589 4.283935-.946451 4.283935-1.066002C4.283935-1.125778 4.224159-1.195517 4.164384-1.195517C4.11457-1.195517 4.094645-1.175592 4.034869-1.09589C3.247821-.109589 2.161893-.109589 2.042341-.109589C1.265255-.109589 1.175592-.946451 1.175592-1.265255C1.175592-1.384807 1.185554-1.693649 1.334994-2.30137H1.863014ZM1.39477-2.520548C1.783313-4.034869 2.809465-4.184309 3.068493-4.184309C3.536737-4.184309 3.805729-3.895392 3.805729-3.556663C3.805729-2.520548 2.211706-2.520548 1.803238-2.520548H1.39477Z'/>
</defs>
<g id='page1' transform='matrix(1.5 0 0 1.5 0 0)'>
<use x='67.070188' y='31.90091' xlink:href='#g3-90'/>
<use x='77.351016' y='31.90091' xlink:href='#g6-61'/>
<use x='87.867096' y='18.34054' xlink:href='#g9-90'/>
<use x='102.513573' y='22.436341' xlink:href='#g9-89'/>
<use x='99.490151' y='43.883791' xlink:href='#g4-107'/>
<use x='103.893805' y='43.883791' xlink:href='#g4-60'/>
<use x='110.120485' y='43.883791' xlink:href='#g7-3'/>
<use x='115.572302' y='41.891278' xlink:href='#g2-48'/>
<use x='119.927458' y='31.90091' xlink:href='#g3-100'/>
<use x='125.11289' y='31.90091' xlink:href='#g3-30'/>
<use x='131.048977' y='27.639121' xlink:href='#g1-0'/>
<use x='131.048977' y='34.906226' xlink:href='#g4-107'/>
<use x='137.773775' y='31.90091' xlink:href='#g3-101'/>
<use x='142.412646' y='27.787414' xlink:href='#g1-0'/>
<use x='148.639326' y='27.787414' xlink:href='#g4-70'/>
<use x='153.691943' y='28.783678' xlink:href='#g8-48'/>
<use x='157.580194' y='27.787414' xlink:href='#g7-91'/>
<use x='159.83564' y='27.787414' xlink:href='#g4-30'/>
<use x='164.626023' y='24.555074' xlink:href='#g2-0'/>
<use x='164.626023' y='30.199405' xlink:href='#g5-107'/>
<use x='170.520651' y='27.787414' xlink:href='#g7-93'/>
<use x='174.934594' y='18.34054' xlink:href='#g9-90'/>
<use x='195.420319' y='22.436341' xlink:href='#g9-89'/>
<use x='186.557649' y='43.883791' xlink:href='#g7-3'/>
<use x='192.009466' y='41.891278' xlink:href='#g2-48'/>
<use x='194.704241' y='43.883791' xlink:href='#g4-60'/>
<use x='200.93092' y='43.883791' xlink:href='#g4-107'/>
<use x='205.334574' y='43.883791' xlink:href='#g4-60'/>
<use x='211.561254' y='43.883791' xlink:href='#g7-3'/>
<use x='218.673436' y='31.90091' xlink:href='#g3-100'/>
<use x='223.858869' y='31.90091' xlink:href='#g3-30'/>
<use x='229.794956' y='27.639121' xlink:href='#g7-43'/>
<use x='229.794956' y='34.906226' xlink:href='#g4-107'/>
<use x='236.409069' y='31.90091' xlink:href='#g3-101'/>
<use x='241.04794' y='27.787414' xlink:href='#g1-0'/>
<use x='247.27462' y='27.787414' xlink:href='#g4-70'/>
<use x='252.327237' y='28.783678' xlink:href='#g8-48'/>
<use x='256.215488' y='27.787414' xlink:href='#g7-91'/>
<use x='258.470934' y='27.787414' xlink:href='#g4-30'/>
<use x='263.261318' y='24.555074' xlink:href='#g8-43'/>
<use x='263.261318' y='30.199405' xlink:href='#g5-107'/>
<use x='268.879228' y='27.787414' xlink:href='#g7-93'/>
<use x='271.632771' y='31.90091' xlink:href='#g3-101'/>
<use x='276.271642' y='27.787414' xlink:href='#g1-0'/>
<use x='282.498322' y='27.787414' xlink:href='#g4-70'/>
<use x='287.550939' y='28.789227' xlink:href='#g5-73'/>
<use x='291.55331' y='27.787414' xlink:href='#g7-91'/>
<use x='293.808756' y='27.787414' xlink:href='#g4-30'/>
<use x='298.59914' y='24.555074' xlink:href='#g2-0'/>
<use x='298.59914' y='30.199405' xlink:href='#g5-107'/>
<use x='304.493768' y='27.787414' xlink:href='#g4-59'/>
<use x='306.859909' y='27.787414' xlink:href='#g4-30'/>
<use x='311.650293' y='24.555074' xlink:href='#g8-43'/>
<use x='311.650293' y='30.199405' xlink:href='#g5-107'/>
<use x='317.268202' y='27.787414' xlink:href='#g7-93'/>
<use x='322.789051' y='31.90091' xlink:href='#g0-17'/>
<use x='333.305131' y='18.34054' xlink:href='#g9-90'/>
<use x='344.928186' y='31.90091' xlink:href='#g0-68'/>
<use x='352.890043' y='31.90091' xlink:href='#g3-30'/>
<use x='358.82613' y='27.787414' xlink:href='#g1-0'/>
<use x='365.550927' y='31.90091' xlink:href='#g3-101'/>
<use x='370.189799' y='27.787414' xlink:href='#g1-0'/>
<use x='376.416478' y='27.787414' xlink:href='#g4-70'/>
<use x='382.54146' y='24.780897' xlink:href='#g2-48'/>
<use x='385.236234' y='27.787414' xlink:href='#g7-91'/>
<use x='387.49168' y='27.787414' xlink:href='#g4-30'/>
<use x='392.282064' y='24.780897' xlink:href='#g2-0'/>
<use x='398.176692' y='27.787414' xlink:href='#g7-93'/>
</g>
</svg>