<?xml version='1.0' encoding='UTF-8'?>
<!-- This file was generated by dvisvgm 3.2 -->
<svg version='1.1' xmlns='http://www.w3.org/2000/svg' xmlns:xlink='http://www.w3.org/1999/xlink' width='148.926153pt' height='33.205479pt' viewBox='276.074812 27.51081 148.926153 33.205479'>
<defs>
<path id='g2-100' d='M3.982067-4.630635C3.989041-4.644583 4.009963-4.735243 4.009963-4.742217C4.009963-4.777086 3.982067-4.839851 3.898381-4.839851C3.758904-4.839851 3.180075-4.78406 3.005729-4.770112C2.949938-4.763138 2.852304-4.756164 2.852304-4.609714C2.852304-4.51208 2.949938-4.51208 3.033624-4.51208C3.368369-4.51208 3.368369-4.463263 3.368369-4.407472C3.368369-4.358655 3.354421-4.316812 3.340473-4.254047L2.942964-2.66401C2.796513-2.894147 2.559402-3.075467 2.224658-3.075467C1.332005-3.075467 .425405-2.092154 .425405-1.08792C.425405-.411457 .878705 .069738 1.478456 .069738C1.855044 .069738 2.189788-.146451 2.468742-.418431C2.601245 0 3.005729 .069738 3.187049 .069738C3.438107 .069738 3.612453-.083686 3.737983-.299875C3.891407-.571856 3.982067-.969365 3.982067-.99726C3.982067-1.08792 3.891407-1.08792 3.870486-1.08792C3.772852-1.08792 3.765878-1.060025 3.717061-.871731C3.633375-.536986 3.500872-.125529 3.20797-.125529C3.02665-.125529 2.977833-.278954 2.977833-.467248C2.977833-.599751 2.991781-.662516 3.012702-.753176L3.982067-4.630635ZM2.496638-.871731C2.447821-.676463 2.294396-.536986 2.140971-.404483C2.078207-.348692 1.799253-.125529 1.499377-.125529C1.241345-.125529 .990286-.306849 .990286-.801993C.990286-1.171606 1.192528-1.93873 1.352927-2.217684C1.673724-2.775592 2.02939-2.880199 2.224658-2.880199C2.712827-2.880199 2.84533-2.350187 2.84533-2.273474C2.84533-2.245579 2.831382-2.196762 2.824408-2.175841L2.496638-.871731Z'/>
<path id='g4-90' d='M1.036115 21.688667C1.354919 21.668742 1.524284 21.449564 1.524284 21.200498C1.524284 20.871731 1.275218 20.712329 1.046077 20.712329C.806974 20.712329 .557908 20.861768 .557908 21.210461C.557908 21.718555 1.05604 22.136986 1.663761 22.136986C3.178082 22.136986 3.745953 19.805729 4.4533 16.916563C5.220423 13.768369 5.867995 10.590286 6.405978 7.392279C6.774595 5.270237 7.143213 3.277709 7.481943 1.992528C7.601494 1.504359 7.940224 .219178 8.328767 .219178C8.637609 .219178 8.886675 .408468 8.926526 .448319C8.597758 .468244 8.428394 .687422 8.428394 .936488C8.428394 1.265255 8.67746 1.424658 8.9066 1.424658C9.145704 1.424658 9.39477 1.275218 9.39477 .926526C9.39477 .388543 8.856787 0 8.308842 0C7.551681 0 6.993773 1.085928 6.445828 3.118306C6.41594 3.227895 5.061021 8.229141 3.965131 14.744707C3.706102 16.268991 3.417186 17.932752 3.088418 19.317559C2.909091 20.044832 2.450809 21.917808 1.643836 21.917808C1.285181 21.917808 1.046077 21.688667 1.036115 21.688667Z'/>
<path id='g3-40' d='M3.297634 2.391034C3.297634 2.361146 3.297634 2.34122 3.128269 2.171856C1.882939 .916563 1.564134-.966376 1.564134-2.49066C1.564134-4.224159 1.942715-5.957659 3.16812-7.202989C3.297634-7.32254 3.297634-7.342466 3.297634-7.372354C3.297634-7.442092 3.257783-7.47198 3.198007-7.47198C3.098381-7.47198 2.201743-6.794521 1.613948-5.529265C1.105853-4.433375 .986301-3.327522 .986301-2.49066C.986301-1.713574 1.09589-.508095 1.643836 .617684C2.241594 1.843088 3.098381 2.49066 3.198007 2.49066C3.257783 2.49066 3.297634 2.460772 3.297634 2.391034Z'/>
<path id='g3-41' d='M2.879203-2.49066C2.879203-3.267746 2.769614-4.473225 2.221669-5.599004C1.62391-6.824408 .767123-7.47198 .667497-7.47198C.607721-7.47198 .56787-7.43213 .56787-7.372354C.56787-7.342466 .56787-7.32254 .757161-7.143213C1.733499-6.156912 2.30137-4.572852 2.30137-2.49066C2.30137-.787049 1.932752 .966376 .697385 2.221669C.56787 2.34122 .56787 2.361146 .56787 2.391034C.56787 2.450809 .607721 2.49066 .667497 2.49066C.767123 2.49066 1.663761 1.8132 2.251557 .547945C2.759651-.547945 2.879203-1.653798 2.879203-2.49066Z'/>
<path id='g3-61' d='M6.844334-3.257783C6.993773-3.257783 7.183064-3.257783 7.183064-3.457036S6.993773-3.656289 6.854296-3.656289H.886675C.747198-3.656289 .557908-3.656289 .557908-3.457036S.747198-3.257783 .896638-3.257783H6.844334ZM6.854296-1.325031C6.993773-1.325031 7.183064-1.325031 7.183064-1.524284S6.993773-1.723537 6.844334-1.723537H.896638C.747198-1.723537 .557908-1.723537 .557908-1.524284S.747198-1.325031 .886675-1.325031H6.854296Z'/>
<path id='g0-101' d='M.9066-1.597011H3.110336C3.228892-1.597011 3.263761-1.638854 3.263761-1.743462C3.263761-2.496638 2.782565-3.110336 1.903861-3.110336C1.060025-3.110336 .27198-2.48269 .27198-1.527273C.27198-.578829 1.115816 .062765 1.973599 .062765C2.48269 .062765 3.103362-.223163 3.242839-.767123C3.249813-.788045 3.256787-.81594 3.256787-.836862V-.857783C3.249813-.913574 3.200996-.941469 3.145205-.941469C3.005729-.941469 2.977833-.697385 2.887173-.585803C2.684932-.313823 2.350187-.160399 2.008468-.160399H1.987547C1.708593-.160399 1.401743-.313823 1.234371-.502117C.955417-.795019 .9066-1.206476 .9066-1.597011ZM.913574-1.778331C.990286-2.308344 1.220423-2.908095 1.896887-2.908095C2.147945-2.908095 2.350187-2.817435 2.545455-2.594271C2.712827-2.371108 2.775592-2.057285 2.775592-1.778331H.913574Z'/>
<path id='g0-104' d='M.369614-4.770112V-4.519054H.488169C.711333-4.519054 .892653-4.491158 .892653-4.170361V-.697385C.892653-.648568 .899626-.599751 .899626-.54396C.899626-.265006 .690411-.258032 .411457-.258032H.369614V-.006974H1.973599V-.258032H1.827148C1.624907-.258032 1.45056-.278954 1.45056-.509091V-1.806227C1.45056-2.294396 1.771357-2.880199 2.510585-2.880199C2.915068-2.880199 3.040598-2.552428 3.040598-2.127024V-.516065C3.040598-.27198 2.838356-.258032 2.615193-.258032H2.517559V-.006974H4.121544V-.258032H3.975093C3.7868-.258032 3.598506-.278954 3.598506-.523039V-2.050311C3.598506-2.259527 3.591532-2.461768 3.486924-2.650062C3.305604-2.977833 2.922042-3.075467 2.57335-3.075467C2.140971-3.075467 1.603985-2.859278 1.429639-2.426899L1.422665-4.846824L.369614-4.770112Z'/>
<path id='g0-109' d='M.369614-2.998755V-2.747696H.467248C.683437-2.747696 .892653-2.726775 .892653-2.399004V-.54396C.892653-.265006 .72528-.258032 .369614-.258032V-.006974H1.973599V-.258032H1.827148C1.624907-.258032 1.45056-.278954 1.45056-.509091V-1.806227C1.45056-2.294396 1.771357-2.880199 2.510585-2.880199C2.915068-2.880199 3.040598-2.552428 3.040598-2.127024V-.516065C3.040598-.27198 2.838356-.258032 2.615193-.258032H2.517559V-.006974H4.121544V-.258032H3.975093C3.772852-.258032 3.598506-.278954 3.598506-.509091V-1.806227C3.598506-2.294396 3.919303-2.880199 4.658531-2.880199C5.063014-2.880199 5.188543-2.552428 5.188543-2.127024V-.516065C5.188543-.27198 4.986301-.258032 4.763138-.258032H4.665504V-.006974H6.269489V-.258032H6.116065C5.927771-.258032 5.746451-.278954 5.746451-.516065V-1.994521C5.746451-2.461768 5.697634-3.075467 4.6934-3.075467C4.309838-3.075467 3.961146-2.922042 3.710087-2.629141C3.654296-2.566376 3.619427-2.489664 3.563636-2.426899C3.500872-2.922042 2.977833-3.075467 2.580324-3.075467C2.133998-3.075467 1.569116-2.84533 1.408717-2.385056L1.401743-3.075467L1.046077-3.047572L.369614-2.998755Z'/>
<path id='g0-111' d='M1.868991-3.110336C1.066999-3.02665 .27198-2.454795 .27198-1.48543V-1.422665C.320797-.488169 1.17858 .062765 2.001494 .062765C2.789539 .062765 3.640349-.495143 3.689166-1.422665V-1.457534C3.689166-2.426899 2.880199-3.110336 1.945704-3.110336H1.868991ZM.9066-1.366874C.9066-1.422665 .899626-1.478456 .899626-1.534247C.899626-1.917808 .934496-2.371108 1.26924-2.66401C1.464508-2.831382 1.715567-2.915068 1.966625-2.915068C2.280448-2.915068 2.601245-2.789539 2.803487-2.545455C3.019676-2.294396 3.054545-1.931756 3.054545-1.63188C3.054545-1.241345 3.047572-.795019 2.768618-.488169C2.57335-.265006 2.273474-.160399 1.980573-.160399C1.443587-.160399 1.03213-.502117 .934496-1.080946C.920548-1.17858 .920548-1.26924 .9066-1.366874Z'/>
<path id='g0-114' d='M.334745-2.998755V-2.747696H.432379C.648568-2.747696 .857783-2.726775 .857783-2.399004V-.54396C.857783-.265006 .690411-.258032 .334745-.258032V-.006974H2.043337V-.258032C1.966625-.258032 1.882939-.251059 1.806227-.251059C1.57609-.251059 1.387796-.285928 1.387796-.536986V-1.080946C1.387796-1.21345 1.380822-1.352927 1.380822-1.48543C1.380822-2.036364 1.562142-2.880199 2.322291-2.880199V-2.873225C2.238605-2.824408 2.203736-2.726775 2.203736-2.629141C2.203736-2.433873 2.350187-2.308344 2.524533-2.308344C2.712827-2.308344 2.838356-2.461768 2.838356-2.615193C2.838356-2.915068 2.559402-3.075467 2.287422-3.075467C1.841096-3.075467 1.436613-2.691905 1.345953-2.308344L1.338979-3.075467L.990286-3.047572L.334745-2.998755Z'/>
<path id='g0-116' d='M1.164633-4.29589C1.164633-3.744956 .899626-2.949938 .195268-2.949938V-2.75467H.843836V-.969365C.843836-.746202 .857783-.523039 .976339-.334745C1.157659-.048817 1.506351 .062765 1.827148 .062765C2.078207 .062765 2.30137-.048817 2.447821-.258032C2.601245-.481196 2.622167-.739228 2.622167-1.004234V-1.26924H2.385056C2.385056-1.171606 2.39203-1.073973 2.39203-.976339C2.39203-.690411 2.322291-.160399 1.896887-.160399C1.506351-.160399 1.401743-.557908 1.401743-.920548V-2.75467H2.489664V-3.005729H1.401743V-4.29589H1.164633Z'/>
<path id='g1-70' d='M3.01868-3.237858H3.985056C4.732254-3.237858 4.811955-3.078456 4.811955-2.789539C4.811955-2.719801 4.811955-2.600249 4.742217-2.30137C4.722291-2.251557 4.712329-2.211706 4.712329-2.191781C4.712329-2.11208 4.772105-2.072229 4.83188-2.072229C4.931507-2.072229 4.931507-2.102117 4.98132-2.281445L5.529265-4.443337C5.559153-4.552927 5.559153-4.572852 5.559153-4.60274C5.559153-4.622665 5.539228-4.712329 5.439601-4.712329S5.330012-4.662516 5.290162-4.503113C5.080946-3.726027 4.851806-3.5467 4.004981-3.5467H3.098381L3.73599-6.07721C3.825654-6.425903 3.835616-6.465753 4.273973-6.465753H5.589041C6.814446-6.465753 7.043587-6.136986 7.043587-5.369863C7.043587-5.140722 7.043587-5.100872 7.013699-4.83188C6.993773-4.702366 6.993773-4.682441 6.993773-4.652553C6.993773-4.60274 7.023661-4.533001 7.113325-4.533001C7.222914-4.533001 7.232877-4.592777 7.252802-4.782067L7.452055-6.505604C7.481943-6.774595 7.43213-6.774595 7.183064-6.774595H2.30137C2.102117-6.774595 2.002491-6.774595 2.002491-6.575342C2.002491-6.465753 2.092154-6.465753 2.281445-6.465753C2.650062-6.465753 2.929016-6.465753 2.929016-6.286426C2.929016-6.246575 2.929016-6.22665 2.879203-6.047323L1.564134-.777086C1.464508-.388543 1.444583-.308842 .657534-.308842C.488169-.308842 .37858-.308842 .37858-.119552C.37858 0 .498132 0 .52802 0C.816936 0 1.554172-.029888 1.843088-.029888C2.171856-.029888 2.998755 0 3.327522 0C3.417186 0 3.536737 0 3.536737-.18929C3.536737-.268991 3.476961-.288917 3.476961-.298879C3.447073-.308842 3.427148-.308842 3.198007-.308842C2.978829-.308842 2.929016-.308842 2.67995-.328767C2.391034-.358655 2.361146-.398506 2.361146-.52802C2.361146-.547945 2.361146-.607721 2.400996-.757161L3.01868-3.237858Z'/>
<path id='g1-100' d='M5.140722-6.804483C5.140722-6.814446 5.140722-6.914072 5.011208-6.914072C4.861768-6.914072 3.915318-6.824408 3.745953-6.804483C3.666252-6.794521 3.606476-6.744707 3.606476-6.615193C3.606476-6.495641 3.696139-6.495641 3.845579-6.495641C4.323786-6.495641 4.343711-6.425903 4.343711-6.326276L4.313823-6.127024L3.716065-3.765878C3.536737-4.134496 3.247821-4.403487 2.799502-4.403487C1.633873-4.403487 .398506-2.938979 .398506-1.484433C.398506-.547945 .946451 .109589 1.723537 .109589C1.92279 .109589 2.420922 .069738 3.01868-.637609C3.098381-.219178 3.447073 .109589 3.92528 .109589C4.273973 .109589 4.503113-.119552 4.662516-.438356C4.83188-.797011 4.961395-1.404732 4.961395-1.424658C4.961395-1.524284 4.871731-1.524284 4.841843-1.524284C4.742217-1.524284 4.732254-1.484433 4.702366-1.344956C4.533001-.697385 4.353674-.109589 3.945205-.109589C3.676214-.109589 3.646326-.368618 3.646326-.56787C3.646326-.806974 3.666252-.876712 3.706102-1.046077L5.140722-6.804483ZM3.068493-1.185554C3.01868-1.006227 3.01868-.986301 2.86924-.816936C2.430884-.268991 2.022416-.109589 1.743462-.109589C1.24533-.109589 1.105853-.657534 1.105853-1.046077C1.105853-1.544209 1.424658-2.769614 1.653798-3.227895C1.96264-3.815691 2.410959-4.184309 2.809465-4.184309C3.457036-4.184309 3.596513-3.367372 3.596513-3.307597S3.576588-3.188045 3.566625-3.138232L3.068493-1.185554Z'/>
<path id='g1-102' d='M3.656289-3.985056H4.513076C4.712329-3.985056 4.811955-3.985056 4.811955-4.184309C4.811955-4.293898 4.712329-4.293898 4.542964-4.293898H3.716065L3.92528-5.429639C3.965131-5.638854 4.104608-6.346202 4.164384-6.465753C4.254047-6.655044 4.423412-6.804483 4.632628-6.804483C4.672478-6.804483 4.931507-6.804483 5.120797-6.625156C4.682441-6.585305 4.582814-6.236613 4.582814-6.087173C4.582814-5.858032 4.762142-5.738481 4.951432-5.738481C5.210461-5.738481 5.499377-5.957659 5.499377-6.336239C5.499377-6.794521 5.041096-7.023661 4.632628-7.023661C4.293898-7.023661 3.666252-6.844334 3.367372-5.858032C3.307597-5.648817 3.277709-5.549191 3.038605-4.293898H2.351183C2.161893-4.293898 2.052304-4.293898 2.052304-4.104608C2.052304-3.985056 2.141968-3.985056 2.331258-3.985056H2.988792L2.241594-.049813C2.062267 .916563 1.892902 1.823163 1.374844 1.823163C1.334994 1.823163 1.085928 1.823163 .896638 1.643836C1.354919 1.613948 1.444583 1.255293 1.444583 1.105853C1.444583 .876712 1.265255 .757161 1.075965 .757161C.816936 .757161 .52802 .976339 .52802 1.354919C.52802 1.803238 .966376 2.042341 1.374844 2.042341C1.92279 2.042341 2.321295 1.454545 2.500623 1.075965C2.819427 .448319 3.048568-.757161 3.058531-.826899L3.656289-3.985056Z'/>
<path id='g1-116' d='M2.052304-3.985056H2.988792C3.188045-3.985056 3.287671-3.985056 3.287671-4.184309C3.287671-4.293898 3.188045-4.293898 3.008717-4.293898H2.132005C2.49066-5.708593 2.540473-5.907846 2.540473-5.967621C2.540473-6.136986 2.420922-6.236613 2.251557-6.236613C2.221669-6.236613 1.942715-6.22665 1.853051-5.877958L1.464508-4.293898H.52802C.328767-4.293898 .229141-4.293898 .229141-4.104608C.229141-3.985056 .308842-3.985056 .508095-3.985056H1.384807C.667497-1.155666 .627646-.986301 .627646-.806974C.627646-.268991 1.006227 .109589 1.544209 .109589C2.560399 .109589 3.128269-1.344956 3.128269-1.424658C3.128269-1.524284 3.048568-1.524284 3.008717-1.524284C2.919054-1.524284 2.909091-1.494396 2.859278-1.384807C2.430884-.348692 1.902864-.109589 1.564134-.109589C1.354919-.109589 1.255293-.239103 1.255293-.56787C1.255293-.806974 1.275218-.876712 1.315068-1.046077L2.052304-3.985056Z'/>
<path id='g1-120' d='M3.327522-3.008717C3.387298-3.267746 3.616438-4.184309 4.313823-4.184309C4.363636-4.184309 4.60274-4.184309 4.811955-4.054795C4.533001-4.004981 4.333748-3.755915 4.333748-3.516812C4.333748-3.35741 4.443337-3.16812 4.712329-3.16812C4.931507-3.16812 5.250311-3.347447 5.250311-3.745953C5.250311-4.26401 4.662516-4.403487 4.323786-4.403487C3.745953-4.403487 3.39726-3.875467 3.277709-3.646326C3.028643-4.303861 2.49066-4.403487 2.201743-4.403487C1.165629-4.403487 .597758-3.118306 .597758-2.86924C.597758-2.769614 .697385-2.769614 .71731-2.769614C.797011-2.769614 .826899-2.789539 .846824-2.879203C1.185554-3.935243 1.843088-4.184309 2.181818-4.184309C2.371108-4.184309 2.719801-4.094645 2.719801-3.516812C2.719801-3.20797 2.550436-2.540473 2.181818-1.145704C2.022416-.52802 1.673724-.109589 1.235367-.109589C1.175592-.109589 .946451-.109589 .737235-.239103C.986301-.288917 1.205479-.498132 1.205479-.777086C1.205479-1.046077 .986301-1.125778 .836862-1.125778C.537983-1.125778 .288917-.86675 .288917-.547945C.288917-.089664 .787049 .109589 1.225405 .109589C1.882939 .109589 2.241594-.587796 2.271482-.647572C2.391034-.278954 2.749689 .109589 3.347447 .109589C4.373599 .109589 4.941469-1.175592 4.941469-1.424658C4.941469-1.524284 4.851806-1.524284 4.821918-1.524284C4.732254-1.524284 4.712329-1.484433 4.692403-1.414695C4.363636-.348692 3.686177-.109589 3.367372-.109589C2.978829-.109589 2.819427-.428394 2.819427-.767123C2.819427-.986301 2.879203-1.205479 2.988792-1.643836L3.327522-3.008717Z'/>
</defs>
<g id='page1' transform='matrix(1.5 0 0 1.5 0 0)'>
<use x='183.671294' y='31.90091' xlink:href='#g1-70'/>
<use x='190.077838' y='33.395291' xlink:href='#g0-116'/>
<use x='193.190403' y='33.395291' xlink:href='#g0-104'/>
<use x='197.589495' y='33.395291' xlink:href='#g0-101'/>
<use x='201.130916' y='33.395291' xlink:href='#g0-114'/>
<use x='204.243481' y='33.395291' xlink:href='#g0-109'/>
<use x='210.786784' y='33.395291' xlink:href='#g0-111'/>
<use x='215.255152' y='31.90091' xlink:href='#g3-40'/>
<use x='219.129526' y='31.90091' xlink:href='#g1-116'/>
<use x='222.727161' y='31.90091' xlink:href='#g3-41'/>
<use x='229.368867' y='31.90091' xlink:href='#g3-61'/>
<use x='239.884947' y='18.34054' xlink:href='#g4-90'/>
<use x='251.508002' y='31.90091' xlink:href='#g1-100'/>
<use x='256.693434' y='27.787414' xlink:href='#g2-100'/>
<use x='261.338886' y='31.90091' xlink:href='#g1-120'/>
<use x='267.032818' y='31.90091' xlink:href='#g1-102'/>
<use x='272.982765' y='31.90091' xlink:href='#g3-40'/>
<use x='276.857139' y='31.90091' xlink:href='#g1-116'/>
<use x='280.454774' y='31.90091' xlink:href='#g3-41'/>
</g>
</svg>