<?xml version='1.0' encoding='UTF-8'?>
<!-- This file was generated by dvisvgm 3.2 -->
<svg version='1.1' xmlns='http://www.w3.org/2000/svg' xmlns:xlink='http://www.w3.org/1999/xlink' width='6.321295pt' height='13.479452pt' viewBox='-21.460547 15.600474 6.321295 13.479452'>
<defs>
<path id='g0-24' d='M1.534247-3.048568C.448319-2.331258 .229141-1.39477 .229141-1.036115C.229141-.557908 .498132-.278954 .518057-.249066C.836862 .079701 .926526 .119552 1.673724 .398506L2.879203 .86675C3.028643 .936488 3.227895 1.006227 3.227895 1.295143C3.227895 1.524284 3.048568 1.823163 2.739726 1.823163C2.30137 1.823163 1.972603 1.58406 1.863014 1.504359C1.803238 1.464508 1.793275 1.454545 1.753425 1.454545C1.673724 1.454545 1.653798 1.524284 1.653798 1.564134C1.653798 1.683686 2.181818 2.042341 2.739726 2.042341C3.35741 2.042341 3.775841 1.464508 3.775841 .976339C3.775841 .498132 3.407223 .318804 3.297634 .268991C3.158157 .219178 2.819427 .089664 2.689913 .039851C2.49066-.039851 2.291407-.119552 2.082192-.18929L1.484433-.428394C1.036115-.607721 .737235-.896638 .737235-1.315068C.737235-1.723537 1.125778-2.590286 1.96264-3.008717C2.331258-2.879203 2.630137-2.879203 2.839352-2.879203C3.138232-2.879203 3.765878-2.879203 3.765878-3.188045C3.765878-3.437111 3.337484-3.457036 2.948941-3.457036C2.769614-3.457036 2.480697-3.457036 2.11208-3.337484C1.853051-3.596513 1.8132-3.92528 1.8132-4.11457C1.8132-4.672478 2.171856-5.439601 2.919054-5.808219C3.098381-5.589041 3.327522-5.589041 3.556663-5.589041C3.805729-5.589041 4.443337-5.589041 4.443337-5.897883C4.443337-6.156912 4.004981-6.166874 3.616438-6.166874C3.486924-6.166874 3.247821-6.166874 2.988792-6.117061C2.958904-6.206725 2.938979-6.276463 2.938979-6.445828C2.938979-6.585305 2.988792-6.794521 2.988792-6.814446C2.988792-6.894147 2.938979-6.94396 2.86924-6.94396C2.689913-6.94396 2.689913-6.485679 2.689913-6.455791C2.689913-6.256538 2.749689-6.107098 2.759651-6.067248C1.693649-5.768369 1.016189-4.971357 1.016189-4.204234C1.016189-3.835616 1.195517-3.417186 1.663761-3.148194L1.534247-3.048568ZM3.148194-5.897883C3.307597-5.947696 3.516812-5.947696 3.626401-5.947696C3.965131-5.947696 4.004981-5.937733 4.184309-5.88792C4.104608-5.858032 4.004981-5.808219 3.566625-5.808219C3.377335-5.808219 3.257783-5.808219 3.148194-5.897883ZM2.371108-3.178082C2.600249-3.237858 2.819427-3.237858 2.938979-3.237858C3.287671-3.237858 3.327522-3.227895 3.506849-3.178082C3.427148-3.138232 3.327522-3.098381 2.86924-3.098381C2.6401-3.098381 2.550436-3.098381 2.371108-3.178082Z'/>
</defs>
<g id='page1' transform='matrix(1.5 0 0 1.5 0 0)'>
<use x='-14.536172' y='17.344276' xlink:href='#g0-24'/>
</g>
</svg>