<?xml version='1.0' encoding='UTF-8'?>
<!-- This file was generated by dvisvgm 3.2 -->
<svg version='1.1' xmlns='http://www.w3.org/2000/svg' xmlns:xlink='http://www.w3.org/1999/xlink' width='14.069272pt' height='9.668742pt' viewBox='-21.580099 19.411184 14.069272 9.668742'>
<defs>
<path id='g0-67' d='M4.581818-4.679452C4.581818-4.798007 4.581818-4.909589 4.463263-4.909589C4.456289-4.909589 4.351681-4.909589 4.337733-4.78406C4.316812-4.588792 4.156413-4.588792 4.107597-4.588792C3.863512-4.588792 3.619427-4.6934 3.47995-4.756164C3.124284-4.909589 2.824408-4.909589 2.712827-4.909589C1.548194-4.909589 .258032-4.177335 .258032-2.39203C.258032-.613699 1.520299 .132503 2.726775 .132503C3.096389 .132503 3.591532 .055791 4.100623-.251059C4.42142-.4533 4.777086-.801993 4.777086-.899626S4.672478-1.039103 4.630635-1.039103C4.581818-1.039103 4.553923-1.018182 4.484184-.941469C4.079701-.481196 3.459029-.202242 2.838356-.202242C1.75741-.202242 1.48543-1.297136 1.48543-2.378082C1.48543-3.75193 1.987547-4.665504 2.733748-4.665504C3.256787-4.665504 4.093649-4.156413 4.33076-3.417186C4.351681-3.354421 4.372603-3.284682 4.463263-3.284682C4.581818-3.284682 4.581818-3.396264 4.581818-3.514819V-4.679452ZM4.337733-3.961146C4.254047-4.079701 4.163387-4.170361 3.989041-4.351681C4.02391-4.344707 4.079701-4.344707 4.11457-4.344707C4.191283-4.344707 4.281943-4.358655 4.337733-4.393524V-3.961146ZM1.862017-4.505106C1.701619-4.344707 1.241345-3.744956 1.241345-2.378082C1.241345-1.687671 1.345953-.72528 1.973599-.223163C.829888-.592777 .502117-1.534247 .502117-2.385056C.502117-3.668244 1.206476-4.288917 1.862017-4.51208V-4.505106Z'/>
<path id='g1-103' d='M4.692403-3.755915C4.702366-3.815691 4.722291-3.865504 4.722291-3.935243C4.722291-4.104608 4.60274-4.204234 4.433375-4.204234C4.333748-4.204234 4.064757-4.134496 4.024907-3.775841C3.845579-4.144458 3.496887-4.403487 3.098381-4.403487C1.96264-4.403487 .727273-3.008717 .727273-1.574097C.727273-.587796 1.334994 0 2.052304 0C2.6401 0 3.108344-.468244 3.20797-.577833L3.217933-.56787C3.008717 .318804 2.889166 .727273 2.889166 .747198C2.849315 .836862 2.510585 1.823163 1.454545 1.823163C1.265255 1.823163 .936488 1.8132 .657534 1.723537C.956413 1.633873 1.066002 1.374844 1.066002 1.205479C1.066002 1.046077 .956413 .856787 .687422 .856787C.468244 .856787 .14944 1.036115 .14944 1.43462C.14944 1.843088 .518057 2.042341 1.474471 2.042341C2.719801 2.042341 3.437111 1.265255 3.58655 .667497L4.692403-3.755915ZM3.39726-1.275218C3.337484-1.016189 3.108344-.767123 2.889166-.577833C2.67995-.398506 2.371108-.219178 2.082192-.219178C1.58406-.219178 1.43462-.737235 1.43462-1.135741C1.43462-1.613948 1.723537-2.789539 1.992528-3.297634C2.261519-3.785803 2.689913-4.184309 3.108344-4.184309C3.765878-4.184309 3.905355-3.377335 3.905355-3.327522S3.88543-3.217933 3.875467-3.178082L3.39726-1.275218Z'/>
</defs>
<g id='page1' transform='matrix(1.5 0 0 1.5 0 0)'>
<use x='-14.536172' y='17.344276' xlink:href='#g1-103'/>
<use x='-9.784304' y='18.838657' xlink:href='#g0-67'/>
</g>
</svg>