<?xml version='1.0' encoding='UTF-8'?>
<!-- This file was generated by dvisvgm 3.2 -->
<svg version='1.1' xmlns='http://www.w3.org/2000/svg' xmlns:xlink='http://www.w3.org/1999/xlink' width='567.486496pt' height='32.729506pt' viewBox='66.719986 27.30624 567.486496 32.729506'>
<defs>
<path id='g0-79' d='M7.740971-4.801993C7.740971-6.067248 7.183064-7.023661 5.967621-7.023661C4.931507-7.023661 4.054795-6.1868 3.985056-6.127024C3.188045-5.339975 2.889166-4.443337 2.889166-4.423412C2.889166-4.363636 2.938979-4.353674 2.988792-4.353674C3.178082-4.353674 3.337484-4.4533 3.486924-4.562889C3.666252-4.692403 3.676214-4.722291 3.785803-4.951432C3.875467-5.150685 4.104608-5.638854 4.473225-6.057285C4.712329-6.326276 4.911582-6.475716 5.310087-6.475716C6.276463-6.475716 6.894147-5.678705 6.894147-4.373599C6.894147-2.34122 5.449564-.328767 3.606476-.328767C2.191781-.328767 1.414695-1.454545 1.414695-2.879203C1.414695-4.234122 2.11208-5.728518 3.566625-6.585305C3.666252-6.645081 3.965131-6.824408 3.965131-6.953923C3.965131-7.023661 3.88543-7.023661 3.865504-7.023661C3.516812-7.023661 .56787-5.439601 .56787-2.450809C.56787-1.05604 1.295143 .219178 2.948941 .219178C4.891656 .219178 7.740971-1.733499 7.740971-4.801993Z'/>
<path id='g3-50' d='M3.521793-1.26924H3.284682C3.263761-1.115816 3.194022-.704359 3.103362-.63462C3.047572-.592777 2.510585-.592777 2.412951-.592777H1.129763C1.862017-1.241345 2.106102-1.436613 2.524533-1.764384C3.040598-2.175841 3.521793-2.608219 3.521793-3.270735C3.521793-4.11457 2.782565-4.630635 1.889913-4.630635C1.025156-4.630635 .439352-4.02391 .439352-3.382316C.439352-3.02665 .739228-2.991781 .808966-2.991781C.976339-2.991781 1.17858-3.110336 1.17858-3.361395C1.17858-3.486924 1.129763-3.731009 .767123-3.731009C.983313-4.226152 1.457534-4.379577 1.785305-4.379577C2.48269-4.379577 2.84533-3.835616 2.84533-3.270735C2.84533-2.66401 2.412951-2.182814 2.189788-1.931756L.509091-.27198C.439352-.209215 .439352-.195268 .439352 0H3.312578L3.521793-1.26924Z'/>
<path id='g3-51' d='M1.903861-2.329265C2.447821-2.329265 2.838356-1.952677 2.838356-1.206476C2.838356-.341719 2.336239-.083686 1.931756-.083686C1.652802-.083686 1.039103-.160399 .746202-.571856C1.073973-.585803 1.150685-.81594 1.150685-.962391C1.150685-1.185554 .983313-1.345953 .767123-1.345953C.571856-1.345953 .376588-1.227397 .376588-.941469C.376588-.285928 1.101868 .139477 1.945704 .139477C2.915068 .139477 3.584558-.509091 3.584558-1.206476C3.584558-1.750436 3.138232-2.294396 2.371108-2.454795C3.103362-2.719801 3.368369-3.242839 3.368369-3.668244C3.368369-4.219178 2.733748-4.630635 1.959651-4.630635S.592777-4.254047 .592777-3.696139C.592777-3.459029 .746202-3.326526 .955417-3.326526C1.171606-3.326526 1.311083-3.486924 1.311083-3.682192C1.311083-3.884433 1.171606-4.030884 .955417-4.044832C1.199502-4.351681 1.680697-4.428394 1.93873-4.428394C2.252553-4.428394 2.691905-4.274969 2.691905-3.668244C2.691905-3.375342 2.594271-3.054545 2.412951-2.838356C2.182814-2.57335 1.987547-2.559402 1.638854-2.538481C1.464508-2.524533 1.45056-2.524533 1.415691-2.517559C1.401743-2.517559 1.345953-2.503611 1.345953-2.426899C1.345953-2.329265 1.408717-2.329265 1.527273-2.329265H1.903861Z'/>
<path id='g1-59' d='M2.022416-.009963C2.022416-.667497 1.77335-1.05604 1.384807-1.05604C1.05604-1.05604 .856787-.806974 .856787-.52802C.856787-.259029 1.05604 0 1.384807 0C1.504359 0 1.633873-.039851 1.733499-.129514C1.763387-.14944 1.77335-.159402 1.783313-.159402S1.803238-.14944 1.803238-.009963C1.803238 .727273 1.454545 1.325031 1.125778 1.653798C1.016189 1.763387 1.016189 1.783313 1.016189 1.8132C1.016189 1.882939 1.066002 1.92279 1.115816 1.92279C1.225405 1.92279 2.022416 1.155666 2.022416-.009963Z'/>
<path id='g1-88' d='M4.83188-4.094645L3.995019-6.07721C3.965131-6.156912 3.945205-6.196762 3.945205-6.206725C3.945205-6.266501 4.11457-6.455791 4.533001-6.495641C4.632628-6.505604 4.732254-6.515567 4.732254-6.684932C4.732254-6.804483 4.612702-6.804483 4.582814-6.804483C4.174346-6.804483 3.745953-6.774595 3.327522-6.774595C3.078456-6.774595 2.460772-6.804483 2.211706-6.804483C2.15193-6.804483 2.032379-6.804483 2.032379-6.60523C2.032379-6.495641 2.132005-6.495641 2.261519-6.495641C2.859278-6.495641 2.919054-6.396015 3.008717-6.176837L4.184309-3.39726L2.082192-1.135741L1.952677-1.026152C1.464508-.498132 .996264-.33873 .488169-.308842C.358655-.298879 .268991-.298879 .268991-.109589C.268991-.099626 .268991 0 .398506 0C.697385 0 1.026152-.029888 1.334994-.029888C1.703611-.029888 2.092154 0 2.450809 0C2.510585 0 2.630137 0 2.630137-.199253C2.630137-.298879 2.530511-.308842 2.510585-.308842C2.420922-.318804 2.11208-.33873 2.11208-.617684C2.11208-.777086 2.261519-.936488 2.381071-1.066002L3.39726-2.141968L4.293898-3.118306L5.300125-.737235C5.339975-.627646 5.349938-.617684 5.349938-.597758C5.349938-.518057 5.160648-.348692 4.772105-.308842C4.662516-.298879 4.572852-.288917 4.572852-.119552C4.572852 0 4.682441 0 4.722291 0C5.001245 0 5.69863-.029888 5.977584-.029888C6.22665-.029888 6.834371 0 7.083437 0C7.153176 0 7.272727 0 7.272727-.18929C7.272727-.308842 7.173101-.308842 7.0934-.308842C6.425903-.318804 6.405978-.348692 6.236613-.747198C5.84807-1.673724 5.180573-3.227895 4.951432-3.825654C5.628892-4.523039 6.674969-5.708593 6.993773-5.987547C7.28269-6.22665 7.66127-6.465753 8.259029-6.495641C8.388543-6.505604 8.478207-6.505604 8.478207-6.694894C8.478207-6.704857 8.478207-6.804483 8.348692-6.804483C8.049813-6.804483 7.721046-6.774595 7.412204-6.774595C7.043587-6.774595 6.665006-6.804483 6.306351-6.804483C6.246575-6.804483 6.117061-6.804483 6.117061-6.60523C6.117061-6.535492 6.166874-6.505604 6.236613-6.495641C6.326276-6.485679 6.635118-6.465753 6.635118-6.1868C6.635118-6.047323 6.525529-5.917808 6.445828-5.828144L4.83188-4.094645Z'/>
<path id='g1-89' d='M5.947696-5.668742L6.087173-5.808219C6.386052-6.107098 6.714819-6.445828 7.392279-6.495641C7.501868-6.505604 7.591532-6.505604 7.591532-6.684932C7.591532-6.764633 7.541719-6.804483 7.462017-6.804483C7.202989-6.804483 6.914072-6.774595 6.645081-6.774595C6.316314-6.774595 5.967621-6.804483 5.648817-6.804483C5.589041-6.804483 5.459527-6.804483 5.459527-6.615193C5.459527-6.505604 5.559153-6.495641 5.608966-6.495641C5.678705-6.495641 5.967621-6.475716 5.967621-6.266501C5.967621-6.097136 5.738481-5.838107 5.69863-5.788294L3.387298-3.128269L2.291407-6.087173C2.231631-6.22665 2.231631-6.246575 2.231631-6.256538C2.231631-6.495641 2.719801-6.495641 2.819427-6.495641C2.958904-6.495641 3.058531-6.495641 3.058531-6.694894C3.058531-6.804483 2.938979-6.804483 2.909091-6.804483C2.630137-6.804483 1.932752-6.774595 1.653798-6.774595C1.404732-6.774595 .787049-6.804483 .537983-6.804483C.478207-6.804483 .348692-6.804483 .348692-6.60523C.348692-6.495641 .448319-6.495641 .577833-6.495641C1.175592-6.495641 1.215442-6.405978 1.305106-6.156912L2.530511-2.879203C2.540473-2.849315 2.570361-2.739726 2.570361-2.709838S2.171856-1.075965 2.122042-.896638C1.992528-.348692 1.982565-.318804 1.185554-.308842C.996264-.308842 .916563-.308842 .916563-.109589C.916563 0 1.036115 0 1.05604 0C1.334994 0 2.032379-.029888 2.311333-.029888S3.307597 0 3.58655 0C3.656289 0 3.775841 0 3.775841-.199253C3.775841-.308842 3.686177-.308842 3.496887-.308842C3.476961-.308842 3.287671-.308842 3.118306-.328767C2.909091-.348692 2.849315-.368618 2.849315-.488169C2.849315-.557908 2.938979-.9066 2.988792-1.115816L3.337484-2.520548C3.387298-2.709838 3.39726-2.739726 3.476961-2.82939L5.947696-5.668742Z'/>
<path id='g1-90' d='M7.173101-6.56538C7.183064-6.60523 7.202989-6.655044 7.202989-6.714819C7.202989-6.804483 7.153176-6.804483 6.953923-6.804483H2.749689C2.510585-6.804483 2.500623-6.794521 2.440847-6.60523L1.892902-4.811955C1.872976-4.762142 1.863014-4.692403 1.863014-4.672478C1.863014-4.662516 1.863014-4.562889 1.982565-4.562889C2.072229-4.562889 2.092154-4.632628 2.11208-4.662516C2.49066-5.838107 3.008717-6.495641 4.562889-6.495641H6.1868L.617684-.268991C.617684-.259029 .577833-.119552 .577833-.089664C.577833 0 .647572 0 .826899 0H5.160648C5.399751 0 5.409714-.009963 5.469489-.199253L6.176837-2.400996C6.1868-2.440847 6.216687-2.510585 6.216687-2.550436C6.216687-2.600249 6.176837-2.660025 6.087173-2.660025S5.987547-2.620174 5.917808-2.410959C5.479452-1.05604 5.001245-.33873 3.307597-.33873H1.603985L7.173101-6.56538Z'/>
<path id='g1-116' d='M2.052304-3.985056H2.988792C3.188045-3.985056 3.287671-3.985056 3.287671-4.184309C3.287671-4.293898 3.188045-4.293898 3.008717-4.293898H2.132005C2.49066-5.708593 2.540473-5.907846 2.540473-5.967621C2.540473-6.136986 2.420922-6.236613 2.251557-6.236613C2.221669-6.236613 1.942715-6.22665 1.853051-5.877958L1.464508-4.293898H.52802C.328767-4.293898 .229141-4.293898 .229141-4.104608C.229141-3.985056 .308842-3.985056 .508095-3.985056H1.384807C.667497-1.155666 .627646-.986301 .627646-.806974C.627646-.268991 1.006227 .109589 1.544209 .109589C2.560399 .109589 3.128269-1.344956 3.128269-1.424658C3.128269-1.524284 3.048568-1.524284 3.008717-1.524284C2.919054-1.524284 2.909091-1.494396 2.859278-1.384807C2.430884-.348692 1.902864-.109589 1.564134-.109589C1.354919-.109589 1.255293-.239103 1.255293-.56787C1.255293-.806974 1.275218-.876712 1.315068-1.046077L2.052304-3.985056Z'/>
<path id='g2-40' d='M3.297634 2.391034C3.297634 2.361146 3.297634 2.34122 3.128269 2.171856C1.882939 .916563 1.564134-.966376 1.564134-2.49066C1.564134-4.224159 1.942715-5.957659 3.16812-7.202989C3.297634-7.32254 3.297634-7.342466 3.297634-7.372354C3.297634-7.442092 3.257783-7.47198 3.198007-7.47198C3.098381-7.47198 2.201743-6.794521 1.613948-5.529265C1.105853-4.433375 .986301-3.327522 .986301-2.49066C.986301-1.713574 1.09589-.508095 1.643836 .617684C2.241594 1.843088 3.098381 2.49066 3.198007 2.49066C3.257783 2.49066 3.297634 2.460772 3.297634 2.391034Z'/>
<path id='g2-41' d='M2.879203-2.49066C2.879203-3.267746 2.769614-4.473225 2.221669-5.599004C1.62391-6.824408 .767123-7.47198 .667497-7.47198C.607721-7.47198 .56787-7.43213 .56787-7.372354C.56787-7.342466 .56787-7.32254 .757161-7.143213C1.733499-6.156912 2.30137-4.572852 2.30137-2.49066C2.30137-.787049 1.932752 .966376 .697385 2.221669C.56787 2.34122 .56787 2.361146 .56787 2.391034C.56787 2.450809 .607721 2.49066 .667497 2.49066C.767123 2.49066 1.663761 1.8132 2.251557 .547945C2.759651-.547945 2.879203-1.653798 2.879203-2.49066Z'/>
<path id='g2-43' d='M4.07472-2.291407H6.854296C6.993773-2.291407 7.183064-2.291407 7.183064-2.49066S6.993773-2.689913 6.854296-2.689913H4.07472V-5.479452C4.07472-5.618929 4.07472-5.808219 3.875467-5.808219S3.676214-5.618929 3.676214-5.479452V-2.689913H.886675C.747198-2.689913 .557908-2.689913 .557908-2.49066S.747198-2.291407 .886675-2.291407H3.676214V.498132C3.676214 .637609 3.676214 .826899 3.875467 .826899S4.07472 .637609 4.07472 .498132V-2.291407Z'/>
<path id='g2-49' d='M2.929016-6.37609C2.929016-6.615193 2.929016-6.635118 2.699875-6.635118C2.082192-5.997509 1.205479-5.997509 .886675-5.997509V-5.688667C1.085928-5.688667 1.673724-5.688667 2.191781-5.947696V-.787049C2.191781-.428394 2.161893-.308842 1.265255-.308842H.946451V0C1.295143-.029888 2.161893-.029888 2.560399-.029888S3.825654-.029888 4.174346 0V-.308842H3.855542C2.958904-.308842 2.929016-.418431 2.929016-.787049V-6.37609Z'/>
<path id='g2-50' d='M1.265255-.767123L2.321295-1.793275C3.875467-3.16812 4.473225-3.706102 4.473225-4.702366C4.473225-5.838107 3.576588-6.635118 2.361146-6.635118C1.235367-6.635118 .498132-5.718555 .498132-4.83188C.498132-4.273973 .996264-4.273973 1.026152-4.273973C1.195517-4.273973 1.544209-4.393524 1.544209-4.801993C1.544209-5.061021 1.364882-5.32005 1.016189-5.32005C.936488-5.32005 .916563-5.32005 .886675-5.310087C1.115816-5.957659 1.653798-6.326276 2.231631-6.326276C3.138232-6.326276 3.566625-5.519303 3.566625-4.702366C3.566625-3.905355 3.068493-3.118306 2.520548-2.500623L.607721-.368618C.498132-.259029 .498132-.239103 .498132 0H4.194271L4.473225-1.733499H4.224159C4.174346-1.43462 4.104608-.996264 4.004981-.846824C3.935243-.767123 3.277709-.767123 3.058531-.767123H1.265255Z'/>
<path id='g2-61' d='M6.844334-3.257783C6.993773-3.257783 7.183064-3.257783 7.183064-3.457036S6.993773-3.656289 6.854296-3.656289H.886675C.747198-3.656289 .557908-3.656289 .557908-3.457036S.747198-3.257783 .896638-3.257783H6.844334ZM6.854296-1.325031C6.993773-1.325031 7.183064-1.325031 7.183064-1.524284S6.993773-1.723537 6.844334-1.723537H.896638C.747198-1.723537 .557908-1.723537 .557908-1.524284S.747198-1.325031 .886675-1.325031H6.854296Z'/>
<path id='g2-91' d='M2.540473 2.49066V2.092154H1.574097V-7.073474H2.540473V-7.47198H1.175592V2.49066H2.540473Z'/>
<path id='g2-93' d='M1.58406-7.47198H.219178V-7.073474H1.185554V2.092154H.219178V2.49066H1.58406V-7.47198Z'/>
<path id='g2-101' d='M1.115816-2.510585C1.175592-3.995019 2.012453-4.244085 2.351183-4.244085C3.377335-4.244085 3.476961-2.899128 3.476961-2.510585H1.115816ZM1.105853-2.30137H3.88543C4.104608-2.30137 4.134496-2.30137 4.134496-2.510585C4.134496-3.496887 3.596513-4.463263 2.351183-4.463263C1.195517-4.463263 .278954-3.437111 .278954-2.191781C.278954-.856787 1.325031 .109589 2.470735 .109589C3.686177 .109589 4.134496-.996264 4.134496-1.185554C4.134496-1.285181 4.054795-1.305106 4.004981-1.305106C3.915318-1.305106 3.895392-1.24533 3.875467-1.165629C3.526775-.139477 2.630137-.139477 2.530511-.139477C2.032379-.139477 1.633873-.438356 1.404732-.806974C1.105853-1.285181 1.105853-1.942715 1.105853-2.30137Z'/>
<path id='g2-112' d='M1.713574-3.745953V-4.403487L.278954-4.293898V-3.985056C.986301-3.985056 1.05604-3.92528 1.05604-3.486924V1.175592C1.05604 1.62391 .946451 1.62391 .278954 1.62391V1.932752C.617684 1.92279 1.135741 1.902864 1.39477 1.902864C1.663761 1.902864 2.171856 1.92279 2.520548 1.932752V1.62391C1.853051 1.62391 1.743462 1.62391 1.743462 1.175592V-.498132V-.587796C1.793275-.428394 2.211706 .109589 2.968867 .109589C4.154421 .109589 5.190535-.86675 5.190535-2.15193C5.190535-3.417186 4.224159-4.403487 3.108344-4.403487C2.331258-4.403487 1.912827-3.965131 1.713574-3.745953ZM1.743462-1.135741V-3.35741C2.032379-3.865504 2.520548-4.154421 3.028643-4.154421C3.755915-4.154421 4.363636-3.277709 4.363636-2.15193C4.363636-.946451 3.666252-.109589 2.929016-.109589C2.530511-.109589 2.15193-.308842 1.882939-.71731C1.743462-.926526 1.743462-.936488 1.743462-1.135741Z'/>
<path id='g2-120' d='M2.859278-2.34122C3.158157-2.719801 3.536737-3.20797 3.775841-3.466999C4.084682-3.825654 4.493151-3.975093 4.961395-3.985056V-4.293898C4.702366-4.273973 4.403487-4.26401 4.144458-4.26401C3.845579-4.26401 3.317559-4.283935 3.188045-4.293898V-3.985056C3.39726-3.965131 3.476961-3.835616 3.476961-3.676214S3.377335-3.387298 3.327522-3.327522L2.709838-2.550436L1.932752-3.556663C1.843088-3.656289 1.843088-3.676214 1.843088-3.73599C1.843088-3.88543 1.992528-3.975093 2.191781-3.985056V-4.293898C1.932752-4.283935 1.275218-4.26401 1.115816-4.26401C.9066-4.26401 .438356-4.273973 .169365-4.293898V-3.985056C.86675-3.985056 .876712-3.975093 1.344956-3.377335L2.331258-2.092154L1.39477-.9066C.916563-.328767 .328767-.308842 .119552-.308842V0C.37858-.019925 .687422-.029888 .946451-.029888C1.235367-.029888 1.653798-.009963 1.892902 0V-.308842C1.673724-.33873 1.603985-.468244 1.603985-.617684C1.603985-.836862 1.892902-1.165629 2.500623-1.882939L3.257783-.886675C3.337484-.777086 3.466999-.617684 3.466999-.557908C3.466999-.468244 3.377335-.318804 3.108344-.308842V0C3.407223-.009963 3.965131-.029888 4.184309-.029888C4.4533-.029888 4.841843-.019925 5.140722 0V-.308842C4.60274-.308842 4.423412-.328767 4.194271-.617684L2.859278-2.34122Z'/>
</defs>
<g id='page1' transform='matrix(1.5 0 0 1.5 0 0)'>
<use x='44.201037' y='33.18996' xlink:href='#g2-101'/>
<use x='48.628889' y='33.18996' xlink:href='#g2-120'/>
<use x='53.886976' y='33.18996' xlink:href='#g2-112'/>
<use x='61.082175' y='33.18996' xlink:href='#g1-116'/>
<use x='64.67981' y='33.18996' xlink:href='#g1-88'/>
<use x='75.375765' y='33.18996' xlink:href='#g2-101'/>
<use x='79.803617' y='33.18996' xlink:href='#g2-120'/>
<use x='85.061704' y='33.18996' xlink:href='#g2-112'/>
<use x='92.256904' y='33.18996' xlink:href='#g1-116'/>
<use x='95.854539' y='33.18996' xlink:href='#g1-89'/>
<use x='106.619677' y='33.18996' xlink:href='#g2-61'/>
<use x='117.135757' y='33.18996' xlink:href='#g2-101'/>
<use x='121.563609' y='33.18996' xlink:href='#g2-120'/>
<use x='126.821696' y='33.18996' xlink:href='#g2-112'/>
<use x='134.016895' y='33.18996' xlink:href='#g1-116'/>
<use x='137.61453' y='33.18996' xlink:href='#g1-90'/>
<use x='144.574545' y='33.18996' xlink:href='#g1-59'/>
<use x='158.96256' y='33.18996' xlink:href='#g1-90'/>
<use x='169.243389' y='33.18996' xlink:href='#g2-61'/>
<use x='179.759469' y='33.18996' xlink:href='#g1-88'/>
<use x='191.008891' y='33.18996' xlink:href='#g2-43'/>
<use x='200.971504' y='33.18996' xlink:href='#g1-89'/>
<use x='211.183176' y='33.18996' xlink:href='#g2-43'/>
<use x='223.033167' y='26.450159' xlink:href='#g1-116'/>
<rect x='222.341303' y='30.50005' height='.398484' width='4.981335'/>
<use x='222.341303' y='40.02383' xlink:href='#g2-50'/>
<use x='228.518152' y='33.18996' xlink:href='#g2-91'/>
<use x='231.285561' y='33.18996' xlink:href='#g1-88'/>
<use x='239.767635' y='33.18996' xlink:href='#g1-59'/>
<use x='244.195443' y='33.18996' xlink:href='#g1-89'/>
<use x='252.193249' y='33.18996' xlink:href='#g2-93'/>
<use x='257.174523' y='33.18996' xlink:href='#g2-43'/>
<use x='269.280497' y='26.450159' xlink:href='#g1-116'/>
<use x='272.878131' y='22.834795' xlink:href='#g3-50'/>
<rect x='268.33265' y='30.50005' height='.398484' width='9.962671'/>
<use x='268.33265' y='40.02383' xlink:href='#g2-49'/>
<use x='273.313989' y='40.02383' xlink:href='#g2-50'/>
<use x='281.151234' y='33.18996' xlink:href='#g2-40'/>
<use x='285.025606' y='33.18996' xlink:href='#g2-91'/>
<use x='287.793014' y='33.18996' xlink:href='#g1-88'/>
<use x='296.275088' y='33.18996' xlink:href='#g1-59'/>
<use x='300.702896' y='33.18996' xlink:href='#g2-91'/>
<use x='303.470305' y='33.18996' xlink:href='#g1-88'/>
<use x='311.952379' y='33.18996' xlink:href='#g1-59'/>
<use x='316.380187' y='33.18996' xlink:href='#g1-89'/>
<use x='324.377992' y='33.18996' xlink:href='#g2-93'/>
<use x='327.145401' y='33.18996' xlink:href='#g2-93'/>
<use x='332.126675' y='33.18996' xlink:href='#g2-43'/>
<use x='342.089289' y='33.18996' xlink:href='#g2-91'/>
<use x='344.856697' y='33.18996' xlink:href='#g1-89'/>
<use x='351.194058' y='33.18996' xlink:href='#g1-59'/>
<use x='355.621866' y='33.18996' xlink:href='#g2-91'/>
<use x='358.389275' y='33.18996' xlink:href='#g1-89'/>
<use x='364.726635' y='33.18996' xlink:href='#g1-59'/>
<use x='369.154443' y='33.18996' xlink:href='#g1-88'/>
<use x='378.189999' y='33.18996' xlink:href='#g2-93'/>
<use x='380.957407' y='33.18996' xlink:href='#g2-93'/>
<use x='383.724816' y='33.18996' xlink:href='#g2-41'/>
<use x='389.812982' y='33.18996' xlink:href='#g2-43'/>
<use x='399.775595' y='33.18996' xlink:href='#g0-79'/>
<use x='407.98374' y='33.18996' xlink:href='#g2-40'/>
<use x='411.858114' y='33.18996' xlink:href='#g1-116'/>
<use x='415.455749' y='29.076464' xlink:href='#g3-51'/>
<use x='419.925119' y='33.18996' xlink:href='#g2-41'/>
</g>
</svg>