<?xml version='1.0' encoding='UTF-8'?>
<!-- This file was generated by dvisvgm 3.2 -->
<svg version='1.1' xmlns='http://www.w3.org/2000/svg' xmlns:xlink='http://www.w3.org/1999/xlink' width='6.082192pt' height='6.769614pt' viewBox='-21.370884 19.411184 6.082192 6.769614'>
<defs>
<path id='g0-114' d='M.876712-.587796C.846824-.438356 .787049-.209215 .787049-.159402C.787049 .019925 .926526 .109589 1.075965 .109589C1.195517 .109589 1.374844 .029888 1.444583-.169365C1.464508-.209215 1.803238-1.564134 1.843088-1.743462C1.92279-2.072229 2.102117-2.769614 2.161893-3.038605C2.201743-3.16812 2.480697-3.636364 2.719801-3.855542C2.799502-3.92528 3.088418-4.184309 3.516812-4.184309C3.775841-4.184309 3.92528-4.064757 3.935243-4.064757C3.636364-4.014944 3.417186-3.775841 3.417186-3.516812C3.417186-3.35741 3.526775-3.16812 3.795766-3.16812S4.343711-3.39726 4.343711-3.755915C4.343711-4.104608 4.024907-4.403487 3.516812-4.403487C2.86924-4.403487 2.430884-3.915318 2.241594-3.636364C2.161893-4.084682 1.803238-4.403487 1.334994-4.403487C.876712-4.403487 .687422-4.014944 .597758-3.835616C.418431-3.496887 .288917-2.899128 .288917-2.86924C.288917-2.769614 .388543-2.769614 .408468-2.769614C.508095-2.769614 .518057-2.779577 .577833-2.998755C.747198-3.706102 .946451-4.184309 1.305106-4.184309C1.474471-4.184309 1.613948-4.104608 1.613948-3.726027C1.613948-3.516812 1.58406-3.407223 1.454545-2.889166L.876712-.587796Z'/>
</defs>
<g id='page1' transform='matrix(1.5 0 0 1.5 0 0)'>
<use x='-14.536172' y='17.344276' xlink:href='#g0-114'/>
</g>
</svg>