<?xml version='1.0' encoding='UTF-8'?>
<!-- This file was generated by dvisvgm 3.2 -->
<svg version='1.1' xmlns='http://www.w3.org/2000/svg' xmlns:xlink='http://www.w3.org/1999/xlink' width='29.451614pt' height='14.94396pt' viewBox='-20.025927 14.808444 29.451614 14.94396'>
<defs>
<path id='g1-27' d='M5.160648-3.716065C5.290162-3.716065 5.648817-3.716065 5.648817-4.054795C5.648817-4.293898 5.439601-4.293898 5.260274-4.293898H2.988792C1.484433-4.293898 .37858-2.650062 .37858-1.464508C.37858-.587796 .966376 .109589 1.872976 .109589C3.048568 .109589 4.373599-1.09589 4.373599-2.630137C4.373599-2.799502 4.373599-3.277709 4.064757-3.716065H5.160648ZM1.882939-.109589C1.39477-.109589 .996264-.468244 .996264-1.185554C.996264-1.484433 1.115816-2.30137 1.464508-2.889166C1.882939-3.576588 2.480697-3.716065 2.819427-3.716065C3.656289-3.716065 3.73599-3.058531 3.73599-2.749689C3.73599-2.281445 3.536737-1.464508 3.198007-.956413C2.809465-.368618 2.271482-.109589 1.882939-.109589Z'/>
<path id='g1-59' d='M2.022416-.009963C2.022416-.667497 1.77335-1.05604 1.384807-1.05604C1.05604-1.05604 .856787-.806974 .856787-.52802C.856787-.259029 1.05604 0 1.384807 0C1.504359 0 1.633873-.039851 1.733499-.129514C1.763387-.14944 1.77335-.159402 1.783313-.159402S1.803238-.14944 1.803238-.009963C1.803238 .727273 1.454545 1.325031 1.125778 1.653798C1.016189 1.763387 1.016189 1.783313 1.016189 1.8132C1.016189 1.882939 1.066002 1.92279 1.115816 1.92279C1.225405 1.92279 2.022416 1.155666 2.022416-.009963Z'/>
<path id='g1-113' d='M4.503113-4.293898C4.503113-4.333748 4.473225-4.393524 4.403487-4.393524C4.293898-4.393524 3.895392-3.995019 3.726027-3.706102C3.506849-4.244085 3.118306-4.403487 2.799502-4.403487C1.62391-4.403487 .398506-2.929016 .398506-1.484433C.398506-.508095 .986301 .109589 1.713574 .109589C2.141968 .109589 2.530511-.129514 2.889166-.488169C2.799502-.139477 2.470735 1.205479 2.440847 1.295143C2.361146 1.574097 2.281445 1.613948 1.723537 1.62391C1.594022 1.62391 1.494396 1.62391 1.494396 1.823163C1.494396 1.833126 1.494396 1.932752 1.62391 1.932752C1.942715 1.932752 2.291407 1.902864 2.620174 1.902864C2.958904 1.902864 3.317559 1.932752 3.646326 1.932752C3.696139 1.932752 3.825654 1.932752 3.825654 1.733499C3.825654 1.62391 3.726027 1.62391 3.566625 1.62391C3.088418 1.62391 3.088418 1.554172 3.088418 1.464508C3.088418 1.39477 3.108344 1.334994 3.128269 1.24533L4.503113-4.293898ZM1.743462-.109589C1.145704-.109589 1.105853-.876712 1.105853-1.046077C1.105853-1.524284 1.39477-2.610212 1.564134-3.028643C1.872976-3.765878 2.391034-4.184309 2.799502-4.184309C3.447073-4.184309 3.58655-3.377335 3.58655-3.307597C3.58655-3.247821 3.038605-1.066002 3.008717-1.026152C2.859278-.747198 2.30137-.109589 1.743462-.109589Z'/>
<path id='g0-105' d='M2.719801-2.321295C2.769614-2.440847 2.769614-2.460772 2.769614-2.49066S2.769614-2.540473 2.719801-2.660025L.976339-7.242839C.916563-7.412204 .856787-7.47198 .747198-7.47198S.547945-7.382316 .547945-7.272727C.547945-7.242839 .547945-7.222914 .597758-7.113325L2.361146-2.49066L.597758 2.11208C.547945 2.221669 .547945 2.241594 .547945 2.291407C.547945 2.400996 .637609 2.49066 .747198 2.49066C.876712 2.49066 .916563 2.391034 .956413 2.291407L2.719801-2.321295Z'/>
<path id='g0-106' d='M1.58406-7.113325C1.58406-7.292653 1.58406-7.47198 1.384807-7.47198S1.185554-7.292653 1.185554-7.113325V2.132005C1.185554 2.311333 1.185554 2.49066 1.384807 2.49066S1.58406 2.311333 1.58406 2.132005V-7.113325Z'/>
</defs>
<g id='page1' transform='matrix(1.5 0 0 1.5 0 0)'>
<use x='-14.536172' y='17.344276' xlink:href='#g0-106'/>
<use x='-11.768764' y='17.344276' xlink:href='#g1-113'/>
<use x='-6.963862' y='17.344276' xlink:href='#g1-59'/>
<use x='-2.536054' y='17.344276' xlink:href='#g1-27'/>
<use x='3.514177' y='17.344276' xlink:href='#g0-105'/>
</g>
</svg>