<?xml version='1.0' encoding='UTF-8'?>
<!-- This file was generated by dvisvgm 3.2 -->
<svg version='1.1' xmlns='http://www.w3.org/2000/svg' xmlns:xlink='http://www.w3.org/1999/xlink' width='209.711203pt' height='14.94396pt' viewBox='-20.324806 14.808444 209.711203 14.94396'>
<defs>
<path id='g0-10' d='M7.193026-2.49066C7.193026-4.323786 5.69863-5.808219 3.875467-5.808219C2.022416-5.808219 .547945-4.303861 .547945-2.49066C.547945-.657534 2.042341 .826899 3.865504 .826899C5.718555 .826899 7.193026-.67746 7.193026-2.49066ZM1.892902-4.632628C1.872976-4.652553 1.803238-4.722291 1.803238-4.742217C1.803238-4.782067 2.610212-5.559153 3.865504-5.559153C4.214197-5.559153 5.13076-5.50934 5.947696-4.742217L3.875467-2.660025L1.892902-4.632628ZM1.603985-.408468C.996264-1.085928 .797011-1.853051 .797011-2.49066C.797011-3.257783 1.085928-3.985056 1.603985-4.572852L3.686177-2.49066L1.603985-.408468ZM6.127024-4.572852C6.60523-4.064757 6.94396-3.307597 6.94396-2.49066C6.94396-1.723537 6.655044-.996264 6.136986-.408468L4.054795-2.49066L6.127024-4.572852ZM5.84807-.348692C5.867995-.328767 5.937733-.259029 5.937733-.239103C5.937733-.199253 5.13076 .577833 3.875467 .577833C3.526775 .577833 2.610212 .52802 1.793275-.239103L3.865504-2.321295L5.84807-.348692Z'/>
<path id='g3-49' d='M2.336239-4.435367C2.336239-4.623661 2.322291-4.630635 2.127024-4.630635C1.680697-4.191283 1.046077-4.184309 .760149-4.184309V-3.93325C.927522-3.93325 1.387796-3.93325 1.771357-4.128518V-.571856C1.771357-.341719 1.771357-.251059 1.073973-.251059H.808966V0C.934496-.006974 1.792279-.027895 2.050311-.027895C2.266501-.027895 3.145205-.006974 3.29863 0V-.251059H3.033624C2.336239-.251059 2.336239-.341719 2.336239-.571856V-4.435367Z'/>
<path id='g3-50' d='M3.521793-1.26924H3.284682C3.263761-1.115816 3.194022-.704359 3.103362-.63462C3.047572-.592777 2.510585-.592777 2.412951-.592777H1.129763C1.862017-1.241345 2.106102-1.436613 2.524533-1.764384C3.040598-2.175841 3.521793-2.608219 3.521793-3.270735C3.521793-4.11457 2.782565-4.630635 1.889913-4.630635C1.025156-4.630635 .439352-4.02391 .439352-3.382316C.439352-3.02665 .739228-2.991781 .808966-2.991781C.976339-2.991781 1.17858-3.110336 1.17858-3.361395C1.17858-3.486924 1.129763-3.731009 .767123-3.731009C.983313-4.226152 1.457534-4.379577 1.785305-4.379577C2.48269-4.379577 2.84533-3.835616 2.84533-3.270735C2.84533-2.66401 2.412951-2.182814 2.189788-1.931756L.509091-.27198C.439352-.209215 .439352-.195268 .439352 0H3.312578L3.521793-1.26924Z'/>
<path id='g1-118' d='M4.662516-3.706102C4.662516-4.244085 4.403487-4.403487 4.224159-4.403487C3.975093-4.403487 3.73599-4.144458 3.73599-3.92528C3.73599-3.795766 3.785803-3.73599 3.895392-3.626401C4.104608-3.427148 4.234122-3.16812 4.234122-2.809465C4.234122-2.391034 3.626401-.109589 2.460772-.109589C1.952677-.109589 1.723537-.458281 1.723537-.976339C1.723537-1.534247 1.992528-2.261519 2.30137-3.088418C2.371108-3.257783 2.420922-3.39726 2.420922-3.58655C2.420922-4.034869 2.102117-4.403487 1.603985-4.403487C.667497-4.403487 .288917-2.958904 .288917-2.86924C.288917-2.769614 .388543-2.769614 .408468-2.769614C.508095-2.769614 .518057-2.789539 .56787-2.948941C.856787-3.955168 1.285181-4.184309 1.574097-4.184309C1.653798-4.184309 1.823163-4.184309 1.823163-3.865504C1.823163-3.616438 1.723537-3.347447 1.653798-3.16812C1.215442-2.012453 1.085928-1.554172 1.085928-1.125778C1.085928-.049813 1.96264 .109589 2.420922 .109589C4.094645 .109589 4.662516-3.188045 4.662516-3.706102Z'/>
<path id='g1-119' d='M4.60274-3.377335C4.652553-3.596513 4.752179-3.965131 4.752179-4.024907C4.752179-4.204234 4.612702-4.293898 4.463263-4.293898C4.343711-4.293898 4.164384-4.214197 4.094645-4.014944C4.064757-3.945205 3.596513-2.042341 3.526775-1.783313C3.457036-1.484433 3.437111-1.305106 3.437111-1.125778C3.437111-1.016189 3.437111-.996264 3.447073-.946451C3.217933-.418431 2.919054-.109589 2.530511-.109589C1.733499-.109589 1.733499-.846824 1.733499-1.016189C1.733499-1.334994 1.783313-1.723537 2.251557-2.948941C2.361146-3.247821 2.420922-3.387298 2.420922-3.58655C2.420922-4.034869 2.092154-4.403487 1.603985-4.403487C.657534-4.403487 .288917-2.958904 .288917-2.86924C.288917-2.769614 .388543-2.769614 .408468-2.769614C.508095-2.769614 .518057-2.789539 .56787-2.948941C.836862-3.875467 1.225405-4.184309 1.574097-4.184309C1.663761-4.184309 1.823163-4.174346 1.823163-3.855542C1.823163-3.606476 1.713574-3.327522 1.643836-3.158157C1.205479-1.982565 1.085928-1.524284 1.085928-1.145704C1.085928-.239103 1.753425 .109589 2.500623 .109589C2.669988 .109589 3.138232 .109589 3.536737-.587796C3.795766 .049813 4.483188 .109589 4.782067 .109589C5.529265 .109589 5.967621-.518057 6.22665-1.115816C6.56538-1.892902 6.884184-3.227895 6.884184-3.706102C6.884184-4.254047 6.615193-4.403487 6.445828-4.403487C6.196762-4.403487 5.947696-4.144458 5.947696-3.92528C5.947696-3.795766 6.007472-3.73599 6.097136-3.656289C6.206725-3.5467 6.455791-3.287671 6.455791-2.809465C6.455791-2.470735 6.166874-1.494396 5.907846-.986301C5.648817-.458281 5.300125-.109589 4.811955-.109589C4.343711-.109589 4.07472-.408468 4.07472-.976339C4.07472-1.255293 4.144458-1.564134 4.184309-1.703611L4.60274-3.377335Z'/>
<path id='g2-40' d='M3.297634 2.391034C3.297634 2.361146 3.297634 2.34122 3.128269 2.171856C1.882939 .916563 1.564134-.966376 1.564134-2.49066C1.564134-4.224159 1.942715-5.957659 3.16812-7.202989C3.297634-7.32254 3.297634-7.342466 3.297634-7.372354C3.297634-7.442092 3.257783-7.47198 3.198007-7.47198C3.098381-7.47198 2.201743-6.794521 1.613948-5.529265C1.105853-4.433375 .986301-3.327522 .986301-2.49066C.986301-1.713574 1.09589-.508095 1.643836 .617684C2.241594 1.843088 3.098381 2.49066 3.198007 2.49066C3.257783 2.49066 3.297634 2.460772 3.297634 2.391034Z'/>
<path id='g2-41' d='M2.879203-2.49066C2.879203-3.267746 2.769614-4.473225 2.221669-5.599004C1.62391-6.824408 .767123-7.47198 .667497-7.47198C.607721-7.47198 .56787-7.43213 .56787-7.372354C.56787-7.342466 .56787-7.32254 .757161-7.143213C1.733499-6.156912 2.30137-4.572852 2.30137-2.49066C2.30137-.787049 1.932752 .966376 .697385 2.221669C.56787 2.34122 .56787 2.361146 .56787 2.391034C.56787 2.450809 .607721 2.49066 .667497 2.49066C.767123 2.49066 1.663761 1.8132 2.251557 .547945C2.759651-.547945 2.879203-1.653798 2.879203-2.49066Z'/>
<path id='g2-43' d='M4.07472-2.291407H6.854296C6.993773-2.291407 7.183064-2.291407 7.183064-2.49066S6.993773-2.689913 6.854296-2.689913H4.07472V-5.479452C4.07472-5.618929 4.07472-5.808219 3.875467-5.808219S3.676214-5.618929 3.676214-5.479452V-2.689913H.886675C.747198-2.689913 .557908-2.689913 .557908-2.49066S.747198-2.291407 .886675-2.291407H3.676214V.498132C3.676214 .637609 3.676214 .826899 3.875467 .826899S4.07472 .637609 4.07472 .498132V-2.291407Z'/>
<path id='g2-61' d='M6.844334-3.257783C6.993773-3.257783 7.183064-3.257783 7.183064-3.457036S6.993773-3.656289 6.854296-3.656289H.886675C.747198-3.656289 .557908-3.656289 .557908-3.457036S.747198-3.257783 .896638-3.257783H6.844334ZM6.854296-1.325031C6.993773-1.325031 7.183064-1.325031 7.183064-1.524284S6.993773-1.723537 6.844334-1.723537H.896638C.747198-1.723537 .557908-1.723537 .557908-1.524284S.747198-1.325031 .886675-1.325031H6.854296Z'/>
</defs>
<g id='page1' transform='matrix(1.5 0 0 1.5 0 0)'>
<use x='-14.536172' y='17.344276' xlink:href='#g2-40'/>
<use x='-10.661799' y='17.344276' xlink:href='#g1-118'/>
<use x='-5.832667' y='18.838657' xlink:href='#g3-49'/>
<use x='.850568' y='17.344276' xlink:href='#g2-43'/>
<use x='10.813182' y='17.344276' xlink:href='#g1-118'/>
<use x='15.642313' y='18.838657' xlink:href='#g3-50'/>
<use x='20.111683' y='17.344276' xlink:href='#g2-41'/>
<use x='26.199922' y='17.344276' xlink:href='#g0-10'/>
<use x='36.162536' y='17.344276' xlink:href='#g1-119'/>
<use x='46.330381' y='17.344276' xlink:href='#g2-61'/>
<use x='56.846461' y='17.344276' xlink:href='#g1-118'/>
<use x='61.675592' y='18.838657' xlink:href='#g3-49'/>
<use x='68.358828' y='17.344276' xlink:href='#g0-10'/>
<use x='78.321441' y='17.344276' xlink:href='#g1-119'/>
<use x='87.93582' y='17.344276' xlink:href='#g2-43'/>
<use x='97.898433' y='17.344276' xlink:href='#g1-118'/>
<use x='102.727565' y='18.838657' xlink:href='#g3-50'/>
<use x='109.4108' y='17.344276' xlink:href='#g0-10'/>
<use x='119.373414' y='17.344276' xlink:href='#g1-119'/>
</g>
</svg>