<?xml version='1.0' encoding='UTF-8'?>
<!-- This file was generated by dvisvgm 3.2 -->
<svg version='1.1' xmlns='http://www.w3.org/2000/svg' xmlns:xlink='http://www.w3.org/1999/xlink' width='259.973971pt' height='35.85056pt' viewBox='220.415585 27.510778 259.973971 35.85056'>
<defs>
<path id='g0-90' d='M5.937733-6.465753C6.027397-6.595268 6.027397-6.615193 6.027397-6.645081C6.027397-6.824408 5.877958-6.824408 5.69863-6.824408H1.135741C.816936-6.824408 .816936-6.794521 .787049-6.535492L.637609-5.190535L.617684-5.061021C.617684-4.921544 .727273-4.871731 .797011-4.871731C.886675-4.871731 .946451-4.941469 .966376-5.021171C1.006227-5.260274 1.09589-5.69863 1.703611-6.07721C2.271482-6.445828 2.968867-6.475716 3.307597-6.475716H4.11457L.368618-.358655C.278954-.229141 .278954-.209215 .278954-.179328C.278954 0 .438356 0 .617684 0H5.728518C6.027397 0 6.027397-.019925 6.067248-.278954L6.336239-2.241594C6.336239-2.351183 6.246575-2.420922 6.166874-2.420922C6.017435-2.420922 5.997509-2.321295 5.967621-2.122042C5.798257-1.305106 5.021171-.348692 3.606476-.348692H2.191781L5.937733-6.465753ZM1.125778-6.475716H1.653798V-6.465753C1.384807-6.316314 1.195517-6.136986 1.075965-6.027397L1.125778-6.475716ZM4.523039-6.475716H5.539228L1.783313-.348692H.767123L4.523039-6.475716ZM5.051059-.358655C5.330012-.518057 5.589041-.737235 5.818182-1.016189C5.798257-.816936 5.778331-.707347 5.728518-.348692H5.051059V-.358655Z'/>
<path id='g5-26' d='M4.144458 14.834371C4.144458 14.366127 4.144458 13.628892 3.516812 12.821918C3.128269 12.323786 2.560399 11.865504 1.872976 11.556663C3.815691 10.620174 4.144458 9.185554 4.144458 8.617684V2.879203C4.144458 2.261519 4.144458 .986301 6.07721 .029888C6.156912-.009963 6.156912-.029888 6.156912-.179328C6.156912-.388543 6.156912-.398506 5.937733-.398506C5.798257-.398506 5.778331-.398506 5.519303-.278954C4.533001 .209215 3.556663 .996264 3.347447 2.211706C3.317559 2.410959 3.317559 2.500623 3.317559 3.16812V7.770859C3.317559 8.079701 3.317559 8.597758 3.307597 8.707347C3.217933 9.753425 2.610212 10.660025 1.474471 11.287671C1.315068 11.377335 1.305106 11.387298 1.305106 11.5467C1.305106 11.716065 1.315068 11.726027 1.454545 11.805729C2.122042 12.174346 3.078456 12.891656 3.277709 14.136986C3.317559 14.366127 3.317559 14.386052 3.317559 14.495641V20.41345C3.317559 21.858032 4.313823 22.804483 5.549191 23.392279C5.768369 23.501868 5.788294 23.501868 5.937733 23.501868C6.146949 23.501868 6.156912 23.501868 6.156912 23.28269C6.156912 23.123288 6.146949 23.113325 6.067248 23.063512C5.65878 22.864259 4.373599 22.216687 4.164384 20.782067C4.144458 20.64259 4.144458 20.533001 4.144458 19.935243V14.834371Z'/>
<path id='g5-27' d='M4.144458 14.674969C4.144458 13.499377 4.742217 12.483188 6.07721 11.765878C6.146949 11.726027 6.156912 11.716065 6.156912 11.556663C6.156912 11.387298 6.146949 11.377335 6.03736 11.317559C4.244085 10.361146 4.144458 8.896638 4.144458 8.607721V2.689913C4.144458 1.24533 3.148194 .298879 1.912827-.288917C1.693649-.398506 1.673724-.398506 1.524284-.398506C1.315068-.398506 1.305106-.388543 1.305106-.179328C1.305106-.029888 1.305106-.009963 1.39477 .039851C1.823163 .249066 3.098381 .896638 3.297634 2.321295C3.317559 2.460772 3.317559 2.570361 3.317559 3.16812V8.268991C3.317559 8.737235 3.317559 9.474471 3.945205 10.281445C4.333748 10.779577 4.901619 11.237858 5.589041 11.5467C3.646326 12.483188 3.317559 13.917808 3.317559 14.485679V20.224159C3.317559 20.742217 3.317559 21.32005 2.739726 22.047323C2.291407 22.60523 1.803238 22.864259 1.374844 23.073474C1.305106 23.113325 1.305106 23.153176 1.305106 23.28269C1.305106 23.491905 1.315068 23.501868 1.524284 23.501868C1.663761 23.501868 1.683686 23.501868 1.942715 23.382316C2.929016 22.894147 3.905355 22.107098 4.11457 20.891656C4.144458 20.692403 4.144458 20.60274 4.144458 19.935243V14.674969Z'/>
<path id='g3-8' d='M3.975093-1.344956C5.519303-1.464508 6.625156-2.391034 6.625156-3.39726C6.625156-4.433375 5.489415-5.339975 3.975093-5.459527V-6.017435C3.975093-6.356164 3.975093-6.495641 4.921544-6.495641H5.250311V-6.804483C4.891656-6.774595 3.975093-6.774595 3.566625-6.774595S2.231631-6.774595 1.872976-6.804483V-6.495641H2.201743C3.148194-6.495641 3.148194-6.366127 3.148194-6.017435V-5.459527C1.62391-5.310087 .557908-4.393524 .557908-3.407223C.557908-2.381071 1.663761-1.494396 3.148194-1.344956V-.787049C3.148194-.448319 3.148194-.308842 2.201743-.308842H1.872976V0C2.231631-.029888 3.148194-.029888 3.556663-.029888S4.891656-.029888 5.250311 0V-.308842H4.921544C3.975093-.308842 3.975093-.438356 3.975093-.787049V-1.344956ZM3.148194-1.574097C1.733499-1.763387 1.554172-2.779577 1.554172-3.39726C1.554172-3.915318 1.653798-5.031133 3.148194-5.230386V-1.574097ZM3.975093-5.240349C5.349938-5.080946 5.628892-4.164384 5.628892-3.407223C5.628892-2.809465 5.479452-1.743462 3.975093-1.564134V-5.240349Z'/>
<path id='g3-40' d='M3.297634 2.391034C3.297634 2.361146 3.297634 2.34122 3.128269 2.171856C1.882939 .916563 1.564134-.966376 1.564134-2.49066C1.564134-4.224159 1.942715-5.957659 3.16812-7.202989C3.297634-7.32254 3.297634-7.342466 3.297634-7.372354C3.297634-7.442092 3.257783-7.47198 3.198007-7.47198C3.098381-7.47198 2.201743-6.794521 1.613948-5.529265C1.105853-4.433375 .986301-3.327522 .986301-2.49066C.986301-1.713574 1.09589-.508095 1.643836 .617684C2.241594 1.843088 3.098381 2.49066 3.198007 2.49066C3.257783 2.49066 3.297634 2.460772 3.297634 2.391034Z'/>
<path id='g3-41' d='M2.879203-2.49066C2.879203-3.267746 2.769614-4.473225 2.221669-5.599004C1.62391-6.824408 .767123-7.47198 .667497-7.47198C.607721-7.47198 .56787-7.43213 .56787-7.372354C.56787-7.342466 .56787-7.32254 .757161-7.143213C1.733499-6.156912 2.30137-4.572852 2.30137-2.49066C2.30137-.787049 1.932752 .966376 .697385 2.221669C.56787 2.34122 .56787 2.361146 .56787 2.391034C.56787 2.450809 .607721 2.49066 .667497 2.49066C.767123 2.49066 1.663761 1.8132 2.251557 .547945C2.759651-.547945 2.879203-1.653798 2.879203-2.49066Z'/>
<path id='g3-43' d='M4.07472-2.291407H6.854296C6.993773-2.291407 7.183064-2.291407 7.183064-2.49066S6.993773-2.689913 6.854296-2.689913H4.07472V-5.479452C4.07472-5.618929 4.07472-5.808219 3.875467-5.808219S3.676214-5.618929 3.676214-5.479452V-2.689913H.886675C.747198-2.689913 .557908-2.689913 .557908-2.49066S.747198-2.291407 .886675-2.291407H3.676214V.498132C3.676214 .637609 3.676214 .826899 3.875467 .826899S4.07472 .637609 4.07472 .498132V-2.291407Z'/>
<path id='g3-50' d='M1.265255-.767123L2.321295-1.793275C3.875467-3.16812 4.473225-3.706102 4.473225-4.702366C4.473225-5.838107 3.576588-6.635118 2.361146-6.635118C1.235367-6.635118 .498132-5.718555 .498132-4.83188C.498132-4.273973 .996264-4.273973 1.026152-4.273973C1.195517-4.273973 1.544209-4.393524 1.544209-4.801993C1.544209-5.061021 1.364882-5.32005 1.016189-5.32005C.936488-5.32005 .916563-5.32005 .886675-5.310087C1.115816-5.957659 1.653798-6.326276 2.231631-6.326276C3.138232-6.326276 3.566625-5.519303 3.566625-4.702366C3.566625-3.905355 3.068493-3.118306 2.520548-2.500623L.607721-.368618C.498132-.259029 .498132-.239103 .498132 0H4.194271L4.473225-1.733499H4.224159C4.174346-1.43462 4.104608-.996264 4.004981-.846824C3.935243-.767123 3.277709-.767123 3.058531-.767123H1.265255Z'/>
<path id='g3-61' d='M6.844334-3.257783C6.993773-3.257783 7.183064-3.257783 7.183064-3.457036S6.993773-3.656289 6.854296-3.656289H.886675C.747198-3.656289 .557908-3.656289 .557908-3.457036S.747198-3.257783 .896638-3.257783H6.844334ZM6.854296-1.325031C6.993773-1.325031 7.183064-1.325031 7.183064-1.524284S6.993773-1.723537 6.844334-1.723537H.896638C.747198-1.723537 .557908-1.723537 .557908-1.524284S.747198-1.325031 .886675-1.325031H6.854296Z'/>
<path id='g1-50' d='M5.459527-2.291407C5.628892-2.291407 5.808219-2.291407 5.808219-2.49066S5.628892-2.689913 5.459527-2.689913H1.235367C1.354919-4.024907 2.500623-4.98132 3.905355-4.98132H5.459527C5.628892-4.98132 5.808219-4.98132 5.808219-5.180573S5.628892-5.379826 5.459527-5.379826H3.88543C2.181818-5.379826 .826899-4.084682 .826899-2.49066S2.181818 .398506 3.88543 .398506H5.459527C5.628892 .398506 5.808219 .398506 5.808219 .199253S5.628892 0 5.459527 0H3.905355C2.500623 0 1.354919-.956413 1.235367-2.291407H5.459527Z'/>
<path id='g1-106' d='M1.58406-7.113325C1.58406-7.292653 1.58406-7.47198 1.384807-7.47198S1.185554-7.292653 1.185554-7.113325V2.132005C1.185554 2.311333 1.185554 2.49066 1.384807 2.49066S1.58406 2.311333 1.58406 2.132005V-7.113325Z'/>
<path id='g4-3' d='M2.915068-4.825903C2.866252-4.96538 2.789539-4.972354 2.726775-4.972354C2.587298-4.972354 2.566376-4.916563 2.531507-4.811955L1.03213-.704359C.899626-.334745 .613699-.258032 .313823-.251059V0C.530012-.020922 .746202-.027895 .962391-.027895C1.185554-.027895 1.687671-.006974 1.792279 0V-.251059C1.429639-.258032 1.276214-.425405 1.276214-.592777C1.276214-.63462 1.276214-.648568 1.311083-.732254L2.503611-4.009963L3.758904-.571856C3.793773-.481196 3.793773-.467248 3.793773-.446326C3.793773-.251059 3.410212-.251059 3.221918-.251059V0C3.57061-.013948 4.016936-.027895 4.267995-.027895C4.553923-.027895 5.05604-.006974 5.132752 0V-.251059C4.686426-.251059 4.581818-.251059 4.47721-.530012L2.915068-4.825903Z'/>
<path id='g2-11' d='M4.752179-2.351183C4.752179-3.915318 3.825654-4.403487 3.088418-4.403487C1.723537-4.403487 .408468-2.978829 .408468-1.574097C.408468-.647572 1.006227 .109589 2.022416 .109589C2.650062 .109589 3.367372-.119552 4.124533-.727273C4.254047-.199253 4.582814 .109589 5.031133 .109589C5.559153 .109589 5.867995-.438356 5.867995-.597758C5.867995-.667497 5.808219-.697385 5.748443-.697385C5.678705-.697385 5.648817-.667497 5.618929-.597758C5.439601-.109589 5.080946-.109589 5.061021-.109589C4.752179-.109589 4.752179-.886675 4.752179-1.125778C4.752179-1.334994 4.752179-1.354919 4.851806-1.474471C5.788294-2.650062 5.997509-3.805729 5.997509-3.815691C5.997509-3.835616 5.987547-3.915318 5.877958-3.915318C5.778331-3.915318 5.778331-3.88543 5.728518-3.706102C5.549191-3.078456 5.220423-2.321295 4.752179-1.733499V-2.351183ZM4.084682-.986301C3.20797-.219178 2.440847-.109589 2.042341-.109589C1.444583-.109589 1.145704-.557908 1.145704-1.195517C1.145704-1.683686 1.404732-2.759651 1.723537-3.267746C2.191781-3.995019 2.729763-4.184309 3.078456-4.184309C4.064757-4.184309 4.064757-2.879203 4.064757-2.102117C4.064757-1.733499 4.064757-1.155666 4.084682-.986301Z'/>
<path id='g2-12' d='M5.728518-5.668742C5.728518-6.41594 5.180573-7.033624 4.373599-7.033624C3.795766-7.033624 3.516812-6.874222 3.16812-6.615193C2.620174-6.216687 2.072229-5.250311 1.882939-4.493151L.298879 1.833126C.288917 1.872976 .33873 1.932752 .418431 1.932752S.52802 1.912827 .537983 1.882939L1.235367-.86675C1.424658-.268991 1.863014 .099626 2.590286 .099626S4.064757-.249066 4.513076-.687422C4.991283-1.145704 5.310087-1.783313 5.310087-2.520548C5.310087-3.237858 4.941469-3.755915 4.582814-4.004981C5.160648-4.333748 5.728518-4.951432 5.728518-5.668742ZM3.935243-4.014944C3.805729-3.965131 3.696139-3.945205 3.457036-3.945205C3.317559-3.945205 3.118306-3.935243 3.01868-3.985056C3.038605-4.084682 3.39726-4.064757 3.506849-4.064757C3.716065-4.064757 3.805729-4.064757 3.935243-4.014944ZM5.17061-5.897883C5.17061-5.200498 4.79203-4.483188 4.273973-4.174346C4.004981-4.273973 3.805729-4.293898 3.506849-4.293898C3.297634-4.293898 2.739726-4.303861 2.739726-3.975093C2.729763-3.696139 3.247821-3.726027 3.427148-3.726027C3.795766-3.726027 3.945205-3.73599 4.244085-3.855542C4.622665-3.496887 4.672478-3.188045 4.682441-2.729763C4.702366-2.15193 4.463263-1.404732 4.184309-1.016189C3.795766-.478207 3.128269-.119552 2.560399-.119552C1.803238-.119552 1.424658-.697385 1.424658-1.404732C1.424658-1.504359 1.424658-1.653798 1.474471-1.843088L2.11208-4.363636C2.331258-5.220423 3.048568-6.804483 4.244085-6.804483C4.821918-6.804483 5.17061-6.495641 5.17061-5.897883Z'/>
<path id='g2-26' d='M.328767 1.723537C.298879 1.843088 .298879 1.863014 .298879 1.882939C.298879 2.032379 .408468 2.15193 .577833 2.15193C.787049 2.15193 .9066 1.972603 .926526 1.942715C.976339 1.853051 1.295143 .518057 1.564134-.557908C1.763387-.159402 2.082192 .109589 2.550436 .109589C3.716065 .109589 5.001245-1.295143 5.001245-2.779577C5.001245-3.835616 4.343711-4.403487 3.616438-4.403487C2.650062-4.403487 1.603985-3.407223 1.305106-2.191781L.328767 1.723537ZM2.540473-.109589C1.843088-.109589 1.683686-.9066 1.683686-.996264C1.683686-1.036115 1.733499-1.235367 1.763387-1.364882C2.042341-2.480697 2.141968-2.839352 2.361146-3.237858C2.789539-3.965131 3.287671-4.184309 3.596513-4.184309C3.965131-4.184309 4.283935-3.895392 4.283935-3.20797C4.283935-2.660025 3.995019-1.544209 3.726027-1.05604C3.39726-.428394 2.919054-.109589 2.540473-.109589Z'/>
<path id='g2-59' d='M2.022416-.009963C2.022416-.667497 1.77335-1.05604 1.384807-1.05604C1.05604-1.05604 .856787-.806974 .856787-.52802C.856787-.259029 1.05604 0 1.384807 0C1.504359 0 1.633873-.039851 1.733499-.129514C1.763387-.14944 1.77335-.159402 1.783313-.159402S1.803238-.14944 1.803238-.009963C1.803238 .727273 1.454545 1.325031 1.125778 1.653798C1.016189 1.763387 1.016189 1.783313 1.016189 1.8132C1.016189 1.882939 1.066002 1.92279 1.115816 1.92279C1.225405 1.92279 2.022416 1.155666 2.022416-.009963Z'/>
<path id='g2-83' d='M6.425903-6.924035C6.425903-6.953923 6.405978-7.023661 6.316314-7.023661C6.266501-7.023661 6.256538-7.013699 6.136986-6.874222L5.65878-6.306351C5.399751-6.774595 4.881694-7.023661 4.234122-7.023661C2.968867-7.023661 1.77335-5.877958 1.77335-4.672478C1.77335-3.865504 2.30137-3.407223 2.809465-3.257783L3.875467-2.978829C4.244085-2.889166 4.79203-2.739726 4.79203-1.92279C4.79203-1.026152 3.975093-.089664 2.998755-.089664C2.361146-.089664 1.255293-.308842 1.255293-1.544209C1.255293-1.783313 1.305106-2.022416 1.315068-2.082192C1.325031-2.122042 1.334994-2.132005 1.334994-2.15193C1.334994-2.251557 1.265255-2.261519 1.215442-2.261519S1.145704-2.251557 1.115816-2.221669C1.075965-2.181818 .518057 .089664 .518057 .119552C.518057 .179328 .56787 .219178 .627646 .219178C.67746 .219178 .687422 .209215 .806974 .069738L1.295143-.498132C1.723537 .079701 2.400996 .219178 2.978829 .219178C4.333748 .219178 5.50934-1.105853 5.50934-2.34122C5.50934-3.028643 5.17061-3.367372 5.021171-3.506849C4.79203-3.73599 4.64259-3.775841 3.755915-4.004981C3.536737-4.064757 3.178082-4.164384 3.088418-4.184309C2.819427-4.273973 2.480697-4.562889 2.480697-5.090909C2.480697-5.897883 3.277709-6.744707 4.224159-6.744707C5.051059-6.744707 5.65878-6.316314 5.65878-5.200498C5.65878-4.881694 5.618929-4.702366 5.618929-4.64259C5.618929-4.632628 5.618929-4.542964 5.738481-4.542964C5.838107-4.542964 5.84807-4.572852 5.88792-4.742217L6.425903-6.924035Z'/>
</defs>
<g id='page1' transform='matrix(1.5 0 0 1.5 0 0)'>
<use x='146.425666' y='32.786475' xlink:href='#g2-83'/>
<use x='152.534711' y='34.280855' xlink:href='#g4-3'/>
<use x='161.251991' y='32.786475' xlink:href='#g3-61'/>
<use x='171.768071' y='18.739024' xlink:href='#g5-26'/>
<use x='180.43558' y='26.046673' xlink:href='#g3-50'/>
<use x='185.416919' y='26.046673' xlink:href='#g3-40'/>
<use x='189.291293' y='26.046673' xlink:href='#g2-11'/>
<use x='195.701291' y='26.046673' xlink:href='#g2-59'/>
<use x='200.129099' y='26.046673' xlink:href='#g2-12'/>
<use x='206.290028' y='26.046673' xlink:href='#g3-41'/>
<rect x='180.43558' y='30.096565' height='.398484' width='29.728803'/>
<use x='182.801707' y='39.620345' xlink:href='#g3-40'/>
<use x='186.67608' y='39.620345' xlink:href='#g2-11'/>
<use x='193.086079' y='39.620345' xlink:href='#g2-59'/>
<use x='197.513887' y='39.620345' xlink:href='#g2-11'/>
<use x='203.923886' y='39.620345' xlink:href='#g3-41'/>
<use x='213.573763' y='32.786475' xlink:href='#g3-43'/>
<use x='223.536376' y='32.786475' xlink:href='#g3-50'/>
<use x='228.517715' y='32.786475' xlink:href='#g2-26'/>
<use x='233.668554' y='32.786475' xlink:href='#g1-106'/>
<use x='236.435963' y='32.786475' xlink:href='#g2-12'/>
<use x='244.810758' y='32.786475' xlink:href='#g3-43'/>
<use x='254.773371' y='32.786475' xlink:href='#g2-26'/>
<use x='259.92421' y='32.786475' xlink:href='#g2-11'/>
<use x='269.101541' y='32.786475' xlink:href='#g1-50'/>
<use x='278.510656' y='32.786475' xlink:href='#g3-8'/>
<use x='285.705916' y='32.786475' xlink:href='#g2-59'/>
<use x='290.133724' y='32.786475' xlink:href='#g2-26'/>
<use x='298.051895' y='32.786475' xlink:href='#g1-50'/>
<use x='307.46101' y='32.786475' xlink:href='#g0-90'/>
<use x='314.102792' y='18.739024' xlink:href='#g5-27'/>
</g>
</svg>