<?xml version='1.0' encoding='UTF-8'?>
<!-- This file was generated by dvisvgm 3.2 -->
<svg version='1.1' xmlns='http://www.w3.org/2000/svg' xmlns:xlink='http://www.w3.org/1999/xlink' width='22.61858pt' height='11.908203pt' viewBox='-21.191556 19.411184 22.61858 11.908203'>
<defs>
<path id='g1-106' d='M3.061519-4.358655C3.061519-4.47721 2.970859-4.623661 2.782565-4.623661C2.580324-4.623661 2.39203-4.428394 2.39203-4.2401C2.39203-4.128518 2.475716-3.975093 2.670984-3.975093C2.859278-3.975093 3.061519-4.156413 3.061519-4.358655ZM1.583064 .341719C1.464508 .822914 1.094894 1.227397 .683437 1.227397C.592777 1.227397 .509091 1.21345 .432379 1.185554C.613699 1.101868 .669489 .934496 .669489 .829888C.669489 .662516 .536986 .571856 .397509 .571856C.18132 .571856 0 .760149 0 .983313C0 1.248319 .27198 1.422665 .690411 1.422665S1.924782 1.171606 2.140971 .320797L2.768618-2.175841C2.789539-2.252553 2.803487-2.315318 2.803487-2.419925C2.803487-2.803487 2.475716-3.075467 2.057285-3.075467C1.283188-3.075467 .836862-2.106102 .836862-2.008468C.836862-1.917808 .934496-1.917808 .955417-1.917808C1.039103-1.917808 1.046077-1.93873 1.094894-2.043337C1.26924-2.447821 1.63188-2.880199 2.036364-2.880199C2.21071-2.880199 2.273474-2.761644 2.273474-2.538481C2.273474-2.461768 2.259527-2.364134 2.252553-2.329265L1.583064 .341719Z'/>
<path id='g2-40' d='M2.475716-5.230386C1.150685-4.29589 .801993-2.817435 .801993-1.750436C.801993-.767123 1.094894 .760149 2.475716 1.736488C2.531507 1.736488 2.615193 1.736488 2.615193 1.652802C2.615193 1.610959 2.594271 1.597011 2.545455 1.548194C1.617933 .711333 1.276214-.474222 1.276214-1.743462C1.276214-3.626401 1.994521-4.546949 2.566376-5.063014C2.594271-5.090909 2.615193-5.111831 2.615193-5.1467C2.615193-5.230386 2.531507-5.230386 2.475716-5.230386Z'/>
<path id='g2-41' d='M.627646-5.230386C.578829-5.230386 .495143-5.230386 .495143-5.1467C.495143-5.111831 .516065-5.090909 .557908-5.042092C1.157659-4.491158 1.827148-3.549689 1.827148-1.750436C1.827148-.292902 1.373848 .808966 .620672 1.492403C.502117 1.610959 .495143 1.617933 .495143 1.652802S.516065 1.736488 .585803 1.736488C.669489 1.736488 1.332005 1.276214 1.792279 .404483C2.099128-.174346 2.30137-.927522 2.30137-1.743462C2.30137-2.726775 2.008468-4.254047 .627646-5.230386Z'/>
<path id='g0-11' d='M4.752179-2.351183C4.752179-3.915318 3.825654-4.403487 3.088418-4.403487C1.723537-4.403487 .408468-2.978829 .408468-1.574097C.408468-.647572 1.006227 .109589 2.022416 .109589C2.650062 .109589 3.367372-.119552 4.124533-.727273C4.254047-.199253 4.582814 .109589 5.031133 .109589C5.559153 .109589 5.867995-.438356 5.867995-.597758C5.867995-.667497 5.808219-.697385 5.748443-.697385C5.678705-.697385 5.648817-.667497 5.618929-.597758C5.439601-.109589 5.080946-.109589 5.061021-.109589C4.752179-.109589 4.752179-.886675 4.752179-1.125778C4.752179-1.334994 4.752179-1.354919 4.851806-1.474471C5.788294-2.650062 5.997509-3.805729 5.997509-3.815691C5.997509-3.835616 5.987547-3.915318 5.877958-3.915318C5.778331-3.915318 5.778331-3.88543 5.728518-3.706102C5.549191-3.078456 5.220423-2.321295 4.752179-1.733499V-2.351183ZM4.084682-.986301C3.20797-.219178 2.440847-.109589 2.042341-.109589C1.444583-.109589 1.145704-.557908 1.145704-1.195517C1.145704-1.683686 1.404732-2.759651 1.723537-3.267746C2.191781-3.995019 2.729763-4.184309 3.078456-4.184309C4.064757-4.184309 4.064757-2.879203 4.064757-2.102117C4.064757-1.733499 4.064757-1.155666 4.084682-.986301Z'/>
</defs>
<g id='page1' transform='matrix(1.5 0 0 1.5 0 0)'>
<use x='-14.536172' y='17.344276' xlink:href='#g0-11'/>
<use x='-8.163053' y='19.143103' xlink:href='#g2-40'/>
<use x='-5.04971' y='19.143103' xlink:href='#g1-106'/>
<use x='-1.350021' y='19.143103' xlink:href='#g2-41'/>
</g>
</svg>