<?xml version='1.0' encoding='UTF-8'?>
<!-- This file was generated by dvisvgm 3.2 -->
<svg version='1.1' xmlns='http://www.w3.org/2000/svg' xmlns:xlink='http://www.w3.org/1999/xlink' width='59.605493pt' height='12.851806pt' viewBox='-22.282465 16.063737 59.605493 12.851806'>
<defs>
<path id='g2-49' d='M2.929016-6.37609C2.929016-6.615193 2.929016-6.635118 2.699875-6.635118C2.082192-5.997509 1.205479-5.997509 .886675-5.997509V-5.688667C1.085928-5.688667 1.673724-5.688667 2.191781-5.947696V-.787049C2.191781-.428394 2.161893-.308842 1.265255-.308842H.946451V0C1.295143-.029888 2.161893-.029888 2.560399-.029888S3.825654-.029888 4.174346 0V-.308842H3.855542C2.958904-.308842 2.929016-.418431 2.929016-.787049V-6.37609Z'/>
<path id='g0-0' d='M6.56538-2.291407C6.734745-2.291407 6.914072-2.291407 6.914072-2.49066S6.734745-2.689913 6.56538-2.689913H1.175592C1.006227-2.689913 .826899-2.689913 .826899-2.49066S1.006227-2.291407 1.175592-2.291407H6.56538Z'/>
<path id='g0-20' d='M6.724782-5.917808C6.834371-5.967621 6.914072-6.017435 6.914072-6.136986C6.914072-6.246575 6.834371-6.336239 6.714819-6.336239C6.665006-6.336239 6.575342-6.296389 6.535492-6.276463L1.026152-3.676214C.856787-3.596513 .826899-3.526775 .826899-3.447073C.826899-3.35741 .886675-3.287671 1.026152-3.227895L6.535492-.637609C6.665006-.56787 6.684932-.56787 6.714819-.56787C6.824408-.56787 6.914072-.657534 6.914072-.767123C6.914072-.856787 6.874222-.916563 6.704857-.996264L1.494396-3.447073L6.724782-5.917808ZM6.56538 1.364882C6.734745 1.364882 6.914072 1.364882 6.914072 1.165629S6.704857 .966376 6.555417 .966376H1.185554C1.036115 .966376 .826899 .966376 .826899 1.165629S1.006227 1.364882 1.175592 1.364882H6.56538Z'/>
<path id='g1-112' d='M.448319 1.215442C.368618 1.554172 .348692 1.62391-.089664 1.62391C-.209215 1.62391-.318804 1.62391-.318804 1.8132C-.318804 1.892902-.268991 1.932752-.18929 1.932752C.079701 1.932752 .368618 1.902864 .647572 1.902864C.976339 1.902864 1.315068 1.932752 1.633873 1.932752C1.683686 1.932752 1.8132 1.932752 1.8132 1.733499C1.8132 1.62391 1.713574 1.62391 1.574097 1.62391C1.075965 1.62391 1.075965 1.554172 1.075965 1.464508C1.075965 1.344956 1.494396-.278954 1.564134-.52802C1.693649-.239103 1.972603 .109589 2.480697 .109589C3.636364 .109589 4.881694-1.344956 4.881694-2.809465C4.881694-3.745953 4.313823-4.403487 3.556663-4.403487C3.058531-4.403487 2.580324-4.044832 2.251557-3.656289C2.15193-4.194271 1.723537-4.403487 1.354919-4.403487C.896638-4.403487 .707347-4.014944 .617684-3.835616C.438356-3.496887 .308842-2.899128 .308842-2.86924C.308842-2.769614 .408468-2.769614 .428394-2.769614C.52802-2.769614 .537983-2.779577 .597758-2.998755C.767123-3.706102 .966376-4.184309 1.325031-4.184309C1.494396-4.184309 1.633873-4.104608 1.633873-3.726027C1.633873-3.496887 1.603985-3.387298 1.564134-3.217933L.448319 1.215442ZM2.201743-3.108344C2.271482-3.377335 2.540473-3.656289 2.719801-3.805729C3.068493-4.11457 3.35741-4.184309 3.526775-4.184309C3.92528-4.184309 4.164384-3.835616 4.164384-3.247821S3.835616-1.514321 3.656289-1.135741C3.317559-.438356 2.839352-.109589 2.470735-.109589C1.8132-.109589 1.683686-.936488 1.683686-.996264C1.683686-1.016189 1.683686-1.036115 1.713574-1.155666L2.201743-3.108344Z'/>
<path id='g1-114' d='M.876712-.587796C.846824-.438356 .787049-.209215 .787049-.159402C.787049 .019925 .926526 .109589 1.075965 .109589C1.195517 .109589 1.374844 .029888 1.444583-.169365C1.464508-.209215 1.803238-1.564134 1.843088-1.743462C1.92279-2.072229 2.102117-2.769614 2.161893-3.038605C2.201743-3.16812 2.480697-3.636364 2.719801-3.855542C2.799502-3.92528 3.088418-4.184309 3.516812-4.184309C3.775841-4.184309 3.92528-4.064757 3.935243-4.064757C3.636364-4.014944 3.417186-3.775841 3.417186-3.516812C3.417186-3.35741 3.526775-3.16812 3.795766-3.16812S4.343711-3.39726 4.343711-3.755915C4.343711-4.104608 4.024907-4.403487 3.516812-4.403487C2.86924-4.403487 2.430884-3.915318 2.241594-3.636364C2.161893-4.084682 1.803238-4.403487 1.334994-4.403487C.876712-4.403487 .687422-4.014944 .597758-3.835616C.418431-3.496887 .288917-2.899128 .288917-2.86924C.288917-2.769614 .388543-2.769614 .408468-2.769614C.508095-2.769614 .518057-2.779577 .577833-2.998755C.747198-3.706102 .946451-4.184309 1.305106-4.184309C1.474471-4.184309 1.613948-4.104608 1.613948-3.726027C1.613948-3.516812 1.58406-3.407223 1.454545-2.889166L.876712-.587796Z'/>
</defs>
<g id='page1' transform='matrix(1.5 0 0 1.5 0 0)'>
<use x='-14.536172' y='17.344276' xlink:href='#g1-112'/>
<use x='-6.756375' y='17.344276' xlink:href='#g0-20'/>
<use x='3.759705' y='17.344276' xlink:href='#g1-114'/>
<use x='10.745059' y='17.344276' xlink:href='#g0-0'/>
<use x='20.707672' y='17.344276' xlink:href='#g2-49'/>
</g>
</svg>