<?xml version='1.0' encoding='UTF-8'?>
<!-- This file was generated by dvisvgm 3.2 -->
<svg version='1.1' xmlns='http://www.w3.org/2000/svg' xmlns:xlink='http://www.w3.org/1999/xlink' width='38.743069pt' height='14.94396pt' viewBox='-21.027173 14.808444 38.743069 14.94396'>
<defs>
<path id='g1-40' d='M3.297634 2.391034C3.297634 2.361146 3.297634 2.34122 3.128269 2.171856C1.882939 .916563 1.564134-.966376 1.564134-2.49066C1.564134-4.224159 1.942715-5.957659 3.16812-7.202989C3.297634-7.32254 3.297634-7.342466 3.297634-7.372354C3.297634-7.442092 3.257783-7.47198 3.198007-7.47198C3.098381-7.47198 2.201743-6.794521 1.613948-5.529265C1.105853-4.433375 .986301-3.327522 .986301-2.49066C.986301-1.713574 1.09589-.508095 1.643836 .617684C2.241594 1.843088 3.098381 2.49066 3.198007 2.49066C3.257783 2.49066 3.297634 2.460772 3.297634 2.391034Z'/>
<path id='g1-41' d='M2.879203-2.49066C2.879203-3.267746 2.769614-4.473225 2.221669-5.599004C1.62391-6.824408 .767123-7.47198 .667497-7.47198C.607721-7.47198 .56787-7.43213 .56787-7.372354C.56787-7.342466 .56787-7.32254 .757161-7.143213C1.733499-6.156912 2.30137-4.572852 2.30137-2.49066C2.30137-.787049 1.932752 .966376 .697385 2.221669C.56787 2.34122 .56787 2.361146 .56787 2.391034C.56787 2.450809 .607721 2.49066 .667497 2.49066C.767123 2.49066 1.663761 1.8132 2.251557 .547945C2.759651-.547945 2.879203-1.653798 2.879203-2.49066Z'/>
<path id='g1-50' d='M1.265255-.767123L2.321295-1.793275C3.875467-3.16812 4.473225-3.706102 4.473225-4.702366C4.473225-5.838107 3.576588-6.635118 2.361146-6.635118C1.235367-6.635118 .498132-5.718555 .498132-4.83188C.498132-4.273973 .996264-4.273973 1.026152-4.273973C1.195517-4.273973 1.544209-4.393524 1.544209-4.801993C1.544209-5.061021 1.364882-5.32005 1.016189-5.32005C.936488-5.32005 .916563-5.32005 .886675-5.310087C1.115816-5.957659 1.653798-6.326276 2.231631-6.326276C3.138232-6.326276 3.566625-5.519303 3.566625-4.702366C3.566625-3.905355 3.068493-3.118306 2.520548-2.500623L.607721-.368618C.498132-.259029 .498132-.239103 .498132 0H4.194271L4.473225-1.733499H4.224159C4.174346-1.43462 4.104608-.996264 4.004981-.846824C3.935243-.767123 3.277709-.767123 3.058531-.767123H1.265255Z'/>
<path id='g0-69' d='M7.053549-2.321295C7.073474-2.371108 7.103362-2.440847 7.103362-2.460772C7.103362-2.470735 7.103362-2.570361 6.983811-2.570361C6.894147-2.570361 6.874222-2.510585 6.854296-2.450809C6.206725-.976339 5.838107-.308842 4.134496-.308842H2.67995C2.540473-.308842 2.520548-.308842 2.460772-.318804C2.361146-.328767 2.331258-.33873 2.331258-.418431C2.331258-.448319 2.331258-.468244 2.381071-.647572L3.058531-3.367372H4.044832C4.891656-3.367372 4.891656-3.158157 4.891656-2.909091C4.891656-2.839352 4.891656-2.719801 4.821918-2.420922C4.801993-2.371108 4.79203-2.34122 4.79203-2.311333C4.79203-2.261519 4.83188-2.201743 4.921544-2.201743C5.001245-2.201743 5.031133-2.251557 5.070984-2.400996L5.638854-4.732254C5.638854-4.79203 5.589041-4.841843 5.519303-4.841843C5.429639-4.841843 5.409714-4.782067 5.379826-4.662516C5.17061-3.905355 4.991283-3.676214 4.07472-3.676214H3.138232L3.73599-6.07721C3.825654-6.425903 3.835616-6.465753 4.273973-6.465753H5.678705C6.894147-6.465753 7.193026-6.176837 7.193026-5.3599C7.193026-5.120797 7.193026-5.100872 7.153176-4.83188C7.153176-4.772105 7.143213-4.702366 7.143213-4.652553S7.173101-4.533001 7.262765-4.533001C7.372354-4.533001 7.382316-4.592777 7.402242-4.782067L7.601494-6.505604C7.631382-6.774595 7.581569-6.774595 7.332503-6.774595H2.30137C2.102117-6.774595 2.002491-6.774595 2.002491-6.575342C2.002491-6.465753 2.092154-6.465753 2.281445-6.465753C2.650062-6.465753 2.929016-6.465753 2.929016-6.286426C2.929016-6.246575 2.929016-6.22665 2.879203-6.047323L1.564134-.777086C1.464508-.388543 1.444583-.308842 .657534-.308842C.488169-.308842 .37858-.308842 .37858-.119552C.37858 0 .468244 0 .657534 0H5.828144C6.057285 0 6.067248-.009963 6.136986-.169365L7.053549-2.321295Z'/>
<path id='g0-83' d='M6.425903-6.924035C6.425903-6.953923 6.405978-7.023661 6.316314-7.023661C6.266501-7.023661 6.256538-7.013699 6.136986-6.874222L5.65878-6.306351C5.399751-6.774595 4.881694-7.023661 4.234122-7.023661C2.968867-7.023661 1.77335-5.877958 1.77335-4.672478C1.77335-3.865504 2.30137-3.407223 2.809465-3.257783L3.875467-2.978829C4.244085-2.889166 4.79203-2.739726 4.79203-1.92279C4.79203-1.026152 3.975093-.089664 2.998755-.089664C2.361146-.089664 1.255293-.308842 1.255293-1.544209C1.255293-1.783313 1.305106-2.022416 1.315068-2.082192C1.325031-2.122042 1.334994-2.132005 1.334994-2.15193C1.334994-2.251557 1.265255-2.261519 1.215442-2.261519S1.145704-2.251557 1.115816-2.221669C1.075965-2.181818 .518057 .089664 .518057 .119552C.518057 .179328 .56787 .219178 .627646 .219178C.67746 .219178 .687422 .209215 .806974 .069738L1.295143-.498132C1.723537 .079701 2.400996 .219178 2.978829 .219178C4.333748 .219178 5.50934-1.105853 5.50934-2.34122C5.50934-3.028643 5.17061-3.367372 5.021171-3.506849C4.79203-3.73599 4.64259-3.775841 3.755915-4.004981C3.536737-4.064757 3.178082-4.164384 3.088418-4.184309C2.819427-4.273973 2.480697-4.562889 2.480697-5.090909C2.480697-5.897883 3.277709-6.744707 4.224159-6.744707C5.051059-6.744707 5.65878-6.316314 5.65878-5.200498C5.65878-4.881694 5.618929-4.702366 5.618929-4.64259C5.618929-4.632628 5.618929-4.542964 5.738481-4.542964C5.838107-4.542964 5.84807-4.572852 5.88792-4.742217L6.425903-6.924035Z'/>
</defs>
<g id='page1' transform='matrix(1.5 0 0 1.5 0 0)'>
<use x='-14.536172' y='17.344276' xlink:href='#g0-83'/>
<use x='-7.85291' y='17.344276' xlink:href='#g0-69'/>
<use x='.075682' y='17.344276' xlink:href='#g1-40'/>
<use x='3.950056' y='17.344276' xlink:href='#g1-50'/>
<use x='8.931395' y='17.344276' xlink:href='#g1-41'/>
</g>
</svg>