<?xml version='1.0' encoding='UTF-8'?>
<!-- This file was generated by dvisvgm 3.2 -->
<svg version='1.1' xmlns='http://www.w3.org/2000/svg' xmlns:xlink='http://www.w3.org/1999/xlink' width='355.199675pt' height='44.816936pt' viewBox='172.38262 27.510778 355.199675 44.816936'>
<defs>
<path id='g8-40' d='M2.475716-5.230386C1.150685-4.29589 .801993-2.817435 .801993-1.750436C.801993-.767123 1.094894 .760149 2.475716 1.736488C2.531507 1.736488 2.615193 1.736488 2.615193 1.652802C2.615193 1.610959 2.594271 1.597011 2.545455 1.548194C1.617933 .711333 1.276214-.474222 1.276214-1.743462C1.276214-3.626401 1.994521-4.546949 2.566376-5.063014C2.594271-5.090909 2.615193-5.111831 2.615193-5.1467C2.615193-5.230386 2.531507-5.230386 2.475716-5.230386Z'/>
<path id='g8-41' d='M.627646-5.230386C.578829-5.230386 .495143-5.230386 .495143-5.1467C.495143-5.111831 .516065-5.090909 .557908-5.042092C1.157659-4.491158 1.827148-3.549689 1.827148-1.750436C1.827148-.292902 1.373848 .808966 .620672 1.492403C.502117 1.610959 .495143 1.617933 .495143 1.652802S.516065 1.736488 .585803 1.736488C.669489 1.736488 1.332005 1.276214 1.792279 .404483C2.099128-.174346 2.30137-.927522 2.30137-1.743462C2.30137-2.726775 2.008468-4.254047 .627646-5.230386Z'/>
<path id='g8-43' d='M3.228892-1.57609H5.362889C5.453549-1.57609 5.620922-1.57609 5.620922-1.743462C5.620922-1.917808 5.460523-1.917808 5.362889-1.917808H3.228892V-4.05878C3.228892-4.14944 3.228892-4.316812 3.061519-4.316812C2.887173-4.316812 2.887173-4.156413 2.887173-4.05878V-1.917808H.746202C.655542-1.917808 .488169-1.917808 .488169-1.750436C.488169-1.57609 .648568-1.57609 .746202-1.57609H2.887173V.564882C2.887173 .655542 2.887173 .822914 3.054545 .822914C3.228892 .822914 3.228892 .662516 3.228892 .564882V-1.57609Z'/>
<path id='g8-49' d='M2.336239-4.435367C2.336239-4.623661 2.322291-4.630635 2.127024-4.630635C1.680697-4.191283 1.046077-4.184309 .760149-4.184309V-3.93325C.927522-3.93325 1.387796-3.93325 1.771357-4.128518V-.571856C1.771357-.341719 1.771357-.251059 1.073973-.251059H.808966V0C.934496-.006974 1.792279-.027895 2.050311-.027895C2.266501-.027895 3.145205-.006974 3.29863 0V-.251059H3.033624C2.336239-.251059 2.336239-.341719 2.336239-.571856V-4.435367Z'/>
<path id='g4-11' d='M4.752179-2.351183C4.752179-3.915318 3.825654-4.403487 3.088418-4.403487C1.723537-4.403487 .408468-2.978829 .408468-1.574097C.408468-.647572 1.006227 .109589 2.022416 .109589C2.650062 .109589 3.367372-.119552 4.124533-.727273C4.254047-.199253 4.582814 .109589 5.031133 .109589C5.559153 .109589 5.867995-.438356 5.867995-.597758C5.867995-.667497 5.808219-.697385 5.748443-.697385C5.678705-.697385 5.648817-.667497 5.618929-.597758C5.439601-.109589 5.080946-.109589 5.061021-.109589C4.752179-.109589 4.752179-.886675 4.752179-1.125778C4.752179-1.334994 4.752179-1.354919 4.851806-1.474471C5.788294-2.650062 5.997509-3.805729 5.997509-3.815691C5.997509-3.835616 5.987547-3.915318 5.877958-3.915318C5.778331-3.915318 5.778331-3.88543 5.728518-3.706102C5.549191-3.078456 5.220423-2.321295 4.752179-1.733499V-2.351183ZM4.084682-.986301C3.20797-.219178 2.440847-.109589 2.042341-.109589C1.444583-.109589 1.145704-.557908 1.145704-1.195517C1.145704-1.683686 1.404732-2.759651 1.723537-3.267746C2.191781-3.995019 2.729763-4.184309 3.078456-4.184309C4.064757-4.184309 4.064757-2.879203 4.064757-2.102117C4.064757-1.733499 4.064757-1.155666 4.084682-.986301Z'/>
<path id='g4-12' d='M5.728518-5.668742C5.728518-6.41594 5.180573-7.033624 4.373599-7.033624C3.795766-7.033624 3.516812-6.874222 3.16812-6.615193C2.620174-6.216687 2.072229-5.250311 1.882939-4.493151L.298879 1.833126C.288917 1.872976 .33873 1.932752 .418431 1.932752S.52802 1.912827 .537983 1.882939L1.235367-.86675C1.424658-.268991 1.863014 .099626 2.590286 .099626S4.064757-.249066 4.513076-.687422C4.991283-1.145704 5.310087-1.783313 5.310087-2.520548C5.310087-3.237858 4.941469-3.755915 4.582814-4.004981C5.160648-4.333748 5.728518-4.951432 5.728518-5.668742ZM3.935243-4.014944C3.805729-3.965131 3.696139-3.945205 3.457036-3.945205C3.317559-3.945205 3.118306-3.935243 3.01868-3.985056C3.038605-4.084682 3.39726-4.064757 3.506849-4.064757C3.716065-4.064757 3.805729-4.064757 3.935243-4.014944ZM5.17061-5.897883C5.17061-5.200498 4.79203-4.483188 4.273973-4.174346C4.004981-4.273973 3.805729-4.293898 3.506849-4.293898C3.297634-4.293898 2.739726-4.303861 2.739726-3.975093C2.729763-3.696139 3.247821-3.726027 3.427148-3.726027C3.795766-3.726027 3.945205-3.73599 4.244085-3.855542C4.622665-3.496887 4.672478-3.188045 4.682441-2.729763C4.702366-2.15193 4.463263-1.404732 4.184309-1.016189C3.795766-.478207 3.128269-.119552 2.560399-.119552C1.803238-.119552 1.424658-.697385 1.424658-1.404732C1.424658-1.504359 1.424658-1.653798 1.474471-1.843088L2.11208-4.363636C2.331258-5.220423 3.048568-6.804483 4.244085-6.804483C4.821918-6.804483 5.17061-6.495641 5.17061-5.897883Z'/>
<path id='g4-26' d='M.328767 1.723537C.298879 1.843088 .298879 1.863014 .298879 1.882939C.298879 2.032379 .408468 2.15193 .577833 2.15193C.787049 2.15193 .9066 1.972603 .926526 1.942715C.976339 1.853051 1.295143 .518057 1.564134-.557908C1.763387-.159402 2.082192 .109589 2.550436 .109589C3.716065 .109589 5.001245-1.295143 5.001245-2.779577C5.001245-3.835616 4.343711-4.403487 3.616438-4.403487C2.650062-4.403487 1.603985-3.407223 1.305106-2.191781L.328767 1.723537ZM2.540473-.109589C1.843088-.109589 1.683686-.9066 1.683686-.996264C1.683686-1.036115 1.733499-1.235367 1.763387-1.364882C2.042341-2.480697 2.141968-2.839352 2.361146-3.237858C2.789539-3.965131 3.287671-4.184309 3.596513-4.184309C3.965131-4.184309 4.283935-3.895392 4.283935-3.20797C4.283935-2.660025 3.995019-1.544209 3.726027-1.05604C3.39726-.428394 2.919054-.109589 2.540473-.109589Z'/>
<path id='g4-59' d='M2.022416-.009963C2.022416-.667497 1.77335-1.05604 1.384807-1.05604C1.05604-1.05604 .856787-.806974 .856787-.52802C.856787-.259029 1.05604 0 1.384807 0C1.504359 0 1.633873-.039851 1.733499-.129514C1.763387-.14944 1.77335-.159402 1.783313-.159402S1.803238-.14944 1.803238-.009963C1.803238 .727273 1.454545 1.325031 1.125778 1.653798C1.016189 1.763387 1.016189 1.783313 1.016189 1.8132C1.016189 1.882939 1.066002 1.92279 1.115816 1.92279C1.225405 1.92279 2.022416 1.155666 2.022416-.009963Z'/>
<path id='g4-101' d='M1.863014-2.30137C2.15193-2.30137 2.889166-2.321295 3.387298-2.530511C4.084682-2.82939 4.134496-3.417186 4.134496-3.556663C4.134496-3.995019 3.755915-4.403487 3.068493-4.403487C1.96264-4.403487 .458281-3.437111 .458281-1.693649C.458281-.67746 1.046077 .109589 2.022416 .109589C3.447073 .109589 4.283935-.946451 4.283935-1.066002C4.283935-1.125778 4.224159-1.195517 4.164384-1.195517C4.11457-1.195517 4.094645-1.175592 4.034869-1.09589C3.247821-.109589 2.161893-.109589 2.042341-.109589C1.265255-.109589 1.175592-.946451 1.175592-1.265255C1.175592-1.384807 1.185554-1.693649 1.334994-2.30137H1.863014ZM1.39477-2.520548C1.783313-4.034869 2.809465-4.184309 3.068493-4.184309C3.536737-4.184309 3.805729-3.895392 3.805729-3.556663C3.805729-2.520548 2.211706-2.520548 1.803238-2.520548H1.39477Z'/>
<path id='g7-8' d='M3.975093-1.344956C5.519303-1.464508 6.625156-2.391034 6.625156-3.39726C6.625156-4.433375 5.489415-5.339975 3.975093-5.459527V-6.017435C3.975093-6.356164 3.975093-6.495641 4.921544-6.495641H5.250311V-6.804483C4.891656-6.774595 3.975093-6.774595 3.566625-6.774595S2.231631-6.774595 1.872976-6.804483V-6.495641H2.201743C3.148194-6.495641 3.148194-6.366127 3.148194-6.017435V-5.459527C1.62391-5.310087 .557908-4.393524 .557908-3.407223C.557908-2.381071 1.663761-1.494396 3.148194-1.344956V-.787049C3.148194-.448319 3.148194-.308842 2.201743-.308842H1.872976V0C2.231631-.029888 3.148194-.029888 3.556663-.029888S4.891656-.029888 5.250311 0V-.308842H4.921544C3.975093-.308842 3.975093-.438356 3.975093-.787049V-1.344956ZM3.148194-1.574097C1.733499-1.763387 1.554172-2.779577 1.554172-3.39726C1.554172-3.915318 1.653798-5.031133 3.148194-5.230386V-1.574097ZM3.975093-5.240349C5.349938-5.080946 5.628892-4.164384 5.628892-3.407223C5.628892-2.809465 5.479452-1.743462 3.975093-1.564134V-5.240349Z'/>
<path id='g7-40' d='M3.297634 2.391034C3.297634 2.361146 3.297634 2.34122 3.128269 2.171856C1.882939 .916563 1.564134-.966376 1.564134-2.49066C1.564134-4.224159 1.942715-5.957659 3.16812-7.202989C3.297634-7.32254 3.297634-7.342466 3.297634-7.372354C3.297634-7.442092 3.257783-7.47198 3.198007-7.47198C3.098381-7.47198 2.201743-6.794521 1.613948-5.529265C1.105853-4.433375 .986301-3.327522 .986301-2.49066C.986301-1.713574 1.09589-.508095 1.643836 .617684C2.241594 1.843088 3.098381 2.49066 3.198007 2.49066C3.257783 2.49066 3.297634 2.460772 3.297634 2.391034Z'/>
<path id='g7-41' d='M2.879203-2.49066C2.879203-3.267746 2.769614-4.473225 2.221669-5.599004C1.62391-6.824408 .767123-7.47198 .667497-7.47198C.607721-7.47198 .56787-7.43213 .56787-7.372354C.56787-7.342466 .56787-7.32254 .757161-7.143213C1.733499-6.156912 2.30137-4.572852 2.30137-2.49066C2.30137-.787049 1.932752 .966376 .697385 2.221669C.56787 2.34122 .56787 2.361146 .56787 2.391034C.56787 2.450809 .607721 2.49066 .667497 2.49066C.767123 2.49066 1.663761 1.8132 2.251557 .547945C2.759651-.547945 2.879203-1.653798 2.879203-2.49066Z'/>
<path id='g7-43' d='M4.07472-2.291407H6.854296C6.993773-2.291407 7.183064-2.291407 7.183064-2.49066S6.993773-2.689913 6.854296-2.689913H4.07472V-5.479452C4.07472-5.618929 4.07472-5.808219 3.875467-5.808219S3.676214-5.618929 3.676214-5.479452V-2.689913H.886675C.747198-2.689913 .557908-2.689913 .557908-2.49066S.747198-2.291407 .886675-2.291407H3.676214V.498132C3.676214 .637609 3.676214 .826899 3.875467 .826899S4.07472 .637609 4.07472 .498132V-2.291407Z'/>
<path id='g7-48' d='M4.582814-3.188045C4.582814-3.985056 4.533001-4.782067 4.184309-5.519303C3.726027-6.475716 2.909091-6.635118 2.49066-6.635118C1.892902-6.635118 1.165629-6.37609 .757161-5.449564C.438356-4.762142 .388543-3.985056 .388543-3.188045C.388543-2.440847 .428394-1.544209 .836862-.787049C1.265255 .019925 1.992528 .219178 2.480697 .219178C3.01868 .219178 3.775841 .009963 4.214197-.936488C4.533001-1.62391 4.582814-2.400996 4.582814-3.188045ZM2.480697 0C2.092154 0 1.504359-.249066 1.325031-1.205479C1.215442-1.803238 1.215442-2.719801 1.215442-3.307597C1.215442-3.945205 1.215442-4.60274 1.295143-5.140722C1.484433-6.326276 2.231631-6.41594 2.480697-6.41594C2.809465-6.41594 3.466999-6.236613 3.656289-5.250311C3.755915-4.692403 3.755915-3.935243 3.755915-3.307597C3.755915-2.560399 3.755915-1.882939 3.646326-1.24533C3.496887-.298879 2.929016 0 2.480697 0Z'/>
<path id='g7-49' d='M2.929016-6.37609C2.929016-6.615193 2.929016-6.635118 2.699875-6.635118C2.082192-5.997509 1.205479-5.997509 .886675-5.997509V-5.688667C1.085928-5.688667 1.673724-5.688667 2.191781-5.947696V-.787049C2.191781-.428394 2.161893-.308842 1.265255-.308842H.946451V0C1.295143-.029888 2.161893-.029888 2.560399-.029888S3.825654-.029888 4.174346 0V-.308842H3.855542C2.958904-.308842 2.929016-.418431 2.929016-.787049V-6.37609Z'/>
<path id='g7-61' d='M6.844334-3.257783C6.993773-3.257783 7.183064-3.257783 7.183064-3.457036S6.993773-3.656289 6.854296-3.656289H.886675C.747198-3.656289 .557908-3.656289 .557908-3.457036S.747198-3.257783 .896638-3.257783H6.844334ZM6.854296-1.325031C6.993773-1.325031 7.183064-1.325031 7.183064-1.524284S6.993773-1.723537 6.844334-1.723537H.896638C.747198-1.723537 .557908-1.723537 .557908-1.524284S.747198-1.325031 .886675-1.325031H6.854296Z'/>
<path id='g7-91' d='M2.540473 2.49066V2.092154H1.574097V-7.073474H2.540473V-7.47198H1.175592V2.49066H2.540473Z'/>
<path id='g7-93' d='M1.58406-7.47198H.219178V-7.073474H1.185554V2.092154H.219178V2.49066H1.58406V-7.47198Z'/>
<path id='g2-6' d='M3.284682-2.217684H5.404732C5.516314-2.217684 5.683686-2.217684 5.683686-2.385056C5.683686-2.559402 5.523288-2.559402 5.404732-2.559402H3.284682V-4.658531C3.284682-4.78406 3.284682-4.958406 3.110336-4.958406C2.942964-4.958406 2.942964-4.798007 2.942964-4.6934V-2.559402H.81594C.697385-2.559402 .536986-2.559402 .536986-2.385056C.536986-2.217684 .704359-2.217684 .81594-2.217684H2.942964V-.160399H.81594C.697385-.160399 .536986-.160399 .536986 .013948C.536986 .18132 .704359 .18132 .81594 .18132H5.404732C5.516314 .18132 5.683686 .18132 5.683686 .013948C5.683686-.160399 5.523288-.160399 5.404732-.160399H3.284682V-2.217684Z'/>
<path id='g6-11' d='M3.257783-.702366C3.701121-1.09589 3.940224-1.778331 3.940224-1.88792C3.940224-1.957659 3.870486-1.957659 3.840598-1.957659C3.750934-1.957659 3.745953-1.942715 3.721046-1.838107C3.606476-1.429639 3.372354-1.110834 3.242839-.956413C3.227895-1.070984 3.227895-1.080946 3.217933-1.225405C3.153176-1.967621 2.560399-2.201743 2.102117-2.201743C1.275218-2.201743 .533001-1.524284 .533001-.851806C.533001-.348692 .936488 .054795 1.579078 .054795C1.823163 .054795 2.316314 .004981 2.874222-.37858C2.958904-.159402 3.153176 .054795 3.47198 .054795C3.805729 .054795 3.995019-.184309 3.995019-.298879C3.995019-.368618 3.930262-.368618 3.890411-.368618C3.830635-.368618 3.81071-.368618 3.785803-.303861C3.716065-.134496 3.531756-.11457 3.486924-.11457C3.382316-.11457 3.292653-.204234 3.257783-.702366ZM2.82939-.562889C2.635118-.423412 2.176837-.11457 1.594022-.11457C1.285181-.11457 .991283-.268991 .991283-.697385C.991283-.861768 1.061021-1.325031 1.310087-1.643836C1.479452-1.853051 1.778331-2.032379 2.092154-2.032379C2.600249-2.032379 2.729763-1.524284 2.769614-1.230386C2.784558-1.125778 2.794521-.861768 2.82939-.562889Z'/>
<path id='g1-6' d='M4.07472-3.118306H6.844334C7.013699-3.118306 7.193026-3.118306 7.193026-3.317559S7.013699-3.516812 6.844334-3.516812H4.07472V-6.266501C4.07472-6.425903 4.07472-6.635118 3.875467-6.635118S3.676214-6.455791 3.676214-6.296389V-3.516812H.896638C.727273-3.516812 .547945-3.516812 .547945-3.317559S.727273-3.118306 .896638-3.118306H3.676214V-.398506H.896638C.727273-.398506 .547945-.398506 .547945-.199253S.727273 0 .896638 0H6.844334C7.013699 0 7.193026 0 7.193026-.199253S7.013699-.398506 6.844334-.398506H4.07472V-3.118306Z'/>
<path id='g1-47' d='M7.193026-.318804C7.153176-.318804 6.993773-.298879 6.963885-.298879C6.176837-.298879 5.648817-1.075965 5.310087-1.594022C5.210461-1.763387 4.941469-2.171856 4.83188-2.34122C5.070984-2.879203 5.738481-4.11457 6.924035-4.11457C6.993773-4.11457 7.083437-4.11457 7.193026-4.084682C7.193026-4.343711 7.183064-4.353674 7.163138-4.373599C7.0934-4.393524 6.94396-4.403487 6.854296-4.403487C5.589041-4.403487 4.851806-3.188045 4.612702-2.689913C4.214197-3.297634 4.07472-3.516812 3.706102-3.825654C3.098381-4.353674 2.550436-4.403487 2.30137-4.403487C1.195517-4.403487 .557908-3.287671 .557908-2.141968C.557908-1.026152 1.175592 .109589 2.271482 .109589C3.536737 .109589 4.273973-1.105853 4.513076-1.603985C4.911582-.996264 5.051059-.777086 5.419676-.468244C6.027397 .059776 6.575342 .109589 6.824408 .109589C6.94396 .109589 7.103362 .089664 7.193026 .069738V-.318804ZM4.293898-1.952677C4.054795-1.414695 3.387298-.179328 2.201743-.179328C1.235367-.179328 .777086-1.235367 .777086-2.141968C.777086-3.128269 1.334994-3.995019 2.161893-3.995019C2.948941-3.995019 3.476961-3.217933 3.815691-2.699875C3.915318-2.530511 4.184309-2.122042 4.293898-1.952677Z'/>
<path id='g1-50' d='M5.459527-2.291407C5.628892-2.291407 5.808219-2.291407 5.808219-2.49066S5.628892-2.689913 5.459527-2.689913H1.235367C1.354919-4.024907 2.500623-4.98132 3.905355-4.98132H5.459527C5.628892-4.98132 5.808219-4.98132 5.808219-5.180573S5.628892-5.379826 5.459527-5.379826H3.88543C2.181818-5.379826 .826899-4.084682 .826899-2.49066S2.181818 .398506 3.88543 .398506H5.459527C5.628892 .398506 5.808219 .398506 5.808219 .199253S5.628892 0 5.459527 0H3.905355C2.500623 0 1.354919-.956413 1.235367-2.291407H5.459527Z'/>
<path id='g3-6' d='M2.839352-1.62391H4.557908C4.637609-1.62391 4.772105-1.62391 4.772105-1.763387S4.637609-1.902864 4.557908-1.902864H2.839352V-3.611457C2.839352-3.691158 2.839352-3.840598 2.699875-3.840598S2.560399-3.711083 2.560399-3.636364V-1.902864H.836862C.757161-1.902864 .622665-1.902864 .622665-1.763387S.757161-1.62391 .836862-1.62391H2.560399V.034869H.836862C.757161 .034869 .622665 .034869 .622665 .174346S.757161 .313823 .836862 .313823H4.557908C4.637609 .313823 4.772105 .313823 4.772105 .174346S4.637609 .034869 4.557908 .034869H2.839352V-1.62391Z'/>
<path id='g9-40' d='M4.493151 18.201743C4.493151 17.105853 3.73599 15.422167 2.002491 14.545455C3.078456 13.967621 4.363636 12.801993 4.483188 10.938979L4.493151 10.879203V3.975093C4.493151 3.158157 4.493151 2.978829 4.572852 2.600249C4.752179 1.803238 5.230386 .816936 6.495641 .069738C6.575342 .019925 6.585305 .009963 6.585305-.169365C6.585305-.388543 6.575342-.398506 6.356164-.398506C6.176837-.398506 6.156912-.398506 5.88792-.239103C3.656289 1.026152 3.526775 2.879203 3.526775 3.227895V10.311333C3.526775 11.028643 3.526775 11.835616 3.008717 12.752179C2.550436 13.569116 2.012453 13.977584 1.58406 14.266501C1.444583 14.356164 1.43462 14.366127 1.43462 14.535492C1.43462 14.714819 1.444583 14.724782 1.524284 14.774595C2.371108 15.332503 3.277709 16.219178 3.496887 17.843088C3.526775 18.062267 3.526775 18.082192 3.526775 18.201743V25.853051C3.526775 26.660025 4.024907 28.333748 5.947696 29.349938C6.176837 29.479452 6.196762 29.479452 6.356164 29.479452C6.575342 29.479452 6.585305 29.469489 6.585305 29.250311C6.585305 29.070984 6.575342 29.061021 6.535492 29.041096C6.107098 28.772105 4.801993 27.985056 4.533001 26.251557C4.493151 25.992528 4.493151 25.972603 4.493151 25.843088V18.201743Z'/>
<path id='g5-11' d='M3.814695-.983313C4.456289-1.645828 4.714321-2.57335 4.714321-2.650062C4.714321-2.740722 4.630635-2.740722 4.595766-2.740722C4.498132-2.740722 4.498132-2.719801 4.449315-2.566376C4.323786-2.106102 4.093649-1.680697 3.800747-1.30411C3.793773-1.408717 3.779826-1.875965 3.765878-1.93873C3.66127-2.629141 3.138232-3.075467 2.440847-3.075467C1.415691-3.075467 .432379-2.12005 .432379-1.143711C.432379-.502117 .899626 .069738 1.708593 .069738C2.350187 .069738 2.929016-.223163 3.319552-.523039C3.47995-.013948 3.835616 .069738 4.044832 .069738C4.449315 .069738 4.700374-.27198 4.700374-.418431C4.700374-.502117 4.616687-.502117 4.581818-.502117C4.491158-.502117 4.47721-.474222 4.463263-.432379C4.365629-.167372 4.14944-.125529 4.065753-.125529C3.96812-.125529 3.849564-.125529 3.814695-.983313ZM3.270735-.746202C2.587298-.188294 1.994521-.125529 1.729514-.125529C1.26924-.125529 1.011208-.432379 1.011208-.899626C1.011208-1.101868 1.108842-1.862017 1.471482-2.343213C1.792279-2.761644 2.189788-2.880199 2.433873-2.880199C2.991781-2.880199 3.152179-2.343213 3.20797-1.910834C3.249813-1.610959 3.235866-1.115816 3.270735-.746202Z'/>
<path id='g5-12' d='M4.414446-3.947198C4.414446-4.560897 3.884433-4.916563 3.270735-4.916563C2.315318-4.916563 1.610959-3.828643 1.436613-3.124284L.341719 1.26924C.327771 1.318057 .397509 1.352927 .439352 1.352927C.502117 1.352927 .557908 1.345953 .571856 1.30411L1.039103-.557908C1.185554-.237111 1.520299 .062765 2.085181 .062765C3.061519 .062765 4.163387-.641594 4.163387-1.708593C4.163387-2.12005 3.975093-2.538481 3.619427-2.768618C3.961146-2.984807 4.414446-3.382316 4.414446-3.947198ZM3.033624-2.775592C2.929016-2.75467 2.880199-2.726775 2.677958-2.726775C2.566376-2.726775 2.399004-2.733748 2.350187-2.761644C2.419925-2.803487 2.615193-2.810461 2.677958-2.810461C2.782565-2.810461 2.93599-2.803487 3.033624-2.775592ZM3.954172-4.072727C3.954172-3.703113 3.772852-3.159153 3.340473-2.915068C3.20797-2.956912 3.075467-3.005729 2.684932-3.005729C2.440847-3.005729 2.092154-2.991781 2.092154-2.740722C2.092154-2.566376 2.308344-2.538481 2.66401-2.538481C2.901121-2.538481 3.110336-2.57335 3.326526-2.636115C3.535741-2.489664 3.647323-2.203736 3.647323-1.896887C3.647323-.885679 2.956912-.132503 2.106102-.132503C1.569116-.132503 1.185554-.460274 1.185554-1.011208C1.185554-1.080946 1.192528-1.150685 1.206476-1.21345L1.66675-3.068493C1.834122-3.731009 2.447821-4.721295 3.256787-4.721295C3.668244-4.721295 3.954172-4.498132 3.954172-4.072727Z'/>
<path id='g5-26' d='M.376588 1.12279C.348692 1.227397 .348692 1.262267 .348692 1.26924C.348692 1.422665 .474222 1.492403 .585803 1.492403C.836862 1.492403 .892653 1.283188 .941469 1.060025C1.039103 .697385 1.234371-.097634 1.30411-.36264C1.366874-.258032 1.590037 .069738 2.071233 .069738C2.963885 .069738 3.912329-.878705 3.912329-1.896887C3.912329-2.636115 3.417186-3.075467 2.803487-3.075467C2.12005-3.075467 1.276214-2.475716 1.03213-1.492403L.376588 1.12279ZM2.064259-.125529C1.548194-.125529 1.39477-.641594 1.39477-.732254C1.39477-.746202 1.436613-.899626 1.457534-.983313C1.66675-1.841096 1.708593-2.001494 1.910834-2.308344C2.161893-2.677958 2.510585-2.880199 2.789539-2.880199C3.075467-2.880199 3.347447-2.677958 3.347447-2.175841C3.347447-1.855044 3.166127-1.080946 2.949938-.732254C2.629141-.237111 2.280448-.125529 2.064259-.125529Z'/>
<path id='g5-101' d='M1.562142-1.590037C1.75741-1.590037 2.308344-1.603985 2.684932-1.736488C3.200996-1.917808 3.29863-2.252553 3.29863-2.461768C3.29863-2.84533 2.915068-3.075467 2.433873-3.075467C1.597011-3.075467 .467248-2.433873 .467248-1.241345C.467248-.536986 .9066 .069738 1.72254 .069738C2.901121 .069738 3.452055-.620672 3.452055-.718306C3.452055-.760149 3.38929-.836862 3.333499-.836862C3.291656-.836862 3.277709-.822914 3.221918-.767123C2.677958-.125529 1.862017-.125529 1.736488-.125529C1.318057-.125529 1.039103-.404483 1.039103-.969365C1.039103-1.066999 1.039103-1.206476 1.12279-1.590037H1.562142ZM1.17858-1.785305C1.464508-2.796513 2.238605-2.880199 2.433873-2.880199C2.740722-2.880199 2.998755-2.726775 2.998755-2.461768C2.998755-1.785305 1.820174-1.785305 1.520299-1.785305H1.17858Z'/>
<path id='g0-97' d='M1.115816-3.795766C1.364882-4.104608 1.803238-4.244085 2.171856-4.244085C2.909091-4.244085 3.237858-3.576588 3.237858-2.86924V-2.610212C2.092154-2.610212 .408468-2.251557 .408468-.946451V-.86675C.488169-.099626 1.454545 .099626 2.022416 .099626C2.530511 .099626 3.178082-.239103 3.307597-.747198H3.317559C3.377335-.318804 3.646326 .049813 4.094645 .049813C4.503113 .049813 4.861768-.278954 4.911582-.727273V-1.454545H4.662516V-.946451C4.662516-.67746 4.612702-.268991 4.303861-.268991C3.985056-.268991 3.935243-.657534 3.935243-.926526V-2.590286C3.935243-2.719801 3.945205-2.839352 3.945205-2.968867C3.945205-3.935243 3.038605-4.463263 2.211706-4.463263C1.58406-4.463263 .697385-4.154421 .697385-3.35741C.697385-3.068493 .9066-2.879203 1.165629-2.879203C1.444583-2.879203 1.613948-3.098381 1.613948-3.337484C1.613948-3.626401 1.384807-3.795766 1.115816-3.795766ZM3.237858-2.400996V-1.39477C3.237858-.707347 2.759651-.159402 2.11208-.119552H2.072229C1.603985-.119552 1.185554-.488169 1.185554-.966376V-1.016189C1.255293-2.022416 2.381071-2.371108 3.237858-2.400996Z'/>
<path id='g0-100' d='M3.028643-6.814446V-6.505604H3.188045C3.536737-6.505604 3.805729-6.465753 3.805729-5.88792L3.795766-3.795766C3.556663-4.194271 2.988792-4.403487 2.530511-4.403487C1.305106-4.403487 .328767-3.347447 .328767-2.141968C.328767-1.075965 1.145704 .099626 2.460772 .099626C2.978829 .099626 3.447073-.14944 3.775841-.547945V.099626L5.250311-.009963V-.318804H5.080946C4.772105-.318804 4.473225-.348692 4.473225-.816936V-6.924035L3.028643-6.814446ZM1.165629-1.902864V-2.052304C1.165629-2.789539 1.255293-3.536737 1.942715-3.995019C2.141968-4.11457 2.371108-4.184309 2.600249-4.184309C3.088418-4.184309 3.785803-3.785803 3.785803-3.158157C3.785803-3.028643 3.775841-2.899128 3.775841-2.769614V-1.115816C3.775841-.986301 3.726027-.896638 3.656289-.797011C3.39726-.408468 2.968867-.119552 2.500623-.119552C1.77335-.119552 1.315068-.787049 1.205479-1.474471C1.185554-1.613948 1.185554-1.763387 1.165629-1.902864Z'/>
<path id='g0-101' d='M1.115816-2.311333H3.985056C4.094645-2.311333 4.144458-2.381071 4.144458-2.49066C4.144458-3.5467 3.496887-4.463263 2.381071-4.463263C1.155666-4.463263 .278954-3.377335 .278954-2.191781C.278954-1.275218 .787049-.458281 1.663761-.059776C1.892902 .039851 2.161893 .099626 2.410959 .099626H2.440847C3.20797 .099626 3.845579-.328767 4.11457-1.09589C4.124533-1.125778 4.124533-1.165629 4.124533-1.195517C4.124533-1.265255 4.084682-1.315068 4.014944-1.315068C3.865504-1.315068 3.805729-.986301 3.745953-.876712C3.496887-.438356 3.01868-.14944 2.500623-.14944C2.132005-.14944 1.8132-.358655 1.544209-.627646C1.145704-1.085928 1.115816-1.733499 1.115816-2.311333ZM1.125778-2.520548C1.125778-3.287671 1.534247-4.244085 2.351183-4.244085H2.400996C3.377335-4.154421 3.367372-3.118306 3.466999-2.520548H1.125778Z'/>
<path id='g0-104' d='M.318804-6.814446V-6.505604H.468244C.836862-6.505604 1.09589-6.465753 1.09589-5.987547V-.956413C1.09589-.886675 1.105853-.816936 1.105853-.737235C1.105853-.358655 .836862-.318804 .557908-.318804H.318804V-.009963H2.570361V-.318804H2.311333C2.032379-.318804 1.793275-.358655 1.793275-.727273V-2.550436C1.793275-3.267746 2.161893-4.184309 3.148194-4.184309C3.785803-4.184309 3.845579-3.496887 3.845579-3.068493V-.687422C3.845579-.348692 3.556663-.318804 3.247821-.318804H3.068493V-.009963H5.32005V-.318804H5.070984C4.801993-.318804 4.542964-.358655 4.542964-.697385V-2.879203C4.542964-3.20797 4.533001-3.536737 4.383562-3.835616C4.144458-4.273973 3.646326-4.403487 3.188045-4.403487C2.610212-4.403487 1.96264-4.014944 1.77335-3.457036L1.763387-6.924035L.318804-6.814446Z'/>
<path id='g0-105' d='M.368618-4.293898V-3.985056H.557908C.846824-3.985056 1.105853-3.945205 1.105853-3.486924V-.727273C1.105853-.37858 .926526-.318804 .328767-.318804V-.009963H2.470735V-.318804H2.271482C2.012453-.318804 1.77335-.348692 1.77335-.667497V-4.403487L.368618-4.293898ZM1.205479-6.665006C.956413-6.635118 .757161-6.41594 .757161-6.146949C.757161-5.858032 1.006227-5.618929 1.285181-5.618929C1.554172-5.618929 1.8132-5.838107 1.8132-6.146949C1.8132-6.435866 1.564134-6.674969 1.285181-6.674969C1.255293-6.674969 1.235367-6.665006 1.205479-6.665006Z'/>
<path id='g0-111' d='M2.34122-4.463263C1.085928-4.333748 .278954-3.277709 .278954-2.122042C.278954-.996264 1.165629 .099626 2.49066 .099626C3.686177 .099626 4.692403-.876712 4.692403-2.132005C4.692403-3.317559 3.795766-4.473225 2.470735-4.473225C2.430884-4.473225 2.381071-4.463263 2.34122-4.463263ZM1.115816-1.892902V-2.331258C1.115816-3.088418 1.354919-4.244085 2.480697-4.244085C3.287671-4.244085 3.745953-3.566625 3.835616-2.809465C3.855542-2.590286 3.855542-2.381071 3.855542-2.161893C3.855542-1.514321 3.785803-.707347 3.148194-.33873C2.948941-.209215 2.729763-.14944 2.500623-.14944C1.77335-.14944 1.265255-.71731 1.155666-1.494396C1.135741-1.62391 1.135741-1.763387 1.115816-1.892902Z'/>
<path id='g0-114' d='M.268991-4.293898V-3.985056H.418431C.747198-3.985056 1.046077-3.955168 1.046077-3.486924V-.737235C1.046077-.328767 .767123-.318804 .328767-.318804H.268991V-.009963H2.67995V-.318804C2.560399-.318804 2.420922-.308842 2.30137-.308842C1.982565-.308842 1.713574-.358655 1.713574-.727273V-2.052304C1.713574-2.899128 1.912827-4.184309 2.889166-4.184309C2.929016-4.184309 2.958904-4.184309 2.998755-4.174346V-4.164384C2.849315-4.104608 2.769614-3.945205 2.769614-3.785803C2.769614-3.556663 2.919054-3.39726 3.148194-3.35741C3.437111-3.35741 3.626401-3.536737 3.626401-3.785803C3.626401-4.184309 3.247821-4.403487 2.889166-4.403487C2.30137-4.403487 1.77335-3.875467 1.673724-3.337484L1.663761-4.403487L.268991-4.293898Z'/>
<path id='g0-115' d='M1.753425-4.463263C1.384807-4.423412 .996264-4.353674 .707347-4.104608C.468244-3.895392 .328767-3.556663 .328767-3.237858C.328767-1.534247 3.098381-2.500623 3.098381-1.006227C3.098381-.398506 2.550436-.119552 2.002491-.119552C1.24533-.119552 .737235-.657534 .597758-1.514321C.577833-1.603985 .56787-1.693649 .448319-1.693649C.368618-1.693649 .328767-1.633873 .328767-1.564134V.009963C.33873 .059776 .368618 .089664 .418431 .099626H.438356C.597758 .099626 .757161-.268991 .876712-.298879H.886675C.966376-.298879 1.235367-.049813 1.444583 .019925C1.613948 .079701 1.793275 .099626 1.972603 .099626C2.799502 .099626 3.58655-.33873 3.58655-1.255293C3.58655-1.912827 3.108344-2.450809 2.450809-2.620174C1.833126-2.789539 .816936-2.789539 .816936-3.516812C.816936-4.124533 1.484433-4.273973 1.92279-4.273973C2.410959-4.273973 3.088418-4.004981 3.088418-3.148194C3.088418-3.058531 3.098381-2.978829 3.20797-2.978829C3.307597-2.978829 3.347447-3.058531 3.347447-3.158157C3.347447-3.20797 3.337484-3.257783 3.337484-3.297634V-4.323786C3.337484-4.383562 3.307597-4.463263 3.227895-4.463263C3.068493-4.463263 2.968867-4.214197 2.859278-4.214197H2.849315C2.769614-4.214197 2.610212-4.343711 2.49066-4.383562C2.311333-4.443337 2.11208-4.473225 1.92279-4.473225C1.863014-4.473225 1.8132-4.463263 1.753425-4.463263Z'/>
<path id='g0-116' d='M1.484433-6.136986C1.484433-5.449564 1.195517-4.204234 .179328-4.204234V-3.985056H1.036115V-1.414695C1.036115-1.085928 1.05604-.757161 1.215442-.468244C1.43462-.069738 1.902864 .099626 2.34122 .099626C3.158157 .099626 3.317559-.816936 3.317559-1.444583V-1.8132H3.068493C3.068493-1.663761 3.078456-1.514321 3.078456-1.354919C3.078456-.916563 2.978829-.14944 2.391034-.14944C1.823163-.14944 1.733499-.836862 1.733499-1.285181V-3.985056H3.148194V-4.293898H1.733499V-6.136986H1.484433Z'/>
<path id='g0-119' d='M.179328-4.293898V-3.985056H.328767C.846824-3.985056 .86675-3.765878 1.115816-3.058531C1.364882-2.371108 1.62391-1.683686 1.863014-.996264L2.161893-.159402C2.201743-.049813 2.231631 .089664 2.371108 .099626H2.391034C2.610212 .099626 2.749689-.56787 2.879203-.896638C3.058531-1.424658 3.247821-1.952677 3.447073-2.480697C3.496887-2.620174 3.556663-2.759651 3.58655-2.899128H3.596513C3.626401-2.759651 3.686177-2.620174 3.73599-2.480697L4.024907-1.673724C4.204234-1.155666 4.403487-.647572 4.582814-.129514C4.622665-.019925 4.662516 .099626 4.801993 .099626C5.021171 .099626 5.190535-.607721 5.310087-.966376L5.877958-2.550436C6.107098-3.178082 6.246575-3.985056 7.003736-3.985056V-4.293898H5.3599V-3.985056C5.618929-3.975093 5.897883-3.835616 5.927771-3.556663C5.927771-3.277709 5.758406-2.958904 5.668742-2.699875C5.50934-2.271482 5.3599-1.843088 5.210461-1.414695C5.13076-1.205479 5.031133-.986301 4.98132-.767123H4.971357C4.921544-1.006227 4.79203-1.305106 4.692403-1.554172C4.463263-2.201743 4.224159-2.839352 4.004981-3.496887C3.975093-3.566625 3.945205-3.646326 3.945205-3.726027V-3.765878C3.995019-3.985056 4.323786-3.985056 4.523039-3.985056V-4.293898H2.590286V-3.985056H2.769614C3.158157-3.985056 3.247821-3.835616 3.377335-3.496887C3.39726-3.427148 3.447073-3.337484 3.447073-3.257783C3.437111-3.16812 3.387298-3.068493 3.35741-2.988792L2.789539-1.404732C2.729763-1.235367 2.67995-1.066002 2.610212-.9066C2.49066-1.165629 2.410959-1.454545 2.311333-1.723537C2.161893-2.15193 2.002491-2.580324 1.853051-3.008717L1.673724-3.516812C1.653798-3.576588 1.613948-3.646326 1.613948-3.716065C1.613948-3.975093 1.982565-3.985056 2.201743-3.985056V-4.293898H.179328Z'/>
</defs>
<g id='page1' transform='matrix(1.5 0 0 1.5 0 0)'>
<use x='114.513278' y='35.775297' xlink:href='#g0-97'/>
<use x='119.493382' y='35.775297' xlink:href='#g0-100'/>
<use x='125.026831' y='37.269678' xlink:href='#g5-101'/>
<use x='128.806782' y='38.265942' xlink:href='#g3-6'/>
<use x='134.203291' y='38.265942' xlink:href='#g6-11'/>
<use x='142.516391' y='35.775297' xlink:href='#g7-61'/>
<use x='153.032471' y='35.775297' xlink:href='#g7-91'/>
<use x='155.799879' y='35.775297' xlink:href='#g4-101'/>
<use x='160.43875' y='37.269678' xlink:href='#g2-6'/>
<use x='166.66543' y='37.269678' xlink:href='#g5-11'/>
<use x='172.342886' y='35.775297' xlink:href='#g4-59'/>
<use x='176.770694' y='35.775297' xlink:href='#g4-101'/>
<use x='181.409566' y='37.269678' xlink:href='#g5-12'/>
<use x='186.285417' y='37.269678' xlink:href='#g8-43'/>
<use x='192.4014' y='37.269678' xlink:href='#g5-26'/>
<use x='196.534887' y='37.269678' xlink:href='#g5-11'/>
<use x='202.212353' y='35.775297' xlink:href='#g7-93'/>
<use x='207.747094' y='35.775297' xlink:href='#g1-47'/>
<use x='218.263174' y='18.739024' xlink:href='#g9-40'/>
<use x='226.288666' y='28.980754' xlink:href='#g4-101'/>
<use x='230.927538' y='30.779581' xlink:href='#g5-12'/>
<use x='235.803389' y='30.779581' xlink:href='#g8-43'/>
<use x='241.919373' y='30.779581' xlink:href='#g8-40'/>
<use x='245.032716' y='30.779581' xlink:href='#g5-26'/>
<use x='249.166202' y='30.779581' xlink:href='#g2-6'/>
<use x='255.392882' y='30.779581' xlink:href='#g8-49'/>
<use x='259.364122' y='30.779581' xlink:href='#g8-41'/>
<use x='262.477465' y='30.779581' xlink:href='#g5-11'/>
<use x='278.115115' y='28.980754' xlink:href='#g4-12'/>
<use x='286.48991' y='28.980754' xlink:href='#g7-43'/>
<use x='296.452523' y='28.980754' xlink:href='#g7-40'/>
<use x='300.326897' y='28.980754' xlink:href='#g4-26'/>
<use x='307.691602' y='28.980754' xlink:href='#g1-6'/>
<use x='317.654216' y='28.980754' xlink:href='#g7-49'/>
<use x='322.635555' y='28.980754' xlink:href='#g7-41'/>
<use x='326.509928' y='28.980754' xlink:href='#g4-11'/>
<use x='335.68726' y='28.980754' xlink:href='#g1-50'/>
<use x='345.096374' y='28.980754' xlink:href='#g7-8'/>
<use x='226.288666' y='43.326904' xlink:href='#g7-48'/>
<use x='278.115115' y='43.326904' xlink:href='#g0-111'/>
<use x='283.095219' y='43.326904' xlink:href='#g0-116'/>
<use x='286.968633' y='43.326904' xlink:href='#g0-104'/>
<use x='292.502082' y='43.326904' xlink:href='#g0-101'/>
<use x='296.928841' y='43.326904' xlink:href='#g0-114'/>
<use x='300.829922' y='43.326904' xlink:href='#g0-119'/>
<use x='308.023406' y='43.326904' xlink:href='#g0-105'/>
<use x='310.79013' y='43.326904' xlink:href='#g0-115'/>
<use x='314.718879' y='43.326904' xlink:href='#g0-101'/>
</g>
</svg>