<?xml version='1.0' encoding='UTF-8'?>
<!-- This file was generated by dvisvgm 3.2 -->
<svg version='1.1' xmlns='http://www.w3.org/2000/svg' xmlns:xlink='http://www.w3.org/1999/xlink' width='240.961187pt' height='87.007147pt' viewBox='230.371937 47.685156 240.961187 87.007147'>
<defs>
<path id='g2-59' d='M2.022416-.009963C2.022416-.667497 1.77335-1.05604 1.384807-1.05604C1.05604-1.05604 .856787-.806974 .856787-.52802C.856787-.259029 1.05604 0 1.384807 0C1.504359 0 1.633873-.039851 1.733499-.129514C1.763387-.14944 1.77335-.159402 1.783313-.159402S1.803238-.14944 1.803238-.009963C1.803238 .727273 1.454545 1.325031 1.125778 1.653798C1.016189 1.763387 1.016189 1.783313 1.016189 1.8132C1.016189 1.882939 1.066002 1.92279 1.115816 1.92279C1.225405 1.92279 2.022416 1.155666 2.022416-.009963Z'/>
<path id='g2-77' d='M9.225405-6.03736C9.315068-6.396015 9.334994-6.495641 10.082192-6.495641C10.311333-6.495641 10.400996-6.495641 10.400996-6.694894C10.400996-6.804483 10.30137-6.804483 10.132005-6.804483H8.816936C8.557908-6.804483 8.547945-6.804483 8.428394-6.615193L4.79203-.936488L4.014944-6.575342C3.985056-6.804483 3.965131-6.804483 3.706102-6.804483H2.34122C2.15193-6.804483 2.042341-6.804483 2.042341-6.615193C2.042341-6.495641 2.132005-6.495641 2.331258-6.495641C2.460772-6.495641 2.6401-6.485679 2.759651-6.475716C2.919054-6.455791 2.978829-6.425903 2.978829-6.316314C2.978829-6.276463 2.968867-6.246575 2.938979-6.127024L1.673724-1.05604C1.574097-.657534 1.404732-.33873 .597758-.308842C.547945-.308842 .418431-.298879 .418431-.119552C.418431-.029888 .478207 0 .557908 0C.876712 0 1.225405-.029888 1.554172-.029888C1.892902-.029888 2.251557 0 2.580324 0C2.630137 0 2.759651 0 2.759651-.199253C2.759651-.308842 2.650062-.308842 2.580324-.308842C2.012453-.318804 1.902864-.518057 1.902864-.747198C1.902864-.816936 1.912827-.86675 1.942715-.976339L3.297634-6.405978H3.307597L4.164384-.229141C4.184309-.109589 4.194271 0 4.313823 0C4.423412 0 4.483188-.109589 4.533001-.179328L8.557908-6.485679H8.56787L7.143213-.777086C7.043587-.388543 7.023661-.308842 6.236613-.308842C6.067248-.308842 5.957659-.308842 5.957659-.119552C5.957659 0 6.07721 0 6.107098 0C6.386052 0 7.063512-.029888 7.342466-.029888C7.750934-.029888 8.179328 0 8.587796 0C8.647572 0 8.777086 0 8.777086-.199253C8.777086-.308842 8.687422-.308842 8.498132-.308842C8.129514-.308842 7.85056-.308842 7.85056-.488169C7.85056-.52802 7.85056-.547945 7.900374-.727273L9.225405-6.03736Z'/>
<path id='g2-84' d='M4.254047-6.047323C4.323786-6.326276 4.363636-6.386052 4.483188-6.41594C4.572852-6.435866 4.901619-6.435866 5.110834-6.435866C6.117061-6.435866 6.56538-6.396015 6.56538-5.618929C6.56538-5.469489 6.525529-5.080946 6.485679-4.821918C6.475716-4.782067 6.455791-4.662516 6.455791-4.632628C6.455791-4.572852 6.485679-4.503113 6.575342-4.503113C6.684932-4.503113 6.704857-4.582814 6.724782-4.732254L6.993773-6.465753C7.003736-6.505604 7.013699-6.60523 7.013699-6.635118C7.013699-6.744707 6.914072-6.744707 6.744707-6.744707H1.215442C.976339-6.744707 .966376-6.734745 .896638-6.545455L.298879-4.79203C.288917-4.772105 .239103-4.632628 .239103-4.612702C.239103-4.552927 .288917-4.503113 .358655-4.503113C.458281-4.503113 .468244-4.552927 .52802-4.712329C1.066002-6.256538 1.325031-6.435866 2.799502-6.435866H3.188045C3.466999-6.435866 3.466999-6.396015 3.466999-6.316314C3.466999-6.256538 3.437111-6.136986 3.427148-6.107098L2.092154-.787049C2.002491-.418431 1.972603-.308842 .9066-.308842C.547945-.308842 .488169-.308842 .488169-.119552C.488169 0 .597758 0 .657534 0C.926526 0 1.205479-.019925 1.474471-.019925C1.753425-.019925 2.042341-.029888 2.321295-.029888S2.879203-.019925 3.148194-.019925C3.437111-.019925 3.73599 0 4.014944 0C4.11457 0 4.234122 0 4.234122-.199253C4.234122-.308842 4.154421-.308842 3.895392-.308842C3.646326-.308842 3.516812-.308842 3.257783-.328767C2.968867-.358655 2.889166-.388543 2.889166-.547945C2.889166-.557908 2.889166-.607721 2.929016-.757161L4.254047-6.047323Z'/>
<path id='g2-88' d='M4.83188-4.094645L3.995019-6.07721C3.965131-6.156912 3.945205-6.196762 3.945205-6.206725C3.945205-6.266501 4.11457-6.455791 4.533001-6.495641C4.632628-6.505604 4.732254-6.515567 4.732254-6.684932C4.732254-6.804483 4.612702-6.804483 4.582814-6.804483C4.174346-6.804483 3.745953-6.774595 3.327522-6.774595C3.078456-6.774595 2.460772-6.804483 2.211706-6.804483C2.15193-6.804483 2.032379-6.804483 2.032379-6.60523C2.032379-6.495641 2.132005-6.495641 2.261519-6.495641C2.859278-6.495641 2.919054-6.396015 3.008717-6.176837L4.184309-3.39726L2.082192-1.135741L1.952677-1.026152C1.464508-.498132 .996264-.33873 .488169-.308842C.358655-.298879 .268991-.298879 .268991-.109589C.268991-.099626 .268991 0 .398506 0C.697385 0 1.026152-.029888 1.334994-.029888C1.703611-.029888 2.092154 0 2.450809 0C2.510585 0 2.630137 0 2.630137-.199253C2.630137-.298879 2.530511-.308842 2.510585-.308842C2.420922-.318804 2.11208-.33873 2.11208-.617684C2.11208-.777086 2.261519-.936488 2.381071-1.066002L3.39726-2.141968L4.293898-3.118306L5.300125-.737235C5.339975-.627646 5.349938-.617684 5.349938-.597758C5.349938-.518057 5.160648-.348692 4.772105-.308842C4.662516-.298879 4.572852-.288917 4.572852-.119552C4.572852 0 4.682441 0 4.722291 0C5.001245 0 5.69863-.029888 5.977584-.029888C6.22665-.029888 6.834371 0 7.083437 0C7.153176 0 7.272727 0 7.272727-.18929C7.272727-.308842 7.173101-.308842 7.0934-.308842C6.425903-.318804 6.405978-.348692 6.236613-.747198C5.84807-1.673724 5.180573-3.227895 4.951432-3.825654C5.628892-4.523039 6.674969-5.708593 6.993773-5.987547C7.28269-6.22665 7.66127-6.465753 8.259029-6.495641C8.388543-6.505604 8.478207-6.505604 8.478207-6.694894C8.478207-6.704857 8.478207-6.804483 8.348692-6.804483C8.049813-6.804483 7.721046-6.774595 7.412204-6.774595C7.043587-6.774595 6.665006-6.804483 6.306351-6.804483C6.246575-6.804483 6.117061-6.804483 6.117061-6.60523C6.117061-6.535492 6.166874-6.505604 6.236613-6.495641C6.326276-6.485679 6.635118-6.465753 6.635118-6.1868C6.635118-6.047323 6.525529-5.917808 6.445828-5.828144L4.83188-4.094645Z'/>
<path id='g2-89' d='M5.947696-5.668742L6.087173-5.808219C6.386052-6.107098 6.714819-6.445828 7.392279-6.495641C7.501868-6.505604 7.591532-6.505604 7.591532-6.684932C7.591532-6.764633 7.541719-6.804483 7.462017-6.804483C7.202989-6.804483 6.914072-6.774595 6.645081-6.774595C6.316314-6.774595 5.967621-6.804483 5.648817-6.804483C5.589041-6.804483 5.459527-6.804483 5.459527-6.615193C5.459527-6.505604 5.559153-6.495641 5.608966-6.495641C5.678705-6.495641 5.967621-6.475716 5.967621-6.266501C5.967621-6.097136 5.738481-5.838107 5.69863-5.788294L3.387298-3.128269L2.291407-6.087173C2.231631-6.22665 2.231631-6.246575 2.231631-6.256538C2.231631-6.495641 2.719801-6.495641 2.819427-6.495641C2.958904-6.495641 3.058531-6.495641 3.058531-6.694894C3.058531-6.804483 2.938979-6.804483 2.909091-6.804483C2.630137-6.804483 1.932752-6.774595 1.653798-6.774595C1.404732-6.774595 .787049-6.804483 .537983-6.804483C.478207-6.804483 .348692-6.804483 .348692-6.60523C.348692-6.495641 .448319-6.495641 .577833-6.495641C1.175592-6.495641 1.215442-6.405978 1.305106-6.156912L2.530511-2.879203C2.540473-2.849315 2.570361-2.739726 2.570361-2.709838S2.171856-1.075965 2.122042-.896638C1.992528-.348692 1.982565-.318804 1.185554-.308842C.996264-.308842 .916563-.308842 .916563-.109589C.916563 0 1.036115 0 1.05604 0C1.334994 0 2.032379-.029888 2.311333-.029888S3.307597 0 3.58655 0C3.656289 0 3.775841 0 3.775841-.199253C3.775841-.308842 3.686177-.308842 3.496887-.308842C3.476961-.308842 3.287671-.308842 3.118306-.328767C2.909091-.348692 2.849315-.368618 2.849315-.488169C2.849315-.557908 2.938979-.9066 2.988792-1.115816L3.337484-2.520548C3.387298-2.709838 3.39726-2.739726 3.476961-2.82939L5.947696-5.668742Z'/>
<path id='g2-90' d='M7.173101-6.56538C7.183064-6.60523 7.202989-6.655044 7.202989-6.714819C7.202989-6.804483 7.153176-6.804483 6.953923-6.804483H2.749689C2.510585-6.804483 2.500623-6.794521 2.440847-6.60523L1.892902-4.811955C1.872976-4.762142 1.863014-4.692403 1.863014-4.672478C1.863014-4.662516 1.863014-4.562889 1.982565-4.562889C2.072229-4.562889 2.092154-4.632628 2.11208-4.662516C2.49066-5.838107 3.008717-6.495641 4.562889-6.495641H6.1868L.617684-.268991C.617684-.259029 .577833-.119552 .577833-.089664C.577833 0 .647572 0 .826899 0H5.160648C5.399751 0 5.409714-.009963 5.469489-.199253L6.176837-2.400996C6.1868-2.440847 6.216687-2.510585 6.216687-2.550436C6.216687-2.600249 6.176837-2.660025 6.087173-2.660025S5.987547-2.620174 5.917808-2.410959C5.479452-1.05604 5.001245-.33873 3.307597-.33873H1.603985L7.173101-6.56538Z'/>
<path id='g2-102' d='M3.656289-3.985056H4.513076C4.712329-3.985056 4.811955-3.985056 4.811955-4.184309C4.811955-4.293898 4.712329-4.293898 4.542964-4.293898H3.716065L3.92528-5.429639C3.965131-5.638854 4.104608-6.346202 4.164384-6.465753C4.254047-6.655044 4.423412-6.804483 4.632628-6.804483C4.672478-6.804483 4.931507-6.804483 5.120797-6.625156C4.682441-6.585305 4.582814-6.236613 4.582814-6.087173C4.582814-5.858032 4.762142-5.738481 4.951432-5.738481C5.210461-5.738481 5.499377-5.957659 5.499377-6.336239C5.499377-6.794521 5.041096-7.023661 4.632628-7.023661C4.293898-7.023661 3.666252-6.844334 3.367372-5.858032C3.307597-5.648817 3.277709-5.549191 3.038605-4.293898H2.351183C2.161893-4.293898 2.052304-4.293898 2.052304-4.104608C2.052304-3.985056 2.141968-3.985056 2.331258-3.985056H2.988792L2.241594-.049813C2.062267 .916563 1.892902 1.823163 1.374844 1.823163C1.334994 1.823163 1.085928 1.823163 .896638 1.643836C1.354919 1.613948 1.444583 1.255293 1.444583 1.105853C1.444583 .876712 1.265255 .757161 1.075965 .757161C.816936 .757161 .52802 .976339 .52802 1.354919C.52802 1.803238 .966376 2.042341 1.374844 2.042341C1.92279 2.042341 2.321295 1.454545 2.500623 1.075965C2.819427 .448319 3.048568-.757161 3.058531-.826899L3.656289-3.985056Z'/>
<path id='g1-14' d='M4.423412-2.49066C4.423412-3.556663 3.536737-4.423412 2.49066-4.423412C1.414695-4.423412 .547945-3.536737 .547945-2.49066C.547945-1.43462 1.414695-.557908 2.49066-.557908C3.536737-.557908 4.423412-1.424658 4.423412-2.49066ZM2.49066-.956413C1.62391-.956413 .946451-1.653798 .946451-2.49066S1.633873-4.024907 2.49066-4.024907C3.317559-4.024907 4.024907-3.347447 4.024907-2.49066S3.317559-.956413 2.49066-.956413Z'/>
<path id='g3-88' d='M3.87746-2.66401L4.539975-3.326526C5.432628-4.20523 5.704608-4.47721 6.332254-4.51208C6.422914-4.519054 6.5066-4.519054 6.5066-4.658531C6.5066-4.742217 6.429888-4.763138 6.408966-4.763138C6.206725-4.763138 5.96264-4.735243 5.753425-4.735243C5.572105-4.735243 5.125778-4.763138 4.944458-4.763138C4.888667-4.763138 4.804981-4.742217 4.804981-4.609714C4.804981-4.60274 4.804981-4.519054 4.909589-4.51208C4.972354-4.505106 5.1467-4.491158 5.1467-4.337733C5.1467-4.233126 5.042092-4.121544 4.972354-4.051806C4.916563-4.002989 4.030884-3.138232 3.772852-2.873225L3.068493-4.2401C3.054545-4.261021 3.033624-4.309838 3.033624-4.337733C3.033624-4.38655 3.166127-4.498132 3.403238-4.51208C3.452055-4.51208 3.549689-4.519054 3.549689-4.665504C3.549689-4.672478 3.542715-4.763138 3.431133-4.763138C3.284682-4.763138 3.110336-4.742217 2.963885-4.742217S2.657036-4.735243 2.510585-4.735243C2.39203-4.735243 2.224658-4.735243 2.099128-4.742217C1.980573-4.749191 1.834122-4.763138 1.72254-4.763138C1.687671-4.763138 1.57609-4.763138 1.57609-4.609714C1.57609-4.51208 1.66675-4.51208 1.778331-4.51208C2.182814-4.51208 2.217684-4.442341 2.287422-4.302864L3.263761-2.378082L2.873225-1.987547C2.740722-1.862017 2.412951-1.548194 2.287422-1.415691C1.436613-.571856 1.150685-.278954 .523039-.251059C.425405-.244085 .348692-.244085 .348692-.097634C.348692-.069738 .369614 0 .446326 0C.648568 0 .885679-.027895 1.094894-.027895C1.21345-.027895 1.387796-.027895 1.506351-.020922C1.63188-.013948 1.785305 0 1.903861 0C1.93873 0 2.050311 0 2.050311-.146451C2.050311-.244085 1.966625-.251059 1.924782-.251059C1.855044-.258032 1.708593-.278954 1.708593-.425405C1.708593-.536986 1.799253-.627646 1.952677-.781071L3.368369-2.168867L4.212204-.516065C4.247073-.446326 4.254047-.432379 4.254047-.425405C4.254047-.383562 4.128518-.27198 3.884433-.251059C3.821669-.244085 3.731009-.244085 3.731009-.097634C3.731009-.09066 3.737983 0 3.849564 0C3.996015 0 4.170361-.020922 4.316812-.020922S4.623661-.027895 4.770112-.027895C4.888667-.027895 5.05604-.027895 5.181569-.020922C5.300125-.013948 5.446575 0 5.558157 0C5.593026 0 5.704608 0 5.704608-.153425C5.704608-.251059 5.613948-.251059 5.502366-.251059C5.097883-.251059 5.063014-.327771 5.000249-.446326L3.87746-2.66401Z'/>
<path id='g3-89' d='M4.728269-3.926276C4.860772-4.065753 5.000249-4.191283 5.153674-4.29589C5.439601-4.491158 5.697634-4.505106 5.788294-4.51208C5.865006-4.519054 5.948692-4.519054 5.948692-4.665504C5.948692-4.714321 5.906849-4.763138 5.851059-4.763138C5.676712-4.763138 5.467497-4.735243 5.286177-4.735243C5.063014-4.735243 4.770112-4.763138 4.560897-4.763138C4.526027-4.763138 4.42142-4.763138 4.42142-4.609714C4.42142-4.519054 4.51208-4.51208 4.546949-4.51208C4.749191-4.498132 4.749191-4.42142 4.749191-4.379577C4.749191-4.316812 4.707347-4.261021 4.658531-4.198257C4.616687-4.135492 4.581818-4.086675 4.539975-4.044832L2.796513-2.224658L1.875965-4.267995C1.827148-4.365629 1.827148-4.379577 1.827148-4.38655C1.827148-4.51208 2.161893-4.51208 2.203736-4.51208C2.294396-4.51208 2.385056-4.51208 2.385056-4.665504C2.385056-4.672478 2.385056-4.763138 2.273474-4.763138C2.064259-4.763138 1.548194-4.735243 1.338979-4.735243C1.164633-4.735243 .718306-4.763138 .54396-4.763138C.488169-4.763138 .404483-4.742217 .404483-4.609714C.404483-4.51208 .495143-4.51208 .592777-4.51208C.99726-4.51208 1.025156-4.449315 1.094894-4.29589L2.175841-1.910834L1.862017-.63462C1.771357-.278954 1.764384-.258032 1.220423-.251059C1.101868-.251059 1.011208-.251059 1.011208-.104608C1.011208-.034869 1.060025 0 1.12279 0C1.255293 0 1.415691-.020922 1.555168-.020922C1.687671-.020922 1.889913-.027895 2.015442-.027895C2.154919-.027895 2.315318-.020922 2.461768-.020922S2.782565 0 2.929016 0C2.970859 0 3.082441 0 3.082441-.153425C3.082441-.251059 2.998755-.251059 2.84533-.251059C2.733748-.251059 2.705853-.251059 2.580324-.265006C2.447821-.278954 2.426899-.292902 2.426899-.36264C2.426899-.404483 2.510585-.739228 2.559402-.927522C2.615193-1.150685 2.761644-1.75741 2.775592-1.785305C2.803487-1.889913 2.803487-1.903861 2.873225-1.973599L4.728269-3.926276Z'/>
<path id='g3-97' d='M2.942964-2.66401C2.796513-2.894147 2.559402-3.075467 2.224658-3.075467C1.332005-3.075467 .425405-2.092154 .425405-1.08792C.425405-.411457 .878705 .069738 1.478456 .069738C1.855044 .069738 2.189788-.146451 2.468742-.418431C2.601245 0 3.005729 .069738 3.187049 .069738C3.438107 .069738 3.612453-.083686 3.737983-.299875C3.891407-.571856 3.982067-.969365 3.982067-.99726C3.982067-1.08792 3.891407-1.08792 3.870486-1.08792C3.772852-1.08792 3.765878-1.060025 3.717061-.871731C3.633375-.536986 3.500872-.125529 3.20797-.125529C3.02665-.125529 2.977833-.278954 2.977833-.467248C2.977833-.585803 3.033624-.836862 3.082441-1.018182C3.131258-1.206476 3.200996-1.492403 3.235866-1.645828L3.375342-2.175841C3.417186-2.357161 3.500872-2.684932 3.500872-2.719801C3.500872-2.873225 3.375342-2.942964 3.263761-2.942964C3.145205-2.942964 2.984807-2.859278 2.942964-2.66401ZM2.496638-.871731C2.447821-.676463 2.294396-.536986 2.140971-.404483C2.078207-.348692 1.799253-.125529 1.499377-.125529C1.241345-.125529 .990286-.306849 .990286-.801993C.990286-1.171606 1.192528-1.93873 1.352927-2.217684C1.673724-2.775592 2.02939-2.880199 2.224658-2.880199C2.712827-2.880199 2.84533-2.350187 2.84533-2.273474C2.84533-2.245579 2.831382-2.196762 2.824408-2.175841L2.496638-.871731Z'/>
<path id='g3-98' d='M1.841096-4.630635C1.84807-4.644583 1.868991-4.735243 1.868991-4.742217C1.868991-4.777086 1.841096-4.839851 1.75741-4.839851C1.617933-4.839851 1.039103-4.78406 .864757-4.770112C.808966-4.763138 .711333-4.756164 .711333-4.609714C.711333-4.51208 .808966-4.51208 .892653-4.51208C1.227397-4.51208 1.227397-4.463263 1.227397-4.407472C1.227397-4.358655 1.157659-4.079701 1.115816-3.919303L.955417-3.277709C.892653-3.040598 .509091-1.513325 .495143-1.422665C.460274-1.255293 .460274-1.164633 .460274-1.080946C.460274-.376588 .9066 .069738 1.48543 .069738C2.357161 .069738 3.284682-.878705 3.284682-1.910834C3.284682-2.726775 2.719801-3.075467 2.238605-3.075467C1.875965-3.075467 1.569116-2.873225 1.3599-2.691905L1.841096-4.630635ZM1.492403-.125529C1.150685-.125529 .955417-.425405 .955417-.836862C.955417-1.094894 1.018182-1.332005 1.21345-2.12005C1.255293-2.252553 1.255293-2.266501 1.387796-2.419925C1.652802-2.726775 1.966625-2.880199 2.217684-2.880199C2.489664-2.880199 2.726775-2.677958 2.726775-2.203736C2.726775-1.917808 2.57335-1.206476 2.364134-.801993C2.196762-.460274 1.84807-.125529 1.492403-.125529Z'/>
<path id='g3-99' d='M3.054545-2.670984C2.803487-2.629141 2.698879-2.433873 2.698879-2.280448C2.698879-2.092154 2.84533-2.022416 2.970859-2.022416C3.124284-2.022416 3.368369-2.133998 3.368369-2.468742C3.368369-2.942964 2.824408-3.075467 2.447821-3.075467C1.401743-3.075467 .432379-2.113076 .432379-1.143711C.432379-.54396 .850809 .069738 1.72254 .069738C2.901121 .069738 3.452055-.620672 3.452055-.718306C3.452055-.760149 3.38929-.836862 3.333499-.836862C3.291656-.836862 3.277709-.822914 3.221918-.767123C2.677958-.125529 1.862017-.125529 1.736488-.125529C1.234371-.125529 1.011208-.467248 1.011208-.899626C1.011208-1.101868 1.108842-1.862017 1.471482-2.343213C1.736488-2.684932 2.099128-2.880199 2.447821-2.880199C2.545455-2.880199 2.880199-2.866252 3.054545-2.670984Z'/>
<path id='g3-100' d='M3.982067-4.630635C3.989041-4.644583 4.009963-4.735243 4.009963-4.742217C4.009963-4.777086 3.982067-4.839851 3.898381-4.839851C3.758904-4.839851 3.180075-4.78406 3.005729-4.770112C2.949938-4.763138 2.852304-4.756164 2.852304-4.609714C2.852304-4.51208 2.949938-4.51208 3.033624-4.51208C3.368369-4.51208 3.368369-4.463263 3.368369-4.407472C3.368369-4.358655 3.354421-4.316812 3.340473-4.254047L2.942964-2.66401C2.796513-2.894147 2.559402-3.075467 2.224658-3.075467C1.332005-3.075467 .425405-2.092154 .425405-1.08792C.425405-.411457 .878705 .069738 1.478456 .069738C1.855044 .069738 2.189788-.146451 2.468742-.418431C2.601245 0 3.005729 .069738 3.187049 .069738C3.438107 .069738 3.612453-.083686 3.737983-.299875C3.891407-.571856 3.982067-.969365 3.982067-.99726C3.982067-1.08792 3.891407-1.08792 3.870486-1.08792C3.772852-1.08792 3.765878-1.060025 3.717061-.871731C3.633375-.536986 3.500872-.125529 3.20797-.125529C3.02665-.125529 2.977833-.278954 2.977833-.467248C2.977833-.599751 2.991781-.662516 3.012702-.753176L3.982067-4.630635ZM2.496638-.871731C2.447821-.676463 2.294396-.536986 2.140971-.404483C2.078207-.348692 1.799253-.125529 1.499377-.125529C1.241345-.125529 .990286-.306849 .990286-.801993C.990286-1.171606 1.192528-1.93873 1.352927-2.217684C1.673724-2.775592 2.02939-2.880199 2.224658-2.880199C2.712827-2.880199 2.84533-2.350187 2.84533-2.273474C2.84533-2.245579 2.831382-2.196762 2.824408-2.175841L2.496638-.871731Z'/>
<path id='g3-101' d='M1.562142-1.590037C1.75741-1.590037 2.308344-1.603985 2.684932-1.736488C3.200996-1.917808 3.29863-2.252553 3.29863-2.461768C3.29863-2.84533 2.915068-3.075467 2.433873-3.075467C1.597011-3.075467 .467248-2.433873 .467248-1.241345C.467248-.536986 .9066 .069738 1.72254 .069738C2.901121 .069738 3.452055-.620672 3.452055-.718306C3.452055-.760149 3.38929-.836862 3.333499-.836862C3.291656-.836862 3.277709-.822914 3.221918-.767123C2.677958-.125529 1.862017-.125529 1.736488-.125529C1.318057-.125529 1.039103-.404483 1.039103-.969365C1.039103-1.066999 1.039103-1.206476 1.12279-1.590037H1.562142ZM1.17858-1.785305C1.464508-2.796513 2.238605-2.880199 2.433873-2.880199C2.740722-2.880199 2.998755-2.726775 2.998755-2.461768C2.998755-1.785305 1.820174-1.785305 1.520299-1.785305H1.17858Z'/>
<path id='g0-97' d='M1.115816-3.795766C1.364882-4.104608 1.803238-4.244085 2.171856-4.244085C2.909091-4.244085 3.237858-3.576588 3.237858-2.86924V-2.610212C2.092154-2.610212 .408468-2.251557 .408468-.946451V-.86675C.488169-.099626 1.454545 .099626 2.022416 .099626C2.530511 .099626 3.178082-.239103 3.307597-.747198H3.317559C3.377335-.318804 3.646326 .049813 4.094645 .049813C4.503113 .049813 4.861768-.278954 4.911582-.727273V-1.454545H4.662516V-.946451C4.662516-.67746 4.612702-.268991 4.303861-.268991C3.985056-.268991 3.935243-.657534 3.935243-.926526V-2.590286C3.935243-2.719801 3.945205-2.839352 3.945205-2.968867C3.945205-3.935243 3.038605-4.463263 2.211706-4.463263C1.58406-4.463263 .697385-4.154421 .697385-3.35741C.697385-3.068493 .9066-2.879203 1.165629-2.879203C1.444583-2.879203 1.613948-3.098381 1.613948-3.337484C1.613948-3.626401 1.384807-3.795766 1.115816-3.795766ZM3.237858-2.400996V-1.39477C3.237858-.707347 2.759651-.159402 2.11208-.119552H2.072229C1.603985-.119552 1.185554-.488169 1.185554-.966376V-1.016189C1.255293-2.022416 2.381071-2.371108 3.237858-2.400996Z'/>
<path id='g0-100' d='M3.028643-6.814446V-6.505604H3.188045C3.536737-6.505604 3.805729-6.465753 3.805729-5.88792L3.795766-3.795766C3.556663-4.194271 2.988792-4.403487 2.530511-4.403487C1.305106-4.403487 .328767-3.347447 .328767-2.141968C.328767-1.075965 1.145704 .099626 2.460772 .099626C2.978829 .099626 3.447073-.14944 3.775841-.547945V.099626L5.250311-.009963V-.318804H5.080946C4.772105-.318804 4.473225-.348692 4.473225-.816936V-6.924035L3.028643-6.814446ZM1.165629-1.902864V-2.052304C1.165629-2.789539 1.255293-3.536737 1.942715-3.995019C2.141968-4.11457 2.371108-4.184309 2.600249-4.184309C3.088418-4.184309 3.785803-3.785803 3.785803-3.158157C3.785803-3.028643 3.775841-2.899128 3.775841-2.769614V-1.115816C3.775841-.986301 3.726027-.896638 3.656289-.797011C3.39726-.408468 2.968867-.119552 2.500623-.119552C1.77335-.119552 1.315068-.787049 1.205479-1.474471C1.185554-1.613948 1.185554-1.763387 1.165629-1.902864Z'/>
<path id='g4-40' d='M3.297634 2.391034C3.297634 2.361146 3.297634 2.34122 3.128269 2.171856C1.882939 .916563 1.564134-.966376 1.564134-2.49066C1.564134-4.224159 1.942715-5.957659 3.16812-7.202989C3.297634-7.32254 3.297634-7.342466 3.297634-7.372354C3.297634-7.442092 3.257783-7.47198 3.198007-7.47198C3.098381-7.47198 2.201743-6.794521 1.613948-5.529265C1.105853-4.433375 .986301-3.327522 .986301-2.49066C.986301-1.713574 1.09589-.508095 1.643836 .617684C2.241594 1.843088 3.098381 2.49066 3.198007 2.49066C3.257783 2.49066 3.297634 2.460772 3.297634 2.391034Z'/>
<path id='g4-41' d='M2.879203-2.49066C2.879203-3.267746 2.769614-4.473225 2.221669-5.599004C1.62391-6.824408 .767123-7.47198 .667497-7.47198C.607721-7.47198 .56787-7.43213 .56787-7.372354C.56787-7.342466 .56787-7.32254 .757161-7.143213C1.733499-6.156912 2.30137-4.572852 2.30137-2.49066C2.30137-.787049 1.932752 .966376 .697385 2.221669C.56787 2.34122 .56787 2.361146 .56787 2.391034C.56787 2.450809 .607721 2.49066 .667497 2.49066C.767123 2.49066 1.663761 1.8132 2.251557 .547945C2.759651-.547945 2.879203-1.653798 2.879203-2.49066Z'/>
<path id='g4-58' d='M1.912827-3.765878C1.912827-4.054795 1.673724-4.293898 1.384807-4.293898S.856787-4.054795 .856787-3.765878S1.09589-3.237858 1.384807-3.237858S1.912827-3.476961 1.912827-3.765878ZM1.912827-.52802C1.912827-.816936 1.673724-1.05604 1.384807-1.05604S.856787-.816936 .856787-.52802S1.09589 0 1.384807 0S1.912827-.239103 1.912827-.52802Z'/>
<path id='g4-61' d='M6.844334-3.257783C6.993773-3.257783 7.183064-3.257783 7.183064-3.457036S6.993773-3.656289 6.854296-3.656289H.886675C.747198-3.656289 .557908-3.656289 .557908-3.457036S.747198-3.257783 .896638-3.257783H6.844334ZM6.854296-1.325031C6.993773-1.325031 7.183064-1.325031 7.183064-1.524284S6.993773-1.723537 6.844334-1.723537H.896638C.747198-1.723537 .557908-1.723537 .557908-1.524284S.747198-1.325031 .886675-1.325031H6.854296Z'/>
<path id='g4-91' d='M2.540473 2.49066V2.092154H1.574097V-7.073474H2.540473V-7.47198H1.175592V2.49066H2.540473Z'/>
<path id='g4-93' d='M1.58406-7.47198H.219178V-7.073474H1.185554V2.092154H.219178V2.49066H1.58406V-7.47198Z'/>
</defs>
<g id='page1' transform='matrix(1.5 0 0 1.5 0 0)'>
<use x='152.59499' y='39.262084' xlink:href='#g4-40'/>
<use x='156.469362' y='39.262084' xlink:href='#g0-97'/>
<use x='161.449466' y='39.262084' xlink:href='#g0-100'/>
<use x='166.982914' y='40.756465' xlink:href='#g3-88'/>
<use x='176.770491' y='39.262084' xlink:href='#g1-14'/>
<use x='183.965696' y='39.262084' xlink:href='#g0-97'/>
<use x='188.9458' y='39.262084' xlink:href='#g0-100'/>
<use x='194.479249' y='40.756465' xlink:href='#g3-89'/>
<use x='201.376343' y='39.262084' xlink:href='#g4-41'/>
<use x='206.91111' y='39.262084' xlink:href='#g2-90'/>
<use x='217.191939' y='39.262084' xlink:href='#g4-61'/>
<use x='227.708019' y='39.262084' xlink:href='#g4-91'/>
<use x='230.475427' y='39.262084' xlink:href='#g2-88'/>
<use x='238.957501' y='39.262084' xlink:href='#g2-59'/>
<use x='243.385309' y='39.262084' xlink:href='#g4-91'/>
<use x='246.152718' y='39.262084' xlink:href='#g2-89'/>
<use x='252.490079' y='39.262084' xlink:href='#g2-59'/>
<use x='256.917887' y='39.262084' xlink:href='#g2-90'/>
<use x='264.431383' y='39.262084' xlink:href='#g4-93'/>
<use x='267.198791' y='39.262084' xlink:href='#g4-93'/>
<use x='217.191939' y='55.790161' xlink:href='#g4-61'/>
<use x='227.708019' y='55.790161' xlink:href='#g2-88'/>
<use x='236.743575' y='51.676665' xlink:href='#g3-97'/>
<use x='241.563148' y='55.790161' xlink:href='#g2-89'/>
<use x='249.560954' y='51.676665' xlink:href='#g3-98'/>
<use x='253.56261' y='55.790161' xlink:href='#g2-90'/>
<use x='261.076106' y='51.676665' xlink:href='#g3-99'/>
<use x='265.134632' y='55.790161' xlink:href='#g4-91'/>
<use x='267.902041' y='55.790161' xlink:href='#g2-84'/>
<use x='273.723972' y='57.284542' xlink:href='#g3-97'/>
<use x='278.543545' y='55.790161' xlink:href='#g2-59'/>
<use x='282.971353' y='55.790161' xlink:href='#g4-91'/>
<use x='285.738761' y='55.790161' xlink:href='#g2-84'/>
<use x='291.560693' y='57.284542' xlink:href='#g3-98'/>
<use x='295.562349' y='55.790161' xlink:href='#g2-59'/>
<use x='299.990157' y='55.790161' xlink:href='#g2-84'/>
<use x='305.812088' y='57.284542' xlink:href='#g3-99'/>
<use x='309.870614' y='55.790161' xlink:href='#g4-93'/>
<use x='312.638023' y='55.790161' xlink:href='#g4-93'/>
<use x='217.191939' y='72.318238' xlink:href='#g4-61'/>
<use x='227.708019' y='72.318238' xlink:href='#g2-88'/>
<use x='236.743575' y='68.204742' xlink:href='#g3-97'/>
<use x='241.563148' y='72.318238' xlink:href='#g2-89'/>
<use x='249.560954' y='68.204742' xlink:href='#g3-98'/>
<use x='253.56261' y='72.318238' xlink:href='#g2-90'/>
<use x='261.076106' y='68.204742' xlink:href='#g3-99'/>
<use x='265.134632' y='72.318238' xlink:href='#g2-102'/>
<use x='271.08458' y='68.204742' xlink:href='#g3-100'/>
<use x='275.730031' y='74.753534' xlink:href='#g3-98'/>
<use x='279.233569' y='74.753534' xlink:href='#g3-99'/>
<use x='283.292082' y='72.318238' xlink:href='#g2-102'/>
<use x='289.242029' y='68.204742' xlink:href='#g3-101'/>
<use x='293.5201' y='74.753534' xlink:href='#g3-97'/>
<use x='297.841544' y='74.753534' xlink:href='#g3-100'/>
<use x='302.486993' y='72.318238' xlink:href='#g2-84'/>
<use x='308.308924' y='73.812619' xlink:href='#g3-101'/>
<use x='217.191939' y='87.262199' xlink:href='#g4-58'/>
<use x='219.959347' y='87.262199' xlink:href='#g4-61'/>
<use x='230.475427' y='87.262199' xlink:href='#g2-77'/>
<use x='241.22677' y='87.262199' xlink:href='#g4-40'/>
<use x='245.101144' y='87.262199' xlink:href='#g2-88'/>
<use x='253.583218' y='87.262199' xlink:href='#g2-59'/>
<use x='258.011026' y='87.262199' xlink:href='#g2-89'/>
<use x='266.008832' y='87.262199' xlink:href='#g4-41'/>
<use x='269.883205' y='83.148703' xlink:href='#g3-101'/>
<use x='269.883205' y='89.72513' xlink:href='#g3-99'/>
<use x='274.161276' y='87.262199' xlink:href='#g2-90'/>
<use x='281.674772' y='83.148703' xlink:href='#g3-99'/>
<use x='285.733298' y='87.262199' xlink:href='#g2-84'/>
<use x='291.555229' y='88.756579' xlink:href='#g3-101'/>
</g>
</svg>