<?xml version='1.0' encoding='UTF-8'?>
<!-- This file was generated by dvisvgm 3.2 -->
<svg version='1.1' xmlns='http://www.w3.org/2000/svg' xmlns:xlink='http://www.w3.org/1999/xlink' width='88.876926pt' height='19.052584pt' viewBox='306.300859 29.392962 88.876926 19.052584'>
<defs>
<path id='g2-48' d='M4.582814-3.188045C4.582814-3.985056 4.533001-4.782067 4.184309-5.519303C3.726027-6.475716 2.909091-6.635118 2.49066-6.635118C1.892902-6.635118 1.165629-6.37609 .757161-5.449564C.438356-4.762142 .388543-3.985056 .388543-3.188045C.388543-2.440847 .428394-1.544209 .836862-.787049C1.265255 .019925 1.992528 .219178 2.480697 .219178C3.01868 .219178 3.775841 .009963 4.214197-.936488C4.533001-1.62391 4.582814-2.400996 4.582814-3.188045ZM2.480697 0C2.092154 0 1.504359-.249066 1.325031-1.205479C1.215442-1.803238 1.215442-2.719801 1.215442-3.307597C1.215442-3.945205 1.215442-4.60274 1.295143-5.140722C1.484433-6.326276 2.231631-6.41594 2.480697-6.41594C2.809465-6.41594 3.466999-6.236613 3.656289-5.250311C3.755915-4.692403 3.755915-3.935243 3.755915-3.307597C3.755915-2.560399 3.755915-1.882939 3.646326-1.24533C3.496887-.298879 2.929016 0 2.480697 0Z'/>
<path id='g2-61' d='M6.844334-3.257783C6.993773-3.257783 7.183064-3.257783 7.183064-3.457036S6.993773-3.656289 6.854296-3.656289H.886675C.747198-3.656289 .557908-3.656289 .557908-3.457036S.747198-3.257783 .896638-3.257783H6.844334ZM6.854296-1.325031C6.993773-1.325031 7.183064-1.325031 7.183064-1.524284S6.993773-1.723537 6.844334-1.723537H.896638C.747198-1.723537 .557908-1.723537 .557908-1.524284S.747198-1.325031 .886675-1.325031H6.854296Z'/>
<path id='g1-12' d='M4.414446-3.947198C4.414446-4.560897 3.884433-4.916563 3.270735-4.916563C2.315318-4.916563 1.610959-3.828643 1.436613-3.124284L.341719 1.26924C.327771 1.318057 .397509 1.352927 .439352 1.352927C.502117 1.352927 .557908 1.345953 .571856 1.30411L1.039103-.557908C1.185554-.237111 1.520299 .062765 2.085181 .062765C3.061519 .062765 4.163387-.641594 4.163387-1.708593C4.163387-2.12005 3.975093-2.538481 3.619427-2.768618C3.961146-2.984807 4.414446-3.382316 4.414446-3.947198ZM3.033624-2.775592C2.929016-2.75467 2.880199-2.726775 2.677958-2.726775C2.566376-2.726775 2.399004-2.733748 2.350187-2.761644C2.419925-2.803487 2.615193-2.810461 2.677958-2.810461C2.782565-2.810461 2.93599-2.803487 3.033624-2.775592ZM3.954172-4.072727C3.954172-3.703113 3.772852-3.159153 3.340473-2.915068C3.20797-2.956912 3.075467-3.005729 2.684932-3.005729C2.440847-3.005729 2.092154-2.991781 2.092154-2.740722C2.092154-2.566376 2.308344-2.538481 2.66401-2.538481C2.901121-2.538481 3.110336-2.57335 3.326526-2.636115C3.535741-2.489664 3.647323-2.203736 3.647323-1.896887C3.647323-.885679 2.956912-.132503 2.106102-.132503C1.569116-.132503 1.185554-.460274 1.185554-1.011208C1.185554-1.080946 1.192528-1.150685 1.206476-1.21345L1.66675-3.068493C1.834122-3.731009 2.447821-4.721295 3.256787-4.721295C3.668244-4.721295 3.954172-4.498132 3.954172-4.072727Z'/>
<path id='g1-66' d='M1.325031-.54396C1.262267-.306849 1.248319-.251059 .711333-.251059C.592777-.251059 .502117-.251059 .502117-.104608C.502117 0 .585803 0 .711333 0H3.410212C4.581818 0 5.481445-.801993 5.481445-1.492403C5.481445-1.987547 5.028144-2.412951 4.288917-2.489664C5.132752-2.643088 5.837111-3.173101 5.837111-3.772852C5.837111-4.302864 5.300125-4.763138 4.393524-4.763138H1.855044C1.72254-4.763138 1.63188-4.763138 1.63188-4.609714C1.63188-4.51208 1.715567-4.51208 1.855044-4.51208C1.862017-4.51208 1.994521-4.51208 2.12005-4.498132C2.266501-4.484184 2.280448-4.470237 2.280448-4.400498C2.280448-4.38655 2.280448-4.351681 2.252553-4.247073L1.325031-.54396ZM2.440847-2.57335L2.866252-4.274969C2.922042-4.491158 2.929016-4.51208 3.221918-4.51208H4.281943C4.993275-4.51208 5.153674-4.044832 5.153674-3.779826C5.153674-3.214944 4.519054-2.57335 3.584558-2.57335H2.440847ZM2.106102-.251059C1.889913-.251059 1.882939-.258032 1.882939-.320797C1.882939-.327771 1.882939-.36264 1.910834-.467248L2.39203-2.378082H3.870486C4.526027-2.378082 4.777086-1.945704 4.777086-1.54122C4.777086-.850809 4.072727-.251059 3.228892-.251059H2.106102Z'/>
<path id='g1-105' d='M2.259527-4.358655C2.259527-4.470237 2.175841-4.623661 1.980573-4.623661C1.792279-4.623661 1.590037-4.442341 1.590037-4.2401C1.590037-4.121544 1.680697-3.975093 1.868991-3.975093C2.071233-3.975093 2.259527-4.170361 2.259527-4.358655ZM.836862-.81594C.808966-.72528 .774097-.641594 .774097-.523039C.774097-.195268 1.053051 .069738 1.436613 .069738C2.133998 .069738 2.440847-.892653 2.440847-.99726C2.440847-1.08792 2.350187-1.08792 2.329265-1.08792C2.231631-1.08792 2.224658-1.046077 2.196762-.969365C2.036364-.411457 1.729514-.125529 1.457534-.125529C1.318057-.125529 1.283188-.216189 1.283188-.369614C1.283188-.530012 1.332005-.662516 1.39477-.81594C1.464508-1.004234 1.54122-1.192528 1.617933-1.373848C1.680697-1.54122 1.931756-2.175841 1.959651-2.259527C1.980573-2.329265 2.001494-2.412951 2.001494-2.48269C2.001494-2.810461 1.72254-3.075467 1.338979-3.075467C.648568-3.075467 .327771-2.127024 .327771-2.008468C.327771-1.917808 .425405-1.917808 .446326-1.917808C.54396-1.917808 .550934-1.952677 .571856-2.02939C.753176-2.629141 1.060025-2.880199 1.318057-2.880199C1.429639-2.880199 1.492403-2.824408 1.492403-2.636115C1.492403-2.475716 1.45056-2.371108 1.276214-1.93873L.836862-.81594Z'/>
<path id='g0-102' d='M3.656289-3.985056H4.513076C4.712329-3.985056 4.811955-3.985056 4.811955-4.184309C4.811955-4.293898 4.712329-4.293898 4.542964-4.293898H3.716065L3.92528-5.429639C3.965131-5.638854 4.104608-6.346202 4.164384-6.465753C4.254047-6.655044 4.423412-6.804483 4.632628-6.804483C4.672478-6.804483 4.931507-6.804483 5.120797-6.625156C4.682441-6.585305 4.582814-6.236613 4.582814-6.087173C4.582814-5.858032 4.762142-5.738481 4.951432-5.738481C5.210461-5.738481 5.499377-5.957659 5.499377-6.336239C5.499377-6.794521 5.041096-7.023661 4.632628-7.023661C4.293898-7.023661 3.666252-6.844334 3.367372-5.858032C3.307597-5.648817 3.277709-5.549191 3.038605-4.293898H2.351183C2.161893-4.293898 2.052304-4.293898 2.052304-4.104608C2.052304-3.985056 2.141968-3.985056 2.331258-3.985056H2.988792L2.241594-.049813C2.062267 .916563 1.892902 1.823163 1.374844 1.823163C1.334994 1.823163 1.085928 1.823163 .896638 1.643836C1.354919 1.613948 1.444583 1.255293 1.444583 1.105853C1.444583 .876712 1.265255 .757161 1.075965 .757161C.816936 .757161 .52802 .976339 .52802 1.354919C.52802 1.803238 .966376 2.042341 1.374844 2.042341C1.92279 2.042341 2.321295 1.454545 2.500623 1.075965C2.819427 .448319 3.048568-.757161 3.058531-.826899L3.656289-3.985056Z'/>
</defs>
<g id='page1' transform='matrix(1.5 0 0 1.5 0 0)'>
<use x='203.672553' y='29.299444' xlink:href='#g0-102'/>
<use x='209.6225' y='24.511871' xlink:href='#g1-12'/>
<use x='208.550121' y='32.227292' xlink:href='#g1-105'/>
<use x='211.368848' y='32.227292' xlink:href='#g1-66'/>
<use x='220.993449' y='29.299444' xlink:href='#g2-61'/>
<use x='231.509529' y='29.299444' xlink:href='#g2-48'/>
<use x='239.2582' y='29.299444' xlink:href='#g2-61'/>
<use x='249.77428' y='29.299444' xlink:href='#g0-102'/>
<use x='255.724227' y='24.511871' xlink:href='#g1-12'/>
<use x='254.651848' y='32.227292' xlink:href='#g1-66'/>
<use x='261.01101' y='32.227292' xlink:href='#g1-105'/>
</g>
</svg>