<?xml version='1.0' encoding='UTF-8'?>
<!-- This file was generated by dvisvgm 3.2 -->
<svg version='1.1' xmlns='http://www.w3.org/2000/svg' xmlns:xlink='http://www.w3.org/1999/xlink' width='48.978791pt' height='15.075444pt' viewBox='-21.28122 15.316539 48.978791 15.075444'>
<defs>
<path id='g0-90' d='M5.937733-6.465753C6.027397-6.595268 6.027397-6.615193 6.027397-6.645081C6.027397-6.824408 5.877958-6.824408 5.69863-6.824408H1.135741C.816936-6.824408 .816936-6.794521 .787049-6.535492L.637609-5.190535L.617684-5.061021C.617684-4.921544 .727273-4.871731 .797011-4.871731C.886675-4.871731 .946451-4.941469 .966376-5.021171C1.006227-5.260274 1.09589-5.69863 1.703611-6.07721C2.271482-6.445828 2.968867-6.475716 3.307597-6.475716H4.11457L.368618-.358655C.278954-.229141 .278954-.209215 .278954-.179328C.278954 0 .438356 0 .617684 0H5.728518C6.027397 0 6.027397-.019925 6.067248-.278954L6.336239-2.241594C6.336239-2.351183 6.246575-2.420922 6.166874-2.420922C6.017435-2.420922 5.997509-2.321295 5.967621-2.122042C5.798257-1.305106 5.021171-.348692 3.606476-.348692H2.191781L5.937733-6.465753ZM1.125778-6.475716H1.653798V-6.465753C1.384807-6.316314 1.195517-6.136986 1.075965-6.027397L1.125778-6.475716ZM4.523039-6.475716H5.539228L1.783313-.348692H.767123L4.523039-6.475716ZM5.051059-.358655C5.330012-.518057 5.589041-.737235 5.818182-1.016189C5.798257-.816936 5.778331-.707347 5.728518-.348692H5.051059V-.358655Z'/>
<path id='g1-50' d='M5.459527-2.291407C5.628892-2.291407 5.808219-2.291407 5.808219-2.49066S5.628892-2.689913 5.459527-2.689913H1.235367C1.354919-4.024907 2.500623-4.98132 3.905355-4.98132H5.459527C5.628892-4.98132 5.808219-4.98132 5.808219-5.180573S5.628892-5.379826 5.459527-5.379826H3.88543C2.181818-5.379826 .826899-4.084682 .826899-2.49066S2.181818 .398506 3.88543 .398506H5.459527C5.628892 .398506 5.808219 .398506 5.808219 .199253S5.628892 0 5.459527 0H3.905355C2.500623 0 1.354919-.956413 1.235367-2.291407H5.459527Z'/>
<path id='g3-105' d='M2.259527-4.358655C2.259527-4.470237 2.175841-4.623661 1.980573-4.623661C1.792279-4.623661 1.590037-4.442341 1.590037-4.2401C1.590037-4.121544 1.680697-3.975093 1.868991-3.975093C2.071233-3.975093 2.259527-4.170361 2.259527-4.358655ZM.836862-.81594C.808966-.72528 .774097-.641594 .774097-.523039C.774097-.195268 1.053051 .069738 1.436613 .069738C2.133998 .069738 2.440847-.892653 2.440847-.99726C2.440847-1.08792 2.350187-1.08792 2.329265-1.08792C2.231631-1.08792 2.224658-1.046077 2.196762-.969365C2.036364-.411457 1.729514-.125529 1.457534-.125529C1.318057-.125529 1.283188-.216189 1.283188-.369614C1.283188-.530012 1.332005-.662516 1.39477-.81594C1.464508-1.004234 1.54122-1.192528 1.617933-1.373848C1.680697-1.54122 1.931756-2.175841 1.959651-2.259527C1.980573-2.329265 2.001494-2.412951 2.001494-2.48269C2.001494-2.810461 1.72254-3.075467 1.338979-3.075467C.648568-3.075467 .327771-2.127024 .327771-2.008468C.327771-1.917808 .425405-1.917808 .446326-1.917808C.54396-1.917808 .550934-1.952677 .571856-2.02939C.753176-2.629141 1.060025-2.880199 1.318057-2.880199C1.429639-2.880199 1.492403-2.824408 1.492403-2.636115C1.492403-2.475716 1.45056-2.371108 1.276214-1.93873L.836862-.81594Z'/>
<path id='g3-106' d='M3.061519-4.358655C3.061519-4.47721 2.970859-4.623661 2.782565-4.623661C2.580324-4.623661 2.39203-4.428394 2.39203-4.2401C2.39203-4.128518 2.475716-3.975093 2.670984-3.975093C2.859278-3.975093 3.061519-4.156413 3.061519-4.358655ZM1.583064 .341719C1.464508 .822914 1.094894 1.227397 .683437 1.227397C.592777 1.227397 .509091 1.21345 .432379 1.185554C.613699 1.101868 .669489 .934496 .669489 .829888C.669489 .662516 .536986 .571856 .397509 .571856C.18132 .571856 0 .760149 0 .983313C0 1.248319 .27198 1.422665 .690411 1.422665S1.924782 1.171606 2.140971 .320797L2.768618-2.175841C2.789539-2.252553 2.803487-2.315318 2.803487-2.419925C2.803487-2.803487 2.475716-3.075467 2.057285-3.075467C1.283188-3.075467 .836862-2.106102 .836862-2.008468C.836862-1.917808 .934496-1.917808 .955417-1.917808C1.039103-1.917808 1.046077-1.93873 1.094894-2.043337C1.26924-2.447821 1.63188-2.880199 2.036364-2.880199C2.21071-2.880199 2.273474-2.761644 2.273474-2.538481C2.273474-2.461768 2.259527-2.364134 2.252553-2.329265L1.583064 .341719Z'/>
<path id='g2-65' d='M1.783313-1.145704C1.384807-.478207 .996264-.33873 .557908-.308842C.438356-.298879 .348692-.298879 .348692-.109589C.348692-.049813 .398506 0 .478207 0C.747198 0 1.05604-.029888 1.334994-.029888C1.663761-.029888 2.012453 0 2.331258 0C2.391034 0 2.520548 0 2.520548-.18929C2.520548-.298879 2.430884-.308842 2.361146-.308842C2.132005-.328767 1.892902-.408468 1.892902-.657534C1.892902-.777086 1.952677-.886675 2.032379-1.026152L2.789539-2.30137H5.290162C5.310087-2.092154 5.449564-.737235 5.449564-.637609C5.449564-.33873 4.931507-.308842 4.732254-.308842C4.592777-.308842 4.493151-.308842 4.493151-.109589C4.493151 0 4.612702 0 4.632628 0C5.041096 0 5.469489-.029888 5.877958-.029888C6.127024-.029888 6.75467 0 7.003736 0C7.063512 0 7.183064 0 7.183064-.199253C7.183064-.308842 7.083437-.308842 6.953923-.308842C6.336239-.308842 6.336239-.37858 6.306351-.667497L5.69863-6.894147C5.678705-7.0934 5.678705-7.13325 5.50934-7.13325C5.349938-7.13325 5.310087-7.063512 5.250311-6.963885L1.783313-1.145704ZM2.978829-2.610212L4.941469-5.897883L5.260274-2.610212H2.978829Z'/>
</defs>
<g id='page1' transform='matrix(1.5 0 0 1.5 0 0)'>
<use x='-14.536172' y='17.344276' xlink:href='#g2-65'/>
<use x='-7.064173' y='18.838657' xlink:href='#g3-106'/>
<use x='-3.364484' y='18.838657' xlink:href='#g3-105'/>
<use x='2.719694' y='17.344276' xlink:href='#g1-50'/>
<use x='12.128809' y='17.344276' xlink:href='#g0-90'/>
</g>
</svg>