<?xml version='1.0' encoding='UTF-8'?>
<!-- This file was generated by dvisvgm 3.2 -->
<svg version='1.1' xmlns='http://www.w3.org/2000/svg' xmlns:xlink='http://www.w3.org/1999/xlink' width='163.667937pt' height='14.94396pt' viewBox='-21.2065 14.808444 163.667937 14.94396'>
<defs>
<path id='g1-40' d='M3.297634 2.391034C3.297634 2.361146 3.297634 2.34122 3.128269 2.171856C1.882939 .916563 1.564134-.966376 1.564134-2.49066C1.564134-4.224159 1.942715-5.957659 3.16812-7.202989C3.297634-7.32254 3.297634-7.342466 3.297634-7.372354C3.297634-7.442092 3.257783-7.47198 3.198007-7.47198C3.098381-7.47198 2.201743-6.794521 1.613948-5.529265C1.105853-4.433375 .986301-3.327522 .986301-2.49066C.986301-1.713574 1.09589-.508095 1.643836 .617684C2.241594 1.843088 3.098381 2.49066 3.198007 2.49066C3.257783 2.49066 3.297634 2.460772 3.297634 2.391034Z'/>
<path id='g1-41' d='M2.879203-2.49066C2.879203-3.267746 2.769614-4.473225 2.221669-5.599004C1.62391-6.824408 .767123-7.47198 .667497-7.47198C.607721-7.47198 .56787-7.43213 .56787-7.372354C.56787-7.342466 .56787-7.32254 .757161-7.143213C1.733499-6.156912 2.30137-4.572852 2.30137-2.49066C2.30137-.787049 1.932752 .966376 .697385 2.221669C.56787 2.34122 .56787 2.361146 .56787 2.391034C.56787 2.450809 .607721 2.49066 .667497 2.49066C.767123 2.49066 1.663761 1.8132 2.251557 .547945C2.759651-.547945 2.879203-1.653798 2.879203-2.49066Z'/>
<path id='g1-43' d='M4.07472-2.291407H6.854296C6.993773-2.291407 7.183064-2.291407 7.183064-2.49066S6.993773-2.689913 6.854296-2.689913H4.07472V-5.479452C4.07472-5.618929 4.07472-5.808219 3.875467-5.808219S3.676214-5.618929 3.676214-5.479452V-2.689913H.886675C.747198-2.689913 .557908-2.689913 .557908-2.49066S.747198-2.291407 .886675-2.291407H3.676214V.498132C3.676214 .637609 3.676214 .826899 3.875467 .826899S4.07472 .637609 4.07472 .498132V-2.291407Z'/>
<path id='g1-61' d='M6.844334-3.257783C6.993773-3.257783 7.183064-3.257783 7.183064-3.457036S6.993773-3.656289 6.854296-3.656289H.886675C.747198-3.656289 .557908-3.656289 .557908-3.457036S.747198-3.257783 .896638-3.257783H6.844334ZM6.854296-1.325031C6.993773-1.325031 7.183064-1.325031 7.183064-1.524284S6.993773-1.723537 6.844334-1.723537H.896638C.747198-1.723537 .557908-1.723537 .557908-1.524284S.747198-1.325031 .886675-1.325031H6.854296Z'/>
<path id='g0-88' d='M4.83188-4.094645L3.995019-6.07721C3.965131-6.156912 3.945205-6.196762 3.945205-6.206725C3.945205-6.266501 4.11457-6.455791 4.533001-6.495641C4.632628-6.505604 4.732254-6.515567 4.732254-6.684932C4.732254-6.804483 4.612702-6.804483 4.582814-6.804483C4.174346-6.804483 3.745953-6.774595 3.327522-6.774595C3.078456-6.774595 2.460772-6.804483 2.211706-6.804483C2.15193-6.804483 2.032379-6.804483 2.032379-6.60523C2.032379-6.495641 2.132005-6.495641 2.261519-6.495641C2.859278-6.495641 2.919054-6.396015 3.008717-6.176837L4.184309-3.39726L2.082192-1.135741L1.952677-1.026152C1.464508-.498132 .996264-.33873 .488169-.308842C.358655-.298879 .268991-.298879 .268991-.109589C.268991-.099626 .268991 0 .398506 0C.697385 0 1.026152-.029888 1.334994-.029888C1.703611-.029888 2.092154 0 2.450809 0C2.510585 0 2.630137 0 2.630137-.199253C2.630137-.298879 2.530511-.308842 2.510585-.308842C2.420922-.318804 2.11208-.33873 2.11208-.617684C2.11208-.777086 2.261519-.936488 2.381071-1.066002L3.39726-2.141968L4.293898-3.118306L5.300125-.737235C5.339975-.627646 5.349938-.617684 5.349938-.597758C5.349938-.518057 5.160648-.348692 4.772105-.308842C4.662516-.298879 4.572852-.288917 4.572852-.119552C4.572852 0 4.682441 0 4.722291 0C5.001245 0 5.69863-.029888 5.977584-.029888C6.22665-.029888 6.834371 0 7.083437 0C7.153176 0 7.272727 0 7.272727-.18929C7.272727-.308842 7.173101-.308842 7.0934-.308842C6.425903-.318804 6.405978-.348692 6.236613-.747198C5.84807-1.673724 5.180573-3.227895 4.951432-3.825654C5.628892-4.523039 6.674969-5.708593 6.993773-5.987547C7.28269-6.22665 7.66127-6.465753 8.259029-6.495641C8.388543-6.505604 8.478207-6.505604 8.478207-6.694894C8.478207-6.704857 8.478207-6.804483 8.348692-6.804483C8.049813-6.804483 7.721046-6.774595 7.412204-6.774595C7.043587-6.774595 6.665006-6.804483 6.306351-6.804483C6.246575-6.804483 6.117061-6.804483 6.117061-6.60523C6.117061-6.535492 6.166874-6.505604 6.236613-6.495641C6.326276-6.485679 6.635118-6.465753 6.635118-6.1868C6.635118-6.047323 6.525529-5.917808 6.445828-5.828144L4.83188-4.094645Z'/>
<path id='g0-89' d='M5.947696-5.668742L6.087173-5.808219C6.386052-6.107098 6.714819-6.445828 7.392279-6.495641C7.501868-6.505604 7.591532-6.505604 7.591532-6.684932C7.591532-6.764633 7.541719-6.804483 7.462017-6.804483C7.202989-6.804483 6.914072-6.774595 6.645081-6.774595C6.316314-6.774595 5.967621-6.804483 5.648817-6.804483C5.589041-6.804483 5.459527-6.804483 5.459527-6.615193C5.459527-6.505604 5.559153-6.495641 5.608966-6.495641C5.678705-6.495641 5.967621-6.475716 5.967621-6.266501C5.967621-6.097136 5.738481-5.838107 5.69863-5.788294L3.387298-3.128269L2.291407-6.087173C2.231631-6.22665 2.231631-6.246575 2.231631-6.256538C2.231631-6.495641 2.719801-6.495641 2.819427-6.495641C2.958904-6.495641 3.058531-6.495641 3.058531-6.694894C3.058531-6.804483 2.938979-6.804483 2.909091-6.804483C2.630137-6.804483 1.932752-6.774595 1.653798-6.774595C1.404732-6.774595 .787049-6.804483 .537983-6.804483C.478207-6.804483 .348692-6.804483 .348692-6.60523C.348692-6.495641 .448319-6.495641 .577833-6.495641C1.175592-6.495641 1.215442-6.405978 1.305106-6.156912L2.530511-2.879203C2.540473-2.849315 2.570361-2.739726 2.570361-2.709838S2.171856-1.075965 2.122042-.896638C1.992528-.348692 1.982565-.318804 1.185554-.308842C.996264-.308842 .916563-.308842 .916563-.109589C.916563 0 1.036115 0 1.05604 0C1.334994 0 2.032379-.029888 2.311333-.029888S3.307597 0 3.58655 0C3.656289 0 3.775841 0 3.775841-.199253C3.775841-.308842 3.686177-.308842 3.496887-.308842C3.476961-.308842 3.287671-.308842 3.118306-.328767C2.909091-.348692 2.849315-.368618 2.849315-.488169C2.849315-.557908 2.938979-.9066 2.988792-1.115816L3.337484-2.520548C3.387298-2.709838 3.39726-2.739726 3.476961-2.82939L5.947696-5.668742Z'/>
<path id='g0-100' d='M5.140722-6.804483C5.140722-6.814446 5.140722-6.914072 5.011208-6.914072C4.861768-6.914072 3.915318-6.824408 3.745953-6.804483C3.666252-6.794521 3.606476-6.744707 3.606476-6.615193C3.606476-6.495641 3.696139-6.495641 3.845579-6.495641C4.323786-6.495641 4.343711-6.425903 4.343711-6.326276L4.313823-6.127024L3.716065-3.765878C3.536737-4.134496 3.247821-4.403487 2.799502-4.403487C1.633873-4.403487 .398506-2.938979 .398506-1.484433C.398506-.547945 .946451 .109589 1.723537 .109589C1.92279 .109589 2.420922 .069738 3.01868-.637609C3.098381-.219178 3.447073 .109589 3.92528 .109589C4.273973 .109589 4.503113-.119552 4.662516-.438356C4.83188-.797011 4.961395-1.404732 4.961395-1.424658C4.961395-1.524284 4.871731-1.524284 4.841843-1.524284C4.742217-1.524284 4.732254-1.484433 4.702366-1.344956C4.533001-.697385 4.353674-.109589 3.945205-.109589C3.676214-.109589 3.646326-.368618 3.646326-.56787C3.646326-.806974 3.666252-.876712 3.706102-1.046077L5.140722-6.804483ZM3.068493-1.185554C3.01868-1.006227 3.01868-.986301 2.86924-.816936C2.430884-.268991 2.022416-.109589 1.743462-.109589C1.24533-.109589 1.105853-.657534 1.105853-1.046077C1.105853-1.544209 1.424658-2.769614 1.653798-3.227895C1.96264-3.815691 2.410959-4.184309 2.809465-4.184309C3.457036-4.184309 3.596513-3.367372 3.596513-3.307597S3.576588-3.188045 3.566625-3.138232L3.068493-1.185554Z'/>
</defs>
<g id='page1' transform='matrix(1.5 0 0 1.5 0 0)'>
<use x='-14.536172' y='17.344276' xlink:href='#g0-100'/>
<use x='-9.35074' y='17.344276' xlink:href='#g1-40'/>
<use x='-5.476366' y='17.344276' xlink:href='#g0-88'/>
<use x='5.773055' y='17.344276' xlink:href='#g1-43'/>
<use x='15.735669' y='17.344276' xlink:href='#g0-89'/>
<use x='23.733475' y='17.344276' xlink:href='#g1-41'/>
<use x='30.375181' y='17.344276' xlink:href='#g1-61'/>
<use x='40.891261' y='17.344276' xlink:href='#g0-100'/>
<use x='46.076694' y='17.344276' xlink:href='#g1-40'/>
<use x='49.951067' y='17.344276' xlink:href='#g0-88'/>
<use x='58.986623' y='17.344276' xlink:href='#g1-41'/>
<use x='65.074863' y='17.344276' xlink:href='#g1-43'/>
<use x='75.037476' y='17.344276' xlink:href='#g0-100'/>
<use x='80.222909' y='17.344276' xlink:href='#g1-40'/>
<use x='84.097282' y='17.344276' xlink:href='#g0-89'/>
<use x='92.095088' y='17.344276' xlink:href='#g1-41'/>
</g>
</svg>