<?xml version='1.0' encoding='UTF-8'?>
<!-- This file was generated by dvisvgm 3.2 -->
<svg version='1.1' xmlns='http://www.w3.org/2000/svg' xmlns:xlink='http://www.w3.org/1999/xlink' width='61.019418pt' height='14.94396pt' viewBox='-20.324806 14.808444 61.019418 14.94396'>
<defs>
<path id='g0-21' d='M3.556663-2.909091C3.965131-1.863014 4.443337-.33873 4.60274-.109589C4.762142 .109589 4.861768 .109589 5.13076 .109589H5.349938C5.449564 .099626 5.459527 .039851 5.459527 .009963S5.439601-.039851 5.409714-.079701C5.310087-.18929 5.250311-.33873 5.180573-.537983L3.148194-6.206725C2.938979-6.784558 2.400996-6.914072 1.932752-6.914072C1.882939-6.914072 1.753425-6.914072 1.753425-6.804483C1.753425-6.724782 1.833126-6.704857 1.843088-6.704857C2.171856-6.645081 2.241594-6.585305 2.49066-5.907846L3.457036-3.198007L.707347-.468244C.587796-.348692 .52802-.288917 .52802-.159402C.52802 .009963 .667497 .129514 .826899 .129514S1.075965 .019925 1.155666-.079701L3.556663-2.909091Z'/>
<path id='g0-59' d='M2.022416-.009963C2.022416-.667497 1.77335-1.05604 1.384807-1.05604C1.05604-1.05604 .856787-.806974 .856787-.52802C.856787-.259029 1.05604 0 1.384807 0C1.504359 0 1.633873-.039851 1.733499-.129514C1.763387-.14944 1.77335-.159402 1.783313-.159402S1.803238-.14944 1.803238-.009963C1.803238 .727273 1.454545 1.325031 1.125778 1.653798C1.016189 1.763387 1.016189 1.783313 1.016189 1.8132C1.016189 1.882939 1.066002 1.92279 1.115816 1.92279C1.225405 1.92279 2.022416 1.155666 2.022416-.009963Z'/>
<path id='g1-40' d='M3.297634 2.391034C3.297634 2.361146 3.297634 2.34122 3.128269 2.171856C1.882939 .916563 1.564134-.966376 1.564134-2.49066C1.564134-4.224159 1.942715-5.957659 3.16812-7.202989C3.297634-7.32254 3.297634-7.342466 3.297634-7.372354C3.297634-7.442092 3.257783-7.47198 3.198007-7.47198C3.098381-7.47198 2.201743-6.794521 1.613948-5.529265C1.105853-4.433375 .986301-3.327522 .986301-2.49066C.986301-1.713574 1.09589-.508095 1.643836 .617684C2.241594 1.843088 3.098381 2.49066 3.198007 2.49066C3.257783 2.49066 3.297634 2.460772 3.297634 2.391034Z'/>
<path id='g1-41' d='M2.879203-2.49066C2.879203-3.267746 2.769614-4.473225 2.221669-5.599004C1.62391-6.824408 .767123-7.47198 .667497-7.47198C.607721-7.47198 .56787-7.43213 .56787-7.372354C.56787-7.342466 .56787-7.32254 .757161-7.143213C1.733499-6.156912 2.30137-4.572852 2.30137-2.49066C2.30137-.787049 1.932752 .966376 .697385 2.221669C.56787 2.34122 .56787 2.361146 .56787 2.391034C.56787 2.450809 .607721 2.49066 .667497 2.49066C.767123 2.49066 1.663761 1.8132 2.251557 .547945C2.759651-.547945 2.879203-1.653798 2.879203-2.49066Z'/>
<path id='g1-48' d='M4.582814-3.188045C4.582814-3.985056 4.533001-4.782067 4.184309-5.519303C3.726027-6.475716 2.909091-6.635118 2.49066-6.635118C1.892902-6.635118 1.165629-6.37609 .757161-5.449564C.438356-4.762142 .388543-3.985056 .388543-3.188045C.388543-2.440847 .428394-1.544209 .836862-.787049C1.265255 .019925 1.992528 .219178 2.480697 .219178C3.01868 .219178 3.775841 .009963 4.214197-.936488C4.533001-1.62391 4.582814-2.400996 4.582814-3.188045ZM2.480697 0C2.092154 0 1.504359-.249066 1.325031-1.205479C1.215442-1.803238 1.215442-2.719801 1.215442-3.307597C1.215442-3.945205 1.215442-4.60274 1.295143-5.140722C1.484433-6.326276 2.231631-6.41594 2.480697-6.41594C2.809465-6.41594 3.466999-6.236613 3.656289-5.250311C3.755915-4.692403 3.755915-3.935243 3.755915-3.307597C3.755915-2.560399 3.755915-1.882939 3.646326-1.24533C3.496887-.298879 2.929016 0 2.480697 0Z'/>
<path id='g1-61' d='M6.844334-3.257783C6.993773-3.257783 7.183064-3.257783 7.183064-3.457036S6.993773-3.656289 6.854296-3.656289H.886675C.747198-3.656289 .557908-3.656289 .557908-3.457036S.747198-3.257783 .896638-3.257783H6.844334ZM6.854296-1.325031C6.993773-1.325031 7.183064-1.325031 7.183064-1.524284S6.993773-1.723537 6.844334-1.723537H.896638C.747198-1.723537 .557908-1.723537 .557908-1.524284S.747198-1.325031 .886675-1.325031H6.854296Z'/>
</defs>
<g id='page1' transform='matrix(1.5 0 0 1.5 0 0)'>
<use x='-14.536172' y='17.344276' xlink:href='#g1-40'/>
<use x='-10.661799' y='17.344276' xlink:href='#g0-21'/>
<use x='-4.850233' y='17.344276' xlink:href='#g0-59'/>
<use x='-.422425' y='17.344276' xlink:href='#g0-21'/>
<use x='5.38914' y='17.344276' xlink:href='#g1-41'/>
<use x='12.030846' y='17.344276' xlink:href='#g1-61'/>
<use x='22.546926' y='17.344276' xlink:href='#g1-48'/>
</g>
</svg>