<?xml version='1.0' encoding='UTF-8'?>
<!-- This file was generated by dvisvgm 3.2 -->
<svg version='1.1' xmlns='http://www.w3.org/2000/svg' xmlns:xlink='http://www.w3.org/1999/xlink' width='102.688885pt' height='14.94396pt' viewBox='299.815195 32.741196 102.688885 14.94396'>
<defs>
<path id='g1-11' d='M3.814695-.983313C4.456289-1.645828 4.714321-2.57335 4.714321-2.650062C4.714321-2.740722 4.630635-2.740722 4.595766-2.740722C4.498132-2.740722 4.498132-2.719801 4.449315-2.566376C4.323786-2.106102 4.093649-1.680697 3.800747-1.30411C3.793773-1.408717 3.779826-1.875965 3.765878-1.93873C3.66127-2.629141 3.138232-3.075467 2.440847-3.075467C1.415691-3.075467 .432379-2.12005 .432379-1.143711C.432379-.502117 .899626 .069738 1.708593 .069738C2.350187 .069738 2.929016-.223163 3.319552-.523039C3.47995-.013948 3.835616 .069738 4.044832 .069738C4.449315 .069738 4.700374-.27198 4.700374-.418431C4.700374-.502117 4.616687-.502117 4.581818-.502117C4.491158-.502117 4.47721-.474222 4.463263-.432379C4.365629-.167372 4.14944-.125529 4.065753-.125529C3.96812-.125529 3.849564-.125529 3.814695-.983313ZM3.270735-.746202C2.587298-.188294 1.994521-.125529 1.729514-.125529C1.26924-.125529 1.011208-.432379 1.011208-.899626C1.011208-1.101868 1.108842-1.862017 1.471482-2.343213C1.792279-2.761644 2.189788-2.880199 2.433873-2.880199C2.991781-2.880199 3.152179-2.343213 3.20797-1.910834C3.249813-1.610959 3.235866-1.115816 3.270735-.746202Z'/>
<path id='g1-105' d='M2.259527-4.358655C2.259527-4.470237 2.175841-4.623661 1.980573-4.623661C1.792279-4.623661 1.590037-4.442341 1.590037-4.2401C1.590037-4.121544 1.680697-3.975093 1.868991-3.975093C2.071233-3.975093 2.259527-4.170361 2.259527-4.358655ZM.836862-.81594C.808966-.72528 .774097-.641594 .774097-.523039C.774097-.195268 1.053051 .069738 1.436613 .069738C2.133998 .069738 2.440847-.892653 2.440847-.99726C2.440847-1.08792 2.350187-1.08792 2.329265-1.08792C2.231631-1.08792 2.224658-1.046077 2.196762-.969365C2.036364-.411457 1.729514-.125529 1.457534-.125529C1.318057-.125529 1.283188-.216189 1.283188-.369614C1.283188-.530012 1.332005-.662516 1.39477-.81594C1.464508-1.004234 1.54122-1.192528 1.617933-1.373848C1.680697-1.54122 1.931756-2.175841 1.959651-2.259527C1.980573-2.329265 2.001494-2.412951 2.001494-2.48269C2.001494-2.810461 1.72254-3.075467 1.338979-3.075467C.648568-3.075467 .327771-2.127024 .327771-2.008468C.327771-1.917808 .425405-1.917808 .446326-1.917808C.54396-1.917808 .550934-1.952677 .571856-2.02939C.753176-2.629141 1.060025-2.880199 1.318057-2.880199C1.429639-2.880199 1.492403-2.824408 1.492403-2.636115C1.492403-2.475716 1.45056-2.371108 1.276214-1.93873L.836862-.81594Z'/>
<path id='g0-11' d='M4.752179-2.351183C4.752179-3.915318 3.825654-4.403487 3.088418-4.403487C1.723537-4.403487 .408468-2.978829 .408468-1.574097C.408468-.647572 1.006227 .109589 2.022416 .109589C2.650062 .109589 3.367372-.119552 4.124533-.727273C4.254047-.199253 4.582814 .109589 5.031133 .109589C5.559153 .109589 5.867995-.438356 5.867995-.597758C5.867995-.667497 5.808219-.697385 5.748443-.697385C5.678705-.697385 5.648817-.667497 5.618929-.597758C5.439601-.109589 5.080946-.109589 5.061021-.109589C4.752179-.109589 4.752179-.886675 4.752179-1.125778C4.752179-1.334994 4.752179-1.354919 4.851806-1.474471C5.788294-2.650062 5.997509-3.805729 5.997509-3.815691C5.997509-3.835616 5.987547-3.915318 5.877958-3.915318C5.778331-3.915318 5.778331-3.88543 5.728518-3.706102C5.549191-3.078456 5.220423-2.321295 4.752179-1.733499V-2.351183ZM4.084682-.986301C3.20797-.219178 2.440847-.109589 2.042341-.109589C1.444583-.109589 1.145704-.557908 1.145704-1.195517C1.145704-1.683686 1.404732-2.759651 1.723537-3.267746C2.191781-3.995019 2.729763-4.184309 3.078456-4.184309C4.064757-4.184309 4.064757-2.879203 4.064757-2.102117C4.064757-1.733499 4.064757-1.155666 4.084682-.986301Z'/>
<path id='g0-59' d='M2.022416-.009963C2.022416-.667497 1.77335-1.05604 1.384807-1.05604C1.05604-1.05604 .856787-.806974 .856787-.52802C.856787-.259029 1.05604 0 1.384807 0C1.504359 0 1.633873-.039851 1.733499-.129514C1.763387-.14944 1.77335-.159402 1.783313-.159402S1.803238-.14944 1.803238-.009963C1.803238 .727273 1.454545 1.325031 1.125778 1.653798C1.016189 1.763387 1.016189 1.783313 1.016189 1.8132C1.016189 1.882939 1.066002 1.92279 1.115816 1.92279C1.225405 1.92279 2.022416 1.155666 2.022416-.009963Z'/>
<path id='g0-69' d='M7.053549-2.321295C7.073474-2.371108 7.103362-2.440847 7.103362-2.460772C7.103362-2.470735 7.103362-2.570361 6.983811-2.570361C6.894147-2.570361 6.874222-2.510585 6.854296-2.450809C6.206725-.976339 5.838107-.308842 4.134496-.308842H2.67995C2.540473-.308842 2.520548-.308842 2.460772-.318804C2.361146-.328767 2.331258-.33873 2.331258-.418431C2.331258-.448319 2.331258-.468244 2.381071-.647572L3.058531-3.367372H4.044832C4.891656-3.367372 4.891656-3.158157 4.891656-2.909091C4.891656-2.839352 4.891656-2.719801 4.821918-2.420922C4.801993-2.371108 4.79203-2.34122 4.79203-2.311333C4.79203-2.261519 4.83188-2.201743 4.921544-2.201743C5.001245-2.201743 5.031133-2.251557 5.070984-2.400996L5.638854-4.732254C5.638854-4.79203 5.589041-4.841843 5.519303-4.841843C5.429639-4.841843 5.409714-4.782067 5.379826-4.662516C5.17061-3.905355 4.991283-3.676214 4.07472-3.676214H3.138232L3.73599-6.07721C3.825654-6.425903 3.835616-6.465753 4.273973-6.465753H5.678705C6.894147-6.465753 7.193026-6.176837 7.193026-5.3599C7.193026-5.120797 7.193026-5.100872 7.153176-4.83188C7.153176-4.772105 7.143213-4.702366 7.143213-4.652553S7.173101-4.533001 7.262765-4.533001C7.372354-4.533001 7.382316-4.592777 7.402242-4.782067L7.601494-6.505604C7.631382-6.774595 7.581569-6.774595 7.332503-6.774595H2.30137C2.102117-6.774595 2.002491-6.774595 2.002491-6.575342C2.002491-6.465753 2.092154-6.465753 2.281445-6.465753C2.650062-6.465753 2.929016-6.465753 2.929016-6.286426C2.929016-6.246575 2.929016-6.22665 2.879203-6.047323L1.564134-.777086C1.464508-.388543 1.444583-.308842 .657534-.308842C.488169-.308842 .37858-.308842 .37858-.119552C.37858 0 .468244 0 .657534 0H5.828144C6.057285 0 6.067248-.009963 6.136986-.169365L7.053549-2.321295Z'/>
<path id='g0-72' d='M7.601494-6.03736C7.691158-6.396015 7.711083-6.495641 8.438356-6.495641C8.697385-6.495641 8.777086-6.495641 8.777086-6.694894C8.777086-6.804483 8.667497-6.804483 8.637609-6.804483C8.358655-6.804483 7.641345-6.774595 7.362391-6.774595C7.073474-6.774595 6.366127-6.804483 6.07721-6.804483C5.997509-6.804483 5.88792-6.804483 5.88792-6.60523C5.88792-6.495641 5.977584-6.495641 6.166874-6.495641C6.1868-6.495641 6.37609-6.495641 6.545455-6.475716C6.724782-6.455791 6.814446-6.445828 6.814446-6.316314C6.814446-6.276463 6.804483-6.256538 6.774595-6.127024L6.176837-3.696139H3.138232L3.726027-6.03736C3.815691-6.396015 3.845579-6.495641 4.562889-6.495641C4.821918-6.495641 4.901619-6.495641 4.901619-6.694894C4.901619-6.804483 4.79203-6.804483 4.762142-6.804483C4.483188-6.804483 3.765878-6.774595 3.486924-6.774595C3.198007-6.774595 2.49066-6.804483 2.201743-6.804483C2.122042-6.804483 2.012453-6.804483 2.012453-6.60523C2.012453-6.495641 2.102117-6.495641 2.291407-6.495641C2.311333-6.495641 2.500623-6.495641 2.669988-6.475716C2.849315-6.455791 2.938979-6.445828 2.938979-6.316314C2.938979-6.276463 2.929016-6.246575 2.899128-6.127024L1.564134-.777086C1.464508-.388543 1.444583-.308842 .657534-.308842C.478207-.308842 .388543-.308842 .388543-.109589C.388543 0 .508095 0 .52802 0C.806974 0 1.514321-.029888 1.793275-.029888C2.002491-.029888 2.221669-.019925 2.430884-.019925C2.650062-.019925 2.86924 0 3.078456 0C3.158157 0 3.277709 0 3.277709-.199253C3.277709-.308842 3.188045-.308842 2.998755-.308842C2.630137-.308842 2.351183-.308842 2.351183-.488169C2.351183-.547945 2.371108-.597758 2.381071-.657534L3.058531-3.387298H6.097136C5.678705-1.733499 5.449564-.787049 5.409714-.637609C5.310087-.318804 5.120797-.308842 4.503113-.308842C4.353674-.308842 4.26401-.308842 4.26401-.109589C4.26401 0 4.383562 0 4.403487 0C4.682441 0 5.389788-.029888 5.668742-.029888C5.877958-.029888 6.097136-.019925 6.306351-.019925C6.525529-.019925 6.744707 0 6.953923 0C7.033624 0 7.153176 0 7.153176-.199253C7.153176-.308842 7.063512-.308842 6.874222-.308842C6.505604-.308842 6.22665-.308842 6.22665-.488169C6.22665-.547945 6.246575-.597758 6.256538-.657534L7.601494-6.03736Z'/>
<path id='g2-61' d='M6.844334-3.257783C6.993773-3.257783 7.183064-3.257783 7.183064-3.457036S6.993773-3.656289 6.854296-3.656289H.886675C.747198-3.656289 .557908-3.656289 .557908-3.457036S.747198-3.257783 .896638-3.257783H6.844334ZM6.854296-1.325031C6.993773-1.325031 7.183064-1.325031 7.183064-1.524284S6.993773-1.723537 6.844334-1.723537H.896638C.747198-1.723537 .557908-1.723537 .557908-1.524284S.747198-1.325031 .886675-1.325031H6.854296Z'/>
<path id='g2-91' d='M2.540473 2.49066V2.092154H1.574097V-7.073474H2.540473V-7.47198H1.175592V2.49066H2.540473Z'/>
<path id='g2-93' d='M1.58406-7.47198H.219178V-7.073474H1.185554V2.092154H.219178V2.49066H1.58406V-7.47198Z'/>
</defs>
<g id='page1' transform='matrix(1.5 0 0 1.5 0 0)'>
<use x='198.701205' y='29.299444' xlink:href='#g2-91'/>
<use x='201.468614' y='29.299444' xlink:href='#g0-72'/>
<use x='209.75007' y='30.793825' xlink:href='#g1-105'/>
<use x='213.066916' y='29.299444' xlink:href='#g0-59'/>
<use x='217.494724' y='29.299444' xlink:href='#g0-69'/>
<use x='224.8491' y='30.793825' xlink:href='#g1-11'/>
<use x='230.52657' y='29.299444' xlink:href='#g2-93'/>
<use x='236.061311' y='29.299444' xlink:href='#g2-61'/>
<use x='246.577391' y='29.299444' xlink:href='#g0-11'/>
<use x='252.95051' y='30.793825' xlink:href='#g1-105'/>
<use x='256.267357' y='29.299444' xlink:href='#g0-69'/>
<use x='263.621732' y='30.793825' xlink:href='#g1-11'/>
</g>
</svg>