<?xml version='1.0' encoding='UTF-8'?>
<!-- This file was generated by dvisvgm 3.2 -->
<svg version='1.1' xmlns='http://www.w3.org/2000/svg' xmlns:xlink='http://www.w3.org/1999/xlink' width='8.41345pt' height='9.668742pt' viewBox='-21.340996 19.411184 8.41345 9.668742'>
<defs>
<path id='g0-31' d='M5.808219-4.014944C5.917808-4.124533 5.917808-4.144458 5.917808-4.174346C5.917808-4.234122 5.877958-4.293898 5.798257-4.293898C5.738481-4.293898 5.69863-4.244085 5.638854-4.174346L3.35741-1.633873C2.958904-2.899128 2.879203-3.148194 2.650062-3.676214C2.540473-3.905355 2.321295-4.403487 1.444583-4.403487C.86675-4.403487 .607721-3.88543 .607721-3.745953C.607721-3.73599 .607721-3.646326 .727273-3.646326C.816936-3.646326 .836862-3.706102 .856787-3.755915C1.006227-4.144458 1.325031-4.184309 1.384807-4.184309C1.683686-4.184309 1.982565-3.427148 2.15193-2.988792C2.470735-2.201743 2.789539-1.046077 2.789539-1.016189C2.789539-1.006227 2.789539-.986301 2.709838-.9066L.418431 1.653798C.308842 1.763387 .308842 1.783313 .308842 1.8132C.308842 1.872976 .368618 1.932752 .428394 1.932752C.498132 1.932752 .547945 1.863014 .587796 1.823163L2.86924-.737235C3.188045 .298879 3.307597 .687422 3.5467 1.24533C3.676214 1.544209 3.895392 2.042341 4.782067 2.042341C5.3599 2.042341 5.628892 1.524284 5.628892 1.39477C5.628892 1.344956 5.608966 1.285181 5.50934 1.285181S5.399751 1.325031 5.369863 1.424658C5.280199 1.663761 5.031133 1.823163 4.841843 1.823163C4.333748 1.823163 3.656289-.587796 3.437111-1.354919L5.808219-4.014944Z'/>
</defs>
<g id='page1' transform='matrix(1.5 0 0 1.5 0 0)'>
<use x='-14.536172' y='17.344276' xlink:href='#g0-31'/>
</g>
</svg>