<?xml version='1.0' encoding='UTF-8'?>
<!-- This file was generated by dvisvgm 3.2 -->
<svg version='1.1' xmlns='http://www.w3.org/2000/svg' xmlns:xlink='http://www.w3.org/1999/xlink' width='14.007803pt' height='14.470555pt' viewBox='-20.668518 15.720025 14.007803 14.470555'>
<defs>
<path id='g1-82' d='M1.868991-2.189788H2.12005L3.166127-.571856C3.235866-.460274 3.403238-.188294 3.47995-.083686C3.528767 0 3.549689 0 3.710087 0H4.672478C4.798007 0 4.902615 0 4.902615-.125529C4.902615-.18132 4.860772-.230137 4.798007-.244085C4.539975-.299875 4.198257-.760149 4.030884-.983313C3.982067-1.053051 3.633375-1.513325 3.166127-2.266501C3.7868-2.378082 4.38655-2.643088 4.38655-3.472976C4.38655-4.442341 3.361395-4.777086 2.538481-4.777086H.348692C.223163-4.777086 .111582-4.777086 .111582-4.651557C.111582-4.533001 .244085-4.533001 .299875-4.533001C.697385-4.533001 .732254-4.484184 .732254-4.135492V-.641594C.732254-.292902 .697385-.244085 .299875-.244085C.244085-.244085 .111582-.244085 .111582-.125529C.111582 0 .223163 0 .348692 0H2.259527C2.385056 0 2.489664 0 2.489664-.125529C2.489664-.244085 2.371108-.244085 2.294396-.244085C1.896887-.244085 1.868991-.299875 1.868991-.641594V-2.189788ZM3.214944-2.531507C3.410212-2.789539 3.431133-3.159153 3.431133-3.466002C3.431133-3.800747 3.38929-4.170361 3.166127-4.456289C3.452055-4.393524 4.142466-4.177335 4.142466-3.472976C4.142466-3.019676 3.93325-2.66401 3.214944-2.531507ZM1.868991-4.156413C1.868991-4.302864 1.868991-4.533001 2.30137-4.533001C2.894147-4.533001 3.187049-4.288917 3.187049-3.466002C3.187049-2.566376 2.970859-2.433873 1.868991-2.433873V-4.156413ZM.920548-.244085C.976339-.369614 .976339-.564882 .976339-.627646V-4.14944C.976339-4.219178 .976339-4.407472 .920548-4.533001H1.715567C1.624907-4.42142 1.624907-4.281943 1.624907-4.177335V-.627646C1.624907-.557908 1.624907-.369614 1.680697-.244085H.920548ZM2.405978-2.189788C2.454795-2.196762 2.48269-2.203736 2.538481-2.203736C2.643088-2.203736 2.796513-2.217684 2.901121-2.231631C3.005729-2.064259 3.758904-.822914 4.337733-.244085H3.66127L2.405978-2.189788Z'/>
<path id='g2-3' d='M2.252553-1.736488C2.824408-1.987547 3.082441-2.085181 3.256787-2.168867C3.38929-2.224658 3.452055-2.252553 3.452055-2.385056C3.452055-2.503611 3.361395-2.608219 3.235866-2.608219C3.187049-2.608219 3.173101-2.608219 3.089415-2.545455L2.140971-1.910834L2.245579-2.942964C2.259527-3.068493 2.245579-3.242839 2.036364-3.242839C1.952677-3.242839 1.820174-3.187049 1.820174-3.033624C1.820174-2.970859 1.84807-2.761644 1.855044-2.691905C1.868991-2.57335 1.917808-2.071233 1.931756-1.910834L.990286-2.545455C.920548-2.587298 .899626-2.608219 .836862-2.608219C.711333-2.608219 .620672-2.503611 .620672-2.385056C.620672-2.245579 .704359-2.21071 .767123-2.182814L1.820174-1.743462C1.248319-1.492403 .990286-1.39477 .81594-1.311083C.683437-1.255293 .620672-1.227397 .620672-1.094894C.620672-.976339 .711333-.871731 .836862-.871731C.885679-.871731 .899626-.871731 .983313-.934496L1.931756-1.569116L1.820174-.446326C1.820174-.292902 1.952677-.237111 2.036364-.237111S2.252553-.292902 2.252553-.446326C2.252553-.509091 2.224658-.718306 2.217684-.788045C2.203736-.9066 2.154919-1.408717 2.140971-1.569116L2.977833-1.011208C3.159153-.871731 3.173101-.871731 3.235866-.871731C3.361395-.871731 3.452055-.976339 3.452055-1.094894C3.452055-1.234371 3.368369-1.26924 3.305604-1.297136L2.252553-1.736488Z'/>
<path id='g0-104' d='M2.271482 1.833126L2.430884 1.972603C3.048568 1.494396 3.616438 .966376 4.064757 .308842C4.313823-.52802 4.333748-1.524284 4.333748-2.450809C4.333748-3.01868 4.303861-3.58655 4.26401-4.154421C3.845579-4.283935 3.437111-4.463263 3.108344-4.762142C2.610212-4.41345 1.96264-3.955168 1.633873-3.696139L1.643836-4.79203C1.643836-5.339975 1.703611-5.987547 2.540473-6.75467L2.371108-6.864259C2.361146-6.864259 1.564134-6.286426 1.165629-5.987547L.926526-6.744707L.806974-6.724782C.856787-5.917808 .86675-5.100872 .86675-4.293898C.86675-3.078456 .826899-1.863014 .757161-.647572L1.305106 .259029L2.122042-.488169L1.58406-1.255293L1.633873-3.39726C1.882939-3.596513 2.261519-3.88543 2.570361-3.88543C2.899128-3.88543 3.188045-3.716065 3.447073-3.526775C3.486924-2.988792 3.5467-2.201743 3.5467-1.92279C3.5467-.886675 3.58655 .797011 2.909091 1.285181L2.271482 1.833126Z'/>
</defs>
<g id='page1' transform='matrix(1.5 0 0 1.5 0 0)'>
<use x='-14.536172' y='17.344276' xlink:href='#g0-104'/>
<use x='-9.343091' y='13.728912' xlink:href='#g2-3'/>
<use x='-9.343091' y='20.127053' xlink:href='#g1-82'/>
</g>
</svg>