<?xml version='1.0' encoding='UTF-8'?>
<!-- This file was generated by dvisvgm 3.2 -->
<svg version='1.1' xmlns='http://www.w3.org/2000/svg' xmlns:xlink='http://www.w3.org/1999/xlink' width='45.939254pt' height='10.535492pt' viewBox='-20.967397 15.809689 45.939254 10.535492'>
<defs>
<path id='g0-33' d='M8.308842-2.291407C7.760897-1.872976 7.491905-1.464508 7.412204-1.334994C6.963885-.647572 6.884184-.019925 6.884184-.009963C6.884184 .109589 7.003736 .109589 7.083437 .109589C7.252802 .109589 7.262765 .089664 7.302615-.089664C7.531756-1.066002 8.119552-1.902864 9.24533-2.361146C9.364882-2.400996 9.39477-2.420922 9.39477-2.49066S9.334994-2.590286 9.315068-2.600249C8.876712-2.769614 7.671233-3.267746 7.292653-4.941469C7.262765-5.061021 7.252802-5.090909 7.083437-5.090909C7.003736-5.090909 6.884184-5.090909 6.884184-4.971357C6.884184-4.951432 6.973848-4.323786 7.392279-3.656289C7.591532-3.35741 7.880448-3.008717 8.308842-2.689913H.9066C.727273-2.689913 .547945-2.689913 .547945-2.49066S.727273-2.291407 .9066-2.291407H8.308842Z'/>
<path id='g1-86' d='M6.256538-5.668742C6.744707-6.445828 7.163138-6.475716 7.531756-6.495641C7.651308-6.505604 7.66127-6.674969 7.66127-6.684932C7.66127-6.764633 7.611457-6.804483 7.531756-6.804483C7.272727-6.804483 6.983811-6.774595 6.714819-6.774595C6.386052-6.774595 6.047323-6.804483 5.728518-6.804483C5.668742-6.804483 5.539228-6.804483 5.539228-6.615193C5.539228-6.505604 5.628892-6.495641 5.69863-6.495641C5.967621-6.475716 6.156912-6.37609 6.156912-6.166874C6.156912-6.017435 6.007472-5.798257 6.007472-5.788294L2.948941-.926526L2.271482-6.196762C2.271482-6.366127 2.500623-6.495641 2.958904-6.495641C3.098381-6.495641 3.20797-6.495641 3.20797-6.694894C3.20797-6.784558 3.128269-6.804483 3.068493-6.804483C2.669988-6.804483 2.241594-6.774595 1.833126-6.774595C1.653798-6.774595 1.464508-6.784558 1.285181-6.784558S.916563-6.804483 .747198-6.804483C.67746-6.804483 .557908-6.804483 .557908-6.615193C.557908-6.495641 .647572-6.495641 .806974-6.495641C1.364882-6.495641 1.374844-6.405978 1.404732-6.156912L2.191781-.009963C2.221669 .18929 2.261519 .219178 2.391034 .219178C2.550436 .219178 2.590286 .169365 2.669988 .039851L6.256538-5.668742Z'/>
</defs>
<g id='page1' transform='matrix(1.5 0 0 1.5 0 0)'>
<use x='-14.536172' y='17.344276' xlink:href='#g1-86'/>
<use x='-3.743367' y='17.344276' xlink:href='#g0-33'/>
<use x='8.986634' y='17.344276' xlink:href='#g1-86'/>
</g>
</svg>