<?xml version='1.0' encoding='UTF-8'?>
<!-- This file was generated by dvisvgm 3.2 -->
<svg version='1.1' xmlns='http://www.w3.org/2000/svg' xmlns:xlink='http://www.w3.org/1999/xlink' width='12.217428pt' height='9.833126pt' viewBox='-21.35594 19.411184 12.217428 9.833126'>
<defs>
<path id='g1-105' d='M2.259527-4.358655C2.259527-4.470237 2.175841-4.623661 1.980573-4.623661C1.792279-4.623661 1.590037-4.442341 1.590037-4.2401C1.590037-4.121544 1.680697-3.975093 1.868991-3.975093C2.071233-3.975093 2.259527-4.170361 2.259527-4.358655ZM.836862-.81594C.808966-.72528 .774097-.641594 .774097-.523039C.774097-.195268 1.053051 .069738 1.436613 .069738C2.133998 .069738 2.440847-.892653 2.440847-.99726C2.440847-1.08792 2.350187-1.08792 2.329265-1.08792C2.231631-1.08792 2.224658-1.046077 2.196762-.969365C2.036364-.411457 1.729514-.125529 1.457534-.125529C1.318057-.125529 1.283188-.216189 1.283188-.369614C1.283188-.530012 1.332005-.662516 1.39477-.81594C1.464508-1.004234 1.54122-1.192528 1.617933-1.373848C1.680697-1.54122 1.931756-2.175841 1.959651-2.259527C1.980573-2.329265 2.001494-2.412951 2.001494-2.48269C2.001494-2.810461 1.72254-3.075467 1.338979-3.075467C.648568-3.075467 .327771-2.127024 .327771-2.008468C.327771-1.917808 .425405-1.917808 .446326-1.917808C.54396-1.917808 .550934-1.952677 .571856-2.02939C.753176-2.629141 1.060025-2.880199 1.318057-2.880199C1.429639-2.880199 1.492403-2.824408 1.492403-2.636115C1.492403-2.475716 1.45056-2.371108 1.276214-1.93873L.836862-.81594Z'/>
<path id='g0-22' d='M2.30137-3.496887C2.351183-3.706102 2.450809-4.084682 2.450809-4.134496C2.450809-4.303861 2.331258-4.403487 2.161893-4.403487C2.132005-4.403487 1.853051-4.393524 1.763387-4.044832L.328767 1.723537C.298879 1.843088 .298879 1.863014 .298879 1.882939C.298879 2.032379 .408468 2.15193 .577833 2.15193C.787049 2.15193 .9066 1.972603 .926526 1.942715C.966376 1.853051 1.09589 1.334994 1.474471-.199253C1.793275 .069738 2.241594 .109589 2.440847 .109589C3.138232 .109589 3.526775-.33873 3.765878-.617684C3.855542-.169365 4.224159 .109589 4.662516 .109589C5.011208 .109589 5.240349-.119552 5.399751-.438356C5.569116-.797011 5.69863-1.404732 5.69863-1.424658C5.69863-1.524284 5.608966-1.524284 5.579078-1.524284C5.479452-1.524284 5.469489-1.484433 5.439601-1.344956C5.270237-.697385 5.090909-.109589 4.682441-.109589C4.41345-.109589 4.383562-.368618 4.383562-.56787C4.383562-.787049 4.503113-1.255293 4.582814-1.603985L4.861768-2.67995C4.891656-2.82939 4.991283-3.20797 5.031133-3.35741C5.080946-3.58655 5.180573-3.965131 5.180573-4.024907C5.180573-4.204234 5.041096-4.293898 4.891656-4.293898C4.841843-4.293898 4.582814-4.283935 4.503113-3.945205L4.034869-2.082192C3.915318-1.58406 3.805729-1.165629 3.775841-1.066002C3.765878-1.016189 3.287671-.109589 2.480697-.109589C1.982565-.109589 1.743462-.438356 1.743462-.976339C1.743462-1.265255 1.8132-1.544209 1.882939-1.823163L2.30137-3.496887Z'/>
</defs>
<g id='page1' transform='matrix(1.5 0 0 1.5 0 0)'>
<use x='-14.536172' y='17.344276' xlink:href='#g0-22'/>
<use x='-8.533188' y='18.838657' xlink:href='#g1-105'/>
</g>
</svg>