<?xml version='1.0' encoding='UTF-8'?>
<!-- This file was generated by dvisvgm 3.2 -->
<svg version='1.1' xmlns='http://www.w3.org/2000/svg' xmlns:xlink='http://www.w3.org/1999/xlink' width='81.672267pt' height='13.847051pt' viewBox='309.617189 33.578058 81.672267 13.847051'>
<defs>
<path id='g1-0' d='M5.188543-1.57609C5.300125-1.57609 5.467497-1.57609 5.467497-1.743462C5.467497-1.917808 5.307098-1.917808 5.188543-1.917808H1.03213C.920548-1.917808 .753176-1.917808 .753176-1.750436C.753176-1.57609 .913574-1.57609 1.03213-1.57609H5.188543Z'/>
<path id='g0-0' d='M6.56538-2.291407C6.734745-2.291407 6.914072-2.291407 6.914072-2.49066S6.734745-2.689913 6.56538-2.689913H1.175592C1.006227-2.689913 .826899-2.689913 .826899-2.49066S1.006227-2.291407 1.175592-2.291407H6.56538Z'/>
<path id='g4-43' d='M3.228892-1.57609H5.362889C5.453549-1.57609 5.620922-1.57609 5.620922-1.743462C5.620922-1.917808 5.460523-1.917808 5.362889-1.917808H3.228892V-4.05878C3.228892-4.14944 3.228892-4.316812 3.061519-4.316812C2.887173-4.316812 2.887173-4.156413 2.887173-4.05878V-1.917808H.746202C.655542-1.917808 .488169-1.917808 .488169-1.750436C.488169-1.57609 .648568-1.57609 .746202-1.57609H2.887173V.564882C2.887173 .655542 2.887173 .822914 3.054545 .822914C3.228892 .822914 3.228892 .662516 3.228892 .564882V-1.57609Z'/>
<path id='g3-61' d='M6.844334-3.257783C6.993773-3.257783 7.183064-3.257783 7.183064-3.457036S6.993773-3.656289 6.854296-3.656289H.886675C.747198-3.656289 .557908-3.656289 .557908-3.457036S.747198-3.257783 .896638-3.257783H6.844334ZM6.854296-1.325031C6.993773-1.325031 7.183064-1.325031 7.183064-1.524284S6.993773-1.723537 6.844334-1.723537H.896638C.747198-1.723537 .557908-1.723537 .557908-1.524284S.747198-1.325031 .886675-1.325031H6.854296Z'/>
<path id='g2-21' d='M3.556663-2.909091C3.965131-1.863014 4.443337-.33873 4.60274-.109589C4.762142 .109589 4.861768 .109589 5.13076 .109589H5.349938C5.449564 .099626 5.459527 .039851 5.459527 .009963S5.439601-.039851 5.409714-.079701C5.310087-.18929 5.250311-.33873 5.180573-.537983L3.148194-6.206725C2.938979-6.784558 2.400996-6.914072 1.932752-6.914072C1.882939-6.914072 1.753425-6.914072 1.753425-6.804483C1.753425-6.724782 1.833126-6.704857 1.843088-6.704857C2.171856-6.645081 2.241594-6.585305 2.49066-5.907846L3.457036-3.198007L.707347-.468244C.587796-.348692 .52802-.288917 .52802-.159402C.52802 .009963 .667497 .129514 .826899 .129514S1.075965 .019925 1.155666-.079701L3.556663-2.909091Z'/>
</defs>
<g id='page1' transform='matrix(1.5 0 0 1.5 0 0)'>
<use x='205.883439' y='29.299444' xlink:href='#g2-21'/>
<use x='214.462337' y='29.299444' xlink:href='#g3-61'/>
<use x='224.978417' y='29.299444' xlink:href='#g2-21'/>
<use x='230.789983' y='30.793825' xlink:href='#g4-43'/>
<use x='239.617962' y='29.299444' xlink:href='#g0-0'/>
<use x='249.580575' y='29.299444' xlink:href='#g2-21'/>
<use x='255.392141' y='30.793825' xlink:href='#g1-0'/>
</g>
</svg>