<?xml version='1.0' encoding='UTF-8'?>
<!-- This file was generated by dvisvgm 3.2 -->
<svg version='1.1' xmlns='http://www.w3.org/2000/svg' xmlns:xlink='http://www.w3.org/1999/xlink' width='64.69971pt' height='14.94396pt' viewBox='-20.040871 14.808444 64.69971 14.94396'>
<defs>
<path id='g0-59' d='M2.022416-.009963C2.022416-.667497 1.77335-1.05604 1.384807-1.05604C1.05604-1.05604 .856787-.806974 .856787-.52802C.856787-.259029 1.05604 0 1.384807 0C1.504359 0 1.633873-.039851 1.733499-.129514C1.763387-.14944 1.77335-.159402 1.783313-.159402S1.803238-.14944 1.803238-.009963C1.803238 .727273 1.454545 1.325031 1.125778 1.653798C1.016189 1.763387 1.016189 1.783313 1.016189 1.8132C1.016189 1.882939 1.066002 1.92279 1.115816 1.92279C1.225405 1.92279 2.022416 1.155666 2.022416-.009963Z'/>
<path id='g0-88' d='M4.83188-4.094645L3.995019-6.07721C3.965131-6.156912 3.945205-6.196762 3.945205-6.206725C3.945205-6.266501 4.11457-6.455791 4.533001-6.495641C4.632628-6.505604 4.732254-6.515567 4.732254-6.684932C4.732254-6.804483 4.612702-6.804483 4.582814-6.804483C4.174346-6.804483 3.745953-6.774595 3.327522-6.774595C3.078456-6.774595 2.460772-6.804483 2.211706-6.804483C2.15193-6.804483 2.032379-6.804483 2.032379-6.60523C2.032379-6.495641 2.132005-6.495641 2.261519-6.495641C2.859278-6.495641 2.919054-6.396015 3.008717-6.176837L4.184309-3.39726L2.082192-1.135741L1.952677-1.026152C1.464508-.498132 .996264-.33873 .488169-.308842C.358655-.298879 .268991-.298879 .268991-.109589C.268991-.099626 .268991 0 .398506 0C.697385 0 1.026152-.029888 1.334994-.029888C1.703611-.029888 2.092154 0 2.450809 0C2.510585 0 2.630137 0 2.630137-.199253C2.630137-.298879 2.530511-.308842 2.510585-.308842C2.420922-.318804 2.11208-.33873 2.11208-.617684C2.11208-.777086 2.261519-.936488 2.381071-1.066002L3.39726-2.141968L4.293898-3.118306L5.300125-.737235C5.339975-.627646 5.349938-.617684 5.349938-.597758C5.349938-.518057 5.160648-.348692 4.772105-.308842C4.662516-.298879 4.572852-.288917 4.572852-.119552C4.572852 0 4.682441 0 4.722291 0C5.001245 0 5.69863-.029888 5.977584-.029888C6.22665-.029888 6.834371 0 7.083437 0C7.153176 0 7.272727 0 7.272727-.18929C7.272727-.308842 7.173101-.308842 7.0934-.308842C6.425903-.318804 6.405978-.348692 6.236613-.747198C5.84807-1.673724 5.180573-3.227895 4.951432-3.825654C5.628892-4.523039 6.674969-5.708593 6.993773-5.987547C7.28269-6.22665 7.66127-6.465753 8.259029-6.495641C8.388543-6.505604 8.478207-6.505604 8.478207-6.694894C8.478207-6.704857 8.478207-6.804483 8.348692-6.804483C8.049813-6.804483 7.721046-6.774595 7.412204-6.774595C7.043587-6.774595 6.665006-6.804483 6.306351-6.804483C6.246575-6.804483 6.117061-6.804483 6.117061-6.60523C6.117061-6.535492 6.166874-6.505604 6.236613-6.495641C6.326276-6.485679 6.635118-6.465753 6.635118-6.1868C6.635118-6.047323 6.525529-5.917808 6.445828-5.828144L4.83188-4.094645Z'/>
<path id='g0-89' d='M5.947696-5.668742L6.087173-5.808219C6.386052-6.107098 6.714819-6.445828 7.392279-6.495641C7.501868-6.505604 7.591532-6.505604 7.591532-6.684932C7.591532-6.764633 7.541719-6.804483 7.462017-6.804483C7.202989-6.804483 6.914072-6.774595 6.645081-6.774595C6.316314-6.774595 5.967621-6.804483 5.648817-6.804483C5.589041-6.804483 5.459527-6.804483 5.459527-6.615193C5.459527-6.505604 5.559153-6.495641 5.608966-6.495641C5.678705-6.495641 5.967621-6.475716 5.967621-6.266501C5.967621-6.097136 5.738481-5.838107 5.69863-5.788294L3.387298-3.128269L2.291407-6.087173C2.231631-6.22665 2.231631-6.246575 2.231631-6.256538C2.231631-6.495641 2.719801-6.495641 2.819427-6.495641C2.958904-6.495641 3.058531-6.495641 3.058531-6.694894C3.058531-6.804483 2.938979-6.804483 2.909091-6.804483C2.630137-6.804483 1.932752-6.774595 1.653798-6.774595C1.404732-6.774595 .787049-6.804483 .537983-6.804483C.478207-6.804483 .348692-6.804483 .348692-6.60523C.348692-6.495641 .448319-6.495641 .577833-6.495641C1.175592-6.495641 1.215442-6.405978 1.305106-6.156912L2.530511-2.879203C2.540473-2.849315 2.570361-2.739726 2.570361-2.709838S2.171856-1.075965 2.122042-.896638C1.992528-.348692 1.982565-.318804 1.185554-.308842C.996264-.308842 .916563-.308842 .916563-.109589C.916563 0 1.036115 0 1.05604 0C1.334994 0 2.032379-.029888 2.311333-.029888S3.307597 0 3.58655 0C3.656289 0 3.775841 0 3.775841-.199253C3.775841-.308842 3.686177-.308842 3.496887-.308842C3.476961-.308842 3.287671-.308842 3.118306-.328767C2.909091-.348692 2.849315-.368618 2.849315-.488169C2.849315-.557908 2.938979-.9066 2.988792-1.115816L3.337484-2.520548C3.387298-2.709838 3.39726-2.739726 3.476961-2.82939L5.947696-5.668742Z'/>
<path id='g1-48' d='M4.582814-3.188045C4.582814-3.985056 4.533001-4.782067 4.184309-5.519303C3.726027-6.475716 2.909091-6.635118 2.49066-6.635118C1.892902-6.635118 1.165629-6.37609 .757161-5.449564C.438356-4.762142 .388543-3.985056 .388543-3.188045C.388543-2.440847 .428394-1.544209 .836862-.787049C1.265255 .019925 1.992528 .219178 2.480697 .219178C3.01868 .219178 3.775841 .009963 4.214197-.936488C4.533001-1.62391 4.582814-2.400996 4.582814-3.188045ZM2.480697 0C2.092154 0 1.504359-.249066 1.325031-1.205479C1.215442-1.803238 1.215442-2.719801 1.215442-3.307597C1.215442-3.945205 1.215442-4.60274 1.295143-5.140722C1.484433-6.326276 2.231631-6.41594 2.480697-6.41594C2.809465-6.41594 3.466999-6.236613 3.656289-5.250311C3.755915-4.692403 3.755915-3.935243 3.755915-3.307597C3.755915-2.560399 3.755915-1.882939 3.646326-1.24533C3.496887-.298879 2.929016 0 2.480697 0Z'/>
<path id='g1-61' d='M6.844334-3.257783C6.993773-3.257783 7.183064-3.257783 7.183064-3.457036S6.993773-3.656289 6.854296-3.656289H.886675C.747198-3.656289 .557908-3.656289 .557908-3.457036S.747198-3.257783 .896638-3.257783H6.844334ZM6.854296-1.325031C6.993773-1.325031 7.183064-1.325031 7.183064-1.524284S6.993773-1.723537 6.844334-1.723537H.896638C.747198-1.723537 .557908-1.723537 .557908-1.524284S.747198-1.325031 .886675-1.325031H6.854296Z'/>
<path id='g1-91' d='M2.540473 2.49066V2.092154H1.574097V-7.073474H2.540473V-7.47198H1.175592V2.49066H2.540473Z'/>
<path id='g1-93' d='M1.58406-7.47198H.219178V-7.073474H1.185554V2.092154H.219178V2.49066H1.58406V-7.47198Z'/>
</defs>
<g id='page1' transform='matrix(1.5 0 0 1.5 0 0)'>
<use x='-14.536172' y='17.344276' xlink:href='#g1-91'/>
<use x='-11.768764' y='17.344276' xlink:href='#g0-88'/>
<use x='-3.28669' y='17.344276' xlink:href='#g0-59'/>
<use x='1.141118' y='17.344276' xlink:href='#g0-89'/>
<use x='9.138924' y='17.344276' xlink:href='#g1-93'/>
<use x='14.673665' y='17.344276' xlink:href='#g1-61'/>
<use x='25.189745' y='17.344276' xlink:href='#g1-48'/>
</g>
</svg>