<?xml version='1.0' encoding='UTF-8'?>
<!-- This file was generated by dvisvgm 3.2 -->
<svg version='1.1' xmlns='http://www.w3.org/2000/svg' xmlns:xlink='http://www.w3.org/1999/xlink' width='55.858137pt' height='10.804483pt' viewBox='-20.803013 15.809689 55.858137 10.804483'>
<defs>
<path id='g0-50' d='M5.459527-2.291407C5.628892-2.291407 5.808219-2.291407 5.808219-2.49066S5.628892-2.689913 5.459527-2.689913H1.235367C1.354919-4.024907 2.500623-4.98132 3.905355-4.98132H5.459527C5.628892-4.98132 5.808219-4.98132 5.808219-5.180573S5.628892-5.379826 5.459527-5.379826H3.88543C2.181818-5.379826 .826899-4.084682 .826899-2.49066S2.181818 .398506 3.88543 .398506H5.459527C5.628892 .398506 5.808219 .398506 5.808219 .199253S5.628892 0 5.459527 0H3.905355C2.500623 0 1.354919-.956413 1.235367-2.291407H5.459527Z'/>
<path id='g1-85' d='M6.326276-5.758406C6.425903-6.166874 6.60523-6.465753 7.402242-6.495641C7.452055-6.495641 7.571606-6.505604 7.571606-6.694894C7.571606-6.704857 7.571606-6.804483 7.442092-6.804483C7.113325-6.804483 6.764633-6.774595 6.425903-6.774595S5.718555-6.804483 5.389788-6.804483C5.330012-6.804483 5.210461-6.804483 5.210461-6.60523C5.210461-6.495641 5.310087-6.495641 5.389788-6.495641C5.957659-6.485679 6.067248-6.276463 6.067248-6.057285C6.067248-6.027397 6.047323-5.877958 6.03736-5.84807L5.140722-2.291407C4.801993-.956413 3.656289-.089664 2.660025-.089664C1.982565-.089664 1.444583-.52802 1.444583-1.384807C1.444583-1.404732 1.444583-1.723537 1.554172-2.161893L2.520548-6.03736C2.610212-6.396015 2.630137-6.495641 3.35741-6.495641C3.616438-6.495641 3.696139-6.495641 3.696139-6.694894C3.696139-6.804483 3.58655-6.804483 3.556663-6.804483C3.277709-6.804483 2.560399-6.774595 2.281445-6.774595C1.992528-6.774595 1.285181-6.804483 .996264-6.804483C.916563-6.804483 .806974-6.804483 .806974-6.60523C.806974-6.495641 .896638-6.495641 1.085928-6.495641C1.105853-6.495641 1.295143-6.495641 1.464508-6.475716C1.643836-6.455791 1.733499-6.445828 1.733499-6.316314C1.733499-6.256538 1.62391-5.838107 1.564134-5.608966L1.344956-4.732254C1.255293-4.343711 .777086-2.460772 .737235-2.271482C.667497-1.992528 .667497-1.843088 .667497-1.693649C.667497-.478207 1.574097 .219178 2.620174 .219178C3.875467 .219178 5.110834-.9066 5.439601-2.221669L6.326276-5.758406Z'/>
<path id='g1-87' d='M9.135741-5.648817C9.384807-6.087173 9.62391-6.445828 10.251557-6.495641C10.34122-6.505604 10.440847-6.505604 10.440847-6.694894C10.440847-6.734745 10.400996-6.804483 10.321295-6.804483C10.082192-6.804483 9.803238-6.774595 9.554172-6.774595C9.215442-6.774595 8.846824-6.804483 8.518057-6.804483C8.458281-6.804483 8.328767-6.804483 8.328767-6.615193C8.328767-6.505604 8.418431-6.495641 8.478207-6.495641C8.71731-6.485679 9.066002-6.405978 9.066002-6.107098C9.066002-5.997509 9.016189-5.917808 8.936488-5.778331L6.246575-1.085928L5.877958-6.027397C5.867995-6.22665 5.84807-6.485679 6.575342-6.495641C6.744707-6.495641 6.844334-6.495641 6.844334-6.694894C6.844334-6.794521 6.734745-6.804483 6.694894-6.804483C6.296389-6.804483 5.877958-6.774595 5.479452-6.774595C5.250311-6.774595 4.662516-6.804483 4.433375-6.804483C4.373599-6.804483 4.244085-6.804483 4.244085-6.60523C4.244085-6.495641 4.343711-6.495641 4.483188-6.495641C4.921544-6.495641 4.991283-6.435866 5.011208-6.246575L5.070984-5.479452L2.550436-1.085928L2.171856-6.136986C2.171856-6.256538 2.171856-6.485679 2.929016-6.495641C3.028643-6.495641 3.138232-6.495641 3.138232-6.694894C3.138232-6.804483 3.01868-6.804483 2.998755-6.804483C2.600249-6.804483 2.181818-6.774595 1.77335-6.774595C1.424658-6.774595 1.066002-6.804483 .727273-6.804483C.67746-6.804483 .547945-6.804483 .547945-6.615193C.547945-6.495641 .637609-6.495641 .797011-6.495641C1.295143-6.495641 1.305106-6.405978 1.325031-6.127024L1.77335-.039851C1.783313 .139477 1.793275 .219178 1.932752 .219178C2.052304 .219178 2.082192 .159402 2.171856 .009963L5.100872-5.070984L5.469489-.039851C5.489415 .169365 5.50934 .219178 5.628892 .219178C5.758406 .219178 5.818182 .119552 5.867995 .029888L9.135741-5.648817Z'/>
<path id='g1-119' d='M4.60274-3.377335C4.652553-3.596513 4.752179-3.965131 4.752179-4.024907C4.752179-4.204234 4.612702-4.293898 4.463263-4.293898C4.343711-4.293898 4.164384-4.214197 4.094645-4.014944C4.064757-3.945205 3.596513-2.042341 3.526775-1.783313C3.457036-1.484433 3.437111-1.305106 3.437111-1.125778C3.437111-1.016189 3.437111-.996264 3.447073-.946451C3.217933-.418431 2.919054-.109589 2.530511-.109589C1.733499-.109589 1.733499-.846824 1.733499-1.016189C1.733499-1.334994 1.783313-1.723537 2.251557-2.948941C2.361146-3.247821 2.420922-3.387298 2.420922-3.58655C2.420922-4.034869 2.092154-4.403487 1.603985-4.403487C.657534-4.403487 .288917-2.958904 .288917-2.86924C.288917-2.769614 .388543-2.769614 .408468-2.769614C.508095-2.769614 .518057-2.789539 .56787-2.948941C.836862-3.875467 1.225405-4.184309 1.574097-4.184309C1.663761-4.184309 1.823163-4.174346 1.823163-3.855542C1.823163-3.606476 1.713574-3.327522 1.643836-3.158157C1.205479-1.982565 1.085928-1.524284 1.085928-1.145704C1.085928-.239103 1.753425 .109589 2.500623 .109589C2.669988 .109589 3.138232 .109589 3.536737-.587796C3.795766 .049813 4.483188 .109589 4.782067 .109589C5.529265 .109589 5.967621-.518057 6.22665-1.115816C6.56538-1.892902 6.884184-3.227895 6.884184-3.706102C6.884184-4.254047 6.615193-4.403487 6.445828-4.403487C6.196762-4.403487 5.947696-4.144458 5.947696-3.92528C5.947696-3.795766 6.007472-3.73599 6.097136-3.656289C6.206725-3.5467 6.455791-3.287671 6.455791-2.809465C6.455791-2.470735 6.166874-1.494396 5.907846-.986301C5.648817-.458281 5.300125-.109589 4.811955-.109589C4.343711-.109589 4.07472-.408468 4.07472-.976339C4.07472-1.255293 4.144458-1.564134 4.184309-1.703611L4.60274-3.377335Z'/>
</defs>
<g id='page1' transform='matrix(1.5 0 0 1.5 0 0)'>
<use x='-14.536172' y='17.344276' xlink:href='#g1-85'/>
<use x='-6.647724' y='17.344276' xlink:href='#g1-119'/>
<use x='3.520121' y='17.344276' xlink:href='#g0-50'/>
<use x='12.929236' y='17.344276' xlink:href='#g1-87'/>
</g>
</svg>