<?xml version='1.0' encoding='UTF-8'?>
<!-- This file was generated by dvisvgm 3.2 -->
<svg version='1.1' xmlns='http://www.w3.org/2000/svg' xmlns:xlink='http://www.w3.org/1999/xlink' width='251.746893pt' height='62.735246pt' viewBox='224.684354 28.421967 251.746893 62.735246'>
<defs>
<path id='g1-50' d='M5.459527-2.291407C5.628892-2.291407 5.808219-2.291407 5.808219-2.49066S5.628892-2.689913 5.459527-2.689913H1.235367C1.354919-4.024907 2.500623-4.98132 3.905355-4.98132H5.459527C5.628892-4.98132 5.808219-4.98132 5.808219-5.180573S5.628892-5.379826 5.459527-5.379826H3.88543C2.181818-5.379826 .826899-4.084682 .826899-2.49066S2.181818 .398506 3.88543 .398506H5.459527C5.628892 .398506 5.808219 .398506 5.808219 .199253S5.628892 0 5.459527 0H3.905355C2.500623 0 1.354919-.956413 1.235367-2.291407H5.459527Z'/>
<path id='g5-43' d='M3.228892-1.57609H5.362889C5.453549-1.57609 5.620922-1.57609 5.620922-1.743462C5.620922-1.917808 5.460523-1.917808 5.362889-1.917808H3.228892V-4.05878C3.228892-4.14944 3.228892-4.316812 3.061519-4.316812C2.887173-4.316812 2.887173-4.156413 2.887173-4.05878V-1.917808H.746202C.655542-1.917808 .488169-1.917808 .488169-1.750436C.488169-1.57609 .648568-1.57609 .746202-1.57609H2.887173V.564882C2.887173 .655542 2.887173 .822914 3.054545 .822914C3.228892 .822914 3.228892 .662516 3.228892 .564882V-1.57609Z'/>
<path id='g3-11' d='M3.814695-.983313C4.456289-1.645828 4.714321-2.57335 4.714321-2.650062C4.714321-2.740722 4.630635-2.740722 4.595766-2.740722C4.498132-2.740722 4.498132-2.719801 4.449315-2.566376C4.323786-2.106102 4.093649-1.680697 3.800747-1.30411C3.793773-1.408717 3.779826-1.875965 3.765878-1.93873C3.66127-2.629141 3.138232-3.075467 2.440847-3.075467C1.415691-3.075467 .432379-2.12005 .432379-1.143711C.432379-.502117 .899626 .069738 1.708593 .069738C2.350187 .069738 2.929016-.223163 3.319552-.523039C3.47995-.013948 3.835616 .069738 4.044832 .069738C4.449315 .069738 4.700374-.27198 4.700374-.418431C4.700374-.502117 4.616687-.502117 4.581818-.502117C4.491158-.502117 4.47721-.474222 4.463263-.432379C4.365629-.167372 4.14944-.125529 4.065753-.125529C3.96812-.125529 3.849564-.125529 3.814695-.983313ZM3.270735-.746202C2.587298-.188294 1.994521-.125529 1.729514-.125529C1.26924-.125529 1.011208-.432379 1.011208-.899626C1.011208-1.101868 1.108842-1.862017 1.471482-2.343213C1.792279-2.761644 2.189788-2.880199 2.433873-2.880199C2.991781-2.880199 3.152179-2.343213 3.20797-1.910834C3.249813-1.610959 3.235866-1.115816 3.270735-.746202Z'/>
<path id='g3-12' d='M4.414446-3.947198C4.414446-4.560897 3.884433-4.916563 3.270735-4.916563C2.315318-4.916563 1.610959-3.828643 1.436613-3.124284L.341719 1.26924C.327771 1.318057 .397509 1.352927 .439352 1.352927C.502117 1.352927 .557908 1.345953 .571856 1.30411L1.039103-.557908C1.185554-.237111 1.520299 .062765 2.085181 .062765C3.061519 .062765 4.163387-.641594 4.163387-1.708593C4.163387-2.12005 3.975093-2.538481 3.619427-2.768618C3.961146-2.984807 4.414446-3.382316 4.414446-3.947198ZM3.033624-2.775592C2.929016-2.75467 2.880199-2.726775 2.677958-2.726775C2.566376-2.726775 2.399004-2.733748 2.350187-2.761644C2.419925-2.803487 2.615193-2.810461 2.677958-2.810461C2.782565-2.810461 2.93599-2.803487 3.033624-2.775592ZM3.954172-4.072727C3.954172-3.703113 3.772852-3.159153 3.340473-2.915068C3.20797-2.956912 3.075467-3.005729 2.684932-3.005729C2.440847-3.005729 2.092154-2.991781 2.092154-2.740722C2.092154-2.566376 2.308344-2.538481 2.66401-2.538481C2.901121-2.538481 3.110336-2.57335 3.326526-2.636115C3.535741-2.489664 3.647323-2.203736 3.647323-1.896887C3.647323-.885679 2.956912-.132503 2.106102-.132503C1.569116-.132503 1.185554-.460274 1.185554-1.011208C1.185554-1.080946 1.192528-1.150685 1.206476-1.21345L1.66675-3.068493C1.834122-3.731009 2.447821-4.721295 3.256787-4.721295C3.668244-4.721295 3.954172-4.498132 3.954172-4.072727Z'/>
<path id='g3-59' d='M1.471482-.111582C1.471482 .27198 1.401743 .718306 .927522 1.164633C.899626 1.192528 .878705 1.21345 .878705 1.248319C.878705 1.297136 .934496 1.345953 .976339 1.345953C1.073973 1.345953 1.66675 .788045 1.66675-.041843C1.66675-.474222 1.499377-.801993 1.17858-.801993C.948443-.801993 .781071-.620672 .781071-.404483C.781071-.18132 .941469 0 1.185554 0C1.352927 0 1.464508-.111582 1.471482-.111582Z'/>
<path id='g6-56' d='M5.021171 4.513076C5.021171 3.696139 5.240349 1.793275 7.013699 .537983C7.143213 .438356 7.153176 .428394 7.153176 .249066C7.153176 .019925 7.143213 .009963 6.894147 .009963H6.734745C4.592777 1.165629 3.825654 3.048568 3.825654 4.513076V8.797011C3.825654 9.05604 3.835616 9.066002 4.104608 9.066002H4.742217C5.011208 9.066002 5.021171 9.05604 5.021171 8.797011V4.513076Z'/>
<path id='g6-58' d='M6.894147 8.956413C7.143213 8.956413 7.153176 8.946451 7.153176 8.71731C7.153176 8.537983 7.143213 8.52802 7.103362 8.498132C6.794521 8.268991 6.07721 7.760897 5.608966 6.844334C5.220423 6.087173 5.021171 5.32005 5.021171 4.4533V.169365C5.021171-.089664 5.011208-.099626 4.742217-.099626H4.104608C3.835616-.099626 3.825654-.089664 3.825654 .169365V4.4533C3.825654 5.927771 4.592777 7.81071 6.734745 8.956413H6.894147Z'/>
<path id='g6-60' d='M3.825654 17.763387C3.825654 18.022416 3.835616 18.032379 4.104608 18.032379H4.742217C5.011208 18.032379 5.021171 18.022416 5.021171 17.763387V13.559153C5.021171 12.353674 4.513076 10.321295 2.281445 8.966376C4.533001 7.601494 5.021171 5.549191 5.021171 4.373599V.169365C5.021171-.089664 5.011208-.099626 4.742217-.099626H4.104608C3.835616-.099626 3.825654-.089664 3.825654 .169365V4.383562C3.825654 5.220423 3.646326 7.292653 1.8132 8.687422C1.703611 8.777086 1.693649 8.787049 1.693649 8.966376S1.703611 9.155666 1.8132 9.24533C2.072229 9.444583 2.759651 9.972603 3.237858 10.978829C3.626401 11.775841 3.825654 12.662516 3.825654 13.549191V17.763387Z'/>
<path id='g6-62' d='M5.021171 .169365C5.021171-.089664 5.011208-.099626 4.742217-.099626H4.104608C3.835616-.099626 3.825654-.089664 3.825654 .169365V2.819427C3.825654 3.078456 3.835616 3.088418 4.104608 3.088418H4.742217C5.011208 3.088418 5.021171 3.078456 5.021171 2.819427V.169365Z'/>
<path id='g2-11' d='M4.752179-2.351183C4.752179-3.915318 3.825654-4.403487 3.088418-4.403487C1.723537-4.403487 .408468-2.978829 .408468-1.574097C.408468-.647572 1.006227 .109589 2.022416 .109589C2.650062 .109589 3.367372-.119552 4.124533-.727273C4.254047-.199253 4.582814 .109589 5.031133 .109589C5.559153 .109589 5.867995-.438356 5.867995-.597758C5.867995-.667497 5.808219-.697385 5.748443-.697385C5.678705-.697385 5.648817-.667497 5.618929-.597758C5.439601-.109589 5.080946-.109589 5.061021-.109589C4.752179-.109589 4.752179-.886675 4.752179-1.125778C4.752179-1.334994 4.752179-1.354919 4.851806-1.474471C5.788294-2.650062 5.997509-3.805729 5.997509-3.815691C5.997509-3.835616 5.987547-3.915318 5.877958-3.915318C5.778331-3.915318 5.778331-3.88543 5.728518-3.706102C5.549191-3.078456 5.220423-2.321295 4.752179-1.733499V-2.351183ZM4.084682-.986301C3.20797-.219178 2.440847-.109589 2.042341-.109589C1.444583-.109589 1.145704-.557908 1.145704-1.195517C1.145704-1.683686 1.404732-2.759651 1.723537-3.267746C2.191781-3.995019 2.729763-4.184309 3.078456-4.184309C4.064757-4.184309 4.064757-2.879203 4.064757-2.102117C4.064757-1.733499 4.064757-1.155666 4.084682-.986301Z'/>
<path id='g2-12' d='M5.728518-5.668742C5.728518-6.41594 5.180573-7.033624 4.373599-7.033624C3.795766-7.033624 3.516812-6.874222 3.16812-6.615193C2.620174-6.216687 2.072229-5.250311 1.882939-4.493151L.298879 1.833126C.288917 1.872976 .33873 1.932752 .418431 1.932752S.52802 1.912827 .537983 1.882939L1.235367-.86675C1.424658-.268991 1.863014 .099626 2.590286 .099626S4.064757-.249066 4.513076-.687422C4.991283-1.145704 5.310087-1.783313 5.310087-2.520548C5.310087-3.237858 4.941469-3.755915 4.582814-4.004981C5.160648-4.333748 5.728518-4.951432 5.728518-5.668742ZM3.935243-4.014944C3.805729-3.965131 3.696139-3.945205 3.457036-3.945205C3.317559-3.945205 3.118306-3.935243 3.01868-3.985056C3.038605-4.084682 3.39726-4.064757 3.506849-4.064757C3.716065-4.064757 3.805729-4.064757 3.935243-4.014944ZM5.17061-5.897883C5.17061-5.200498 4.79203-4.483188 4.273973-4.174346C4.004981-4.273973 3.805729-4.293898 3.506849-4.293898C3.297634-4.293898 2.739726-4.303861 2.739726-3.975093C2.729763-3.696139 3.247821-3.726027 3.427148-3.726027C3.795766-3.726027 3.945205-3.73599 4.244085-3.855542C4.622665-3.496887 4.672478-3.188045 4.682441-2.729763C4.702366-2.15193 4.463263-1.404732 4.184309-1.016189C3.795766-.478207 3.128269-.119552 2.560399-.119552C1.803238-.119552 1.424658-.697385 1.424658-1.404732C1.424658-1.504359 1.424658-1.653798 1.474471-1.843088L2.11208-4.363636C2.331258-5.220423 3.048568-6.804483 4.244085-6.804483C4.821918-6.804483 5.17061-6.495641 5.17061-5.897883Z'/>
<path id='g2-20' d='M.587796-.388543C.547945-.249066 .547945-.229141 .547945-.159402C.547945 .019925 .687422 .109589 .836862 .109589C1.135741 .109589 1.195517-.129514 1.275218-.448319C1.374844-.806974 1.315068-.617684 1.743462-2.291407C2.580324-2.261519 3.447073-2.092154 3.447073-1.444583C3.447073-1.374844 3.447073-1.325031 3.427148-1.225405C3.387298-1.066002 3.377335-.956413 3.377335-.876712C3.377335-.288917 3.775841 .109589 4.293898 .109589C4.612702 .109589 4.871731-.069738 5.070984-.408468C5.32005-.826899 5.439601-1.404732 5.439601-1.424658C5.439601-1.524284 5.349938-1.524284 5.32005-1.524284C5.220423-1.524284 5.210461-1.484433 5.180573-1.344956C4.991283-.657534 4.762142-.109589 4.313823-.109589C4.104608-.109589 3.995019-.239103 3.995019-.587796C3.995019-.737235 4.034869-.976339 4.07472-1.145704C4.094645-1.235367 4.124533-1.364882 4.124533-1.474471C4.124533-2.410959 2.749689-2.480697 2.191781-2.500623C2.520548-2.67995 2.839352-2.948941 3.108344-3.178082C3.566625-3.566625 3.855542-3.805729 4.254047-3.975093C4.234122-3.92528 4.204234-3.805729 4.204234-3.755915C4.204234-3.636364 4.273973-3.407223 4.582814-3.407223C4.901619-3.407223 5.120797-3.696139 5.120797-3.945205C5.120797-4.034869 5.080946-4.293898 4.722291-4.293898C4.11457-4.293898 3.526775-3.795766 3.088418-3.427148C2.410959-2.849315 2.171856-2.699875 1.8132-2.580324C1.843088-2.689913 1.96264-3.188045 2.012453-3.35741C2.072229-3.616438 2.191781-4.084682 2.191781-4.134496C2.191781-4.303861 2.072229-4.403487 1.902864-4.403487C1.872976-4.403487 1.594022-4.403487 1.504359-4.044832L.587796-.388543Z'/>
<path id='g2-59' d='M2.022416-.009963C2.022416-.667497 1.77335-1.05604 1.384807-1.05604C1.05604-1.05604 .856787-.806974 .856787-.52802C.856787-.259029 1.05604 0 1.384807 0C1.504359 0 1.633873-.039851 1.733499-.129514C1.763387-.14944 1.77335-.159402 1.783313-.159402S1.803238-.14944 1.803238-.009963C1.803238 .727273 1.454545 1.325031 1.125778 1.653798C1.016189 1.763387 1.016189 1.783313 1.016189 1.8132C1.016189 1.882939 1.066002 1.92279 1.115816 1.92279C1.225405 1.92279 2.022416 1.155666 2.022416-.009963Z'/>
<path id='g2-69' d='M7.053549-2.321295C7.073474-2.371108 7.103362-2.440847 7.103362-2.460772C7.103362-2.470735 7.103362-2.570361 6.983811-2.570361C6.894147-2.570361 6.874222-2.510585 6.854296-2.450809C6.206725-.976339 5.838107-.308842 4.134496-.308842H2.67995C2.540473-.308842 2.520548-.308842 2.460772-.318804C2.361146-.328767 2.331258-.33873 2.331258-.418431C2.331258-.448319 2.331258-.468244 2.381071-.647572L3.058531-3.367372H4.044832C4.891656-3.367372 4.891656-3.158157 4.891656-2.909091C4.891656-2.839352 4.891656-2.719801 4.821918-2.420922C4.801993-2.371108 4.79203-2.34122 4.79203-2.311333C4.79203-2.261519 4.83188-2.201743 4.921544-2.201743C5.001245-2.201743 5.031133-2.251557 5.070984-2.400996L5.638854-4.732254C5.638854-4.79203 5.589041-4.841843 5.519303-4.841843C5.429639-4.841843 5.409714-4.782067 5.379826-4.662516C5.17061-3.905355 4.991283-3.676214 4.07472-3.676214H3.138232L3.73599-6.07721C3.825654-6.425903 3.835616-6.465753 4.273973-6.465753H5.678705C6.894147-6.465753 7.193026-6.176837 7.193026-5.3599C7.193026-5.120797 7.193026-5.100872 7.153176-4.83188C7.153176-4.772105 7.143213-4.702366 7.143213-4.652553S7.173101-4.533001 7.262765-4.533001C7.372354-4.533001 7.382316-4.592777 7.402242-4.782067L7.601494-6.505604C7.631382-6.774595 7.581569-6.774595 7.332503-6.774595H2.30137C2.102117-6.774595 2.002491-6.774595 2.002491-6.575342C2.002491-6.465753 2.092154-6.465753 2.281445-6.465753C2.650062-6.465753 2.929016-6.465753 2.929016-6.286426C2.929016-6.246575 2.929016-6.22665 2.879203-6.047323L1.564134-.777086C1.464508-.388543 1.444583-.308842 .657534-.308842C.488169-.308842 .37858-.308842 .37858-.119552C.37858 0 .468244 0 .657534 0H5.828144C6.057285 0 6.067248-.009963 6.136986-.169365L7.053549-2.321295Z'/>
<path id='g2-72' d='M7.601494-6.03736C7.691158-6.396015 7.711083-6.495641 8.438356-6.495641C8.697385-6.495641 8.777086-6.495641 8.777086-6.694894C8.777086-6.804483 8.667497-6.804483 8.637609-6.804483C8.358655-6.804483 7.641345-6.774595 7.362391-6.774595C7.073474-6.774595 6.366127-6.804483 6.07721-6.804483C5.997509-6.804483 5.88792-6.804483 5.88792-6.60523C5.88792-6.495641 5.977584-6.495641 6.166874-6.495641C6.1868-6.495641 6.37609-6.495641 6.545455-6.475716C6.724782-6.455791 6.814446-6.445828 6.814446-6.316314C6.814446-6.276463 6.804483-6.256538 6.774595-6.127024L6.176837-3.696139H3.138232L3.726027-6.03736C3.815691-6.396015 3.845579-6.495641 4.562889-6.495641C4.821918-6.495641 4.901619-6.495641 4.901619-6.694894C4.901619-6.804483 4.79203-6.804483 4.762142-6.804483C4.483188-6.804483 3.765878-6.774595 3.486924-6.774595C3.198007-6.774595 2.49066-6.804483 2.201743-6.804483C2.122042-6.804483 2.012453-6.804483 2.012453-6.60523C2.012453-6.495641 2.102117-6.495641 2.291407-6.495641C2.311333-6.495641 2.500623-6.495641 2.669988-6.475716C2.849315-6.455791 2.938979-6.445828 2.938979-6.316314C2.938979-6.276463 2.929016-6.246575 2.899128-6.127024L1.564134-.777086C1.464508-.388543 1.444583-.308842 .657534-.308842C.478207-.308842 .388543-.308842 .388543-.109589C.388543 0 .508095 0 .52802 0C.806974 0 1.514321-.029888 1.793275-.029888C2.002491-.029888 2.221669-.019925 2.430884-.019925C2.650062-.019925 2.86924 0 3.078456 0C3.158157 0 3.277709 0 3.277709-.199253C3.277709-.308842 3.188045-.308842 2.998755-.308842C2.630137-.308842 2.351183-.308842 2.351183-.488169C2.351183-.547945 2.371108-.597758 2.381071-.657534L3.058531-3.387298H6.097136C5.678705-1.733499 5.449564-.787049 5.409714-.637609C5.310087-.318804 5.120797-.308842 4.503113-.308842C4.353674-.308842 4.26401-.308842 4.26401-.109589C4.26401 0 4.383562 0 4.403487 0C4.682441 0 5.389788-.029888 5.668742-.029888C5.877958-.029888 6.097136-.019925 6.306351-.019925C6.525529-.019925 6.744707 0 6.953923 0C7.033624 0 7.153176 0 7.153176-.199253C7.153176-.308842 7.063512-.308842 6.874222-.308842C6.505604-.308842 6.22665-.308842 6.22665-.488169C6.22665-.547945 6.246575-.597758 6.256538-.657534L7.601494-6.03736Z'/>
<path id='g2-78' d='M7.531756-5.758406C7.631382-6.156912 7.81071-6.465753 8.607721-6.495641C8.657534-6.495641 8.777086-6.505604 8.777086-6.694894C8.777086-6.704857 8.777086-6.804483 8.647572-6.804483C8.318804-6.804483 7.970112-6.774595 7.641345-6.774595C7.302615-6.774595 6.953923-6.804483 6.625156-6.804483C6.56538-6.804483 6.445828-6.804483 6.445828-6.60523C6.445828-6.495641 6.545455-6.495641 6.625156-6.495641C7.193026-6.485679 7.302615-6.276463 7.302615-6.057285C7.302615-6.027397 7.28269-5.877958 7.272727-5.84807L6.156912-1.414695L3.955168-6.615193C3.875467-6.794521 3.865504-6.804483 3.636364-6.804483H2.30137C2.102117-6.804483 2.012453-6.804483 2.012453-6.60523C2.012453-6.495641 2.102117-6.495641 2.291407-6.495641C2.34122-6.495641 2.968867-6.495641 2.968867-6.405978L1.633873-1.05604C1.534247-.657534 1.364882-.33873 .557908-.308842C.498132-.308842 .388543-.298879 .388543-.109589C.388543-.039851 .438356 0 .518057 0C.836862 0 1.185554-.029888 1.514321-.029888C1.853051-.029888 2.211706 0 2.540473 0C2.590286 0 2.719801 0 2.719801-.199253C2.719801-.298879 2.630137-.308842 2.520548-.308842C1.942715-.328767 1.863014-.547945 1.863014-.747198C1.863014-.816936 1.872976-.86675 1.902864-.976339L3.217933-6.236613C3.257783-6.176837 3.257783-6.156912 3.307597-6.057285L5.788294-.18929C5.858032-.019925 5.88792 0 5.977584 0C6.087173 0 6.087173-.029888 6.136986-.209215L7.531756-5.758406Z'/>
<path id='g0-101' d='M1.115816-2.311333H3.985056C4.094645-2.311333 4.144458-2.381071 4.144458-2.49066C4.144458-3.5467 3.496887-4.463263 2.381071-4.463263C1.155666-4.463263 .278954-3.377335 .278954-2.191781C.278954-1.275218 .787049-.458281 1.663761-.059776C1.892902 .039851 2.161893 .099626 2.410959 .099626H2.440847C3.20797 .099626 3.845579-.328767 4.11457-1.09589C4.124533-1.125778 4.124533-1.165629 4.124533-1.195517C4.124533-1.265255 4.084682-1.315068 4.014944-1.315068C3.865504-1.315068 3.805729-.986301 3.745953-.876712C3.496887-.438356 3.01868-.14944 2.500623-.14944C2.132005-.14944 1.8132-.358655 1.544209-.627646C1.145704-1.085928 1.115816-1.733499 1.115816-2.311333ZM1.125778-2.520548C1.125778-3.287671 1.534247-4.244085 2.351183-4.244085H2.400996C3.377335-4.154421 3.367372-3.118306 3.466999-2.520548H1.125778Z'/>
<path id='g0-104' d='M.318804-6.814446V-6.505604H.468244C.836862-6.505604 1.09589-6.465753 1.09589-5.987547V-.956413C1.09589-.886675 1.105853-.816936 1.105853-.737235C1.105853-.358655 .836862-.318804 .557908-.318804H.318804V-.009963H2.570361V-.318804H2.311333C2.032379-.318804 1.793275-.358655 1.793275-.727273V-2.550436C1.793275-3.267746 2.161893-4.184309 3.148194-4.184309C3.785803-4.184309 3.845579-3.496887 3.845579-3.068493V-.687422C3.845579-.348692 3.556663-.318804 3.247821-.318804H3.068493V-.009963H5.32005V-.318804H5.070984C4.801993-.318804 4.542964-.358655 4.542964-.697385V-2.879203C4.542964-3.20797 4.533001-3.536737 4.383562-3.835616C4.144458-4.273973 3.646326-4.403487 3.188045-4.403487C2.610212-4.403487 1.96264-4.014944 1.77335-3.457036L1.763387-6.924035L.318804-6.814446Z'/>
<path id='g0-105' d='M.368618-4.293898V-3.985056H.557908C.846824-3.985056 1.105853-3.945205 1.105853-3.486924V-.727273C1.105853-.37858 .926526-.318804 .328767-.318804V-.009963H2.470735V-.318804H2.271482C2.012453-.318804 1.77335-.348692 1.77335-.667497V-4.403487L.368618-4.293898ZM1.205479-6.665006C.956413-6.635118 .757161-6.41594 .757161-6.146949C.757161-5.858032 1.006227-5.618929 1.285181-5.618929C1.554172-5.618929 1.8132-5.838107 1.8132-6.146949C1.8132-6.435866 1.564134-6.674969 1.285181-6.674969C1.255293-6.674969 1.235367-6.665006 1.205479-6.665006Z'/>
<path id='g0-111' d='M2.34122-4.463263C1.085928-4.333748 .278954-3.277709 .278954-2.122042C.278954-.996264 1.165629 .099626 2.49066 .099626C3.686177 .099626 4.692403-.876712 4.692403-2.132005C4.692403-3.317559 3.795766-4.473225 2.470735-4.473225C2.430884-4.473225 2.381071-4.463263 2.34122-4.463263ZM1.115816-1.892902V-2.331258C1.115816-3.088418 1.354919-4.244085 2.480697-4.244085C3.287671-4.244085 3.745953-3.566625 3.835616-2.809465C3.855542-2.590286 3.855542-2.381071 3.855542-2.161893C3.855542-1.514321 3.785803-.707347 3.148194-.33873C2.948941-.209215 2.729763-.14944 2.500623-.14944C1.77335-.14944 1.265255-.71731 1.155666-1.494396C1.135741-1.62391 1.135741-1.763387 1.115816-1.892902Z'/>
<path id='g0-114' d='M.268991-4.293898V-3.985056H.418431C.747198-3.985056 1.046077-3.955168 1.046077-3.486924V-.737235C1.046077-.328767 .767123-.318804 .328767-.318804H.268991V-.009963H2.67995V-.318804C2.560399-.318804 2.420922-.308842 2.30137-.308842C1.982565-.308842 1.713574-.358655 1.713574-.727273V-2.052304C1.713574-2.899128 1.912827-4.184309 2.889166-4.184309C2.929016-4.184309 2.958904-4.184309 2.998755-4.174346V-4.164384C2.849315-4.104608 2.769614-3.945205 2.769614-3.785803C2.769614-3.556663 2.919054-3.39726 3.148194-3.35741C3.437111-3.35741 3.626401-3.536737 3.626401-3.785803C3.626401-4.184309 3.247821-4.403487 2.889166-4.403487C2.30137-4.403487 1.77335-3.875467 1.673724-3.337484L1.663761-4.403487L.268991-4.293898Z'/>
<path id='g0-115' d='M1.753425-4.463263C1.384807-4.423412 .996264-4.353674 .707347-4.104608C.468244-3.895392 .328767-3.556663 .328767-3.237858C.328767-1.534247 3.098381-2.500623 3.098381-1.006227C3.098381-.398506 2.550436-.119552 2.002491-.119552C1.24533-.119552 .737235-.657534 .597758-1.514321C.577833-1.603985 .56787-1.693649 .448319-1.693649C.368618-1.693649 .328767-1.633873 .328767-1.564134V.009963C.33873 .059776 .368618 .089664 .418431 .099626H.438356C.597758 .099626 .757161-.268991 .876712-.298879H.886675C.966376-.298879 1.235367-.049813 1.444583 .019925C1.613948 .079701 1.793275 .099626 1.972603 .099626C2.799502 .099626 3.58655-.33873 3.58655-1.255293C3.58655-1.912827 3.108344-2.450809 2.450809-2.620174C1.833126-2.789539 .816936-2.789539 .816936-3.516812C.816936-4.124533 1.484433-4.273973 1.92279-4.273973C2.410959-4.273973 3.088418-4.004981 3.088418-3.148194C3.088418-3.058531 3.098381-2.978829 3.20797-2.978829C3.307597-2.978829 3.347447-3.058531 3.347447-3.158157C3.347447-3.20797 3.337484-3.257783 3.337484-3.297634V-4.323786C3.337484-4.383562 3.307597-4.463263 3.227895-4.463263C3.068493-4.463263 2.968867-4.214197 2.859278-4.214197H2.849315C2.769614-4.214197 2.610212-4.343711 2.49066-4.383562C2.311333-4.443337 2.11208-4.473225 1.92279-4.473225C1.863014-4.473225 1.8132-4.463263 1.753425-4.463263Z'/>
<path id='g0-116' d='M1.484433-6.136986C1.484433-5.449564 1.195517-4.204234 .179328-4.204234V-3.985056H1.036115V-1.414695C1.036115-1.085928 1.05604-.757161 1.215442-.468244C1.43462-.069738 1.902864 .099626 2.34122 .099626C3.158157 .099626 3.317559-.816936 3.317559-1.444583V-1.8132H3.068493C3.068493-1.663761 3.078456-1.514321 3.078456-1.354919C3.078456-.916563 2.978829-.14944 2.391034-.14944C1.823163-.14944 1.733499-.836862 1.733499-1.285181V-3.985056H3.148194V-4.293898H1.733499V-6.136986H1.484433Z'/>
<path id='g0-119' d='M.179328-4.293898V-3.985056H.328767C.846824-3.985056 .86675-3.765878 1.115816-3.058531C1.364882-2.371108 1.62391-1.683686 1.863014-.996264L2.161893-.159402C2.201743-.049813 2.231631 .089664 2.371108 .099626H2.391034C2.610212 .099626 2.749689-.56787 2.879203-.896638C3.058531-1.424658 3.247821-1.952677 3.447073-2.480697C3.496887-2.620174 3.556663-2.759651 3.58655-2.899128H3.596513C3.626401-2.759651 3.686177-2.620174 3.73599-2.480697L4.024907-1.673724C4.204234-1.155666 4.403487-.647572 4.582814-.129514C4.622665-.019925 4.662516 .099626 4.801993 .099626C5.021171 .099626 5.190535-.607721 5.310087-.966376L5.877958-2.550436C6.107098-3.178082 6.246575-3.985056 7.003736-3.985056V-4.293898H5.3599V-3.985056C5.618929-3.975093 5.897883-3.835616 5.927771-3.556663C5.927771-3.277709 5.758406-2.958904 5.668742-2.699875C5.50934-2.271482 5.3599-1.843088 5.210461-1.414695C5.13076-1.205479 5.031133-.986301 4.98132-.767123H4.971357C4.921544-1.006227 4.79203-1.305106 4.692403-1.554172C4.463263-2.201743 4.224159-2.839352 4.004981-3.496887C3.975093-3.566625 3.945205-3.646326 3.945205-3.726027V-3.765878C3.995019-3.985056 4.323786-3.985056 4.523039-3.985056V-4.293898H2.590286V-3.985056H2.769614C3.158157-3.985056 3.247821-3.835616 3.377335-3.496887C3.39726-3.427148 3.447073-3.337484 3.447073-3.257783C3.437111-3.16812 3.387298-3.068493 3.35741-2.988792L2.789539-1.404732C2.729763-1.235367 2.67995-1.066002 2.610212-.9066C2.49066-1.165629 2.410959-1.454545 2.311333-1.723537C2.161893-2.15193 2.002491-2.580324 1.853051-3.008717L1.673724-3.516812C1.653798-3.576588 1.613948-3.646326 1.613948-3.716065C1.613948-3.975093 1.982565-3.985056 2.201743-3.985056V-4.293898H.179328Z'/>
<path id='g4-8' d='M3.975093-1.344956C5.519303-1.464508 6.625156-2.391034 6.625156-3.39726C6.625156-4.433375 5.489415-5.339975 3.975093-5.459527V-6.017435C3.975093-6.356164 3.975093-6.495641 4.921544-6.495641H5.250311V-6.804483C4.891656-6.774595 3.975093-6.774595 3.566625-6.774595S2.231631-6.774595 1.872976-6.804483V-6.495641H2.201743C3.148194-6.495641 3.148194-6.366127 3.148194-6.017435V-5.459527C1.62391-5.310087 .557908-4.393524 .557908-3.407223C.557908-2.381071 1.663761-1.494396 3.148194-1.344956V-.787049C3.148194-.448319 3.148194-.308842 2.201743-.308842H1.872976V0C2.231631-.029888 3.148194-.029888 3.556663-.029888S4.891656-.029888 5.250311 0V-.308842H4.921544C3.975093-.308842 3.975093-.438356 3.975093-.787049V-1.344956ZM3.148194-1.574097C1.733499-1.763387 1.554172-2.779577 1.554172-3.39726C1.554172-3.915318 1.653798-5.031133 3.148194-5.230386V-1.574097ZM3.975093-5.240349C5.349938-5.080946 5.628892-4.164384 5.628892-3.407223C5.628892-2.809465 5.479452-1.743462 3.975093-1.564134V-5.240349Z'/>
<path id='g4-40' d='M3.297634 2.391034C3.297634 2.361146 3.297634 2.34122 3.128269 2.171856C1.882939 .916563 1.564134-.966376 1.564134-2.49066C1.564134-4.224159 1.942715-5.957659 3.16812-7.202989C3.297634-7.32254 3.297634-7.342466 3.297634-7.372354C3.297634-7.442092 3.257783-7.47198 3.198007-7.47198C3.098381-7.47198 2.201743-6.794521 1.613948-5.529265C1.105853-4.433375 .986301-3.327522 .986301-2.49066C.986301-1.713574 1.09589-.508095 1.643836 .617684C2.241594 1.843088 3.098381 2.49066 3.198007 2.49066C3.257783 2.49066 3.297634 2.460772 3.297634 2.391034Z'/>
<path id='g4-41' d='M2.879203-2.49066C2.879203-3.267746 2.769614-4.473225 2.221669-5.599004C1.62391-6.824408 .767123-7.47198 .667497-7.47198C.607721-7.47198 .56787-7.43213 .56787-7.372354C.56787-7.342466 .56787-7.32254 .757161-7.143213C1.733499-6.156912 2.30137-4.572852 2.30137-2.49066C2.30137-.787049 1.932752 .966376 .697385 2.221669C.56787 2.34122 .56787 2.361146 .56787 2.391034C.56787 2.450809 .607721 2.49066 .667497 2.49066C.767123 2.49066 1.663761 1.8132 2.251557 .547945C2.759651-.547945 2.879203-1.653798 2.879203-2.49066Z'/>
<path id='g4-43' d='M4.07472-2.291407H6.854296C6.993773-2.291407 7.183064-2.291407 7.183064-2.49066S6.993773-2.689913 6.854296-2.689913H4.07472V-5.479452C4.07472-5.618929 4.07472-5.808219 3.875467-5.808219S3.676214-5.618929 3.676214-5.479452V-2.689913H.886675C.747198-2.689913 .557908-2.689913 .557908-2.49066S.747198-2.291407 .886675-2.291407H3.676214V.498132C3.676214 .637609 3.676214 .826899 3.875467 .826899S4.07472 .637609 4.07472 .498132V-2.291407Z'/>
<path id='g4-48' d='M4.582814-3.188045C4.582814-3.985056 4.533001-4.782067 4.184309-5.519303C3.726027-6.475716 2.909091-6.635118 2.49066-6.635118C1.892902-6.635118 1.165629-6.37609 .757161-5.449564C.438356-4.762142 .388543-3.985056 .388543-3.188045C.388543-2.440847 .428394-1.544209 .836862-.787049C1.265255 .019925 1.992528 .219178 2.480697 .219178C3.01868 .219178 3.775841 .009963 4.214197-.936488C4.533001-1.62391 4.582814-2.400996 4.582814-3.188045ZM2.480697 0C2.092154 0 1.504359-.249066 1.325031-1.205479C1.215442-1.803238 1.215442-2.719801 1.215442-3.307597C1.215442-3.945205 1.215442-4.60274 1.295143-5.140722C1.484433-6.326276 2.231631-6.41594 2.480697-6.41594C2.809465-6.41594 3.466999-6.236613 3.656289-5.250311C3.755915-4.692403 3.755915-3.935243 3.755915-3.307597C3.755915-2.560399 3.755915-1.882939 3.646326-1.24533C3.496887-.298879 2.929016 0 2.480697 0Z'/>
<path id='g4-61' d='M6.844334-3.257783C6.993773-3.257783 7.183064-3.257783 7.183064-3.457036S6.993773-3.656289 6.854296-3.656289H.886675C.747198-3.656289 .557908-3.656289 .557908-3.457036S.747198-3.257783 .896638-3.257783H6.844334ZM6.854296-1.325031C6.993773-1.325031 7.183064-1.325031 7.183064-1.524284S6.993773-1.723537 6.844334-1.723537H.896638C.747198-1.723537 .557908-1.723537 .557908-1.524284S.747198-1.325031 .886675-1.325031H6.854296Z'/>
<path id='g4-91' d='M2.540473 2.49066V2.092154H1.574097V-7.073474H2.540473V-7.47198H1.175592V2.49066H2.540473Z'/>
<path id='g4-93' d='M1.58406-7.47198H.219178V-7.073474H1.185554V2.092154H.219178V2.49066H1.58406V-7.47198Z'/>
</defs>
<g id='page1' transform='matrix(1.5 0 0 1.5 0 0)'>
<use x='148.613977' y='42.350433' xlink:href='#g4-91'/>
<use x='151.381386' y='42.350433' xlink:href='#g2-69'/>
<use x='158.735761' y='43.844814' xlink:href='#g3-11'/>
<use x='164.413232' y='42.350433' xlink:href='#g2-59'/>
<use x='168.84104' y='42.350433' xlink:href='#g2-69'/>
<use x='176.195415' y='43.844814' xlink:href='#g3-12'/>
<use x='181.569397' y='42.350433' xlink:href='#g4-93'/>
<use x='187.104138' y='42.350433' xlink:href='#g4-61'/>
<use x='197.620218' y='18.938016' xlink:href='#g6-56'/>
<use x='197.620218' y='27.904483' xlink:href='#g6-62'/>
<use x='197.620218' y='30.893305' xlink:href='#g6-60'/>
<use x='197.620218' y='48.82624' xlink:href='#g6-62'/>
<use x='197.620218' y='51.815062' xlink:href='#g6-58'/>
<use x='206.47591' y='28.382807' xlink:href='#g2-78'/>
<use x='214.480617' y='29.877188' xlink:href='#g3-11'/>
<use x='219.659959' y='29.877188' xlink:href='#g3-59'/>
<use x='222.0261' y='29.877188' xlink:href='#g3-12'/>
<use x='227.400065' y='28.382807' xlink:href='#g2-69'/>
<use x='234.75444' y='29.877188' xlink:href='#g3-11'/>
<use x='239.933782' y='29.877188' xlink:href='#g5-43'/>
<use x='246.049766' y='29.877188' xlink:href='#g3-12'/>
<use x='274.071821' y='28.382807' xlink:href='#g2-11'/>
<use x='282.695686' y='28.382807' xlink:href='#g4-43'/>
<use x='292.658299' y='28.382807' xlink:href='#g2-12'/>
<use x='301.586561' y='28.382807' xlink:href='#g1-50'/>
<use x='310.995675' y='28.382807' xlink:href='#g4-8'/>
<use x='206.47591' y='42.728957' xlink:href='#g2-20'/>
<use x='212.215979' y='42.728957' xlink:href='#g4-40'/>
<use x='216.090353' y='42.728957' xlink:href='#g2-69'/>
<use x='223.444728' y='44.223338' xlink:href='#g3-11'/>
<use x='229.122199' y='42.728957' xlink:href='#g2-59'/>
<use x='233.550007' y='42.728957' xlink:href='#g2-69'/>
<use x='240.904382' y='44.223338' xlink:href='#g3-12'/>
<use x='246.278364' y='42.728957' xlink:href='#g4-41'/>
<use x='250.152738' y='42.728957' xlink:href='#g2-72'/>
<use x='258.434194' y='44.223338' xlink:href='#g3-11'/>
<use x='274.071821' y='42.728957' xlink:href='#g2-11'/>
<use x='282.695686' y='42.728957' xlink:href='#g4-43'/>
<use x='292.658299' y='42.728957' xlink:href='#g2-12'/>
<use x='301.586561' y='42.728957' xlink:href='#g4-61'/>
<use x='312.102641' y='42.728957' xlink:href='#g4-48'/>
<use x='206.47591' y='57.075107' xlink:href='#g4-48'/>
<use x='274.071821' y='57.075107' xlink:href='#g0-111'/>
<use x='279.051925' y='57.075107' xlink:href='#g0-116'/>
<use x='282.925339' y='57.075107' xlink:href='#g0-104'/>
<use x='288.458788' y='57.075107' xlink:href='#g0-101'/>
<use x='292.885547' y='57.075107' xlink:href='#g0-114'/>
<use x='296.786628' y='57.075107' xlink:href='#g0-119'/>
<use x='303.980112' y='57.075107' xlink:href='#g0-105'/>
<use x='306.746836' y='57.075107' xlink:href='#g0-115'/>
<use x='310.675585' y='57.075107' xlink:href='#g0-101'/>
</g>
</svg>