<?xml version='1.0' encoding='UTF-8'?>
<!-- This file was generated by dvisvgm 3.2 -->
<svg version='1.1' xmlns='http://www.w3.org/2000/svg' xmlns:xlink='http://www.w3.org/1999/xlink' width='135.824248pt' height='12.717287pt' viewBox='283.099299 33.578058 135.824248 12.717287'>
<defs>
<path id='g2-105' d='M2.259527-4.358655C2.259527-4.470237 2.175841-4.623661 1.980573-4.623661C1.792279-4.623661 1.590037-4.442341 1.590037-4.2401C1.590037-4.121544 1.680697-3.975093 1.868991-3.975093C2.071233-3.975093 2.259527-4.170361 2.259527-4.358655ZM.836862-.81594C.808966-.72528 .774097-.641594 .774097-.523039C.774097-.195268 1.053051 .069738 1.436613 .069738C2.133998 .069738 2.440847-.892653 2.440847-.99726C2.440847-1.08792 2.350187-1.08792 2.329265-1.08792C2.231631-1.08792 2.224658-1.046077 2.196762-.969365C2.036364-.411457 1.729514-.125529 1.457534-.125529C1.318057-.125529 1.283188-.216189 1.283188-.369614C1.283188-.530012 1.332005-.662516 1.39477-.81594C1.464508-1.004234 1.54122-1.192528 1.617933-1.373848C1.680697-1.54122 1.931756-2.175841 1.959651-2.259527C1.980573-2.329265 2.001494-2.412951 2.001494-2.48269C2.001494-2.810461 1.72254-3.075467 1.338979-3.075467C.648568-3.075467 .327771-2.127024 .327771-2.008468C.327771-1.917808 .425405-1.917808 .446326-1.917808C.54396-1.917808 .550934-1.952677 .571856-2.02939C.753176-2.629141 1.060025-2.880199 1.318057-2.880199C1.429639-2.880199 1.492403-2.824408 1.492403-2.636115C1.492403-2.475716 1.45056-2.371108 1.276214-1.93873L.836862-.81594Z'/>
<path id='g0-40' d='M9.05604-1.325031C9.225405-1.325031 9.404732-1.325031 9.404732-1.524284S9.225405-1.723537 9.046077-1.723537H2.719801C2.30137-2.082192 1.793275-2.34122 1.464508-2.49066C1.823163-2.650062 2.311333-2.909091 2.719801-3.257783H9.046077C9.225405-3.257783 9.404732-3.257783 9.404732-3.457036S9.225405-3.656289 9.05604-3.656289H3.16812C3.646326-4.11457 4.164384-4.991283 4.164384-5.120797C4.164384-5.230386 4.034869-5.230386 3.975093-5.230386C3.895392-5.230386 3.825654-5.230386 3.785803-5.150685C3.576588-4.772105 3.297634-4.244085 2.650062-3.666252C1.96264-3.058531 1.295143-2.789539 .777086-2.6401C.607721-2.580324 .597758-2.570361 .577833-2.550436C.557908-2.540473 .557908-2.510585 .557908-2.49066S.557908-2.450809 .56787-2.430884L.597758-2.410959C.617684-2.400996 .627646-2.391034 .816936-2.331258C2.161893-1.932752 3.158157-1.026152 3.716065 .039851C3.825654 .239103 3.835616 .249066 3.975093 .249066C4.034869 .249066 4.164384 .249066 4.164384 .139477C4.164384 .009963 3.656289-.856787 3.16812-1.325031H9.05604Z'/>
<path id='g0-41' d='M7.232877-3.257783C7.651308-2.899128 8.159402-2.6401 8.488169-2.49066C8.129514-2.331258 7.641345-2.072229 7.232877-1.723537H.9066C.737235-1.723537 .547945-1.723537 .547945-1.524284S.727273-1.325031 .896638-1.325031H6.784558C6.306351-.86675 5.788294 .009963 5.788294 .139477C5.788294 .249066 5.917808 .249066 5.977584 .249066C6.057285 .249066 6.127024 .249066 6.166874 .169365C6.37609-.209215 6.655044-.737235 7.302615-1.315068C7.990037-1.92279 8.657534-2.191781 9.175592-2.34122C9.344956-2.400996 9.354919-2.410959 9.374844-2.430884C9.39477-2.440847 9.39477-2.470735 9.39477-2.49066S9.39477-2.530511 9.384807-2.550436L9.354919-2.570361C9.334994-2.580324 9.325031-2.590286 9.135741-2.650062C7.790785-3.048568 6.794521-3.955168 6.236613-5.021171C6.127024-5.220423 6.117061-5.230386 5.977584-5.230386C5.917808-5.230386 5.788294-5.230386 5.788294-5.120797C5.788294-4.991283 6.296389-4.124533 6.784558-3.656289H.896638C.727273-3.656289 .547945-3.656289 .547945-3.457036S.737235-3.257783 .9066-3.257783H7.232877Z'/>
<path id='g0-56' d='M5.489415-6.535492C5.539228-6.645081 5.539228-6.665006 5.539228-6.714819C5.539228-6.814446 5.459527-6.914072 5.339975-6.914072C5.210461-6.914072 5.150685-6.794521 5.110834-6.684932L4.283935-4.493151H1.255293L.428394-6.684932C.37858-6.824408 .328767-6.914072 .199253-6.914072C.099626-6.914072 0-6.814446 0-6.714819C0-6.694894 0-6.674969 .059776-6.535492L2.540473-.009963C2.590286 .129514 2.6401 .219178 2.769614 .219178C2.909091 .219178 2.948941 .109589 2.988792 .009963L5.489415-6.535492ZM1.414695-4.094645H4.124533L2.769614-.547945L1.414695-4.094645Z'/>
<path id='g3-48' d='M4.582814-3.188045C4.582814-3.985056 4.533001-4.782067 4.184309-5.519303C3.726027-6.475716 2.909091-6.635118 2.49066-6.635118C1.892902-6.635118 1.165629-6.37609 .757161-5.449564C.438356-4.762142 .388543-3.985056 .388543-3.188045C.388543-2.440847 .428394-1.544209 .836862-.787049C1.265255 .019925 1.992528 .219178 2.480697 .219178C3.01868 .219178 3.775841 .009963 4.214197-.936488C4.533001-1.62391 4.582814-2.400996 4.582814-3.188045ZM2.480697 0C2.092154 0 1.504359-.249066 1.325031-1.205479C1.215442-1.803238 1.215442-2.719801 1.215442-3.307597C1.215442-3.945205 1.215442-4.60274 1.295143-5.140722C1.484433-6.326276 2.231631-6.41594 2.480697-6.41594C2.809465-6.41594 3.466999-6.236613 3.656289-5.250311C3.755915-4.692403 3.755915-3.935243 3.755915-3.307597C3.755915-2.560399 3.755915-1.882939 3.646326-1.24533C3.496887-.298879 2.929016 0 2.480697 0Z'/>
<path id='g3-61' d='M6.844334-3.257783C6.993773-3.257783 7.183064-3.257783 7.183064-3.457036S6.993773-3.656289 6.854296-3.656289H.886675C.747198-3.656289 .557908-3.656289 .557908-3.457036S.747198-3.257783 .896638-3.257783H6.844334ZM6.854296-1.325031C6.993773-1.325031 7.183064-1.325031 7.183064-1.524284S6.993773-1.723537 6.844334-1.723537H.896638C.747198-1.723537 .557908-1.723537 .557908-1.524284S.747198-1.325031 .886675-1.325031H6.854296Z'/>
<path id='g1-21' d='M3.556663-2.909091C3.965131-1.863014 4.443337-.33873 4.60274-.109589C4.762142 .109589 4.861768 .109589 5.13076 .109589H5.349938C5.449564 .099626 5.459527 .039851 5.459527 .009963S5.439601-.039851 5.409714-.079701C5.310087-.18929 5.250311-.33873 5.180573-.537983L3.148194-6.206725C2.938979-6.784558 2.400996-6.914072 1.932752-6.914072C1.882939-6.914072 1.753425-6.914072 1.753425-6.804483C1.753425-6.724782 1.833126-6.704857 1.843088-6.704857C2.171856-6.645081 2.241594-6.585305 2.49066-5.907846L3.457036-3.198007L.707347-.468244C.587796-.348692 .52802-.288917 .52802-.159402C.52802 .009963 .667497 .129514 .826899 .129514S1.075965 .019925 1.155666-.079701L3.556663-2.909091Z'/>
<path id='g1-99' d='M3.945205-3.785803C3.785803-3.785803 3.646326-3.785803 3.506849-3.646326C3.347447-3.496887 3.327522-3.327522 3.327522-3.257783C3.327522-3.01868 3.506849-2.909091 3.696139-2.909091C3.985056-2.909091 4.254047-3.148194 4.254047-3.5467C4.254047-4.034869 3.785803-4.403487 3.078456-4.403487C1.733499-4.403487 .408468-2.978829 .408468-1.574097C.408468-.67746 .986301 .109589 2.022416 .109589C3.447073 .109589 4.283935-.946451 4.283935-1.066002C4.283935-1.125778 4.224159-1.195517 4.164384-1.195517C4.11457-1.195517 4.094645-1.175592 4.034869-1.09589C3.247821-.109589 2.161893-.109589 2.042341-.109589C1.414695-.109589 1.145704-.597758 1.145704-1.195517C1.145704-1.603985 1.344956-2.570361 1.683686-3.188045C1.992528-3.755915 2.540473-4.184309 3.088418-4.184309C3.427148-4.184309 3.805729-4.054795 3.945205-3.785803Z'/>
<path id='g1-105' d='M2.82939-6.22665C2.82939-6.425903 2.689913-6.585305 2.460772-6.585305C2.191781-6.585305 1.92279-6.326276 1.92279-6.057285C1.92279-5.867995 2.062267-5.69863 2.30137-5.69863C2.530511-5.69863 2.82939-5.927771 2.82939-6.22665ZM2.072229-2.480697C2.191781-2.769614 2.191781-2.789539 2.291407-3.058531C2.371108-3.257783 2.420922-3.39726 2.420922-3.58655C2.420922-4.034869 2.102117-4.403487 1.603985-4.403487C.667497-4.403487 .288917-2.958904 .288917-2.86924C.288917-2.769614 .388543-2.769614 .408468-2.769614C.508095-2.769614 .518057-2.789539 .56787-2.948941C.836862-3.88543 1.235367-4.184309 1.574097-4.184309C1.653798-4.184309 1.823163-4.184309 1.823163-3.865504C1.823163-3.656289 1.753425-3.447073 1.713574-3.347447C1.633873-3.088418 1.185554-1.932752 1.026152-1.504359C.926526-1.24533 .797011-.916563 .797011-.707347C.797011-.239103 1.135741 .109589 1.613948 .109589C2.550436 .109589 2.919054-1.334994 2.919054-1.424658C2.919054-1.524284 2.82939-1.524284 2.799502-1.524284C2.699875-1.524284 2.699875-1.494396 2.650062-1.344956C2.470735-.71731 2.141968-.109589 1.633873-.109589C1.464508-.109589 1.39477-.209215 1.39477-.438356C1.39477-.687422 1.454545-.826899 1.683686-1.43462L2.072229-2.480697Z'/>
</defs>
<g id='page1' transform='matrix(1.5 0 0 1.5 0 0)'>
<use x='188.204846' y='29.299444' xlink:href='#g1-21'/>
<use x='196.783744' y='29.299444' xlink:href='#g3-61'/>
<use x='207.299824' y='29.299444' xlink:href='#g3-48'/>
<use x='217.815828' y='29.299444' xlink:href='#g0-40'/>
<use x='226.118097' y='29.299444' xlink:href='#g0-41'/>
<use x='241.61543' y='29.299444' xlink:href='#g1-99'/>
<use x='245.926827' y='30.793825' xlink:href='#g2-105'/>
<use x='252.011006' y='29.299444' xlink:href='#g3-61'/>
<use x='262.527086' y='29.299444' xlink:href='#g3-48'/>
<use x='270.828494' y='29.299444' xlink:href='#g0-56'/>
<use x='276.363311' y='29.299444' xlink:href='#g1-105'/>
</g>
</svg>