<?xml version='1.0' encoding='UTF-8'?>
<!-- This file was generated by dvisvgm 3.2 -->
<svg version='1.1' xmlns='http://www.w3.org/2000/svg' xmlns:xlink='http://www.w3.org/1999/xlink' width='132.982427pt' height='16.852187pt' viewBox='283.929962 30.83297 132.982427 16.852187'>
<defs>
<path id='g0-0' d='M5.188543-1.57609C5.300125-1.57609 5.467497-1.57609 5.467497-1.743462C5.467497-1.917808 5.307098-1.917808 5.188543-1.917808H1.03213C.920548-1.917808 .753176-1.917808 .753176-1.750436C.753176-1.57609 .913574-1.57609 1.03213-1.57609H5.188543Z'/>
<path id='g2-40' d='M3.297634 2.391034C3.297634 2.361146 3.297634 2.34122 3.128269 2.171856C1.882939 .916563 1.564134-.966376 1.564134-2.49066C1.564134-4.224159 1.942715-5.957659 3.16812-7.202989C3.297634-7.32254 3.297634-7.342466 3.297634-7.372354C3.297634-7.442092 3.257783-7.47198 3.198007-7.47198C3.098381-7.47198 2.201743-6.794521 1.613948-5.529265C1.105853-4.433375 .986301-3.327522 .986301-2.49066C.986301-1.713574 1.09589-.508095 1.643836 .617684C2.241594 1.843088 3.098381 2.49066 3.198007 2.49066C3.257783 2.49066 3.297634 2.460772 3.297634 2.391034Z'/>
<path id='g2-41' d='M2.879203-2.49066C2.879203-3.267746 2.769614-4.473225 2.221669-5.599004C1.62391-6.824408 .767123-7.47198 .667497-7.47198C.607721-7.47198 .56787-7.43213 .56787-7.372354C.56787-7.342466 .56787-7.32254 .757161-7.143213C1.733499-6.156912 2.30137-4.572852 2.30137-2.49066C2.30137-.787049 1.932752 .966376 .697385 2.221669C.56787 2.34122 .56787 2.361146 .56787 2.391034C.56787 2.450809 .607721 2.49066 .667497 2.49066C.767123 2.49066 1.663761 1.8132 2.251557 .547945C2.759651-.547945 2.879203-1.653798 2.879203-2.49066Z'/>
<path id='g2-61' d='M6.844334-3.257783C6.993773-3.257783 7.183064-3.257783 7.183064-3.457036S6.993773-3.656289 6.854296-3.656289H.886675C.747198-3.656289 .557908-3.656289 .557908-3.457036S.747198-3.257783 .896638-3.257783H6.844334ZM6.854296-1.325031C6.993773-1.325031 7.183064-1.325031 7.183064-1.524284S6.993773-1.723537 6.844334-1.723537H.896638C.747198-1.723537 .557908-1.723537 .557908-1.524284S.747198-1.325031 .886675-1.325031H6.854296Z'/>
<path id='g3-49' d='M2.336239-4.435367C2.336239-4.623661 2.322291-4.630635 2.127024-4.630635C1.680697-4.191283 1.046077-4.184309 .760149-4.184309V-3.93325C.927522-3.93325 1.387796-3.93325 1.771357-4.128518V-.571856C1.771357-.341719 1.771357-.251059 1.073973-.251059H.808966V0C.934496-.006974 1.792279-.027895 2.050311-.027895C2.266501-.027895 3.145205-.006974 3.29863 0V-.251059H3.033624C2.336239-.251059 2.336239-.341719 2.336239-.571856V-4.435367Z'/>
<path id='g3-50' d='M3.521793-1.26924H3.284682C3.263761-1.115816 3.194022-.704359 3.103362-.63462C3.047572-.592777 2.510585-.592777 2.412951-.592777H1.129763C1.862017-1.241345 2.106102-1.436613 2.524533-1.764384C3.040598-2.175841 3.521793-2.608219 3.521793-3.270735C3.521793-4.11457 2.782565-4.630635 1.889913-4.630635C1.025156-4.630635 .439352-4.02391 .439352-3.382316C.439352-3.02665 .739228-2.991781 .808966-2.991781C.976339-2.991781 1.17858-3.110336 1.17858-3.361395C1.17858-3.486924 1.129763-3.731009 .767123-3.731009C.983313-4.226152 1.457534-4.379577 1.785305-4.379577C2.48269-4.379577 2.84533-3.835616 2.84533-3.270735C2.84533-2.66401 2.412951-2.182814 2.189788-1.931756L.509091-.27198C.439352-.209215 .439352-.195268 .439352 0H3.312578L3.521793-1.26924Z'/>
<path id='g1-83' d='M6.425903-6.924035C6.425903-6.953923 6.405978-7.023661 6.316314-7.023661C6.266501-7.023661 6.256538-7.013699 6.136986-6.874222L5.65878-6.306351C5.399751-6.774595 4.881694-7.023661 4.234122-7.023661C2.968867-7.023661 1.77335-5.877958 1.77335-4.672478C1.77335-3.865504 2.30137-3.407223 2.809465-3.257783L3.875467-2.978829C4.244085-2.889166 4.79203-2.739726 4.79203-1.92279C4.79203-1.026152 3.975093-.089664 2.998755-.089664C2.361146-.089664 1.255293-.308842 1.255293-1.544209C1.255293-1.783313 1.305106-2.022416 1.315068-2.082192C1.325031-2.122042 1.334994-2.132005 1.334994-2.15193C1.334994-2.251557 1.265255-2.261519 1.215442-2.261519S1.145704-2.251557 1.115816-2.221669C1.075965-2.181818 .518057 .089664 .518057 .119552C.518057 .179328 .56787 .219178 .627646 .219178C.67746 .219178 .687422 .209215 .806974 .069738L1.295143-.498132C1.723537 .079701 2.400996 .219178 2.978829 .219178C4.333748 .219178 5.50934-1.105853 5.50934-2.34122C5.50934-3.028643 5.17061-3.367372 5.021171-3.506849C4.79203-3.73599 4.64259-3.775841 3.755915-4.004981C3.536737-4.064757 3.178082-4.164384 3.088418-4.184309C2.819427-4.273973 2.480697-4.562889 2.480697-5.090909C2.480697-5.897883 3.277709-6.744707 4.224159-6.744707C5.051059-6.744707 5.65878-6.316314 5.65878-5.200498C5.65878-4.881694 5.618929-4.702366 5.618929-4.64259C5.618929-4.632628 5.618929-4.542964 5.738481-4.542964C5.838107-4.542964 5.84807-4.572852 5.88792-4.742217L6.425903-6.924035Z'/>
<path id='g1-88' d='M4.83188-4.094645L3.995019-6.07721C3.965131-6.156912 3.945205-6.196762 3.945205-6.206725C3.945205-6.266501 4.11457-6.455791 4.533001-6.495641C4.632628-6.505604 4.732254-6.515567 4.732254-6.684932C4.732254-6.804483 4.612702-6.804483 4.582814-6.804483C4.174346-6.804483 3.745953-6.774595 3.327522-6.774595C3.078456-6.774595 2.460772-6.804483 2.211706-6.804483C2.15193-6.804483 2.032379-6.804483 2.032379-6.60523C2.032379-6.495641 2.132005-6.495641 2.261519-6.495641C2.859278-6.495641 2.919054-6.396015 3.008717-6.176837L4.184309-3.39726L2.082192-1.135741L1.952677-1.026152C1.464508-.498132 .996264-.33873 .488169-.308842C.358655-.298879 .268991-.298879 .268991-.109589C.268991-.099626 .268991 0 .398506 0C.697385 0 1.026152-.029888 1.334994-.029888C1.703611-.029888 2.092154 0 2.450809 0C2.510585 0 2.630137 0 2.630137-.199253C2.630137-.298879 2.530511-.308842 2.510585-.308842C2.420922-.318804 2.11208-.33873 2.11208-.617684C2.11208-.777086 2.261519-.936488 2.381071-1.066002L3.39726-2.141968L4.293898-3.118306L5.300125-.737235C5.339975-.627646 5.349938-.617684 5.349938-.597758C5.349938-.518057 5.160648-.348692 4.772105-.308842C4.662516-.298879 4.572852-.288917 4.572852-.119552C4.572852 0 4.682441 0 4.722291 0C5.001245 0 5.69863-.029888 5.977584-.029888C6.22665-.029888 6.834371 0 7.083437 0C7.153176 0 7.272727 0 7.272727-.18929C7.272727-.308842 7.173101-.308842 7.0934-.308842C6.425903-.318804 6.405978-.348692 6.236613-.747198C5.84807-1.673724 5.180573-3.227895 4.951432-3.825654C5.628892-4.523039 6.674969-5.708593 6.993773-5.987547C7.28269-6.22665 7.66127-6.465753 8.259029-6.495641C8.388543-6.505604 8.478207-6.505604 8.478207-6.694894C8.478207-6.704857 8.478207-6.804483 8.348692-6.804483C8.049813-6.804483 7.721046-6.774595 7.412204-6.774595C7.043587-6.774595 6.665006-6.804483 6.306351-6.804483C6.246575-6.804483 6.117061-6.804483 6.117061-6.60523C6.117061-6.535492 6.166874-6.505604 6.236613-6.495641C6.326276-6.485679 6.635118-6.465753 6.635118-6.1868C6.635118-6.047323 6.525529-5.917808 6.445828-5.828144L4.83188-4.094645Z'/>
<path id='g1-100' d='M5.140722-6.804483C5.140722-6.814446 5.140722-6.914072 5.011208-6.914072C4.861768-6.914072 3.915318-6.824408 3.745953-6.804483C3.666252-6.794521 3.606476-6.744707 3.606476-6.615193C3.606476-6.495641 3.696139-6.495641 3.845579-6.495641C4.323786-6.495641 4.343711-6.425903 4.343711-6.326276L4.313823-6.127024L3.716065-3.765878C3.536737-4.134496 3.247821-4.403487 2.799502-4.403487C1.633873-4.403487 .398506-2.938979 .398506-1.484433C.398506-.547945 .946451 .109589 1.723537 .109589C1.92279 .109589 2.420922 .069738 3.01868-.637609C3.098381-.219178 3.447073 .109589 3.92528 .109589C4.273973 .109589 4.503113-.119552 4.662516-.438356C4.83188-.797011 4.961395-1.404732 4.961395-1.424658C4.961395-1.524284 4.871731-1.524284 4.841843-1.524284C4.742217-1.524284 4.732254-1.484433 4.702366-1.344956C4.533001-.697385 4.353674-.109589 3.945205-.109589C3.676214-.109589 3.646326-.368618 3.646326-.56787C3.646326-.806974 3.666252-.876712 3.706102-1.046077L5.140722-6.804483ZM3.068493-1.185554C3.01868-1.006227 3.01868-.986301 2.86924-.816936C2.430884-.268991 2.022416-.109589 1.743462-.109589C1.24533-.109589 1.105853-.657534 1.105853-1.046077C1.105853-1.544209 1.424658-2.769614 1.653798-3.227895C1.96264-3.815691 2.410959-4.184309 2.809465-4.184309C3.457036-4.184309 3.596513-3.367372 3.596513-3.307597S3.576588-3.188045 3.566625-3.138232L3.068493-1.185554Z'/>
</defs>
<g id='page1' transform='matrix(1.5 0 0 1.5 0 0)'>
<use x='188.888136' y='29.299444' xlink:href='#g1-100'/>
<use x='194.073568' y='30.793825' xlink:href='#g3-50'/>
<use x='198.542938' y='29.299444' xlink:href='#g2-40'/>
<use x='202.417311' y='29.299444' xlink:href='#g1-88'/>
<use x='211.452867' y='29.299444' xlink:href='#g2-41'/>
<use x='218.094573' y='29.299444' xlink:href='#g2-61'/>
<use x='228.610653' y='29.299444' xlink:href='#g1-83'/>
<use x='235.293915' y='29.299444' xlink:href='#g1-100'/>
<use x='240.479348' y='30.793825' xlink:href='#g3-49'/>
<use x='244.948718' y='29.299444' xlink:href='#g2-40'/>
<use x='248.823091' y='29.299444' xlink:href='#g1-88'/>
<use x='257.858647' y='29.299444' xlink:href='#g2-41'/>
<use x='261.733021' y='29.299444' xlink:href='#g1-83'/>
<use x='268.416283' y='25.185948' xlink:href='#g0-0'/>
<use x='274.642962' y='25.185948' xlink:href='#g3-49'/>
</g>
</svg>