<?xml version='1.0' encoding='UTF-8'?>
<!-- This file was generated by dvisvgm 3.2 -->
<svg version='1.1' xmlns='http://www.w3.org/2000/svg' xmlns:xlink='http://www.w3.org/1999/xlink' width='64.859639pt' height='18.408708pt' viewBox='317.804611 30.84343 64.859639 18.408708'>
<defs>
<path id='g3-40' d='M2.475716-5.230386C1.150685-4.29589 .801993-2.817435 .801993-1.750436C.801993-.767123 1.094894 .760149 2.475716 1.736488C2.531507 1.736488 2.615193 1.736488 2.615193 1.652802C2.615193 1.610959 2.594271 1.597011 2.545455 1.548194C1.617933 .711333 1.276214-.474222 1.276214-1.743462C1.276214-3.626401 1.994521-4.546949 2.566376-5.063014C2.594271-5.090909 2.615193-5.111831 2.615193-5.1467C2.615193-5.230386 2.531507-5.230386 2.475716-5.230386Z'/>
<path id='g3-41' d='M.627646-5.230386C.578829-5.230386 .495143-5.230386 .495143-5.1467C.495143-5.111831 .516065-5.090909 .557908-5.042092C1.157659-4.491158 1.827148-3.549689 1.827148-1.750436C1.827148-.292902 1.373848 .808966 .620672 1.492403C.502117 1.610959 .495143 1.617933 .495143 1.652802S.516065 1.736488 .585803 1.736488C.669489 1.736488 1.332005 1.276214 1.792279 .404483C2.099128-.174346 2.30137-.927522 2.30137-1.743462C2.30137-2.726775 2.008468-4.254047 .627646-5.230386Z'/>
<path id='g1-105' d='M2.259527-4.358655C2.259527-4.470237 2.175841-4.623661 1.980573-4.623661C1.792279-4.623661 1.590037-4.442341 1.590037-4.2401C1.590037-4.121544 1.680697-3.975093 1.868991-3.975093C2.071233-3.975093 2.259527-4.170361 2.259527-4.358655ZM.836862-.81594C.808966-.72528 .774097-.641594 .774097-.523039C.774097-.195268 1.053051 .069738 1.436613 .069738C2.133998 .069738 2.440847-.892653 2.440847-.99726C2.440847-1.08792 2.350187-1.08792 2.329265-1.08792C2.231631-1.08792 2.224658-1.046077 2.196762-.969365C2.036364-.411457 1.729514-.125529 1.457534-.125529C1.318057-.125529 1.283188-.216189 1.283188-.369614C1.283188-.530012 1.332005-.662516 1.39477-.81594C1.464508-1.004234 1.54122-1.192528 1.617933-1.373848C1.680697-1.54122 1.931756-2.175841 1.959651-2.259527C1.980573-2.329265 2.001494-2.412951 2.001494-2.48269C2.001494-2.810461 1.72254-3.075467 1.338979-3.075467C.648568-3.075467 .327771-2.127024 .327771-2.008468C.327771-1.917808 .425405-1.917808 .446326-1.917808C.54396-1.917808 .550934-1.952677 .571856-2.02939C.753176-2.629141 1.060025-2.880199 1.318057-2.880199C1.429639-2.880199 1.492403-2.824408 1.492403-2.636115C1.492403-2.475716 1.45056-2.371108 1.276214-1.93873L.836862-.81594Z'/>
<path id='g2-61' d='M6.844334-3.257783C6.993773-3.257783 7.183064-3.257783 7.183064-3.457036S6.993773-3.656289 6.854296-3.656289H.886675C.747198-3.656289 .557908-3.656289 .557908-3.457036S.747198-3.257783 .896638-3.257783H6.844334ZM6.854296-1.325031C6.993773-1.325031 7.183064-1.325031 7.183064-1.524284S6.993773-1.723537 6.844334-1.723537H.896638C.747198-1.723537 .557908-1.723537 .557908-1.524284S.747198-1.325031 .886675-1.325031H6.854296Z'/>
<path id='g0-11' d='M4.752179-2.351183C4.752179-3.915318 3.825654-4.403487 3.088418-4.403487C1.723537-4.403487 .408468-2.978829 .408468-1.574097C.408468-.647572 1.006227 .109589 2.022416 .109589C2.650062 .109589 3.367372-.119552 4.124533-.727273C4.254047-.199253 4.582814 .109589 5.031133 .109589C5.559153 .109589 5.867995-.438356 5.867995-.597758C5.867995-.667497 5.808219-.697385 5.748443-.697385C5.678705-.697385 5.648817-.667497 5.618929-.597758C5.439601-.109589 5.080946-.109589 5.061021-.109589C4.752179-.109589 4.752179-.886675 4.752179-1.125778C4.752179-1.334994 4.752179-1.354919 4.851806-1.474471C5.788294-2.650062 5.997509-3.805729 5.997509-3.815691C5.997509-3.835616 5.987547-3.915318 5.877958-3.915318C5.778331-3.915318 5.778331-3.88543 5.728518-3.706102C5.549191-3.078456 5.220423-2.321295 4.752179-1.733499V-2.351183ZM4.084682-.986301C3.20797-.219178 2.440847-.109589 2.042341-.109589C1.444583-.109589 1.145704-.557908 1.145704-1.195517C1.145704-1.683686 1.404732-2.759651 1.723537-3.267746C2.191781-3.995019 2.729763-4.184309 3.078456-4.184309C4.064757-4.184309 4.064757-2.879203 4.064757-2.102117C4.064757-1.733499 4.064757-1.155666 4.084682-.986301Z'/>
<path id='g0-12' d='M5.728518-5.668742C5.728518-6.41594 5.180573-7.033624 4.373599-7.033624C3.795766-7.033624 3.516812-6.874222 3.16812-6.615193C2.620174-6.216687 2.072229-5.250311 1.882939-4.493151L.298879 1.833126C.288917 1.872976 .33873 1.932752 .418431 1.932752S.52802 1.912827 .537983 1.882939L1.235367-.86675C1.424658-.268991 1.863014 .099626 2.590286 .099626S4.064757-.249066 4.513076-.687422C4.991283-1.145704 5.310087-1.783313 5.310087-2.520548C5.310087-3.237858 4.941469-3.755915 4.582814-4.004981C5.160648-4.333748 5.728518-4.951432 5.728518-5.668742ZM3.935243-4.014944C3.805729-3.965131 3.696139-3.945205 3.457036-3.945205C3.317559-3.945205 3.118306-3.935243 3.01868-3.985056C3.038605-4.084682 3.39726-4.064757 3.506849-4.064757C3.716065-4.064757 3.805729-4.064757 3.935243-4.014944ZM5.17061-5.897883C5.17061-5.200498 4.79203-4.483188 4.273973-4.174346C4.004981-4.273973 3.805729-4.293898 3.506849-4.293898C3.297634-4.293898 2.739726-4.303861 2.739726-3.975093C2.729763-3.696139 3.247821-3.726027 3.427148-3.726027C3.795766-3.726027 3.945205-3.73599 4.244085-3.855542C4.622665-3.496887 4.672478-3.188045 4.682441-2.729763C4.702366-2.15193 4.463263-1.404732 4.184309-1.016189C3.795766-.478207 3.128269-.119552 2.560399-.119552C1.803238-.119552 1.424658-.697385 1.424658-1.404732C1.424658-1.504359 1.424658-1.653798 1.474471-1.843088L2.11208-4.363636C2.331258-5.220423 3.048568-6.804483 4.244085-6.804483C4.821918-6.804483 5.17061-6.495641 5.17061-5.897883Z'/>
</defs>
<g id='page1' transform='matrix(1.5 0 0 1.5 0 0)'>
<use x='211.580824' y='29.299444' xlink:href='#g0-12'/>
<use x='220.509086' y='29.299444' xlink:href='#g2-61'/>
<use x='231.025166' y='29.299444' xlink:href='#g0-12'/>
<use x='237.186095' y='25.185948' xlink:href='#g1-105'/>
<use x='240.502941' y='29.299444' xlink:href='#g0-11'/>
<use x='246.87606' y='31.098271' xlink:href='#g3-40'/>
<use x='249.989403' y='31.098271' xlink:href='#g1-105'/>
<use x='252.80813' y='31.098271' xlink:href='#g3-41'/>
</g>
</svg>